<?xml version="1.0" encoding="utf-8"?>
<!-- Generator: Adobe Illustrator 21.0.0, SVG Export Plug-In . SVG Version: 6.00 Build 0)  -->
<svg version="1.1" id="Layer_1" xmlns="http://www.w3.org/2000/svg" xmlns:xlink="http://www.w3.org/1999/xlink" x="0px" y="0px"
	 viewBox="0 0 157 104.2" style="enable-background:new 0 0 157 104.2;" xml:space="preserve">
<style type="text/css">
	.st0{fill:#EA5B48;stroke:#754D25;stroke-width:2;stroke-miterlimit:10;}
	.st1{fill:#FFFFFF;}
	.st2{fill:#EA5B48;}
</style>
<g>
	<path class="st0" d="M156,55.3v40c0,4.4-3.5,7.9-7.9,7.9H8.9c-4.4,0-7.9-3.5-7.9-7.9v-40c0-4.4,3.6-7.9,7.9-7.9h139.2
		C152.5,47.4,156,50.9,156,55.3z"/>
	<g>
		<path class="st1" d="M36.1,83.6l-0.7,0.1l-0.6-0.3l-0.3-0.5l0.1-0.7v-1.1l0.2-0.7l0.1-0.7V78l-0.1-0.6L34.6,77l-0.1-0.7l0.1-1.6
			l-0.1-0.6v-1.8l0.1-1.3v-0.5V70l-0.1-1.7l0.1-1.3l-0.1-0.5l0.1-1.8L34.5,64l0.2-0.5l0.1-0.5v-1.5l-0.4-0.9l-0.7-0.3l-0.6,0.1
			l-0.6-0.1h-0.6L31,60.2l-0.9,0.1L29.6,60l-0.7-0.2h-0.5l-0.7,0.1l-1.1,0.3H26l-0.5,0.1l-0.6-0.1l-0.5,0.4L24,61.2l-0.1,1.1v0.6
			l-0.1,0.6l-0.1,2.9l-0.2,1.3v0.5l-0.1,0.7l0.2,0.9l0.1,0.9v0.7V72v0.6v0.7l-0.3,0.5l-0.3,0.7l0,0.5L23,75.7v0.7l-0.4,2.4l-0.4,1.1
			v0.6L22.1,81l-0.2,0.5L21.8,82l-0.3,0.3L21,83.2l-0.5,0.3l-0.7,0.1l-0.2,0.3l0.2,0.7v1v0.8v1.2l-0.2,0.5l-0.1,1.1l0.3,0.5l0.5,0.4
			l0.6-0.3l0.7-0.6l0.2-0.4v-0.6l-0.4-1.1l-0.1-0.7l0.2-0.5l0.5-0.3h0.5l0.9-0.1l2.6,0.2h0.6h0.5h0.5l0.7-0.1l0.5-0.2l1.7,0.1
			l0.7-0.1h0.5l1.1,0.2l1.1-0.2l0.6,0.4l0.4,0.4l-0.1,1.3V89l0.2,0.7l0.6,0.3l0.6-0.3l0.4-0.6v-0.7l0.1-0.9v-1.2v-1.8l-0.1-0.6
			L36.1,83.6z M32.2,74.1l-0.1,2.2l0.1,0.8l-0.1,1.4l0.1,0.9L32.1,80v0.9l0.1,0.9v0.6l0.1,0.5L32,83.4l-0.6,0.3l-2.8,0.1l-0.9-0.1
			l-1.2,0.1H26l-0.7-0.1l-0.5,0.1l-0.5-0.1l-0.5-0.2V83l0.2-0.5l0.1-0.6l0.4-1.1l0.6-3.5l0.3-0.5l0.4-0.5v-0.6l0.1-4.2l-0.1-1.1
			l0.1-0.5l0.5-4.8l0.4-0.6v-0.6l-0.3-0.6l0.2-0.5l0.4-0.3h0.5l0.7-0.1l1.1-0.1L30,62h0.6l0.5,0.3l0.6,0.4l0.4,0.5v0.6l0.4,1.9
			l0.3,0.6V67l-0.3,0.4l-0.1,5.2l-0.2,0.5l-0.1,0.6L32.2,74.1z"/>
		<polygon class="st1" points="43.4,62.7 44,62.4 45.2,62.2 46.4,62.2 47,62.3 47.6,62.2 48.2,62.2 48.8,62.3 49.7,62.4 50.6,62 
			51,61.5 50.9,61 50.6,60.6 50.1,60.3 49.5,60.2 47.7,60.3 44.8,60.2 43,60.3 42.5,60.2 42,60.3 41.3,60.2 40.8,60.4 40.5,61.1 
			40.6,61.6 40.6,62.2 40.8,62.8 40.8,63.3 40.8,63.8 40.8,64.3 40.7,65.8 40.7,66.6 40.7,67.3 40.8,68.4 40.8,68.9 40.8,69.6 
			40.7,71.3 40.8,71.9 40.7,72.5 40.7,73.2 40.6,73.8 40.6,74.8 40.6,75.4 40.8,76.1 40.7,76.7 40.6,77.1 40.7,77.8 40.6,78.3 
			40.6,78.9 40.7,80.7 40.6,84.9 41,85.4 41.6,85.7 42.7,85.8 43.8,85.6 44.4,85.7 44.9,85.6 45.5,85.7 46.6,85.7 47.2,85.7 
			47.8,85.7 48.4,85.8 49.5,85.8 50.1,85.9 50.6,85.5 50.9,85 50.9,84.4 50.6,83.9 50,83.7 49.4,83.7 48.8,83.7 48.3,83.8 
			47.7,83.8 46.4,83.8 45.8,83.8 45.2,83.6 44,83.6 43.4,83.3 43.1,82.5 43,81.8 43.2,78.1 43.4,77.5 43.8,77 43.8,76.4 43.4,75.7 
			43.3,75.1 43.1,74.5 43.4,74 43.9,73.6 44.5,73.7 45.6,73.7 46.2,73.6 46.8,73.7 48,73.6 48.5,73.8 49.6,73.7 50.2,73.3 
			50.5,72.6 50.2,72 49.6,71.7 49,71.8 48,71.7 47,71.7 46,71.7 45,71.7 44.5,71.7 44,71.7 43.3,71.5 43.1,70.8 43.1,70.2 43,69.7 
			43.1,69 43,67.3 43.1,66.8 43,65.6 43.1,63.5 		"/>
		<polygon class="st1" points="69.9,83.9 69.7,83.4 69.3,83.3 68.8,83.1 68.8,83.1 68.8,82.1 68.6,81 68.3,80.2 68.2,78.8 
			68.5,77.7 68.8,77 68.8,76.3 68.4,75.7 68.3,75.2 68.1,74.6 68.6,74 68.8,72.9 68.8,72.4 68.5,71.8 68.2,71.1 68.2,70.6 68.2,70 
			68.1,69 68.1,68.5 68.4,67.5 68.8,67 68.8,65.2 68.8,64.6 68.8,62.2 68.8,61.7 68.8,61.1 68.1,60.6 67.3,60.3 66.6,60.2 66,60.6 
			65.8,61.1 65.7,62.4 65.8,67.1 65.7,68.6 65.7,69.4 65.7,70.7 65.4,71.3 64.9,71.8 64.2,71.8 63.7,71.7 63.2,71.6 62.6,71.6 
			62,71.6 61.2,71.6 60.4,71.7 59.8,71.8 59.2,71.8 58.6,71.6 58,71.2 57.7,70.7 57.8,64.3 57.7,63.7 57.8,62.7 57.7,62.1 
			57.7,61.4 57.6,60.9 57.3,60.5 56.6,60.2 56,60.3 55.5,60.5 55.2,61.1 55.5,61.7 55.8,62.1 55.8,62.7 55.8,63.2 55.8,64.3 
			55.7,68.2 55.5,69.6 55.4,71.4 55.3,72.5 55.4,73.1 55.3,75.3 55.3,75.7 55.4,77.8 55.3,78.3 55.6,80.6 55.8,81.2 55.8,81.9 
			55.7,82.6 55.4,84.8 55.7,85.4 56.3,85.8 56.9,85.8 57.4,85.4 57.7,84.8 57.8,82.5 57.7,81.9 57.8,80.7 57.7,80.1 57.8,79.1 
			57.8,78.5 57.8,77.4 57.8,76.9 57.8,76.2 57.8,75 57.8,74.6 58,74 58.6,73.7 59.2,73.6 62.2,73.5 63.2,73.6 64.3,73.5 64.8,73.6 
			65.4,73.9 65.7,74.5 65.7,79.3 65.8,80.1 65.8,81.1 65.7,81.6 65.7,82.2 65.7,83.4 65.8,84.6 65.9,85 66.2,85.4 66.9,85.7 
			67.5,85.7 67.6,85.7 67.9,86.1 68,86.9 67.7,87.5 67.3,88 66.9,88.5 66.9,89.1 67,89.8 67.6,89.8 68.2,89.7 68.5,89.3 68.9,88.8 
			69.3,88.3 69.5,87.8 69.7,87.2 69.9,86.7 70,86.2 70.1,85.6 70.1,84.7 		"/>
		<polygon class="st1" points="84,59.8 83.5,59.8 82.9,60.1 82.1,60.1 81.5,60.2 80.7,60.2 80.1,60.3 77.8,60.2 77.3,60.1 
			76.7,60.3 75.6,60.2 75,60.6 74.7,61.2 74.7,62 74.7,64.8 74.7,65.8 74.7,66.5 74.7,67 74.6,67.6 74.7,68.6 74.7,69 74.8,69.7 
			74.8,70.3 74.7,71 74.8,72.9 74.7,73.7 74.8,79.4 74.8,80.2 74.8,81.7 74.8,82.3 74.8,82.8 74.7,83.3 74.7,83.9 74.8,84.5 
			74.8,85 75.2,85.4 76.1,85.7 77,85.4 77.2,84.9 77.1,84.4 77.1,83.3 77.1,82.7 77.1,81.6 77.1,81 77,78.1 77.1,77.5 77.1,75.9 
			77.1,75.3 77.1,74.7 77.1,74.2 77.1,73.5 77.5,73 77.8,72.4 77.8,71.2 77.5,70.7 77.3,70.2 77.2,67.2 77.5,66.6 77.8,66 77.8,63 
			77.7,62.5 78.2,62.2 79.3,62.3 79.8,62.4 80.3,62.8 81.2,62.8 81.9,62.4 82.8,62.4 83.4,62.4 84,62.2 84.7,61.9 85,61.2 
			84.7,60.4 		"/>
		<polygon class="st1" points="99.5,74.4 99.8,73.9 99.8,71.4 99.5,70.9 99.4,70.3 99.2,67.7 98.9,66 98.6,65.4 98.5,64.9 
			98.4,64.3 98.2,63.8 97.4,62.2 97.1,61.7 96.7,61.4 96.3,61 95.4,60.4 94.8,60.3 94.2,60.1 93.8,60 90.8,60 90.3,60.1 89.7,60.3 
			88.1,61.1 87.9,61.7 87.9,62.4 88.2,62.8 88.7,63 89.9,62.5 90.4,62.3 91,62.1 92.3,61.9 93.8,62.2 94.8,62.6 95.2,63 95.8,64 
			96.2,65.2 96.3,65.7 96.9,70.4 96.8,70.9 96.6,71.5 96,71.8 95.5,71.8 94.9,71.8 94,71.7 92.6,71.8 92,71.8 90.9,71.8 90.4,71.7 
			89.8,72 89.5,72.8 89.8,73.4 90.7,73.7 91.5,73.6 92.1,73.8 92.6,73.8 94.3,73.8 94.8,73.8 96,73.7 96.6,74 96.8,74.5 96.8,75.9 
			96.7,76.4 96.6,79.3 96.2,81.1 96,81.6 95.8,82 95.5,82.5 95.2,83 94.8,83.3 94.3,83.5 93.8,83.8 93.4,83.9 92.4,84.1 91.6,84 
			91,83.9 90.4,83.9 89.8,83.7 88.7,83.1 88.1,83 87.5,83.4 87.5,84.3 87.8,85 88.3,85.2 88.8,85.4 89.4,85.7 91,86 92.4,86.1 
			93.3,86 93.8,85.8 94.4,85.9 94.9,85.7 95.5,85.4 95.9,85.2 97.2,84.1 97.6,83.6 98.1,82.4 98.4,81.4 98.6,80.9 99,79.1 99,78.5 
			99.2,78 99.1,76.8 99.2,76.2 99.2,75.6 99.5,75 		"/>
		<polygon class="st1" points="114.7,74.4 114.8,73.9 114.8,71.4 114.8,70.9 114.7,70.3 114.5,67.7 114.2,66 113.9,65.4 113.8,64.9 
			113.7,64.3 113.5,63.8 112.7,62.2 112.3,61.7 112,61.4 111.5,61 110.7,60.4 110.1,60.3 109.5,60.1 109.1,60 106.1,60 105.5,60.1 
			105,60.3 103.4,61.1 103.1,61.7 103.2,62.4 103.5,62.8 104,63 105.2,62.5 105.7,62.3 106.3,62.1 107.6,61.9 109.1,62.2 110,62.6 
			110.4,63 111,64 111.5,65.2 111.6,65.7 112.2,70.4 112.1,70.9 111.8,71.5 111.2,71.8 110.8,71.8 110.2,71.8 109.2,71.7 
			107.8,71.8 107.3,71.8 106.1,71.8 105.7,71.7 105.1,72 104.7,72.8 105.1,73.4 105.9,73.7 106.7,73.6 107.3,73.8 107.9,73.8 
			109.6,73.8 110.1,73.8 111.3,73.7 111.9,74 112.1,74.5 112.1,75.9 112,76.4 111.8,79.3 111.4,81.1 111.3,81.6 111,82 110.8,82.5 
			110.4,83 110,83.3 109.6,83.5 109.1,83.8 108.6,83.9 107.7,84.1 106.8,84 106.2,83.9 105.7,83.9 105.1,83.7 103.9,83.1 103.3,83 
			102.8,83.4 102.7,84.3 103.1,85 103.5,85.2 104.1,85.4 104.6,85.7 106.2,86 107.7,86.1 108.6,86 109.1,85.8 109.6,85.9 
			110.2,85.7 110.7,85.4 111.1,85.2 112.5,84.1 112.8,83.6 113.4,82.4 113.7,81.4 113.8,80.9 114.3,79.1 114.3,78.5 114.4,78 
			114.4,76.8 114.5,76.2 114.5,75.6 114.7,75 		"/>
		<polygon class="st1" points="131.9,74.7 131.9,74.2 131.9,73 131.8,70.9 131.9,70.3 131.8,69.8 131.8,69.3 131.8,68.7 131.8,68.1 
			131.9,65.8 131.8,65.2 131.8,61.2 131.6,60.6 130.9,60.2 129.8,60.3 129.3,60.2 128.7,60.2 128.1,60.2 127.6,60.3 125.9,60.2 
			125.3,60.4 124.8,60.8 124.2,60.8 123.7,60.4 123.1,60.4 121.9,60.3 121.3,60.6 121.1,61.2 121,61.7 121,62.7 120.8,65.9 
			120.8,66.5 120.8,67.1 120.8,67.7 120.8,68.4 120.8,74 120.8,74.6 120.9,75.1 120.8,75.8 120.8,76.5 120.3,77.1 120.1,78.3 
			119.9,79.6 119.4,81.2 118.5,82.6 118.3,82.9 117.8,83.3 117.8,83.6 117.8,84.1 117.8,84.6 117.6,85.2 118,85.7 118.5,85.8 
			118.9,85.6 119.4,85.1 119.9,84.9 120.7,84 120.9,83.5 121.1,83 121.4,82.4 121.6,81.8 121.8,81.3 121.9,80.6 122.4,78.3 
			122.3,77.9 122.4,77.2 122.5,76.6 122.6,75.5 122.6,74.9 122.7,74.3 122.8,73.7 122.8,73.1 123,70.8 123.4,69.1 123.8,68.5 
			123.8,67.9 123.6,66.6 123.4,66.1 123.4,65.4 123.4,63.8 123.5,63.1 123.8,62.5 124.4,62.3 125,62.3 125.6,62.2 126.1,62 
			126.7,61.8 127.3,61.8 127.9,62 128.5,62.1 129.2,62.6 129.4,63.1 129.7,65.5 129.8,66 129.8,67.3 129.7,68.4 129.6,69.9 
			129.5,70.4 129.5,71 129.5,72 129.4,72.6 129.5,73.1 129.4,73.7 129.5,74.9 129.6,76.7 129.8,77.3 129.8,77.8 129.6,78.4 
			129.5,79.5 129.4,80.2 129.5,80.7 129.4,81.3 129.5,83.7 129.4,84.6 129.8,85.4 130.3,85.7 130.9,85.7 131.5,85.4 131.8,84.9 
			131.8,83.6 131.9,82.8 131.8,82 131.9,80.3 131.8,79.3 131.9,77.9 131.8,77.3 131.9,76.8 		"/>
	</g>
	<path class="st2" d="M82.8,38.5l-0.9-0.1l-1.1-0.3l-0.5-0.6l-0.1-0.9v-1L80,34l0.1-2.3l-0.4-0.8l-0.9-0.3l-1-0.1l-0.9,0.2l-1-0.1
		L74,30.4l-1.9,0.1h-0.9l-0.8-0.1h-0.8l-1,0.2l-0.9-0.1l-1-0.5l-0.3-1l-0.1-1.6v-1l-0.1-1v-0.8l0.3-1.4l0.3-1.3l0.4-1l0.3-0.8l1-2.3
		l0.3-1l0.3-0.8l0.4-0.7l0.5-0.8l0.3-0.8l0.3-0.9l0.7-1.6l0.6-1.7l0.5-0.8L72.8,8l1.8-4.1L75,3.1l0.2-0.8l0.3-0.8l0.8-0.8l1.1-0.4h1
		L79.2,0L80,0.3l1.8-0.1l0.6,0.4l0.2,0.9l-0.2,0.8L81.9,3l-0.6,1.7L81,5.5l-1.4,3.4l-1.1,2.4l-0.2,0.9l-0.4,0.9L77.6,14l-0.4,0.7
		L77,15.4l-1,2.1l-0.4,1.2l-0.8,1.6l-0.3,0.9l-0.2,1L73.8,23l0.1,1l0.8,0.2l1.9,0.1l1,0.1l1.1-0.2l0.8-0.3l0.6-1.1l-0.2-2l0.1-1.2
		l0.2-0.9L80,17.5V16l0.2-1.5l-0.1-1l0.5-0.8l1.2-0.5l1.5-0.1h0.8l1-0.1l1,0.5l0.3,1.5l0.1,0.7l0.1,1.3l-0.1,1.7v4.8l0.4,1.4
		l0.7,0.4l1-0.3l0.8,0.2l0.7,0.3l0.5,1l0.1,1.3l-0.1,2.3l-0.5,1l-0.7,0.3l-1.2,0.1l-1.3,0.2l-0.3,1l0.1,0.9l-0.2,1.8l0.2,1.9l-0.1,1
		l-0.3,0.8l-0.8,0.4H82.8z"/>
</g>
</svg>
