<?xml version="1.0" encoding="utf-8"?>
<!-- Generator: Adobe Illustrator 21.0.0, SVG Export Plug-In . SVG Version: 6.00 Build 0)  -->
<svg version="1.1" id="Layer_1" xmlns="http://www.w3.org/2000/svg" xmlns:xlink="http://www.w3.org/1999/xlink" x="0px" y="0px"
	 viewBox="0 0 157 104.6" style="enable-background:new 0 0 157 104.6;" xml:space="preserve">
<style type="text/css">
	.st0{fill:#EA5B48;}
	.st1{fill:#EA5B48;stroke:#754D25;stroke-width:2;stroke-miterlimit:10;}
	.st2{fill:#FFFFFF;}
</style>
<g>
	<path class="st0" d="M78.4,38.9l-0.8-0.4l-0.5-0.9l-0.2-1v-0.7l0.2-3L77,32.2l0.1-1l-0.1-1l0.1-1L77,26.5l-0.1-0.9l0.1-1.7l-0.1-1
		l0.2-2.5l-0.1-1l0.1-1L77,17.5l0.1-1.4v-2.7l0.1-1.6v-0.9l0.2-1.7L77.3,9l-0.5,0.2l-1.2,1.4l-1,1.4l-0.7,0.7l-1,1.4L72,14.5
		l-0.9-0.3l-0.9-0.6l-1.3-1.2l-0.7-0.5l-0.4-1l0.3-1l0.6-0.5l0.6-0.6L69.8,8l0.6-0.7L71,6.6L71.6,6l0.7-0.9l0.6-0.5l0.5-0.9L74,3.2
		l1.2-1.3l0.6-0.8l1-0.7l1.1-0.3l0.7,0h2.7L82,0.2L82.9,0l1,0.5l0.3,1l0.1,0.9l-0.2,1l0.2,1.4l-0.1,0.7l0.1,6l-0.1,0.9l0.1,0.8
		L84.2,15l0,1l0.1,0.9l0.1,2.8l-0.1,0.7l0.1,2.6l-0.1,0.9l0.1,1.9v0.9l-0.2,0.8l0.2,1.9l-0.1,0.9v0.9l0.1,1l-0.1,2.7l0.2,1.2
		l-0.2,1.3l-0.4,1L83,38.8l-1.8,0.1l-0.9-0.1L79.4,39L78.4,38.9z"/>
	<path class="st1" d="M156,55.7v40c0,4.4-3.5,7.9-7.9,7.9H8.9c-4.4,0-7.9-3.5-7.9-7.9v-40c0-4.4,3.6-7.9,7.9-7.9h139.2
		C152.5,47.7,156,51.3,156,55.7z"/>
	<g>
		<path class="st2" d="M36.1,83.9L35.4,84l-0.6-0.3l-0.3-0.5l0.1-0.7v-1.1l0.2-0.7l0.1-0.7v-1.7l-0.1-0.6l-0.2-0.4l-0.1-0.7l0.1-1.6
			l-0.1-0.6v-1.8l0.1-1.2v-0.5v-0.5l-0.1-1.7l0.1-1.3l-0.1-0.5l0.1-1.9l-0.1-0.7l0.2-0.5l0.1-0.5v-1.5l-0.4-0.9l-0.7-0.3l-0.6,0.1
			l-0.6-0.1h-0.6L31,60.5l-0.9,0.1l-0.5-0.3l-0.7-0.2h-0.5l-0.7,0.1l-1.1,0.3H26l-0.5,0.1l-0.6-0.1l-0.5,0.4L24,61.5l-0.1,1.1v0.6
			l-0.1,0.6l-0.1,2.9L23.5,68v0.5l-0.1,0.7l0.2,0.9l0.1,0.9v0.7v0.6v0.6v0.7l-0.3,0.5l-0.3,0.7L23,75.3L22.9,76v0.7l-0.4,2.4
			l-0.4,1.1v0.6l-0.2,0.5l-0.2,0.5l-0.1,0.5l-0.3,0.3l-0.5,0.9l-0.5,0.3L19.7,84l-0.1,0.3l0.2,0.7v1v0.8V88l-0.2,0.5l-0.1,1.1
			l0.3,0.5l0.5,0.4l0.6-0.3l0.7-0.6l0.2-0.4v-0.6l-0.4-1.1l-0.1-0.7l0.2-0.5L22,86h0.5l0.9-0.1l2.6,0.2h0.6h0.5h0.5l0.7-0.1l0.5-0.2
			l1.7,0.1l0.7-0.1h0.5l1.1,0.2l1.1-0.2l0.6,0.4l0.4,0.4L34.8,88v1.5l0.2,0.7l0.6,0.3l0.6-0.3l0.4-0.6v-0.7l0.1-0.9v-1.2V85
			l-0.1-0.7L36.1,83.9z M32.2,74.4l-0.1,2.2l0.1,0.8l-0.1,1.4l0.1,0.9l-0.1,0.6v0.9l0.1,0.9v0.6l0.1,0.5L32,83.7L31.3,84l-2.7,0.1
			L27.7,84l-1.2,0.1H26L25.3,84l-0.5,0.1L24.3,84l-0.5-0.2v-0.5l0.2-0.5l0.1-0.6l0.4-1.1l0.6-3.5l0.3-0.5l0.4-0.5V76l0.1-4.2
			l-0.1-1.1l0.1-0.5l0.5-4.8l0.4-0.6v-0.6l-0.3-0.6l0.2-0.5l0.4-0.3h0.5l0.7-0.1l1.1-0.1l0.6-0.3h0.6l0.5,0.3l0.6,0.4l0.4,0.5v0.6
			l0.4,1.9l0.3,0.6V67l-0.3,0.4l-0.1,5.2l-0.2,0.5l-0.1,0.6L32.2,74.4z"/>
		<polygon class="st2" points="43.4,63 44,62.7 45.2,62.6 46.4,62.5 47,62.7 47.6,62.6 48.2,62.6 48.8,62.6 49.7,62.7 50.6,62.4 
			51,61.9 50.9,61.3 50.6,60.9 50.1,60.6 49.5,60.6 47.7,60.6 44.8,60.5 43,60.7 42.5,60.5 42,60.7 41.3,60.5 40.8,60.8 40.5,61.4 
			40.6,61.9 40.6,62.5 40.8,63.2 40.8,63.6 40.8,64.2 40.8,64.7 40.7,66.1 40.7,67 40.7,67.6 40.8,68.7 40.8,69.3 40.8,70 
			40.7,71.6 40.8,72.2 40.7,72.9 40.7,73.5 40.6,74.1 40.6,75.1 40.6,75.8 40.8,76.5 40.7,77 40.6,77.5 40.7,78.2 40.6,78.7 
			40.6,79.3 40.7,81.1 40.6,85.2 41,85.8 41.6,86.1 42.7,86.1 43.8,86 44.4,86.1 44.9,86 45.5,86.1 46.6,86 47.2,86.1 47.8,86 
			48.4,86.1 49.5,86.1 50.1,86.2 50.6,85.9 50.9,85.3 50.9,84.8 50.6,84.2 50,84 49.4,84.1 48.8,84 48.3,84.2 47.7,84.1 46.4,84.1 
			45.8,84.1 45.2,84 44,84 43.4,83.7 43.1,82.9 43,82.2 43.2,78.5 43.4,77.8 43.8,77.4 43.8,76.7 43.4,76.1 43.3,75.4 43.1,74.9 
			43.4,74.4 43.9,74 44.5,74.1 45.6,74 46.2,73.9 46.8,74 48,74 48.5,74.1 49.6,74 50.2,73.7 50.5,73 50.2,72.3 49.6,72.1 49,72.1 
			48,72.1 47,72 46,72.1 45,72 44.5,72.1 44,72.1 43.3,71.8 43.1,71.1 43.1,70.5 43,70 43.1,69.4 43,67.7 43.1,67.1 43,66 
			43.1,63.9 		"/>
		<polygon class="st2" points="69.9,84.3 69.7,83.8 69.3,83.6 68.8,83.5 68.8,83.5 68.8,82.5 68.6,81.3 68.3,80.5 68.2,79.1 
			68.5,78 68.8,77.3 68.8,76.7 68.4,76.1 68.3,75.6 68.1,74.9 68.6,74.4 68.8,73.2 68.8,72.7 68.5,72.1 68.2,71.5 68.2,70.9 
			68.2,70.3 68.1,69.4 68.1,68.8 68.4,67.9 68.8,67.4 68.8,65.6 68.8,65 68.8,62.6 68.8,62 68.8,61.5 68.1,60.9 67.3,60.6 
			66.6,60.6 66,61 65.8,61.5 65.7,62.7 65.8,67.5 65.7,69 65.7,69.8 65.7,71 65.4,71.7 64.9,72.1 64.2,72.1 63.7,72.1 63.2,72 
			62.6,72 62,71.9 61.2,72 60.4,72 59.8,72.1 59.2,72.1 58.6,72 58,71.6 57.7,71 57.8,64.7 57.7,64.1 57.8,63.1 57.7,62.4 
			57.7,61.8 57.6,61.2 57.3,60.9 56.6,60.6 56,60.7 55.5,60.9 55.2,61.5 55.5,62.1 55.8,62.5 55.8,63.1 55.8,63.6 55.8,64.7 
			55.7,68.5 55.5,70 55.4,71.8 55.3,72.9 55.4,73.5 55.3,75.6 55.3,76.1 55.4,78.2 55.3,78.7 55.6,81 55.8,81.6 55.8,82.3 
			55.7,82.9 55.4,85.2 55.7,85.7 56.3,86.1 56.9,86.1 57.4,85.7 57.7,85.2 57.8,82.9 57.7,82.3 57.8,81.1 57.7,80.5 57.8,79.5 
			57.8,78.8 57.8,77.8 57.8,77.2 57.8,76.6 57.8,75.4 57.8,74.9 58,74.3 58.6,74 59.2,73.9 62.2,73.8 63.2,74 64.3,73.9 64.8,73.9 
			65.4,74.3 65.7,74.9 65.7,79.7 65.8,80.5 65.8,81.4 65.7,81.9 65.7,82.5 65.7,83.8 65.8,84.9 65.9,85.3 66.2,85.8 66.9,86.1 
			67.5,86.1 67.6,86 67.9,86.5 68,87.3 67.7,87.8 67.3,88.4 66.9,88.8 66.9,89.4 67,90.1 67.6,90.2 68.2,90 68.5,89.6 68.9,89.1 
			69.3,88.7 69.5,88.2 69.7,87.6 69.9,87.1 70,86.6 70.1,86 70.1,85.1 		"/>
		<polygon class="st2" points="84,60.1 83.5,60.1 82.9,60.5 82.1,60.5 81.5,60.6 80.7,60.5 80.1,60.7 77.8,60.6 77.3,60.5 
			76.7,60.6 75.6,60.5 75,60.9 74.7,61.5 74.7,62.3 74.7,65.1 74.7,66.2 74.7,66.9 74.7,67.4 74.6,68 74.7,68.9 74.7,69.4 74.8,70 
			74.8,70.6 74.7,71.4 74.8,73.3 74.7,74.1 74.8,79.8 74.8,80.6 74.8,82.1 74.8,82.6 74.8,83.1 74.7,83.7 74.7,84.3 74.8,84.9 
			74.8,85.4 75.2,85.8 76.1,86.1 77,85.8 77.2,85.3 77.1,84.7 77.1,83.7 77.1,83.1 77.1,82 77.1,81.4 77,78.4 77.1,77.9 77.1,76.2 
			77.1,75.7 77.1,75 77.1,74.5 77.1,73.9 77.5,73.4 77.8,72.7 77.8,71.5 77.5,71.1 77.3,70.5 77.2,67.6 77.5,67 77.8,66.4 
			77.8,63.4 77.7,62.9 78.2,62.6 79.3,62.6 79.8,62.8 80.3,63.1 81.2,63.1 81.9,62.8 82.8,62.8 83.4,62.8 84,62.6 84.7,62.2 
			85,61.6 84.7,60.8 		"/>
		<polygon class="st2" points="99.5,74.7 99.8,74.2 99.8,71.8 99.5,71.3 99.4,70.6 99.2,68.1 98.9,66.4 98.6,65.8 98.5,65.3 
			98.4,64.6 98.2,64.2 97.4,62.5 97.1,62.1 96.7,61.7 96.3,61.4 95.4,60.8 94.8,60.6 94.2,60.5 93.8,60.4 90.8,60.3 90.3,60.5 
			89.7,60.6 88.1,61.5 87.9,62 87.9,62.7 88.2,63.1 88.7,63.3 89.9,62.9 90.4,62.7 91,62.5 92.3,62.3 93.8,62.6 94.8,63 95.2,63.4 
			95.8,64.3 96.2,65.5 96.3,66.1 96.9,70.7 96.8,71.2 96.6,71.8 96,72.1 95.5,72.1 94.9,72.1 94,72.1 92.6,72.1 92,72.1 90.9,72.2 
			90.4,72.1 89.8,72.4 89.5,73.1 89.8,73.7 90.7,74.1 91.5,74 92.1,74.2 92.6,74.1 94.3,74.1 94.8,74.1 96,74.1 96.6,74.4 
			96.8,74.9 96.8,76.2 96.7,76.8 96.6,79.7 96.2,81.5 96,82 95.8,82.4 95.5,82.9 95.2,83.4 94.8,83.7 94.3,83.9 93.8,84.2 
			93.4,84.3 92.4,84.5 91.6,84.4 91,84.3 90.4,84.2 89.8,84.1 88.7,83.5 88.1,83.4 87.5,83.8 87.5,84.7 87.8,85.3 88.3,85.5 
			88.8,85.7 89.4,86 91,86.4 92.4,86.5 93.3,86.4 93.8,86.2 94.4,86.2 94.9,86 95.5,85.7 95.9,85.6 97.2,84.5 97.6,83.9 98.1,82.8 
			98.4,81.8 98.6,81.2 99,79.4 99,78.9 99.2,78.4 99.1,77.1 99.2,76.6 99.2,75.9 99.5,75.4 		"/>
		<polygon class="st2" points="114.7,74.7 114.8,74.2 114.8,71.8 114.8,71.3 114.7,70.6 114.5,68.1 114.2,66.4 113.9,65.8 
			113.8,65.3 113.7,64.6 113.5,64.2 112.7,62.5 112.3,62.1 112,61.7 111.5,61.4 110.7,60.8 110.1,60.6 109.5,60.5 109.1,60.4 
			106.1,60.3 105.5,60.5 105,60.6 103.4,61.5 103.1,62 103.2,62.7 103.5,63.1 104,63.3 105.2,62.9 105.7,62.7 106.3,62.5 
			107.6,62.3 109.1,62.6 110,63 110.4,63.4 111,64.3 111.5,65.5 111.6,66.1 112.2,70.7 112.1,71.2 111.8,71.8 111.2,72.1 
			110.8,72.1 110.2,72.1 109.2,72.1 107.8,72.1 107.3,72.1 106.1,72.2 105.7,72.1 105.1,72.4 104.7,73.1 105.1,73.7 105.9,74.1 
			106.7,74 107.3,74.2 107.9,74.1 109.6,74.1 110.1,74.1 111.3,74.1 111.9,74.4 112.1,74.9 112.1,76.2 112,76.8 111.8,79.7 
			111.4,81.5 111.3,82 111,82.4 110.8,82.9 110.4,83.4 110,83.7 109.6,83.9 109.1,84.2 108.6,84.3 107.7,84.5 106.8,84.4 
			106.2,84.3 105.7,84.2 105.1,84.1 103.9,83.5 103.3,83.4 102.8,83.8 102.7,84.7 103.1,85.3 103.5,85.5 104.1,85.7 104.6,86 
			106.2,86.4 107.7,86.5 108.6,86.4 109.1,86.2 109.6,86.2 110.2,86 110.7,85.7 111.1,85.6 112.5,84.5 112.8,83.9 113.4,82.8 
			113.7,81.8 113.8,81.2 114.3,79.4 114.3,78.9 114.4,78.4 114.4,77.1 114.5,76.6 114.5,75.9 114.7,75.4 		"/>
		<polygon class="st2" points="131.9,75 131.9,74.6 131.9,73.4 131.8,71.3 131.9,70.7 131.8,70.1 131.8,69.6 131.8,69.1 131.8,68.4 
			131.9,66.1 131.8,65.5 131.8,61.6 131.6,61 130.9,60.6 129.8,60.6 129.3,60.5 128.7,60.6 128.1,60.5 127.6,60.6 125.9,60.6 
			125.3,60.8 124.8,61.1 124.2,61.1 123.7,60.8 123.1,60.8 121.9,60.7 121.3,60.9 121.1,61.6 121,62 121,63 120.8,66.3 120.8,66.9 
			120.8,67.5 120.8,68.1 120.8,68.7 120.8,74.3 120.8,75 120.9,75.5 120.8,76.2 120.8,76.8 120.3,77.5 120.1,78.7 119.9,79.9 
			119.4,81.6 118.5,83 118.3,83.3 117.8,83.7 117.8,83.9 117.8,84.4 117.8,85 117.6,85.6 118,86.1 118.5,86.2 118.9,85.9 
			119.4,85.5 119.9,85.2 120.7,84.4 120.9,83.9 121.1,83.3 121.4,82.8 121.6,82.2 121.8,81.7 121.9,81 122.4,78.7 122.3,78.2 
			122.4,77.5 122.5,77 122.6,75.8 122.6,75.3 122.7,74.7 122.8,74 122.8,73.4 123,71.1 123.4,69.5 123.8,68.8 123.8,68.3 123.6,67 
			123.4,66.5 123.4,65.8 123.4,64.2 123.5,63.5 123.8,62.9 124.4,62.6 125,62.7 125.6,62.6 126.1,62.4 126.7,62.1 127.3,62.1 
			127.9,62.3 128.5,62.5 129.2,62.9 129.4,63.4 129.7,65.8 129.8,66.4 129.8,67.6 129.7,68.7 129.6,70.2 129.5,70.8 129.5,71.3 
			129.5,72.3 129.4,72.9 129.5,73.5 129.4,74 129.5,75.3 129.6,77 129.8,77.6 129.8,78.1 129.6,78.8 129.5,79.9 129.4,80.5 
			129.5,81.1 129.4,81.7 129.5,84 129.4,85 129.8,85.7 130.3,86.1 130.9,86 131.5,85.8 131.8,85.2 131.8,84 131.9,83.1 131.8,82.3 
			131.9,80.6 131.8,79.7 131.9,78.2 131.8,77.7 131.9,77.2 		"/>
	</g>
</g>
</svg>
