<?xml version="1.0" encoding="utf-8"?>
<!-- Generator: Adobe Illustrator 21.0.0, SVG Export Plug-In . SVG Version: 6.00 Build 0)  -->
<svg version="1.1" id="Layer_1" xmlns="http://www.w3.org/2000/svg" xmlns:xlink="http://www.w3.org/1999/xlink" x="0px" y="0px"
	 viewBox="0 0 114.9 55.5" style="enable-background:new 0 0 114.9 55.5;" xml:space="preserve">
<style type="text/css">
	.st0{fill:#D68C50;}
	.st1{fill:#FCBB6D;stroke:#754D25;stroke-width:2;stroke-miterlimit:10;}
	.st2{fill:#754D25;}
	.st3{fill:#DD914A;}
	.st4{fill:#E1CBBE;}
	.st5{fill:#FFFFFF;}
</style>
<g>
	<ellipse class="st3" cx="61.5" cy="32.4" rx="53.3" ry="23.2"/>
	<ellipse class="st4" cx="53.7" cy="29.5" rx="48.5" ry="21.5"/>
	<ellipse class="st5" cx="53.7" cy="23.8" rx="53.7" ry="23.8"/>
	<path class="st4" d="M53.7,13c21.9,0,39.8,7.5,41.2,17.1c0.1-0.4,0.1-0.8,0.1-1.2c0-10.1-18.5-18.3-41.3-18.3s-41.3,8.2-41.3,18.3
		c0,0.4,0,0.8,0.1,1.2C13.9,20.6,31.8,13,53.7,13z"/>
</g>
</svg>
