<?xml version="1.0" encoding="utf-8"?>
<!-- Generator: Adobe Illustrator 21.0.0, SVG Export Plug-In . SVG Version: 6.00 Build 0)  -->
<svg version="1.1" id="Layer_1" xmlns="http://www.w3.org/2000/svg" xmlns:xlink="http://www.w3.org/1999/xlink" x="0px" y="0px"
	 viewBox="0 0 240.9 453.5" style="enable-background:new 0 0 240.9 453.5;" xml:space="preserve">
<style type="text/css">
	.st0{fill:#794552;}
	.st1{fill:#C7B89E;}
	.st2{fill:#F9A960;}
	.st3{fill:#D17C32;}
	.st4{fill:#956070;}
	.st5{fill:#FDDCC0;}
	.st6{fill:#501338;}
	.st7{fill:#FFFFFF;}
	.st8{fill:#B38091;}
	.st9{fill:#D1D5DB;}
	.st10{fill:#989A9C;}
	.st11{fill:#937B70;}
	.st12{fill:#E6DEC9;}
	.st13{fill:#F0B39C;}
	.st14{fill:#8E183F;}
	.st15{fill:#F5F5F5;}
	.st16{fill:none;stroke:#462062;stroke-width:0.7554;stroke-linecap:round;stroke-miterlimit:10;}
	.st17{fill:#B5BAC0;}
	.st18{fill:#C71F41;}
	.st19{fill:#EF5784;}
	.st20{fill:#A91D41;}
	.st21{opacity:0.5;fill:#C1C1C1;}
	.st22{opacity:0.27;fill:#E78B6F;}
	.st23{fill:#CB8A43;}
	.st24{fill:#754D24;}
	.st25{fill:#FBBA6C;}
	.st26{fill:#837070;}
	.st27{fill:#866A58;}
	.st28{fill:#9A7E67;}
	.st29{fill:#B39885;}
	.st30{fill:#5B4580;}
	.st31{fill:#E1DFDF;}
	.st32{fill:#C0BEBD;}
	.st33{fill:#D53231;}
	.st34{fill:#E94647;}
	.st35{fill:#797083;}
	.st36{fill:#A9A4B4;}
	.st37{fill:#5B5567;}
	.st38{fill:#CE202B;}
	.st39{fill:#EE3734;}
	.st40{fill:#F49294;}
	.st41{fill:#B89AA6;}
	.st42{fill:#D4907B;}
	.st43{fill:#FAB276;}
	.st44{opacity:0.5;fill:#794552;}
	.st45{fill:#B57D90;}
	.st46{opacity:0.7;fill:#794552;}
	.st47{opacity:0.15;fill:#F2E8A5;}
	.st48{fill:#D67E3A;}
	.st49{fill:#735A99;}
	.st50{fill:#644C88;}
	.st51{fill:#9480B4;}
	.st52{fill:#E4D2A4;}
	.st53{fill:#FAEDD0;}
	.st54{fill:#C4B18B;}
	.st55{fill:#735A99;stroke:#501338;stroke-width:1.571;stroke-miterlimit:10;}
	.st56{fill:#C8BFBF;}
	.st57{fill:#B2ABAB;}
	.st58{fill:#FFE098;}
	.st59{fill:#ECC77E;}
	.st60{fill:#FFEBC7;}
	.st61{fill:#A1675E;}
	.st62{fill:#90564F;}
	.st63{fill:#C07F78;}
	.st64{fill:#68485A;}
	.st65{fill:#FFDD81;}
	.st66{fill:#814945;}
	.st67{fill:#945B58;}
	.st68{fill:#B17977;}
	.st69{fill:#884C4A;}
	.st70{fill-rule:evenodd;clip-rule:evenodd;fill:#989A9C;}
	.st71{fill:#D89E98;}
	.st72{fill:#64445C;}
	.st73{fill:#816474;}
	.st74{fill:#A48390;}
	.st75{fill:#DDAD41;}
	.st76{fill:#F48657;}
	.st77{fill:#D77151;}
	.st78{fill:#F8AB89;}
	.st79{fill:#E9C05B;}
	.st80{fill:#9A8691;}
	.st81{fill:#A28F99;}
	.st82{fill:#8780BC;}
	.st83{fill:#6966AD;}
	.st84{fill:#B2ADD5;}
	.st85{fill:#F48C8C;}
	.st86{fill:#E86363;}
	.st87{fill:#F4876E;}
	.st88{fill:#E56A51;}
	.st89{fill:#80655C;}
	.st90{fill:#C3AC6F;}
	.st91{fill:#9F874A;}
	.st92{fill:#DBC68E;}
	.st93{opacity:0.11;fill:#FFFFFF;}
	.st94{fill:#F7A799;}
	.st95{fill:#FCE5A5;}
	.st96{fill:#DEBB6C;}
	.st97{fill:#B67C76;}
	.st98{fill:none;stroke:#462062;stroke-width:0.843;stroke-linecap:round;stroke-miterlimit:10;}
	.st99{fill:#9D9B86;}
	.st100{fill:#8780BC;stroke:#501338;stroke-width:1.6795;stroke-miterlimit:10;}
	.st101{fill:#C5C4B4;}
	.st102{fill:#E9E9D9;}
	.st103{fill:#E9C15D;}
	.st104{opacity:0.3;}
	.st105{fill:#A27388;}
	.st106{opacity:0.5;fill:#FFFFFF;}
	.st107{fill:#91667A;}
	.st108{opacity:0.4;}
	.st109{opacity:0.5;}
	.st110{opacity:0.5;fill:#A7A7A6;}
	.st111{fill:#C16D34;}
	.st112{opacity:0.4;fill:#FFFFFF;}
	.st113{fill:none;stroke:#501338;stroke-width:1.5687;stroke-linecap:round;stroke-linejoin:round;stroke-miterlimit:10;}
	.st114{opacity:0.27;}
	.st115{fill:#E78B6F;}
	.st116{opacity:0.2;fill:#F48E8E;}
	.st117{fill:#99744B;}
	.st118{fill:#825D38;}
	.st119{fill:#C9CAA6;}
	.st120{fill:#BCBC96;}
	.st121{fill:none;stroke:#462062;stroke-width:0.7845;stroke-linecap:round;stroke-miterlimit:10;}
	.st122{fill:#66402A;}
	.st123{fill:#935C35;}
	.st124{opacity:0.6;fill:#7A4928;}
	.st125{opacity:0.4;fill:#F48E8E;}
	.st126{fill:#E1E1E1;}
	.st127{fill:#C1C1C1;}
	.st128{fill:#52363A;}
	.st129{fill:#C6C5C4;}
	.st130{opacity:0.6;}
	.st131{fill:#888888;}
	.st132{fill:#515252;}
	.st133{opacity:0.6;fill:#888888;}
	.st134{fill:#616160;}
	.st135{fill:#515150;}
	.st136{fill:#957B66;}
	.st137{fill:#B89984;}
	.st138{fill:#787878;}
	.st139{fill:#775F4F;}
	.st140{fill:#D7B9A8;}
	.st141{fill:#99999A;}
	.st142{opacity:0.4;fill:#E6DEC9;}
	.st143{fill:none;stroke:#462062;stroke-width:0.7586;stroke-linecap:round;stroke-miterlimit:10;}
	.st144{fill:#3F4242;}
	.st145{opacity:0.5;fill:#F0B39C;}
	.st146{opacity:0.57;fill:#B89AA6;}
	.st147{fill:#619F7F;}
	.st148{fill:#548E6E;}
	.st149{fill:#C16A2F;}
	.st150{fill:#CE413A;}
	.st151{fill:#B23330;}
	.st152{opacity:0.62;fill:#E48C7D;}
	.st153{fill:#5E3827;}
	.st154{fill:#F48E8E;}
	.st155{fill:#444445;}
	.st156{fill:#353435;}
	.st157{opacity:0.5;fill:#B89AA6;}
	.st158{fill:#4D4C4D;}
	.st159{fill:#444344;}
	.st160{opacity:0.6;fill:#A1A1A1;}
	.st161{fill:#282827;}
	.st162{fill:#636464;}
	.st163{fill:#575959;}
	.st164{fill:#3A3A3A;}
	.st165{opacity:0.5;fill:#787878;}
	.st166{fill:none;stroke:#462062;stroke-width:0.8198;stroke-linecap:round;stroke-miterlimit:10;}
	.st167{fill:#5B5B5C;}
	.st168{fill:#E4E4E4;}
	.st169{fill:#FFF1EA;}
	.st170{fill:#E1CDC5;}
	.st171{opacity:0.4;fill:#F0B39C;}
	.st172{opacity:0.5;fill:#ADADAD;}
	.st173{fill:#B58F5B;}
	.st174{fill:#606060;}
	.st175{fill:#4F5150;}
	.st176{opacity:0.6;fill:#989A9C;}
	.st177{fill:#5D7A6D;}
	.st178{fill:#4C685B;}
	.st179{fill:none;stroke:#462062;stroke-width:0.8057;stroke-linecap:round;stroke-miterlimit:10;}
	.st180{fill:#F7B975;}
	.st181{fill:#8D7449;}
	.st182{opacity:0.35;fill:#F7B975;}
	.st183{fill:#686868;}
	.st184{fill:#959595;}
	.st185{opacity:0.3;fill:#FFFFFF;}
	.st186{fill:#4C4B4C;}
	.st187{fill:#A27F67;}
	.st188{fill:#C6A691;}
	.st189{opacity:0.2;fill:#684D39;}
	.st190{fill:#926E56;}
	.st191{opacity:0.8;fill:#3A3A3A;}
	.st192{fill:#ED3E2B;}
	.st193{fill:#DB2C1F;}
	.st194{opacity:0.7;fill:#989A9C;}
	.st195{fill:#6B4845;}
	.st196{fill:#846363;}
	.st197{fill:#5E3E3C;}
	.st198{fill:none;stroke:#501338;stroke-width:1.6206;stroke-miterlimit:10;}
	.st199{opacity:0.5;fill:#E29780;}
	.st200{opacity:0.6;fill:#FFFFFF;}
	.st201{fill:#ECD8BB;}
	.st202{opacity:0.3;fill:#937B70;}
	.st203{fill:#FCF9F4;}
	.st204{opacity:0.6;fill:#F0B39C;}
	.st205{fill:none;stroke:#462062;stroke-width:0.7828;stroke-linecap:round;stroke-miterlimit:10;}
	.st206{fill:#CDCDCD;}
	.st207{opacity:0.5;fill:#A8A7A7;}
	.st208{fill:#868686;}
	.st209{opacity:0.3;fill:#F0B39C;}
	.st210{opacity:0.7;fill:#F0B39C;}
	.st211{fill:#735A99;stroke:#501338;stroke-width:1.5656;stroke-miterlimit:10;}
	.st212{opacity:0.5;fill:#FCF9F4;}
	.st213{opacity:0.5;fill:#FDDCC0;}
	.st214{fill:#6B3A37;}
	.st215{fill:#92A3D3;}
	.st216{fill:#B0C2E4;}
	.st217{fill:#7790BC;}
	.st218{fill:#7F95C6;}
	.st219{fill:#D0A7C2;}
	.st220{fill:#B7BE79;}
	.st221{fill:#725F82;}
	.st222{fill:#635175;}
	.st223{fill:none;stroke:#501338;stroke-width:1.5843;stroke-miterlimit:10;}
	.st224{fill:#C5B8DA;}
	.st225{fill:#A999C9;}
	.st226{fill:#8B6445;}
	.st227{fill:#7A5439;}
	.st228{fill:none;stroke:#501338;stroke-width:1.5751;stroke-linecap:round;stroke-linejoin:round;stroke-miterlimit:10;}
	.st229{fill:#D9CEB7;}
	.st230{fill:#CCBDA2;}
	.st231{opacity:0.2;fill:#FFFFFF;}
	.st232{fill:#B61F30;}
	.st233{fill:#595B5B;}
</style>
<g>
	<g>
		<g>
			<path class="st23" d="M195,453.5H49.6c-4,0-7.3-3.3-7.3-7.3v0c0-4,3.3-7.3,7.3-7.3H195c4,0,7.3,3.3,7.3,7.3v0
				C202.3,450.3,199,453.5,195,453.5z"/>
			<g>
				<g>
					<path class="st24" d="M192.5,409.2H52c-4.1,0-7.5,3.4-7.5,7.5v27.6c0,4.1,3.4,7.5,7.5,7.5h140.5c4.1,0,7.5-3.4,7.5-7.5v-27.6
						C200,412.5,196.7,409.2,192.5,409.2z M198,444.2c0,3-2.4,5.5-5.5,5.5H52c-3,0-5.5-2.5-5.5-5.5v-27.6c0-3,2.5-5.5,5.5-5.5h140.5
						c3,0,5.5,2.5,5.5,5.5V444.2z"/>
					<path class="st25" d="M198,416.6v27.6c0,3-2.4,5.5-5.5,5.5H52c-3,0-5.5-2.5-5.5-5.5v-27.6c0-3,2.5-5.5,5.5-5.5h140.5
						C195.6,411.2,198,413.6,198,416.6z"/>
				</g>
			</g>
		</g>
		<g>
			<path class="st24" d="M108.7,428.8h5c-0.1-1.9-0.5-3.3-1.2-4.2c-0.7-0.9-1.6-1.4-2.7-1.4c-0.6,0-1,0.1-1.5,0.2
				c-0.4,0.1-0.8,0.3-1.1,0.5l-0.5-1.4c0.4-0.3,0.9-0.5,1.5-0.6s1.2-0.2,1.8-0.2c0.8,0,1.5,0.1,2.2,0.4c0.7,0.3,1.2,0.7,1.7,1.4
				c0.5,0.6,0.8,1.5,1.1,2.5c0.3,1,0.4,2.2,0.4,3.7c0,1.5-0.1,2.7-0.4,3.7c-0.3,1-0.7,1.8-1.2,2.5c-0.5,0.6-1.1,1.1-1.8,1.4
				s-1.4,0.4-2.2,0.4c-0.6,0-1.1-0.1-1.6-0.2c-0.5-0.1-0.9-0.2-1.2-0.4l0.5-1.5c0.3,0.1,0.6,0.3,1.1,0.4c0.5,0.1,0.9,0.2,1.4,0.2
				c0.5,0,1-0.1,1.4-0.3c0.5-0.2,0.9-0.6,1.2-1c0.4-0.5,0.7-1.1,0.9-1.8s0.4-1.7,0.4-2.7h-5V428.8z"/>
			<path class="st24" d="M120.6,432.5l-2.5,4.9h-1.8l2.7-5l0.6-0.7l-0.9-0.8l-2.2-4.5h1.7l2.3,4.8h0.9v-4.8h1.6v5l0.8-0.3l2.3-4.7
				h1.7l-2.3,4.5l-0.7,0.7l0.9,0.9l2.5,5h-1.8l-2.5-5H123v5h-1.6v-5.2L120.6,432.5z"/>
			<path class="st24" d="M135.9,436.6c-0.4,0.3-0.8,0.6-1.3,0.7c-0.5,0.2-1.1,0.3-1.7,0.3c-0.7,0-1.3-0.1-1.8-0.4
				c-0.5-0.3-0.9-0.7-1.3-1.2c-0.3-0.5-0.6-1.1-0.7-1.8s-0.2-1.5-0.2-2.4c0-1.9,0.3-3.3,1-4.3c0.7-1,1.7-1.5,2.9-1.5
				c0.4,0,0.8,0.1,1.2,0.2s0.8,0.3,1.1,0.6c0.3,0.3,0.6,0.7,0.8,1.3c0.2,0.6,0.3,1.3,0.3,2.2c0,0.2,0,0.5,0,0.8c0,0.3,0,0.6-0.1,0.9
				h-5.6c0,0.6,0.1,1.2,0.2,1.7s0.3,0.9,0.5,1.3c0.2,0.4,0.5,0.6,0.8,0.8c0.3,0.2,0.8,0.3,1.3,0.3c0.4,0,0.8-0.1,1.2-0.2
				s0.7-0.3,0.9-0.5L135.9,436.6z M134.6,430.7c0-1.1-0.1-1.9-0.5-2.4c-0.3-0.5-0.8-0.8-1.4-0.8c-0.7,0-1.2,0.3-1.6,0.8
				c-0.4,0.5-0.6,1.3-0.7,2.4H134.6z"/>
		</g>
	</g>
	<g>
		<g>
			<path class="st75" d="M168.5,202.4c-2.6-1.6-20.7-13.7-22.5-45.6c-0.1-1.5-0.2-2.9-0.4-4.3c-3.5,1.2-6.9,2.4-10.5,3.4
				c-3.3,0.9-6.7,1.8-10,2.6l-2.6,38.8c-1,14.2,6.2,27.9,11.9,36c0.2,0.3,0.5,0.5,0.9,0.5c11.7,1.5,19.9-3,25.6-11.9
				c-4.7-7.4-1.2-13.7,7.6-19.1C168.6,202.7,168.6,202.5,168.5,202.4z"/>
			<path class="st6" d="M139.5,235c-1.4,0-2.9-0.1-4.3-0.3c-0.6-0.1-1.2-0.4-1.5-0.9c-5-7.1-13.2-21.3-12.1-36.6l2.6-39.4l0.6-0.2
				c3-0.7,6.5-1.6,10-2.6c3.8-1.1,7.4-2.3,10.5-3.4l1-0.4l0.1,1.1c0.2,1.6,0.3,3,0.4,4.4c1.8,31.7,20,43.6,22,44.9
				c0.3,0.2,0.5,0.6,0.5,0.9c0,0.4-0.2,0.8-0.5,1c-5.2,3.2-8.2,6.6-9,10c-0.6,2.5,0,5.1,1.7,7.8l0.3,0.5l-0.3,0.5
				C156.2,230.7,148.8,235,139.5,235z M125.9,159.2l-2.5,38.2c-1.1,14.7,6.9,28.5,11.8,35.4c0.1,0.1,0.1,0.1,0.3,0.1
				c10.6,1.4,18.6-2.2,24.5-11c-1.7-3-2.3-5.9-1.7-8.7c0.9-3.8,3.8-7.2,8.9-10.6c-4.3-3-20.3-15.9-22-45.7c-0.1-1-0.1-2-0.3-3.2
				c-2.8,1-6.1,2.1-9.5,3C132,157.6,128.7,158.4,125.9,159.2z M168,203.1C168,203.1,168,203.1,168,203.1L168,203.1
				C168,203.1,168,203.1,168,203.1z"/>
			<path class="st6" d="M142.9,177c0,0,2.5,3.1,6.4,11.3c0.1,0.2,0.4,0.1,0.4-0.1c-2.7-9-5.9-15.7-5.9-15.7L142.9,177z"/>
		</g>
		<g>
			<rect x="100" y="166.5" class="st5" width="40.9" height="50.8"/>
			<path class="st13" d="M140.9,174.2v16.5c-20.4,4.8-38.3-0.8-40.9-7.1v-9.5H140.9z"/>
			<path class="st6" d="M141.8,216.2H99.2v-50.6h42.6V216.2z M100.9,214.5h39.2v-47.2h-39.2V214.5z"/>
		</g>
		<path class="st76" d="M183.8,368.2c-0.1,0.3-0.2,0.7-0.2,1c0,0.1,0,0.1-0.1,0.2c-0.1,0.3-0.2,0.7-0.3,1c-0.3,0.9-0.6,1.7-1,2.5
			c-0.1,0.2-0.2,0.4-0.3,0.6c-0.1,0.2-0.2,0.4-0.3,0.6c-0.1,0.2-0.2,0.4-0.3,0.5c-0.1,0.2-0.2,0.4-0.3,0.5c-0.2,0.3-0.5,0.7-0.7,1
			c-0.3,0.3-0.5,0.6-0.8,1c-0.6,0.6-1.2,1.2-1.8,1.7c-0.8,0.7-1.7,1.3-2.6,1.8c0,0,0,0,0,0c-0.4,0.2-0.8,0.4-1.2,0.6
			c-1,0.5-2.1,1-3.3,1.4c-0.2,0.1-0.5,0.2-0.7,0.3c-0.8,0.3-1.6,0.5-2.5,0.8c-0.3,0.1-0.6,0.2-0.9,0.2c-0.1,0-0.3,0.1-0.4,0.1
			c-0.3,0.1-0.7,0.2-1,0.2c-0.5,0.1-1,0.2-1.4,0.3c-0.5,0.1-0.9,0.2-1.4,0.3c-0.7,0.1-1.4,0.2-2.1,0.3c-0.9,0.1-1.7,0.2-2.7,0.3
			c-0.1,0-0.1,0-0.2,0c-1,0.1-2,0.2-3,0.3c-2,0.2-4.1,0.3-6.4,0.4c-0.4,0-0.7,0-1.1,0.1c-0.7,0-1.5,0.1-2.3,0.1
			c-1.9,0.1-3.9,0.1-6,0.1c-4.9,0.1-7.8-0.6-15-2.6c-2-0.6-4.2-0.6-6.2,0c-7.2,2.1-10.1,2.7-15,2.6c-2.1,0-4.1-0.1-6-0.1
			c-0.8,0-1.5-0.1-2.3-0.1c-0.4,0-0.7,0-1.1-0.1c-2.2-0.1-4.3-0.2-6.4-0.4c-1-0.1-2-0.2-3-0.3c-0.1,0-0.1,0-0.2,0
			c-0.9-0.1-1.8-0.2-2.7-0.3c-0.7-0.1-1.4-0.2-2.1-0.3c-0.5-0.1-0.9-0.2-1.4-0.3c-0.5-0.1-1-0.2-1.4-0.3c-0.3-0.1-0.7-0.2-1-0.2
			c-0.1,0-0.3-0.1-0.4-0.1c-0.3-0.1-0.6-0.2-0.9-0.2c-0.8-0.2-1.7-0.5-2.5-0.8c-0.2-0.1-0.5-0.2-0.7-0.3c-1.2-0.4-2.3-0.9-3.3-1.4
			c-0.4-0.2-0.8-0.4-1.2-0.6c0,0,0,0,0,0c-0.9-0.6-1.8-1.2-2.6-1.8c-0.7-0.5-1.3-1.1-1.8-1.7c-0.3-0.3-0.5-0.6-0.8-1
			c-0.3-0.3-0.5-0.7-0.7-1c-0.1-0.2-0.2-0.3-0.3-0.5s-0.2-0.4-0.3-0.5c-0.1-0.2-0.2-0.4-0.3-0.6c-0.1-0.2-0.2-0.4-0.3-0.6
			c-0.4-0.8-0.7-1.6-1-2.5c-0.1-0.3-0.2-0.7-0.3-1c0-0.1,0-0.1-0.1-0.2c-0.1-0.3-0.2-0.7-0.2-1c-0.4-1.7-0.5-3.6-0.4-5.7
			c0.3-11.8,6.9-27.5,12.5-38.8c1.3-2.7,2.6-5.1,3.7-7.1c0.3-0.5,0.5-0.9,0.8-1.3c2.5-3.3,6.6-5,10.8-4.3l34.1,5.8
			c1.2,0.2,2.5,0.2,3.7,0l34.1-5.8c4.3-0.7,8.6,1.1,11,4.7c0.2,0.3,0.4,0.6,0.6,1c5.6,10.4,15.4,30.4,16.2,44.9c0,0.3,0,0.7,0,1
			C184.3,364.6,184.2,366.5,183.8,368.2z"/>
		<g>
			<path class="st77" d="M117.9,337.8c-29.1-1.4-52.1-21.3-50.9-23.6c0.3-0.5,0.6-1,0.9-1.5h4.3l21.1,5c0,0,28.4,3.8,29.7,10.4
				C124.4,334.7,121.4,337.8,117.9,337.8z"/>
			<path class="st77" d="M123.1,337.8c29.1-1.4,52.1-21.3,50.9-23.6c-0.3-0.5-0.6-1-0.9-1.5h-4.3l-21.1,5c0,0-28.4,3.8-29.7,10.4
				C116.6,334.7,119.5,337.8,123.1,337.8z"/>
		</g>
		<path class="st77" d="M183.6,369.2c-1.8,0.8-11.7-5.3-13.2-5.9c2.7-25.7-4.2-38.7-5.8-39.7c-0.1-0.1-0.2-0.1-0.2-0.1l0.4-6.4
			l2.6-1.4c0.2,0.3,0.4,0.6,0.6,1C173.7,327,191.2,341.2,183.6,369.2z"/>
		<path class="st77" d="M57.4,369.2c1.8,0.8,11.7-5.4,13.2-6c-2.7-25.7,4.2-38.6,5.8-39.7c0.1-0.1,0.2-0.1,0.2-0.1l-0.4-6.4
			l-2.6-1.4c-0.2,0.3-0.4,0.6-0.6,1C67.3,327,49.7,341.2,57.4,369.2z"/>
		<path class="st77" d="M184.2,362.5c-4.1-3.1-12.5-6.1-14.2,2c-3.7,17.6-24.4,20.3-47.8,10.3c-1.1-0.5-2.4-0.5-3.5,0
			c-23.4,10-44.1,7.4-47.8-10.3c-1.7-8.1-10-5.1-14.2-2c-0.1,2,0.1,3.9,0.4,5.7c0.1,0.3,0.2,0.7,0.2,1c0,0.1,0,0.1,0.1,0.2
			c0.1,0.3,0.2,0.7,0.3,1c0.3,0.9,0.6,1.7,1,2.5c0.1,0.2,0.2,0.4,0.3,0.6l0.3,0.6c0.1,0.1,0.2,0.3,0.2,0.4c0.1,0.2,0.3,0.5,0.4,0.7
			c0.2,0.3,0.5,0.7,0.7,1c0.3,0.3,0.5,0.6,0.8,1c0.6,0.6,1.2,1.2,1.8,1.7c0.8,0.7,1.7,1.3,2.6,1.8c0,0,0,0,0,0
			c0.4,0.2,0.8,0.4,1.2,0.6c1,0.5,2.1,1,3.3,1.4c0.2,0.1,0.5,0.2,0.7,0.3c0.8,0.3,1.6,0.5,2.5,0.8c0.3,0.1,0.6,0.2,0.9,0.2
			c0.1,0,0.3,0.1,0.4,0.1c0.3,0.1,0.7,0.2,1,0.2c0.5,0.1,1,0.2,1.4,0.3c0.5,0.1,0.9,0.2,1.4,0.3c0.7,0.1,1.4,0.2,2.1,0.3
			c0.9,0.1,1.7,0.2,2.7,0.3c0.1,0,0.1,0,0.2,0c1,0.1,2,0.2,3,0.3c2,0.2,4.1,0.3,6.4,0.4c0.4,0,0.7,0,1.1,0.1c0.7,0,1.5,0.1,2.3,0.1
			c1.9,0.1,3.9,0.1,6,0.1c4.9,0.1,7.8-0.6,15-2.6c1-0.3,2-0.4,3.1-0.4s2.1,0.1,3.1,0.4c7.2,2.1,10.1,2.7,15,2.6c2.1,0,4.1-0.1,6-0.1
			c0.8,0,1.5-0.1,2.3-0.1c0.4,0,0.7,0,1.1-0.1c2.2-0.1,4.3-0.2,6.4-0.4c1-0.1,2-0.2,3-0.3c0.1,0,0.1,0,0.2,0
			c0.9-0.1,1.8-0.2,2.7-0.3c0.7-0.1,1.4-0.2,2.1-0.3c0.5-0.1,0.9-0.2,1.4-0.3c0.5-0.1,1-0.2,1.4-0.3c0.3-0.1,0.7-0.2,1-0.2
			c0.1,0,0.3-0.1,0.4-0.1c0.3-0.1,0.6-0.2,0.9-0.2c0.8-0.2,1.7-0.5,2.5-0.8c0.2-0.1,0.5-0.2,0.7-0.3c1.2-0.4,2.3-0.9,3.3-1.4
			c0.4-0.2,0.8-0.4,1.2-0.6c0,0,0,0,0,0c0.9-0.6,1.8-1.2,2.6-1.8c0.7-0.5,1.3-1.1,1.8-1.7c0.3-0.3,0.5-0.6,0.8-1
			c0.3-0.3,0.5-0.7,0.7-1c0.2-0.2,0.3-0.5,0.4-0.7c0.1-0.1,0.2-0.3,0.2-0.4l0.3-0.6c0.1-0.2,0.2-0.4,0.3-0.6c0.4-0.8,0.7-1.6,1-2.5
			c0.1-0.3,0.2-0.7,0.3-1c0-0.1,0-0.1,0.1-0.2c0.1-0.3,0.2-0.7,0.2-1C184.2,366.5,184.3,364.6,184.2,362.5z"/>
		<path class="st78" d="M67.6,325.2l0.2,0.4c0,0-13.5,22.8-9.6,43.4c-2.6-8.3-4.2-14.7-1.5-23.3s9-18.3,9-18.3l1.5-2L67.6,325.2z"/>
		<path class="st77" d="M112,377.5c1.5-0.9,2.9-1.8,4.2-2.8c1.3-1,2.4-2.2,3.5-3.4c1.1-1.2,2-2.6,2.9-3.9c0.9-1.4,1.7-2.8,2.6-4.2
			c0.1-0.1,0.2-0.1,0.4,0c0.1,0.1,0.2,0.2,0.1,0.3c-0.4,1.7-1,3.3-1.8,4.8c-0.8,1.5-1.7,2.9-2.8,4.2c-1.1,1.3-2.4,2.4-3.9,3.4
			c-1.5,0.9-3.2,1.6-5,2c-0.1,0-0.1,0-0.2-0.1C111.9,377.6,111.9,377.5,112,377.5z"/>
		<path class="st77" d="M106.5,343.9c2.6,0,5.1-0.1,7.5-0.5c2.4-0.4,4.8-1,7.1-1.7c2.3-0.8,4.5-1.8,6.7-2.9c2.2-1.1,4.4-2.3,6.6-3.5
			c0.2-0.1,0.4,0,0.5,0.2c0.1,0.2,0.1,0.4,0,0.5c-1.8,1.8-3.8,3.4-6,4.8c-2.1,1.4-4.4,2.5-6.8,3.3c-2.4,0.8-5,1.3-7.6,1.4
			c-2.6,0.1-5.3-0.3-8-1.3c-0.1,0-0.2-0.2-0.2-0.3C106.3,344,106.4,343.9,106.5,343.9z"/>
		<path class="st77" d="M132.7,378.5c-1.3-0.3-2.6-0.7-3.7-1.2c-1.1-0.5-2.2-1.1-3.1-1.9c-0.9-0.7-1.8-1.6-2.6-2.5
			c-0.8-0.9-1.6-1.9-2.3-2.8c-0.1-0.1-0.2,0-0.3,0.1c-0.1,0.1-0.1,0.2-0.1,0.3c0.4,1.3,1,2.4,1.7,3.5c0.7,1,1.5,2,2.5,2.7
			c1,0.8,2.1,1.4,3.5,1.7c1.3,0.4,2.8,0.5,4.4,0.3c0.1,0,0.1-0.1,0.2-0.1C132.7,378.6,132.7,378.6,132.7,378.5z"/>
		<path class="st77" d="M158.6,364c-2,1.2-5.3,2.9-11.2,3.6c-5.5,0.8-10.7-0.4-13.7-1.8c-0.1,0.2-0.1,0.4-0.1,0.5
			c0.1,2.9,5.9,9.3,13.5,8.2c11-1.5,11.6-9,11.4-10.2C158.7,364.2,158.7,364.1,158.6,364z"/>
		<path class="st77" d="M82.3,364c2,1.2,5.3,2.9,11.2,3.6c5.5,0.8,10.7-0.4,13.7-1.8c0.1,0.2,0.1,0.4,0.1,0.5
			c-0.1,2.9-5.9,9.3-13.5,8.2c-11-1.5-11.6-9-11.4-10.2C82.2,364.2,82.3,364.1,82.3,364z"/>
		<path class="st6" d="M137.7,387.4c-4.4,0-7.4-0.7-14.4-2.7c-1.9-0.5-3.8-0.5-5.7,0c-7.4,2.2-10.3,2.8-15.2,2.7
			c-2.1,0-4.1-0.1-6-0.1c-0.8,0-1.5-0.1-2.3-0.1l-1.1-0.1c-2.4-0.1-4.5-0.3-6.4-0.4c-1-0.1-2-0.2-3-0.3c-0.1,0-0.2,0-0.2,0
			c-0.9-0.1-1.8-0.2-2.6-0.3c-0.7-0.1-1.5-0.2-2.2-0.3c-0.5-0.1-1-0.2-1.4-0.3c-0.5-0.1-1-0.2-1.4-0.3c-0.4-0.1-0.7-0.2-1.1-0.2
			l-0.4-0.1c-0.3-0.1-0.6-0.2-0.9-0.2c-0.8-0.2-1.7-0.5-2.5-0.8l-0.7-0.3c-1.2-0.4-2.4-0.9-3.4-1.5c-0.4-0.2-0.7-0.4-1-0.6h0
			l-0.2-0.1c-1-0.6-1.9-1.2-2.7-1.9c-0.7-0.5-1.3-1.2-1.9-1.8c-0.3-0.3-0.6-0.7-0.8-1c-0.2-0.3-0.5-0.6-0.8-1.1
			c-0.1-0.2-0.2-0.4-0.3-0.5c-0.1-0.2-0.2-0.4-0.3-0.6l-0.3-0.6c-0.1-0.2-0.2-0.4-0.3-0.6c-0.4-0.8-0.7-1.6-1-2.6
			c-0.1-0.3-0.2-0.6-0.3-0.9l0,0l-0.1-0.4c-6.2-22.6,3.7-36.3,10.9-46.2c1.9-2.6,3.5-4.9,4.7-7c0.1-0.1,0.1-0.2,0.2-0.3l0.1-0.1
			c0.1-0.1,0.2-0.3,0.3-0.4c0.1-0.1,0.1-0.1,0.1-0.2l0.4-0.6l0,0c2.7-3.5,7-5.2,11.4-4.4l34.1,5.8c1.1,0.2,2.3,0.2,3.4,0l34.1-5.8
			c4.6-0.8,9.2,1.2,11.9,5c0.2,0.3,0.4,0.6,0.6,1l0,0c1.1,2.1,2.8,4.4,4.7,7c7.2,10,17.1,23.7,10.9,46.2c0,0.1,0,0.1-0.1,0.2
			c-0.1,0.4-0.2,0.7-0.3,1c-0.3,0.9-0.6,1.8-1,2.6c-0.1,0.2-0.2,0.4-0.3,0.6l-0.3,0.6c-0.1,0.2-0.2,0.4-0.4,0.6
			c-0.1,0.2-0.2,0.4-0.4,0.6c-0.3,0.4-0.5,0.8-0.8,1.1c-0.3,0.3-0.5,0.7-0.8,1c-0.6,0.6-1.2,1.3-1.9,1.8c-0.8,0.7-1.7,1.3-2.7,1.9
			l-0.2,0.1c-0.3,0.2-0.7,0.4-1,0.6c-1,0.5-2.2,1-3.4,1.5l-0.7,0.3c-0.8,0.3-1.7,0.5-2.5,0.8c-0.3,0.1-0.6,0.2-0.9,0.2l-0.4,0.1
			c-0.3,0.1-0.7,0.2-1,0.2c-0.5,0.1-1,0.2-1.5,0.3c-0.4,0.1-0.9,0.2-1.4,0.3c-0.7,0.1-1.4,0.2-2.2,0.3c-0.9,0.1-1.8,0.2-2.7,0.3
			c-0.1,0-0.1,0-0.2,0c-1,0.1-1.9,0.2-2.9,0.3c-1.9,0.2-4,0.3-6.4,0.4l-1.1,0.1c-0.7,0-1.5,0.1-2.3,0.1c-1.9,0.1-3.9,0.1-6,0.1
			C138.3,387.4,138,387.4,137.7,387.4z M120.5,382.6c1.1,0,2.2,0.2,3.3,0.5c7.2,2.1,10,2.7,14.7,2.6c2.1,0,4-0.1,6-0.1
			c0.8,0,1.5,0,2.3-0.1l1.1-0.1c2.4-0.1,4.4-0.3,6.3-0.4c1-0.1,2-0.2,2.9-0.3l0.1,0c1-0.1,1.8-0.2,2.7-0.4c0.7-0.1,1.4-0.2,2.1-0.3
			c0.5-0.1,0.9-0.2,1.4-0.3c0.5-0.1,1-0.2,1.4-0.3c0.3-0.1,0.7-0.2,1-0.2l0.4-0.1c0.3-0.1,0.6-0.1,0.9-0.2c0.8-0.2,1.6-0.5,2.4-0.7
			l0.7-0.2c1.1-0.4,2.2-0.9,3.2-1.4c0.3-0.2,0.7-0.4,1-0.6l0.3-0.2c0.9-0.5,1.6-1.1,2.3-1.6c0.6-0.5,1.2-1.1,1.7-1.6
			c0.3-0.3,0.5-0.6,0.8-0.9c0.2-0.3,0.4-0.6,0.7-0.9c0.1-0.2,0.2-0.3,0.3-0.5c0.1-0.2,0.2-0.3,0.3-0.5l0.3-0.6
			c0.1-0.2,0.2-0.3,0.3-0.5c0.4-0.7,0.7-1.5,0.9-2.4c0.1-0.3,0.2-0.6,0.3-1l0-0.1c0,0,0-0.1,0-0.1c6-21.8-3.6-35.1-10.7-44.8
			c-1.8-2.5-3.6-5-4.8-7.2c-0.2-0.3-0.4-0.6-0.5-0.9c-2.2-3.3-6.2-5-10.2-4.3l-34.1,5.8c-1.3,0.2-2.7,0.2-4,0l-34.1-5.8
			c-3.8-0.6-7.6,0.9-10,4c-0.1,0.1-0.1,0.2-0.2,0.2l-0.2,0.3c-0.1,0.1-0.1,0.2-0.2,0.3l-0.1,0.2c0,0.1-0.1,0.1-0.1,0.2
			c-1.2,2.2-2.9,4.6-4.8,7.2c-7,9.7-16.5,22.9-10.8,44.5l0.1,0.4c0,0,0,0.1,0,0.1l0,0.1c0.1,0.3,0.2,0.6,0.3,1
			c0.3,0.9,0.6,1.6,0.9,2.4c0.1,0.2,0.2,0.4,0.3,0.6l0.3,0.5c0.1,0.2,0.2,0.3,0.3,0.5c0.1,0.2,0.2,0.3,0.3,0.5
			c0.3,0.4,0.5,0.7,0.7,1c0.3,0.3,0.5,0.6,0.8,0.9c0.5,0.6,1.1,1.1,1.7,1.6c0.7,0.6,1.5,1.1,2.3,1.6l0.3,0.2c0.3,0.2,0.7,0.4,1,0.6
			c1,0.5,2,1,3.2,1.4l0.7,0.3c0.8,0.3,1.6,0.5,2.4,0.7c0.3,0.1,0.6,0.2,0.9,0.2l0.4,0.1c0.3,0.1,0.7,0.2,1,0.2
			c0.5,0.1,0.9,0.2,1.4,0.3c0.5,0.1,0.9,0.2,1.4,0.3c0.7,0.1,1.4,0.2,2.1,0.3c0.9,0.1,1.7,0.2,2.6,0.3l0.2,0c1,0.1,1.9,0.2,2.9,0.3
			c1.9,0.2,4,0.3,6.3,0.4l1.1,0.1c0.8,0,1.5,0.1,2.3,0.1c1.9,0.1,3.9,0.1,6,0.1c4.7,0.1,7.5-0.5,14.7-2.6
			C118.2,382.8,119.4,382.6,120.5,382.6z"/>
		<path class="st77" d="M137,333.7c-8.1,0.5-9.6,0.2-16.2-0.7c-0.1,0-0.2,0-0.3,0c0,0,0,0,0,0c0,0,0,0,0,0c-0.1,0-0.2,0-0.3,0
			c-6.6,0.9-8.1,1.1-16.2,0.7c-0.4,0-0.7,0.1-0.5,0.3c6.2,5.2,12.3,8.2,14.6,9.2c0.6,0.3,1.4,0.4,2.3,0.4l0,0c0.1,0,0.2,0,0.3,0l0,0
			c0.9,0,1.7-0.1,2.3-0.4c2.3-1,8.4-4,14.6-9.2C137.7,333.9,137.4,333.7,137,333.7z"/>
		<path class="st77" d="M114.3,379.5c3-0.3,3.6-0.2,6,0.5c0,0,0.1,0,0.1,0c0,0,0,0,0,0c0,0,0,0,0,0c0,0,0.1,0,0.1,0
			c2.5-0.7,3-0.9,6-0.5c0.1,0,0.3-0.1,0.2-0.2c-2.3-3.9-4.6-6.1-5.5-6.9c-0.2-0.2-0.5-0.3-0.9-0.3l0,0c0,0-0.1,0-0.1,0l0,0
			c-0.3,0-0.6,0.1-0.9,0.3c-0.9,0.8-3.1,3-5.5,6.9C114,379.4,114.2,379.5,114.3,379.5z"/>
		<path class="st6" d="M182.7,370.4c0.3,0.3-3.1,3-7.9,5.1c-0.1,0.1,0,0.3,0.1,0.3c5.4-1.3,8.4-3.1,8.2-3.3L182.7,370.4z"/>
		<path class="st78" d="M62.1,338c-0.4,0.1,0.4,3.3,2.6,6.6c0.1,0.1-0.1,0.3-0.2,0.2c-3.3-2.9-4.4-5.4-4.1-5.4L62.1,338z"/>
		<path class="st6" d="M59.9,373.7c-0.3,0.3,4,2.8,9.7,4.3c0.1,0,0.1,0.3-0.1,0.3c-6.2-0.5-9.8-2-9.6-2.3L59.9,373.7z"/>
		<polygon class="st76" points="120.5,285.7 83.9,285.7 84.5,305.4 120.5,315.2 156.4,305.4 157,285.7 		"/>
		<path class="st77" d="M120.5,291.6c-27.1,0-34.3-6.1-34.3-6.1l6.7,14.5l27.6,7.3l27.6-7.3l6.7-14.5c0,0-5.3,4-21.1,5.5
			C129.9,291.4,125.5,291.6,120.5,291.6z"/>
		<g>
			<path class="st76" d="M100.4,300.1c0.7,0.3,2.2,1,2.2,1c-4.8,7.1-6.5,16.3-6.9,26.5c-1.7-0.4-3.3-0.8-4.9-1.3
				c-65.7-18.5-65.4-86.9-27.5-118.2c9.7-8,21.9-13.6,36.1-15.3c0,0,4.6,15.2,21,15.2v79.4H84l-2.4-58.1
				C59.5,240.6,49.4,279.7,100.4,300.1z"/>
			<polygon class="st77" points="82.3,228.1 85.1,296.4 91.5,299.4 88.2,272.4 93.2,271.8 88,269.7 			"/>
			<path class="st78" d="M66.6,297.3c-11,6.5-9.9,8.3-9.9,8.3l1.9,0.7C58.6,306.3,59.2,304.3,66.6,297.3
				C66.6,297.3,66.6,297.3,66.6,297.3z"/>
			<path class="st77" d="M52.8,274.6c12.6-2.2,12.2-4.2,12.2-4.2l-1.5-1.4C63.5,269,62.2,270.7,52.8,274.6
				C52.8,274.5,52.8,274.5,52.8,274.6z"/>
			<path class="st77" d="M94.9,304.1c-3.9,13.2-4,22.2-4,22.2c2.8,0.9,1.9,0.6,4.9,1.4l6.9-26.5c-0.7-0.1-1.6-0.7-2.2-1
				c-51-20.4-40.9-59.5-18.8-70.7v0l0.8-1.4C68,231,33.7,274.4,94.9,304.1z"/>
			<path class="st78" d="M91.2,322.1l-0.3,4.2l0,0.1c-65.7-18.5-65.4-86.9-27.5-118.2C40.5,233.3,17.3,296.4,91.2,322.1z"/>
			<path class="st6" d="M120.5,207.2c-15.6,0-20.1-14-20.2-14.6L100,192l-0.7,0.1c-38.8,4.6-60.8,37.1-62.5,66.8
				c-1.5,26.7,13.2,59,58.7,69.6l1,0.2l0-1c0.4-11.5,2.5-19.8,6.7-26.1l0.5-0.8l-0.9-0.4c-0.1,0-1.6-0.8-2.3-1.1h0
				C70,287,64.8,269.5,64.4,260.1c-0.5-11.9,6-23.5,16.4-29.3l2.4,57.6l0.1,1.8l1.7,1.4l-0.2-4.9l-2.4-58.6l-1.2,0.6
				c-11.6,5.9-19.1,18.5-18.5,31.5c0.4,9.8,5.8,28.1,37.4,40.7c0.3,0.1,0.9,0.4,1.3,0.6c-3.9,6.2-6,14.3-6.4,25.1
				c-43.8-10.6-57.9-41.8-56.4-67.7c1.6-28.9,22.8-60.4,60.3-65.1c1.1,3,6.6,14.7,20.8,15.1v21.7h1.7v-23.4H120.5z"/>
			<g>
				<g>
					<path class="st5" d="M100.7,300.2c1,0.3,1.6,0.5,1.9,0.6c2.7,1,7.8-2.5,9.9-3.5c1.6-0.7,3.5,3.1,4.3,5.1c0.3,0.7,1,1.2,1.7,1.4
						l6.2,1.1c1,0.2,1.8,1,1.9,2.1c0,0,0.3,26.4-9.3,25.1c-8-1.1-15.3-2.7-22-4.6C96.9,314.8,99.2,305.3,100.7,300.2z"/>
					<path class="st13" d="M120.3,303.6c0,0,6.9,0.1,6.8,4.4c-0.1,4.3-1.1,13.3-2.2,17.1c-1.1,3.8-3.4,6.5-4,6.9c-0.6,0.5-4,0.6-7,0
						c-3-0.6-18.2-3.9-18.2-3.9s-1,0.2-0.8-1.1s3.2-20.4,4.4-23.9c1-3.1,1.3-3.4,1.3-3.4l2.9,0.9c0,0-4.7,14-3.5,18.5
						c6.2,1.3,15.5,3.6,15.5,3.6S120.8,315.2,120.3,303.6z"/>
					<path class="st7" d="M116.6,321c0,0,2.8-7.5,2.8-17.4l1.9,0.3C121.3,303.9,121.5,312.3,116.6,321z"/>
					<path class="st6" d="M117.3,319.6C117.3,319.6,117.3,319.6,117.3,319.6c3.2-5.1,4.5-15.9,4.5-15.9l-1.5-0.1
						C120.7,304.8,119.7,313.7,117.3,319.6z"/>
					<path class="st6" d="M126.7,312c-1.4,0.5-2.9,0.8-4.3,0.9c1.4,0.5,2.8,0.6,4.1,0.5L126.7,312z"/>
					<path class="st6" d="M125.7,319.8c-1.5,0.7-2.9,1-4.3,0.9c1.4,0.5,2.7,0.6,4.1,0.5L125.7,319.8z"/>
					<path class="st6" d="M124,326c-0.7,0.4-1.5,0.5-2.5,0.5c0.9,0.3,1.7,0.5,2.3,0.3L124,326z"/>
					<path class="st7" d="M111.6,301.1c-0.6,0-1.1,0.1-1.6,0.2c-0.5,0.1-1,0.3-1.4,0.6c-0.4,0.2-0.9,0.5-1.3,0.8
						c-0.4,0.3-0.8,0.6-1.1,1.1l0,0c0.5,0,1-0.2,1.5-0.3c0.5-0.1,0.9-0.3,1.4-0.6c0.4-0.2,0.9-0.5,1.3-0.8
						C110.8,301.9,111.2,301.5,111.6,301.1z"/>
				</g>
				<path class="st6" d="M117.3,333c-7.8-1-15.2-2.6-22.1-4.6l-0.7-0.2l0.1-0.7c1.5-12.4,3.7-21.8,5.3-27.5l0.2-0.8l1.9,0.6
					c0.4,0.1,0.7,0.2,0.9,0.3c1.8,0.6,5.2-1.2,7.4-2.5c0.7-0.4,1.4-0.8,1.9-1c0.5-0.2,1-0.2,1.5,0c1.3,0.5,2.6,2.4,4,5.6
					c0.2,0.5,0.6,0.8,1.1,0.9l6.2,1.1c1.4,0.3,2.5,1.4,2.6,2.9c0,0.8,0.2,19.3-5.8,24.6c-1.1,1-2.3,1.4-3.6,1.4
					C117.8,333,117.6,333,117.3,333z M112.9,298.1c-0.5,0.2-1.1,0.5-1.8,0.9c-2.7,1.5-6.3,3.5-8.8,2.6c-0.2-0.1-0.4-0.1-0.8-0.3
					l-0.2-0.1c-1.3,4.8-3.5,13.8-4.9,25.7c6.7,1.9,13.8,3.4,21.2,4.4c1.2,0.2,2.2-0.2,3.1-1c5.4-4.7,5.2-23.1,5.2-23.3
					c-0.1-0.7-0.6-1.2-1.2-1.3l-6.2-1.1c-1-0.2-1.9-0.9-2.3-1.9c-1.3-3.1-2.4-4.4-3-4.7C113,298.1,113,298.1,112.9,298.1
					C112.9,298.1,112.9,298.1,112.9,298.1z"/>
			</g>
			<path class="st78" d="M43.9,236.7c0,0,6.9,1.7,9.4,5c0.2,0.2-0.1,0.5-0.3,0.4c-5-2.8-10.1-3.3-10-3.4L43.9,236.7z"/>
			<path class="st6" d="M89.6,325.7c0.6-6,1.5-10.5,4.6-18.9c-2,8.5-2.5,13.4-2.8,19.3L89.6,325.7z"/>
		</g>
		<g>
			<path class="st76" d="M150.1,326.4c-1.6,0.5-3.3,0.9-4.9,1.3c-0.3-10.2-2.1-19.4-6.9-26.5c0,0,1.6-0.7,2.2-1
				c51-20.4,40.9-59.5,18.8-70.7l-2.4,58.1h-36.5v-79.4c1.8,0,3.5-0.2,5-0.5c12.4-2.6,16-14.7,16-14.7c11.8,1.4,22.2,5.5,31,11.5
				c1.8,1.2,3.4,2.5,5.1,3.8C215.5,239.4,215.8,307.9,150.1,326.4z"/>
			<path class="st77" d="M166.3,200.6c-6.5,15.6-33.6,12.7-40.8,7c12.4-2.6,16-14.7,16-14.7C153.3,194.3,157.5,194.6,166.3,200.6z"
				/>
			<path class="st77" d="M136.2,260.3c0,0,15,9.6,21.6-5.6C159.4,261.3,148.7,270.1,136.2,260.3"/>
			<path class="st77" d="M158.6,228.1l-2.7,68.6h-6.4l2.6-17.6l-10.9-0.9l11.1-2.9l1.9-14.6c1.2-1.8,3.3-4.2,3.8-7.5
				C159.2,246.5,158.1,237,158.6,228.1z"/>
			<path class="st78" d="M189.2,252.6c11.4-5.7,12.3-3.9,12.3-3.9l-0.4,2C201.2,250.7,199.1,250.1,189.2,252.6
				C189.3,252.6,189.2,252.6,189.2,252.6z"/>
			<path class="st77" d="M166.7,303.5c-10.1-7.8-8.8-9.4-8.8-9.4l1.9-0.5C159.8,293.6,160.2,295.7,166.7,303.5
				C166.7,303.5,166.7,303.5,166.7,303.5z"/>
			<path class="st77" d="M146.1,304.1c3.9,13.2,4,22.2,4,22.2c-2.8,0.9-1.9,0.6-4.9,1.4l-6.9-26.5c0.7-0.1,1.6-0.7,2.2-1
				c51-20.4,40.9-59.5,18.8-70.7v0l-0.8-1.4C172.9,231,207.2,274.4,146.1,304.1z"/>
			<path class="st78" d="M149.8,322.1l0.3,4.2l0,0.1c65.7-18.5,65.4-86.9,27.5-118.2C200.5,233.3,223.7,296.4,149.8,322.1z"/>
			<path class="st6" d="M204.1,258.8c-1.7-29.7-23.7-62.2-62.5-66.8l-0.7-0.1l-0.2,0.7c-0.2,0.6-4.6,14.6-20.2,14.6h-0.8v23.4h1.7
				v-21.7c14.2-0.4,19.6-12.2,20.8-15.1c37.5,4.7,58.7,36.3,60.3,65.1c1.4,25.8-12.7,57.1-56.4,67.7c-0.5-10.9-2.5-18.9-6.4-25.1
				c0.5-0.2,1-0.5,1.3-0.6c31.6-12.7,37-30.9,37.4-40.7c0.6-13-6.9-25.6-18.5-31.5l-1.2-0.6l-2.4,58.6l-0.2,4.6
				c0.6-0.3,1.2-0.7,1.7-1.2l0.1-1.7l2.4-57.6c10.4,5.8,16.9,17.4,16.4,29.3c-0.3,8.1-4.3,22.2-25,33.8c-0.4,0.2-0.7,0.4-1.1,0.6
				c-3.1,1.7-6.4,3.3-10.2,4.8h0c-0.7,0.3-2.2,1-2.3,1.1l-0.9,0.4l0.5,0.8c4.2,6.3,6.4,14.5,6.7,26.1l0,1l1-0.2
				C190.9,317.9,205.6,285.6,204.1,258.8z"/>
			<g>
				<g>
					<path class="st5" d="M140.3,300.2c-1,0.3-1.6,0.5-1.9,0.6c-2.7,1-7.8-2.5-9.9-3.5c-1.6-0.7-3.5,3.1-4.3,5.1
						c-0.3,0.7-1,1.2-1.7,1.4l-6.2,1.1c-1,0.2-1.8,1-1.9,2.1c0,0-0.3,26.4,9.3,25.1c8-1.1,15.3-2.7,22-4.6
						C144,314.8,141.7,305.3,140.3,300.2z"/>
					<path class="st13" d="M120.6,303.6c0,0-6.9,0.1-6.8,4.4c0.1,4.3,1.1,13.3,2.2,17.1c1.1,3.8,3.4,6.5,4,6.9c0.6,0.5,4,0.6,7,0
						s18.2-3.9,18.2-3.9s1,0.2,0.8-1.1c-0.2-1.3-3.2-20.4-4.4-23.9c-1-3.1-1.3-3.4-1.3-3.4l-2.9,0.9c0,0,4.7,14,3.5,18.5
						c-6.2,1.3-15.5,3.6-15.5,3.6S120.2,315.2,120.6,303.6z"/>
					<path class="st7" d="M124.4,321c0,0-2.8-7.5-2.8-17.4l-1.9,0.3C119.6,303.9,119.4,312.3,124.4,321z"/>
					<path class="st6" d="M123.6,319.6C123.6,319.6,123.6,319.6,123.6,319.6c-3.2-5.1-4.5-15.9-4.5-15.9l1.5-0.1
						C120.3,304.8,121.2,313.7,123.6,319.6z"/>
					<path class="st6" d="M114.3,312c1.4,0.5,2.9,0.8,4.3,0.9c-1.4,0.5-2.8,0.6-4.1,0.5L114.3,312z"/>
					<path class="st6" d="M115.2,319.8c1.5,0.7,2.9,1,4.3,0.9c-1.4,0.5-2.7,0.6-4.1,0.5L115.2,319.8z"/>
					<path class="st6" d="M116.9,326c0.7,0.4,1.5,0.5,2.5,0.5c-0.9,0.3-1.7,0.5-2.3,0.3L116.9,326z"/>
					<path class="st7" d="M129.4,301.1c0.6,0,1.1,0.1,1.6,0.2c0.5,0.1,1,0.3,1.4,0.6c0.4,0.2,0.9,0.5,1.3,0.8
						c0.4,0.3,0.8,0.6,1.1,1.1l0,0c-0.5,0-1-0.2-1.5-0.3c-0.5-0.1-0.9-0.3-1.4-0.6c-0.4-0.2-0.9-0.5-1.3-0.8
						C130.1,301.9,129.7,301.5,129.4,301.1z"/>
				</g>
				<path class="st6" d="M122.9,333c-1.3,0-2.6-0.5-3.6-1.4c-5.9-5.3-5.8-23.8-5.8-24.6c0.1-1.5,1.2-2.6,2.6-2.9l6.2-1.1
					c0.5-0.1,0.9-0.4,1.1-0.9c1.4-3.2,2.7-5.1,4-5.6c0.5-0.2,1-0.2,1.5,0c0.5,0.2,1.2,0.6,1.9,1c2.2,1.2,5.6,3.1,7.4,2.5
					c0.2-0.1,0.5-0.2,0.9-0.3l1.9-0.6l0.2,0.8c1.6,5.7,3.8,15,5.3,27.5l0.1,0.7l-0.7,0.2c-6.9,2-14.4,3.6-22.1,4.6
					C123.4,333,123.1,333,122.9,333z M128,298.1c0,0-0.1,0-0.1,0c-0.6,0.2-1.7,1.6-3,4.7c-0.4,1-1.3,1.7-2.3,1.9l-6.2,1.1
					c-0.7,0.1-1.2,0.7-1.2,1.3c0,0.1-0.1,18.5,5.2,23.3c0.9,0.8,1.9,1.1,3.1,1c7.4-1,14.5-2.5,21.2-4.4c-1.5-11.9-3.6-20.9-4.9-25.7
					l-0.2,0.1c-0.4,0.1-0.7,0.2-0.8,0.3c-2.5,0.9-6.1-1.1-8.8-2.6C129.1,298.7,128.5,298.3,128,298.1
					C128.1,298.1,128,298.1,128,298.1z"/>
			</g>
			<path class="st6" d="M176.7,267.3c1,0.2,7,1.7,9.5,4.3c0.1,0.1,0,0.4-0.2,0.3c-4.6-2.1-9-2.8-9.9-3c-0.1,0-0.2-0.1-0.1-0.2
				l0.5-1.3C176.5,267.3,176.6,267.3,176.7,267.3z"/>
			<path class="st6" d="M151.4,325.7c-0.6-6-1.5-10.5-4.6-18.9c2,8.5,2.5,13.4,2.8,19.3L151.4,325.7z"/>
		</g>
		<g>
			<path class="st75" d="M84.9,155.6l-3.3,23.6c0,7,18.1-0.2,18.1-0.2l-8.8-22.6L84.9,155.6z"/>
			<path class="st6" d="M86.2,183.1c-1.6,0-3-0.3-4-0.9c-1-0.7-1.5-1.7-1.5-3l0-0.1l3.5-24.5l7.4,1.1l9.3,23.9l-0.8,0.3
				C99,180.3,91.5,183.1,86.2,183.1z M82.5,179.3c0,0.7,0.2,1.1,0.7,1.5c2.7,1.8,11.3-0.7,15.3-2.2l-8.3-21.2l-4.6-0.7L82.5,179.3z"
				/>
		</g>
		<g>
			<path class="st6" d="M158.3,243.7c1.2,3.2,1.3,6.8,0.3,10.1c-1,3.3-3.1,6.4-6.2,8.2c-1.5,0.9-3.3,1.5-5,1.7
				c-1.8,0.2-3.6,0-5.3-0.4c-3.4-0.9-6.4-2.7-8.9-4.9l0.2-0.2c1.5,0.8,2.9,1.6,4.4,2.2c1.5,0.6,3.1,1.2,4.6,1.4
				c1.6,0.3,3.2,0.4,4.7,0.2c1.6-0.2,3.1-0.7,4.4-1.5c1.4-0.8,2.6-1.8,3.6-3c1-1.2,2.5-3.8,2.6-6.6
				C158.8,247.9,158.9,247,158.3,243.7z"/>
		</g>
		<g>
			<path class="st6" d="M82.6,243.7c-0.6,3.3-0.3,6.7,0.8,9.7c0.6,1.5,1.4,2.9,2.4,4.2c1,1.2,2.2,2.3,3.6,3c1.4,0.8,2.9,1.3,4.4,1.5
				c1.6,0.2,3.2,0.1,4.7-0.2c1.6-0.3,3.1-0.8,4.6-1.4c1.5-0.6,3-1.4,4.4-2.2l0.2,0.2c-2.5,2.2-5.5,4-8.9,4.9
				c-1.7,0.4-3.5,0.6-5.3,0.4c-1.8-0.2-3.5-0.8-5-1.7c-3.1-1.8-5.3-4.9-6.2-8.2C81.3,250.4,81.5,246.8,82.6,243.7z"/>
		</g>
		<path class="st77" d="M134.9,257c-0.2,0-0.3,0.2-0.1,0.3c3.2,1.4,13.3,5.4,19.2-1.7c2.8-3.4,2.8-8.8,2.8-11.5
			c0-0.2-0.6-0.1-0.7,0.1C152.2,257.4,141.8,257.8,134.9,257z"/>
		<g>
			<circle class="st6" cx="120.5" cy="232.5" r="2.5"/>
			<path class="st76" d="M120.5,231.5c0.8,0,1.4,0.5,1.6,1.3c0-0.1,0-0.2,0-0.4c0-0.9-0.7-1.6-1.6-1.6s-1.6,0.7-1.6,1.6
				c0,0.1,0,0.2,0,0.4C119.1,232,119.7,231.5,120.5,231.5z"/>
		</g>
		<path class="st77" d="M100.3,196l0.7,1.9c0,0,8.9,59.5-2.7,63.1c-7.6-8.3-5.5-40.7-5.5-40.7l3.4-18.8L100.3,196z"/>
		<g>
			<path class="st79" d="M100,171.1v79.7c0,0.1,0,13.8-6.8,13.8c-7.7,0-15.7-20.4-15.7-36.4v-0.5c0-0.6,0-1.2,0-1.9c0,0,0-0.1,0-0.1
				c1-26,16.9-56.1,16.9-56.1L100,171.1z"/>
			<path class="st75" d="M84.4,221.9c0,0-1.9,9.3,3.7,14.8c5.6,5.5,9.4,14.2,9.8,23.2c2.6-8.2,2.5-10.9,2.3-14.4s-7.2-13.9-7.2-13.9
				L84.4,221.9z"/>
			<path class="st75" d="M94.9,190.3c-6.5,14.4-18.8,25.8-11.3,62.5c-5.7-8.8-8-21.4-3.6-38.3c3.4-6.7,8.8-15.1,8.8-15.1L94.9,190.3
				z"/>
			<path class="st6" d="M85.4,258.2c0,0,0.8-3.9,0.6-12.9c0-0.2,0.3-0.3,0.4,0c1.6,9.3,1.8,16.7,1.8,16.7L85.4,258.2z"/>
			<path class="st6" d="M93.2,265.6c-8.5,0-16.6-21-16.6-37.3v-0.5c0-0.6,0-1.3,0-1.9l0-0.1c1-25.9,16.8-56.1,17-56.5l0.3-0.6
				l6.9,1.8v80.4C100.9,251.4,100.8,265.6,93.2,265.6z M78.5,226c0,0.6,0,1.2,0,1.8v0.5c0,16.3,8,35.5,14.8,35.5
				c4.8,0,5.9-9.4,5.9-13v-79l-4.2-1.1c-2.3,4.5-15.6,31.7-16.5,55.1C78.5,225.8,78.5,225.9,78.5,226z"/>
			<path class="st65" d="M100,250.8c0,0-0.2-10.5-11.9-19.6c-12.8-9.9,10.4-32.5,11.9-47.2L100,250.8z"/>
			<path class="st79" d="M99.4,186.8c0,0-1.5,40.7-7.2,48.1c4.6,5.7,7,12.2,7,12.2l0.9-3.4L99.4,186.8z"/>
			<path class="st7" d="M97.8,192.5c0,0-13.1,31.3-10.9,36.9c-2.1-3.1-3.4-7.5-1.4-12.5s9-19.2,9-19.2L97.8,192.5z"/>
			<path class="st6" d="M99.1,250.9c0-0.1-0.4-10.2-11.6-18.9c-8.6-6.7-2.2-18.3,3.9-29.6c3.5-6.4,7.1-13,7.7-18.3l1.8,0.1l0,66.8
				L99.1,250.9z M99.1,190.8c-1.5,4-3.8,8.2-6.1,12.3c-6.1,11.1-11.8,21.6-4.4,27.4c5.8,4.5,8.9,9.4,10.5,13.2L99.1,190.8z"/>
			<path class="st65" d="M100,171.3l-1.5,3.2c0,0,2.3,6.7-5.4,18.9c-1,1.5-2.1,3.1-3.4,4.8c-9.9,13-11.8,23.3-12.1,27.5
				c0.5-13.1,4.8-27.3,9-38.1c4.1-10.6,7.9-17.9,7.9-17.9l5.5,1.5V171.3z"/>
			<path class="st75" d="M100,171.3l-1.5,3.2c0,0,2.3,6.7-5.4,18.9c-0.3-0.1-0.5-0.3-0.8-0.4c-2-1.1-3.8-2.6-5.1-4.5
				c-0.2-0.3-0.4-0.6-0.6-0.9c4.1-10.6,7.9-17.9,7.9-17.9l5.5,1.5V171.3z"/>
			<path class="st6" d="M100.9,170.4l-6.9-1.8l-0.3,0.6c-0.1,0.1-3.8,7.2-7.7,17.4c-4.3,11-8.8,25.6-9.3,39.1l1.8,0.1
				c0.3-3.8,2.1-14.2,11.9-27.1c1.3-1.7,2.5-3.4,3.5-5c6.9-10.9,5.9-17.5,5.5-19.1l1.5-3.1V170.4z M97.6,174.5l0.1,0.3
				c0,0.1,2,6.5-5.4,18.2c-0.9,1.5-2,3-3.3,4.7c-4.3,5.6-7.1,10.8-9,15.2c1.7-8.7,4.4-17.2,7.1-24.3c3.4-9,6.8-15.7,7.8-17.8l3.9,1
				L97.6,174.5z"/>
		</g>
		<g>
			<g>
				<g>
					<g>
						<path class="st5" d="M163.7,144.2c-3.4-1.4-5.9-5-5.1-10c0.7-4.5,3.3-8.5,7.1-11C186.9,115.7,178.6,143.4,163.7,144.2z"/>
						<path class="st6" d="M163.6,145.1l-0.2-0.1c-4.2-1.7-6.4-6-5.6-11c0.8-4.7,3.5-8.9,7.4-11.6l0.2-0.1c7.1-2.5,10.5-1,12.1,0.7
							c2.1,2.2,2.4,6.1,0.7,10.3c-2.1,5.4-7.5,11.3-14.5,11.7L163.6,145.1z M166.1,123.9c-3.5,2.4-5.9,6.2-6.6,10.4
							c-0.8,4.9,1.7,7.9,4.4,9c6.2-0.5,11-5.8,12.9-10.6c1.4-3.6,1.3-6.8-0.4-8.5C174.5,122.3,171,122.2,166.1,123.9z"/>
					</g>
					<g>
						<path class="st6" d="M175.6,127.2c-0.4-1-1.1-1.4-2-1.5c0.5,0.2,0.9,0.6,1.1,1.2c0.6,1.6-0.1,3.7-1,5.4
							c-1.1,2-2.9,3.3-5.1,3.8c0,0.1,0.1,0.2,0.1,0.4c2.4-0.3,4.6-1.7,5.8-3.9C175.5,130.9,176.2,128.8,175.6,127.2z"/>
						<path class="st6" d="M175.1,131.1c-0.2,0.3-2.5,3-2.3,2.7c1.1-1.7,1.8-5.6-0.8-5.9c-0.6-0.1-0.5-1.4,0.2-1.8
							c0.5-0.4,1.7-0.4,2.3-0.1c0.5,0.3,0.8,0.7,1,1.1c0.1,0.2-0.2,0.5-0.1,0.7C175.6,128.8,175.6,130.1,175.1,131.1z"/>
						<path class="st13" d="M169.5,130.3c1.2,0.7-0.5,1.8,0.2,3c0.1,0.2,0.7,0.5,1.6-0.6c0.9-0.9,1.3-1.9,0.4-3
							c-0.3-0.4-1.1-0.7-1.5-0.6C169.6,129.2,169.2,130,169.5,130.3z"/>
					</g>
					<path class="st13" d="M164.5,140.9C164.5,140.9,164.5,140.9,164.5,140.9C164.5,140.9,164.6,140.9,164.5,140.9
						c0.2,0,0.3,0,0.4,0c0.2,0,0.4-0.1,0.7-0.1c0.5-0.1,0.9-0.2,1.4-0.4c0.9-0.3,1.8-0.7,2.6-1.2c0.8-0.5,1.6-1.1,2.3-1.7
						c0.7-0.7,1-0.5,0.3,0.3c-0.6,0.8-1.4,1.5-2.2,2.2c-0.8,0.7-1.7,1.2-2.6,1.7c-0.5,0.2-0.9,0.4-1.5,0.6c-0.3,0.1-0.5,0.2-0.8,0.2
						c-0.1,0-0.3,0.1-0.4,0.1c-0.1,0-0.1,0-0.3,0c-0.1,0-0.3,0-0.4,0L164.5,140.9z"/>
				</g>
			</g>
			<g>
				<g>
					<g>
						<path class="st5" d="M77.2,144.2c3.4-1.4,5.9-5,5.1-10c-0.7-4.5-3.3-8.5-7.1-11C54,115.7,62.3,143.4,77.2,144.2z"/>
						<path class="st6" d="M77.2,145.1c-7-0.4-12.4-6.3-14.5-11.7c-1.7-4.2-1.4-8.1,0.7-10.3c1.6-1.7,5-3.2,12.1-0.7l0.2,0.1
							c4,2.7,6.7,6.9,7.4,11.6c0.8,4.9-1.3,9.2-5.6,11l-0.2,0.1L77.2,145.1z M64.6,124.2c-1.7,1.7-1.8,4.9-0.4,8.5
							c1.9,4.8,6.7,10.2,12.9,10.6c2.7-1.2,5.2-4.1,4.4-9c-0.7-4.2-3.1-8-6.6-10.4C70,122.2,66.4,122.3,64.6,124.2z"/>
					</g>
					<g>
						<path class="st6" d="M65.3,127.2c0.4-1,1.1-1.4,2-1.5c-0.5,0.2-0.9,0.6-1.1,1.2c-0.6,1.6,0.1,3.7,1,5.4c1.1,2,2.9,3.3,5.1,3.8
							c0,0.1-0.1,0.2-0.1,0.4c-2.4-0.3-4.6-1.7-5.8-3.9C65.5,130.9,64.8,128.8,65.3,127.2z"/>
						<path class="st6" d="M65.9,131.1c0.2,0.3,2.5,3,2.3,2.7c-1.1-1.7-1.8-5.6,0.8-5.9c0.6-0.1,0.5-1.4-0.2-1.8
							c-0.5-0.4-1.7-0.4-2.3-0.1c-0.5,0.3-0.8,0.7-1,1.1c-0.1,0.2,0.2,0.5,0.1,0.7C65.3,128.8,65.4,130.1,65.9,131.1z"/>
						<path class="st13" d="M71.4,130.3c-1.2,0.7,0.5,1.8-0.2,3c-0.1,0.2-0.7,0.5-1.6-0.6c-0.9-0.9-1.3-1.9-0.4-3
							c0.3-0.4,1.1-0.7,1.5-0.6C71.3,129.2,71.8,130,71.4,130.3z"/>
					</g>
					<path class="st13" d="M76.4,140.9C76.4,140.9,76.4,140.9,76.4,140.9C76.4,140.9,76.3,140.9,76.4,140.9c-0.2,0-0.3,0-0.4,0
						c-0.2,0-0.4-0.1-0.7-0.1c-0.5-0.1-0.9-0.2-1.4-0.4c-0.9-0.3-1.8-0.7-2.6-1.2c-0.8-0.5-1.6-1.1-2.3-1.7c-0.7-0.7-1-0.5-0.3,0.3
						c0.6,0.8,1.4,1.5,2.2,2.2c0.8,0.7,1.7,1.2,2.6,1.7c0.5,0.2,0.9,0.4,1.5,0.6c0.3,0.1,0.5,0.2,0.8,0.2c0.1,0,0.3,0.1,0.4,0.1
						c0.1,0,0.1,0,0.3,0c0.1,0,0.3,0,0.4,0L76.4,140.9z"/>
				</g>
			</g>
		</g>
		<g>
			<g>
				<g>
					<g>
						<path class="st76" d="M70.5,151.8c-0.7,0-1.3-0.4-1.6-1.1c-0.3-0.7-0.2-1.4,0.3-1.9l3.9-4.4c0.3-0.4,0.8-0.6,1.3-0.6l0,0
							c0.5,0,1,0.2,1.3,0.6l3.9,4.4c0.5,0.5,0.6,1.3,0.3,1.9c-0.3,0.7-0.9,1.1-1.6,1.1H70.5z"/>
						<path class="st6" d="M74.3,144.6c0.3,0,0.5,0.1,0.7,0.3l3.9,4.4c0.5,0.6,0.1,1.6-0.7,1.6h-3.9h-3.9c-0.8,0-1.3-1-0.7-1.6
							l3.9-4.4C73.8,144.7,74.1,144.6,74.3,144.6 M74.3,143c-0.8,0-1.5,0.3-2,0.9l-3.9,4.4c-0.7,0.8-0.9,1.9-0.4,2.8
							c0.4,1,1.4,1.6,2.4,1.6h3.9h3.9c1,0,2-0.6,2.4-1.6c0.4-1,0.3-2-0.4-2.8l-3.9-4.4C75.8,143.3,75.1,143,74.3,143L74.3,143z"/>
						<g>
							<path class="st76" d="M77.5,156.8c-0.8,0-1.4-0.5-1.6-1.3c0-0.2,0-0.4,0-0.6l0.4-2.2c0.1-0.6,0.6-1,1.2-1h0.1l0.1,0
								c0.5,0.1,0.9,0.5,0.9,0.9l0.4,2.2c0.2,0.9-0.4,1.7-1.3,1.8C77.7,156.8,77.6,156.8,77.5,156.8z"/>
							<path class="st6" d="M77.5,152.6C77.5,152.6,77.6,152.6,77.5,152.6c0.2,0,0.3,0.1,0.3,0.3l0.4,2.2c0.1,0.4-0.2,0.8-0.6,0.9
								c0,0-0.1,0-0.1,0c-0.4,0-0.7-0.3-0.7-0.6c0-0.1,0-0.2,0-0.3l0.4-2.2C77.2,152.7,77.4,152.6,77.5,152.6 M77.5,150.9
								c-1,0-1.8,0.7-2,1.7l-0.4,2.2c-0.1,0.3-0.1,0.6,0,0.9c0.2,1.2,1.2,2,2.4,2c0.1,0,0.3,0,0.4,0c0.6-0.1,1.2-0.5,1.6-1
								c0.4-0.5,0.5-1.2,0.4-1.8l-0.4-2.2c-0.2-0.8-0.8-1.5-1.6-1.6C77.8,150.9,77.6,150.9,77.5,150.9L77.5,150.9z"/>
						</g>
						<g>
							<path class="st76" d="M74.3,156.8c-0.8,0-1.4-0.5-1.6-1.3c0-0.2,0-0.4,0-0.6l0.4-2.2c0.1-0.6,0.6-1,1.2-1h0.1l0.1,0
								c0.5,0.1,0.9,0.5,0.9,0.9l0.4,2.2c0.1,0.4,0,0.8-0.3,1.2c-0.2,0.3-0.6,0.6-1,0.7C74.5,156.8,74.4,156.8,74.3,156.8z"/>
							<path class="st6" d="M74.3,152.6C74.4,152.6,74.4,152.6,74.3,152.6c0.2,0,0.3,0.1,0.3,0.3l0.4,2.2c0.1,0.4-0.2,0.8-0.6,0.9
								c0,0-0.1,0-0.1,0c-0.4,0-0.7-0.3-0.7-0.6c0-0.1,0-0.2,0-0.3l0.4-2.2C74,152.7,74.2,152.6,74.3,152.6 M74.3,150.9
								c-1,0-1.8,0.7-2,1.7l-0.4,2.2c-0.1,0.3-0.1,0.6,0,0.9c0.2,1.2,1.2,2,2.4,2c0.1,0,0.3,0,0.4,0c0.6-0.1,1.2-0.5,1.6-1
								c0.4-0.5,0.5-1.2,0.4-1.8l-0.4-2.2c-0.2-0.8-0.8-1.5-1.6-1.6C74.6,150.9,74.5,150.9,74.3,150.9L74.3,150.9z"/>
						</g>
						<g>
							<path class="st76" d="M71.2,156.8c-0.8,0-1.4-0.6-1.6-1.3c0-0.2,0-0.4,0-0.6l0.4-2.2c0.1-0.6,0.6-1,1.2-1h0.1l0.1,0
								c0.5,0.1,0.9,0.5,0.9,0.9l0.4,2.2c0.1,0.4,0,0.8-0.3,1.2c-0.2,0.3-0.6,0.6-1,0.7C71.4,156.8,71.3,156.8,71.2,156.8z"/>
							<path class="st6" d="M71.2,152.6C71.2,152.6,71.2,152.6,71.2,152.6c0.2,0,0.3,0.1,0.3,0.3l0.4,2.2c0.1,0.4-0.2,0.8-0.6,0.9
								c0,0-0.1,0-0.1,0c-0.4,0-0.7-0.3-0.7-0.6c0-0.1,0-0.2,0-0.3l0.4-2.2C70.9,152.7,71,152.6,71.2,152.6 M71.2,150.9
								c-1,0-1.8,0.7-2,1.7l-0.4,2.2c-0.1,0.3-0.1,0.6,0,0.9c0.2,1.2,1.2,2,2.4,2c0.1,0,0.3,0,0.4,0c1.3-0.2,2.2-1.5,2-2.8l-0.4-2.2
								c-0.2-0.8-0.8-1.5-1.6-1.6C71.4,150.9,71.3,150.9,71.2,150.9L71.2,150.9z"/>
						</g>
					</g>
					<path class="st7" d="M74.5,145.4c-0.5-0.4-3.2,2.6-2.6,3C72.6,148.9,75,145.7,74.5,145.4z"/>
				</g>
			</g>
			<g>
				<g>
					<g>
						<path class="st76" d="M170.4,151.8c0.7,0,1.3-0.4,1.6-1.1c0.3-0.7,0.2-1.4-0.3-1.9l-3.9-4.4c-0.3-0.4-0.8-0.6-1.3-0.6l0,0
							c-0.5,0-1,0.2-1.3,0.6l-3.9,4.4c-0.5,0.5-0.6,1.3-0.3,1.9c0.3,0.7,0.9,1.1,1.6,1.1H170.4z"/>
						<path class="st6" d="M166.6,144.6c0.3,0,0.5,0.1,0.7,0.3l3.9,4.4c0.5,0.6,0.1,1.6-0.7,1.6h-3.9h-3.9c-0.8,0-1.3-1-0.7-1.6
							l3.9-4.4C166.1,144.7,166.3,144.6,166.6,144.6 M166.6,143c-0.8,0-1.5,0.3-2,0.9l-3.9,4.4c-0.7,0.8-0.9,1.9-0.4,2.8
							c0.4,1,1.4,1.6,2.4,1.6h3.9h3.9c1,0,2-0.6,2.4-1.6c0.4-1,0.3-2-0.4-2.8l-3.9-4.4C168.1,143.3,167.3,143,166.6,143L166.6,143z"
							/>
						<g>
							<path class="st76" d="M163.4,156.8c0.8,0,1.4-0.5,1.6-1.3c0-0.2,0-0.4,0-0.6l-0.4-2.2c-0.1-0.6-0.6-1-1.2-1h-0.1l-0.1,0
								c-0.5,0.1-0.9,0.5-0.9,0.9l-0.4,2.2c-0.2,0.9,0.4,1.7,1.3,1.8C163.2,156.8,163.3,156.8,163.4,156.8z"/>
							<path class="st6" d="M163.4,152.6c0.2,0,0.3,0.1,0.3,0.3l0.4,2.2c0,0.1,0,0.2,0,0.3c-0.1,0.4-0.4,0.6-0.7,0.6
								c0,0-0.1,0-0.1,0c-0.4-0.1-0.7-0.5-0.6-0.9l0.4-2.2C163.1,152.7,163.2,152.6,163.4,152.6
								C163.4,152.6,163.4,152.6,163.4,152.6 M163.4,150.9c-0.1,0-0.2,0-0.4,0c-0.8,0.1-1.5,0.8-1.6,1.6l-0.4,2.2
								c-0.1,0.6,0,1.3,0.4,1.8c0.4,0.5,0.9,0.9,1.6,1c0.1,0,0.3,0,0.4,0c1.2,0,2.2-0.8,2.4-2c0.1-0.3,0.1-0.6,0-0.9l-0.4-2.2
								C165.2,151.6,164.4,150.9,163.4,150.9L163.4,150.9z"/>
						</g>
						<g>
							<path class="st76" d="M166.6,156.8c0.8,0,1.4-0.5,1.6-1.3c0-0.2,0-0.4,0-0.6l-0.4-2.2c-0.1-0.6-0.6-1-1.2-1h-0.1l-0.1,0
								c-0.5,0.1-0.9,0.5-0.9,0.9l-0.4,2.2c-0.1,0.4,0,0.8,0.3,1.2c0.2,0.3,0.6,0.6,1,0.7C166.4,156.8,166.5,156.8,166.6,156.8z"/>
							<path class="st6" d="M166.6,152.6c0.2,0,0.3,0.1,0.3,0.3l0.4,2.2c0,0.1,0,0.2,0,0.3c-0.1,0.4-0.4,0.6-0.7,0.6
								c0,0-0.1,0-0.1,0c-0.4-0.1-0.7-0.5-0.6-0.9l0.4-2.2C166.3,152.7,166.4,152.6,166.6,152.6
								C166.6,152.6,166.6,152.6,166.6,152.6 M166.6,150.9c-0.1,0-0.2,0-0.4,0c-0.8,0.1-1.5,0.8-1.6,1.6l-0.4,2.2
								c-0.1,0.6,0,1.3,0.4,1.8c0.4,0.5,0.9,0.9,1.6,1c0.1,0,0.3,0,0.4,0c1.2,0,2.2-0.8,2.4-2c0.1-0.3,0.1-0.6,0-0.9l-0.4-2.2
								C168.4,151.6,167.6,150.9,166.6,150.9L166.6,150.9z"/>
						</g>
						<g>
							<path class="st76" d="M169.8,156.8c0.8,0,1.4-0.6,1.6-1.3c0-0.2,0-0.4,0-0.6l-0.4-2.2c-0.1-0.6-0.6-1-1.2-1h-0.1l-0.1,0
								c-0.5,0.1-0.9,0.5-0.9,0.9l-0.4,2.2c-0.1,0.4,0,0.8,0.3,1.2c0.2,0.3,0.6,0.6,1,0.7C169.6,156.8,169.7,156.8,169.8,156.8z"/>
							<path class="st6" d="M169.8,152.6c0.2,0,0.3,0.1,0.3,0.3l0.4,2.2c0,0.1,0,0.2,0,0.3c-0.1,0.4-0.4,0.6-0.7,0.6
								c0,0-0.1,0-0.1,0c-0.4-0.1-0.7-0.5-0.6-0.9l0.4-2.2C169.5,152.7,169.6,152.6,169.8,152.6
								C169.7,152.6,169.8,152.6,169.8,152.6 M169.8,150.9c-0.1,0-0.2,0-0.4,0c-0.8,0.1-1.5,0.8-1.6,1.6l-0.4,2.2
								c-0.2,1.3,0.6,2.6,2,2.8c0.1,0,0.3,0,0.4,0c1.2,0,2.2-0.8,2.4-2c0.1-0.3,0.1-0.6,0-0.9l-0.4-2.2
								C171.6,151.6,170.8,150.9,169.8,150.9L169.8,150.9z"/>
						</g>
					</g>
					<path class="st7" d="M166.4,145.4c0.5-0.4,3.2,2.6,2.6,3C168.3,148.9,165.9,145.7,166.4,145.4z"/>
				</g>
			</g>
		</g>
		<path class="st5" d="M170.5,82.3l-50.1-16.5L70.4,82.3c-1.8,30.6,2.2,103.4,50.1,103.4C167.1,185.6,172.3,113.1,170.5,82.3z"/>
		<path class="st7" d="M71.1,116.2l3.5,10.7l4.5,0.9l-3.8,1.2c1.9,11.7,4.5,22.9,8.6,33.1c-0.7,1.4-11.9-27.9-11.9-36.9
			c0-8-0.9-8.3-0.9-8.3L71.1,116.2z"/>
		<path class="st13" d="M77.5,147.1c0,0,16.3,36,41.6,36s43.4-26.5,47.2-71.1c2.9,4.7,3.2,9.9,3.2,9.9s-1.3,7.3-2.4,13.2
			c-1.1,5.8-7.5,27-14.5,33.9s-13.1,14.4-22.6,15.5s-22.3,2-28.8-4.1c-6.5-6.1-8.2-4.7-12.6-11.5s-9.2-13.7-9.6-15.9
			C78.6,150.9,77.5,147.1,77.5,147.1z"/>
		<path class="st6" d="M120.5,186.5c-11.6,0-21.4-4.2-29.3-12.5c-24.1-25.5-22.2-80.9-21.6-91.7l0-0.6l50.9-16.8l0.3,0.1l50.6,16.7
			l0,0.6c0.4,6.6,3,65.2-22.2,91.8C141.4,182.3,131.7,186.5,120.5,186.5z M71.2,82.9c-0.6,12-2.1,65.3,21.2,89.9
			c7.5,8,17,12,28.1,12c10.8,0,20-4,27.5-11.9c24.1-25.5,22.3-81.2,21.8-90l-49.3-16.2L71.2,82.9z"/>
		<g>
			<path class="st13" d="M167.7,121.4c0,0-19-2.6-26.7-27.2c-3.6,0.7-27.5,4-40.3-5.9c-0.6,5.2-1.6,12.4-14.6,15.5
				c-2.9,0.7-5.5,2.1-7.6,4.1c-2.2,2.2-5.6,6.9-6.6,12.2c-0.2-7.5,5.8-20.7,5.8-20.7l19.5-18.7l34.8-3.5l18.8,5.3l4.6,8.5
				c0,0,6.2,13.7,6.6,14.2C162.3,105.8,167.7,121.4,167.7,121.4z"/>
			<path class="st73" d="M68.1,111.1c2.6-6.8,3.3-14.1,5.5-21c2.1-6.6,5.9-12.9,10.4-18.2c2.7-3.2,5.8-5.5,9.2-7.2
				c1.3-0.2,2.6-0.4,3.6-0.6c6.7-1.3,13.5-2.5,20.3-3.4c1.2,0,2.4,0.1,3.6,0.2c12,0.7,25.2,3.8,35.3,10.7c5,3.4,9.1,8.3,10.6,14.2
				c1.1,4.4,1.3,8.9,2,13.3c-0.3,4.9,0.6,9.6,5.2,13.4c0.1,0.1,0.2,0.2,0.4,0.3c-1,2.4-2.3,4.7-3.8,6.2c0,0-21.1-5.4-27.7-29.4
				c-21.7,6.1-38.8-1.7-45-6.7c-0.3,26.1-17.4,6.7-26.3,36.7c-1.5-1.6-2.9-4.2-4-6.9C67.6,112.1,67.9,111.6,68.1,111.1z"/>
			<path class="st80" d="M170.3,116.2c0,0-0.1,0-0.3-0.1c-2.2-1-17.5-8.4-26.4-25.9c0.1,4,2.5,12.1,11.7,19.8s12.6,8.7,13.9,8.8
				c1.3,0.1,1-1.2,1-1.2V116.2z"/>
			<path class="st80" d="M145.8,87.4c0,0-27.9,4.2-45.4-3.3c2.6,2.5,13,7.3,22.7,7.5s22.5-3,22.6-3.6
				C145.8,87.4,145.8,87.4,145.8,87.4z"/>
			<path class="st64" d="M97.3,84.7c0,0-2.3,7.4-11.3,11.1s-13.9,19.3-13.9,19.3s0.3-4.4,0.3-4.8s3.7-9.3,3.7-9.3l5.5-5.9l3.9-4.5
				l7.6-4.3L97.3,84.7z"/>
			<path class="st6" d="M70.6,120c-1.9-2-3.3-5-4.2-7.2l-0.2-0.5l0.3-0.4c0.3-0.4,0.6-0.8,0.7-1.2c1.4-3.8,2.3-7.8,3.2-11.7
				c0.7-3,1.3-6.2,2.3-9.2c2-6.3,5.6-12.7,10.5-18.5c2.6-3.1,5.8-5.6,9.5-7.4l0.2-0.1l0.1,0c1.3-0.2,2.5-0.4,3.5-0.6
				c7.5-1.5,14.1-2.6,20.3-3.4l0.1,0l0.1,0c1.2,0,2.4,0.1,3.6,0.2c14.1,0.9,26.8,4.7,35.7,10.8c4,2.7,9.2,7.5,11,14.7
				c0.7,2.9,1.1,5.9,1.4,8.8c0.2,1.5,0.3,3,0.6,4.5l0,0.1l0,0.1c-0.4,5.6,1.1,9.5,4.8,12.6c0.1,0.1,0.2,0.2,0.3,0.2l0.6,0.4
				l-0.3,0.6c-0.8,1.9-2.2,4.6-3.9,6.5l-0.4,0.4l-0.5-0.1c-0.2-0.1-21.2-5.7-28.1-29.2c-20.1,5.4-36.1-0.9-43.6-6.1
				c-0.5,12-5.1,13.9-10.4,16c-5.4,2.2-11.6,4.6-16,19.3l-0.4,1.5L70.6,120z M167.6,99.1c-0.2-1.5-0.4-3-0.6-4.5
				c-0.3-2.8-0.6-5.8-1.4-8.6c-1.7-6.7-6.5-11.1-10.3-13.7c-8.7-5.9-21-9.7-34.8-10.5c-1.2-0.1-2.3-0.1-3.5-0.2
				C111,62.4,104.4,63.5,97,65c-1,0.2-2.2,0.4-3.5,0.6c-3.4,1.7-6.4,4-8.8,6.9c-4.8,5.6-8.3,11.8-10.2,17.9c-0.9,3-1.6,6.1-2.3,9.1
				c-0.9,4-1.7,8.1-3.2,12v0c-0.2,0.5-0.4,0.9-0.7,1.3c0.8,1.9,1.7,3.6,2.7,5c4.6-14.1,11.2-16.7,16.5-18.9
				c5.3-2.1,9.2-3.7,9.3-16.1l0-1.8l1.4,1.1c6,4.9,23.1,12.5,44.2,6.6l0.8-0.2l0.2,0.8c5.9,21.2,23.4,27.7,26.6,28.7
				c1-1.2,2.1-2.9,3-4.9C168.9,109.6,167.2,105.2,167.6,99.1z"/>
			<path class="st64" d="M170.3,117.9c0,0-1.2-21.1-20.8-30.5c6.6,3.3,17.4,17.6,20.9,30.8"/>
			<path class="st64" d="M148.2,86.3c0,0-23.4-6.3-48.3-2.2c2.5-1.9,11.8-3.6,16.4-3.6c4.6,0,18.7,0,24.5,2.1S148.2,86.3,148.2,86.3
				z"/>
			<path class="st6" d="M138.8,89.5c1.1-0.2,4.3-0.9,8-2.6c0.2-0.1,0.4,0.2,0.2,0.4c-2,1.8-5.6,3.5-6.6,3.4
				c-0.7-0.1-1.4-0.6-1.9-0.9C138.5,89.7,138.6,89.6,138.8,89.5z"/>
		</g>
		<path class="st65" d="M161.7,58.6c-12.1-9.7-24.8-14.5-41.2-14.5c-15.1,0-29.1,4.8-41.2,14.5c-16.8,13.5-23.4,41.3-8.5,60.8
			c0-0.7,0.2-38.9,49.6-38.9s49.6,38.2,49.6,38.9C185.1,99.9,178.5,72.2,161.7,58.6z"/>
		<g>
			<g>
				<path class="st6" d="M135.6,126.8c0.2,2.2,2,4,4.3,4.1s4.2-1.6,4.5-3.8l-4.4-2.4L135.6,126.8z"/>
				<g>
					<path class="st6" d="M130.9,128.7c0.4-1.1,1.1-2.2,2-2.8c0.9-0.7,2-1.1,3-1.4c2.1-0.5,4.1-0.4,6,0c1.9,0.4,3.8,1,5.5,1.9
						c1.7,0.8,3.4,1.9,4.8,3.1c0.2,0.1,0.2,0.4,0.1,0.5c-0.1,0.1-0.3,0.2-0.5,0.1c-1.6-0.9-3.3-1.6-5-2.2c-1.7-0.6-3.5-1-5.2-1.2
						c-1.7-0.2-3.5-0.2-5.1,0.3c-1.6,0.4-2.8,1.3-3.3,2.5l0,0c-0.3,0.6-1,0.9-1.6,0.7C131,129.9,130.7,129.3,130.9,128.7z"/>
				</g>
				
					<ellipse transform="matrix(0.9944 -0.1055 0.1055 0.9944 -12.7253 15.3654)" class="st7" cx="138.9" cy="128" rx="0.8" ry="0.8"/>
				<path class="st13" d="M131.4,133.8c0.1-0.1,0.3-0.3,0.4-0.5c2,1.4,6.2,2.6,13.9,0.5c0.1,0.2,0.2,0.3,0.2,0.5
					C137.8,138.4,133.5,136.1,131.4,133.8z"/>
			</g>
			<g>
				<path class="st6" d="M105.4,126.8c-0.2,2.2-2,4-4.3,4.1c-2.3,0.1-4.2-1.6-4.5-3.8l4.4-2.4L105.4,126.8z"/>
				<g>
					<path class="st6" d="M107.7,129.5c-0.5-1.3-1.7-2.1-3.3-2.5c-1.6-0.4-3.3-0.4-5.1-0.3c-1.8,0.2-3.5,0.6-5.2,1.2
						c-1.7,0.6-3.4,1.3-5,2.2c-0.2,0.1-0.4,0-0.5-0.1c-0.1-0.2,0-0.4,0.1-0.5c1.5-1.2,3.1-2.3,4.8-3.1c1.7-0.9,3.6-1.5,5.5-1.9
						c1.9-0.4,4-0.5,6,0c1,0.2,2.1,0.7,3,1.4c0.9,0.7,1.7,1.7,2,2.8c0.2,0.6-0.2,1.3-0.8,1.5C108.6,130.4,107.9,130.1,107.7,129.5
						L107.7,129.5z"/>
				</g>
				
					<ellipse transform="matrix(0.1055 -0.9944 0.9944 0.1055 -37.4704 214.3829)" class="st7" cx="100.4" cy="128" rx="0.8" ry="0.8"/>
				<path class="st13" d="M109.5,133.8c-0.1-0.1-0.3-0.3-0.4-0.5c-2,1.4-6.2,2.6-13.9,0.5c-0.1,0.2-0.2,0.3-0.2,0.5
					C103.2,138.4,107.5,136.1,109.5,133.8z"/>
			</g>
		</g>
		<path class="st79" d="M145.8,84.5c0,0-2.6-8.3,5-8.9c9.8-0.8,16.6-8.8,9.2-17.1c6.9,4.9,12.3,9.3,16.4,22.9s0,25.7,0,25.7
			l-5.5,11.1l-0.9,0.1c0,0,0.2-3-1.9-8.8c-2.1-5.8-4.6-11.2-9.2-15.8C154.4,89.1,145.8,84.5,145.8,84.5z"/>
		<path class="st7" d="M62.5,100.1c0,0-0.6-34,35.5-51.1c-8.9,2.9-12.2,2.7-23.5,13.7S62,95.5,62,95.5L62.5,100.1z"/>
		<path class="st7" d="M87.8,60.8c9-5.9,27.9-14.5,52.9-5.9c0.5,0.2,0.8-0.5,0.4-0.7c-4.2-2.9-9.6-6.1-23.7-5.9
			c-13.4,0.2-24.1,6.8-30.1,11.8C86.9,60.5,87.3,61.1,87.8,60.8z"/>
		<path class="st79" d="M71.5,85.9c9.5-8.5,30.1-22.1,61.1-16.6c0.6,0.1,0.8-0.7,0.3-0.9c-5.5-2.7-12.4-5.4-28.9-2.6
			C88.4,68.5,77,78.1,70.8,85.2C70.4,85.6,71,86.3,71.5,85.9z"/>
		<path class="st79" d="M115,59.5c8.4-1.5,24.8-2,40.4,12c0.3,0.3,0.7-0.1,0.5-0.4c-2.2-3.4-5.1-7.4-15.4-11.6
			c-9.8-4-19.7-2.5-25.6-0.6C114.5,59,114.6,59.6,115,59.5z"/>
		<path class="st79" d="M62.8,89.2c1,6.1,1.9,11.4,2.9,13.2l3.5-1.5l-2.6,3.6l2.1,4.1c0,0,8-31.3,49.3-29c-9,1.8-31.8,4.1-40.2,18.9
			S71,117,71,117l-0.6,1.1l-2.7-3.4c0,0-4.8-9-4.9-12.9c-0.2-3.9-0.7-9.2-0.7-9.3C62,92.5,62.8,89.2,62.8,89.2"/>
		<path class="st6" d="M169.3,121.9v-2.5c0-1.6-0.6-38.1-48.8-38.1c-48.3,0-48.8,36.5-48.8,38.1v2.5l-1.5-2
			C54.5,99.6,62,71.4,78.8,58c12.1-9.7,26.2-14.7,41.7-14.7c16.2,0,29.1,4.5,41.7,14.7l0,0c16.8,13.5,24.2,41.6,8.6,61.9
			L169.3,121.9z M120.5,79.7c43.3,0,49.5,28.7,50.3,37.4c13.2-19.4,5.9-45.2-9.7-57.7C148.8,49.4,136.2,45,120.5,45
			c-15.1,0-28.8,4.8-40.7,14.3C64.2,71.9,56.9,97.6,70.1,117C71,108.4,77.2,79.7,120.5,79.7z"/>
		<path class="st6" d="M174.9,110c-0.3-1.5-1.3-5.6-3.4-10.3c-0.1-0.3,0.2-0.5,0.4-0.3c2.2,2.5,4.5,6.9,4.5,8.3c0,0.9-0.6,1.9-1,2.4
			C175.3,110.3,175,110.3,174.9,110z"/>
		<path class="st6" d="M63.3,96.6c0.4-1.2,1.6-4.4,3.9-8c0.1-0.2-0.1-0.5-0.3-0.3c-2.2,1.8-4.6,5.2-4.6,6.3c0,0.7,0.4,1.6,0.7,2.1
			C63,96.8,63.2,96.8,63.3,96.6z"/>
		<g>
			<path class="st13" d="M113.4,173.3c3,3,7.2,3.8,13.3,1.4c0.6-0.2,0.4-1.1-0.2-1c-6.7,0.3-9.5-0.4-12.6-1.2
				C113.3,172.2,113,172.9,113.4,173.3z"/>
			<g>
				<path class="st13" d="M116.6,158.1c0,0,7.7,2.4,13.5-2.8c0.7,0.3,0.5,1.7,0.5,1.7s-5.4,4.4-13.8,2.1c-6-1.7-2.7-1.2-2.7-1.2
					L116.6,158.1z"/>
				<path class="st6" d="M131.2,157c-0.2-0.7-0.5-1.4-1-1.8c-0.1-0.1-0.2-0.1-0.3-0.1c-0.2,0-0.3,0.2-0.2,0.4l0,0
					c0.1,0.5,0.3,1,0.4,1.5c-0.6,0.3-1.2,0.6-1.8,0.9c-0.7,0.2-1.3,0.5-2,0.7c-1.4,0.4-2.8,0.6-4.2,0.6c-1.4,0-2.8-0.2-4.1-0.5
					c-0.7-0.2-1.3-0.4-2-0.7c-0.6-0.3-1.3-0.6-1.8-0.9l0,0c0,0,0,0-0.1,0c-0.5-0.3-1.1-0.1-1.3,0.4c-0.3,0.5-0.1,1.1,0.4,1.3
					c0.8,0.4,1.5,0.7,2.2,0.9c0.7,0.2,1.5,0.4,2.2,0.6c1.5,0.3,3,0.4,4.6,0.2c1.5-0.1,3-0.4,4.4-1c0.7-0.2,1.4-0.6,2.1-0.9
					c0.6-0.3,1.1-0.6,1.6-0.9c0.1,0.4,0.1,0.9,0.3,1.3l0,0c0,0.1,0.1,0.2,0.2,0.2c0.2,0.1,0.4,0,0.4-0.1
					C131.4,158.4,131.4,157.7,131.2,157z"/>
				<path class="st7" d="M129.6,160.4c-0.6,0.3-1.2,0.5-1.8,0.7c-0.6,0.2-1.2,0.3-1.9,0.5c-1.2,0.3-2.5,0.4-3.8,0.4
					c-0.1,0-0.2-0.1-0.2-0.2c0-0.1,0.1-0.2,0.1-0.2c1.2-0.2,2.4-0.4,3.6-0.8c0.6-0.2,1.2-0.4,1.7-0.6c0.6-0.2,1.6-0.8,1.6-0.8
					c0.3-0.2,0.6-0.1,0.8,0.2C130,159.9,129.9,160.2,129.6,160.4C129.6,160.4,129.6,160.4,129.6,160.4z"/>
			</g>
		</g>
		<g>
			<polygon class="st13" points="119.9,125.4 117.4,135.9 112.1,145.4 120.1,137.6 120.1,130.8 			"/>
			<polygon class="st7" points="120.4,125.4 122.1,137.6 125.4,139.4 121.3,139.5 115.6,143.7 120.1,138.5 			"/>
			<path class="st13" d="M115.6,145c1.3,2.4,4.9,3.6,12.8,3.1C120.2,146.8,118.6,146.1,115.6,145z"/>
			<path class="st13" d="M112.6,146.5c0,0,3.3,9.2,16.4,2.4c-5.5,0.6-8.8,0.2-8.8,0.2l-6.6-2.1L112.6,146.5z"/>
			<path class="st6" d="M128.9,148.7c-12.2,0.4-13.5-1.5-14.7-3.4l6.6-7.3l-0.5-12.7h-0.5l-0.9,11.4l-6.9,8.6
				c0,0.4,1.6,6.5,16.9,3.5C129,148.9,128.9,148.8,128.9,148.7z"/>
		</g>
		<g>
			<g>
				<path class="st13" d="M86.5,120.4c-0.5,0-0.9-0.2-1.2-0.5c-0.3-0.5-0.4-1.2,0-1.7c1.7-2,5.9-7.2,13.8-7.9
					c0.5-0.1,1.1-0.1,1.9-0.2c2.2-0.2,5.4-0.4,8.2-0.6c1.4-0.1,2.5-1.8,3.5-1.9c0.5,0,0.9,0.1,1.2,0.5c0.3,0.3,0.5,0.8,0.4,1.2
					l-0.1,5.9c-0.1,1-0.9,1.8-1.8,1.9l0,0c-0.1,0-0.2,0-0.3,0c-0.6,0-1.7-0.1-3-0.3c-3.4-0.3-8.6-0.8-10.1-0.6l-0.3,0
					c-3.5,0.3-6.8,1.2-11.5,4.1C87,120.3,86.8,120.4,86.5,120.4z"/>
				<path class="st73" d="M85.1,119.9c-0.5,0.1-0.9-0.1-1.2-0.4c-0.4-0.4-0.5-1.2-0.1-1.7c1.5-2.1,5.4-7.6,13.1-9
					c0.4-0.1,1.1-0.2,1.9-0.4c2.2-0.4,5.4-0.9,8.1-1.3c1.4-0.2,2.7-0.4,3.7-0.6c0.4-0.1,0.9,0.1,1.2,0.4c0.3,0.3,0.5,0.7,0.5,1.2
					l0,4.3c0,1-0.7,1.9-1.7,2l0,0c-0.1,0-0.2,0-0.3,0c-0.6,0-1.7,0-3.1,0c-3.4,0-8.7-0.1-10.1,0.1l-0.3,0.1c-3.5,0.6-6.7,1.7-11.2,5
					C85.6,119.8,85.4,119.9,85.1,119.9z"/>
				<path class="st81" d="M85.2,116.3c2.6-0.1,7.1-5.6,16-7.8c0.2-1.3-0.2-0.7-0.2-0.7l-7.4,1.1l-5,3.4l-2.9,2.5c0,0-2,2-2,2.1
					c-0.1,0.1-0.3,1.2-0.3,1.2L85.2,116.3z"/>
				<path class="st64" d="M90.4,117.3l-2.2-0.3c0,0,5.8-6.9,24.5-7.2c0.1,0.7-0.8,4.2-0.8,4.2l-4.5,0.4l-5.7,0l-4.6,0.3l-4.5,0.8
					L90.4,117.3z"/>
				<path class="st6" d="M98.9,109.2c3.3-0.6,8.9-1.4,11.9-1.8c0.4-0.1,0.8,0.3,0.8,0.7l0,4.3c0,0.6-0.4,1.1-1,1.2
					c-0.1,0-0.1,0-0.2,0c-2.1,0-11.2-0.2-13.3,0.1c-0.1,0-0.2,0-0.3,0.1c-3.7,0.6-7.1,1.8-11.5,5.1l0,0c-0.1,0.1-0.1,0.1-0.2,0.1
					c-0.2,0-0.3,0-0.4-0.2c-0.2-0.2-0.2-0.5-0.1-0.7c1.4-2,5.1-7.3,12.6-8.6C97.5,109.5,98.1,109.3,98.9,109.2 M98.6,107.6
					c-0.8,0.1-1.4,0.3-1.9,0.4c-8.1,1.4-12,7.1-13.6,9.3l0,0.1c-0.6,0.8-0.5,2,0.2,2.7c0.5,0.6,1.3,0.8,2,0.7c0.4-0.1,0.7-0.2,1-0.5
					c4.3-3.2,7.4-4.2,10.8-4.8l0.3-0.1c1.4-0.2,6.8-0.2,10-0.1c1.4,0,2.5,0,3.1,0c0.2,0,0.3,0,0.5,0c1.4-0.2,2.4-1.4,2.4-2.8l0-4.3
					c0-0.7-0.3-1.3-0.8-1.8c-0.5-0.5-1.2-0.7-1.9-0.5c-1,0.2-2.3,0.3-3.7,0.6C104,106.7,100.8,107.2,98.6,107.6L98.6,107.6z"/>
			</g>
			<g>
				<path class="st13" d="M153.9,122.4c0.4,0.1,0.9,0,1.2-0.4c0.4-0.4,0.6-1.1,0.2-1.7c-1.4-2.1-4.9-7.7-12.4-9.4
					c-0.4-0.1-1.1-0.3-1.8-0.4c-2.1-0.5-5.2-1.1-7.9-1.6c-1.4-0.3-2.2-2.1-3.2-2.3c-0.4-0.1-0.9,0-1.2,0.3c-0.3,0.3-0.6,0.7-0.6,1.1
					l-0.7,5.8c0,1,0.6,1.8,1.6,2.1l0,0c0.1,0,0.2,0,0.3,0c0.6,0,1.7,0.1,3,0.1c3.4,0.1,8.4,0.3,9.9,0.6l0.3,0.1
					c3.4,0.8,6.5,2,10.7,5.4C153.4,122.2,153.6,122.4,153.9,122.4z"/>
				<path class="st73" d="M153.9,119.6c0.5,0.1,0.9-0.1,1.2-0.4c0.4-0.4,0.5-1.2,0.1-1.7c-1.5-2.1-5.4-7.6-13.1-9
					c-0.4-0.1-1.1-0.2-1.9-0.4c-2.2-0.4-5.4-0.8-8.1-1.3c-1.4-0.2-2.7-0.4-3.7-0.6c-0.4-0.1-0.9,0.1-1.2,0.4
					c-0.3,0.3-0.5,0.7-0.5,1.2l0,4.3c0,1,0.7,1.9,1.7,2l0,0c0.1,0,0.2,0,0.3,0c0.6,0,1.7,0,3.1,0c3.4,0,8.7-0.1,10.1,0.1l0.3,0.1
					c3.5,0.6,6.7,1.7,11.2,5C153.4,119.5,153.6,119.6,153.9,119.6z"/>
				<path class="st64" d="M127.2,110.6c0,0,0.1,2.4,0.2,3.1l3.6,0.2l6-0.2l7.1,1.1l5.9,2.6l3.5,2.1l0.3-0.5
					C153.9,119.1,153,110,127.2,110.6z"/>
				<path class="st6" d="M140.1,108.9c0.7,0.1,1.4,0.2,1.9,0.4c7.5,1.3,11.2,6.7,12.6,8.6c0.2,0.2,0.1,0.5-0.1,0.7
					c-0.1,0.1-0.3,0.2-0.4,0.2c-0.1,0-0.2,0-0.2-0.1l0,0c-4.5-3.3-7.8-4.5-11.5-5.1c-0.1,0-0.2,0-0.3-0.1
					c-2.1-0.4-11.2-0.1-13.3-0.1c-0.1,0-0.1,0-0.2,0c-0.6-0.1-1-0.6-1-1.2l0-4.3c0-0.4,0.4-0.8,0.8-0.7
					C131.2,107.6,136.8,108.3,140.1,108.9 M140.4,107.3c-2.2-0.4-5.4-0.8-8.2-1.3c-1.4-0.2-2.7-0.4-3.7-0.6
					c-0.7-0.1-1.4,0.1-1.9,0.5c-0.5,0.5-0.8,1.1-0.8,1.8l0,4.3c0,1.4,1,2.6,2.4,2.8c0.1,0,0.3,0,0.5,0c0.6,0,1.7,0,3.1,0
					c3.2,0,8.6-0.1,10,0.1l0.3,0.1c3.4,0.6,6.5,1.6,10.8,4.8c0.3,0.2,0.6,0.4,1,0.4c0.7,0.1,1.5-0.1,2-0.7c0.7-0.8,0.7-1.9,0.2-2.7
					l0-0.1c-1.5-2.1-5.5-7.8-13.6-9.2C141.8,107.6,141.2,107.4,140.4,107.3L140.4,107.3z"/>
			</g>
		</g>
		<g>
			<path class="st13" d="M149.9,150.9c-1.9-1.1-6.4,2-7.6,5.9c-0.5,1.6-0.8,4.5,0.6,5.4c1.6,1.1,5-0.8,6.6-3.1
				C151.4,156.2,151.5,151.8,149.9,150.9z"/>
			<path class="st13" d="M91.1,150.9c1.9-1.1,6.4,2,7.6,5.9c0.5,1.6,0.8,4.5-0.6,5.4c-1.6,1.1-5-0.8-6.6-3.1
				C89.5,156.2,89.4,151.8,91.1,150.9z"/>
		</g>
	</g>
</g>
</svg>
