<?xml version="1.0" encoding="utf-8"?>
<!-- Generator: Adobe Illustrator 21.0.0, SVG Export Plug-In . SVG Version: 6.00 Build 0)  -->
<svg version="1.1" id="Layer_1" xmlns="http://www.w3.org/2000/svg" xmlns:xlink="http://www.w3.org/1999/xlink" x="0px" y="0px"
	 viewBox="0 0 240.9 453.5" style="enable-background:new 0 0 240.9 453.5;" xml:space="preserve">
<style type="text/css">
	.st0{fill:#794552;}
	.st1{fill:#C7B89E;}
	.st2{fill:#F9A960;}
	.st3{fill:#D17C32;}
	.st4{fill:#956070;}
	.st5{fill:#FDDCC0;}
	.st6{fill:#501338;}
	.st7{fill:#FFFFFF;}
	.st8{fill:#B38091;}
	.st9{fill:#D1D5DB;}
	.st10{fill:#989A9C;}
	.st11{fill:#937B70;}
	.st12{fill:#E6DEC9;}
	.st13{fill:#F0B39C;}
	.st14{fill:#8E183F;}
	.st15{fill:#F5F5F5;}
	.st16{fill:none;stroke:#462062;stroke-width:0.7554;stroke-linecap:round;stroke-miterlimit:10;}
	.st17{fill:#B5BAC0;}
	.st18{fill:#C71F41;}
	.st19{fill:#EF5784;}
	.st20{fill:#A91D41;}
	.st21{opacity:0.5;fill:#C1C1C1;}
	.st22{opacity:0.27;fill:#E78B6F;}
	.st23{fill:#CB8A43;}
	.st24{fill:#754D24;}
	.st25{fill:#FBBA6C;}
	.st26{fill:#837070;}
	.st27{fill:#866A58;}
	.st28{fill:#9A7E67;}
	.st29{fill:#B39885;}
	.st30{fill:#5B4580;}
	.st31{fill:#E1DFDF;}
	.st32{fill:#C0BEBD;}
	.st33{fill:#D53231;}
	.st34{fill:#E94647;}
	.st35{fill:#797083;}
	.st36{fill:#A9A4B4;}
	.st37{fill:#5B5567;}
	.st38{fill:#CE202B;}
	.st39{fill:#EE3734;}
	.st40{fill:#F49294;}
	.st41{fill:#B89AA6;}
	.st42{fill:#D4907B;}
	.st43{fill:#FAB276;}
	.st44{opacity:0.5;fill:#794552;}
	.st45{fill:#B57D90;}
	.st46{opacity:0.7;fill:#794552;}
	.st47{opacity:0.15;fill:#F2E8A5;}
	.st48{fill:#D67E3A;}
	.st49{fill:#735A99;}
	.st50{fill:#644C88;}
	.st51{fill:#9480B4;}
	.st52{fill:#E4D2A4;}
	.st53{fill:#FAEDD0;}
	.st54{fill:#C4B18B;}
	.st55{fill:#735A99;stroke:#501338;stroke-width:1.571;stroke-miterlimit:10;}
	.st56{fill:#C8BFBF;}
	.st57{fill:#B2ABAB;}
	.st58{fill:#FFE098;}
	.st59{fill:#ECC77E;}
	.st60{fill:#FFEBC7;}
	.st61{fill:#A1675E;}
	.st62{fill:#90564F;}
	.st63{fill:#C07F78;}
	.st64{fill:#68485A;}
	.st65{fill:#FFDD81;}
	.st66{fill:#814945;}
	.st67{fill:#945B58;}
	.st68{fill:#B17977;}
	.st69{fill:#884C4A;}
	.st70{fill-rule:evenodd;clip-rule:evenodd;fill:#989A9C;}
	.st71{fill:#D89E98;}
	.st72{fill:#64445C;}
	.st73{fill:#816474;}
	.st74{fill:#A48390;}
	.st75{fill:#DDAD41;}
	.st76{fill:#F48657;}
	.st77{fill:#D77151;}
	.st78{fill:#F8AB89;}
	.st79{fill:#E9C05B;}
	.st80{fill:#9A8691;}
	.st81{fill:#A28F99;}
	.st82{fill:#8780BC;}
	.st83{fill:#6966AD;}
	.st84{fill:#B2ADD5;}
	.st85{fill:#F48C8C;}
	.st86{fill:#E86363;}
	.st87{fill:#F4876E;}
	.st88{fill:#E56A51;}
	.st89{fill:#80655C;}
	.st90{fill:#C3AC6F;}
	.st91{fill:#9F874A;}
	.st92{fill:#DBC68E;}
	.st93{opacity:0.11;fill:#FFFFFF;}
	.st94{fill:#F7A799;}
	.st95{fill:#FCE5A5;}
	.st96{fill:#DEBB6C;}
	.st97{fill:#B67C76;}
	.st98{fill:none;stroke:#462062;stroke-width:0.843;stroke-linecap:round;stroke-miterlimit:10;}
	.st99{fill:#9D9B86;}
	.st100{fill:#8780BC;stroke:#501338;stroke-width:1.6795;stroke-miterlimit:10;}
	.st101{fill:#C5C4B4;}
	.st102{fill:#E9E9D9;}
	.st103{fill:#E9C15D;}
	.st104{opacity:0.3;}
	.st105{fill:#A27388;}
	.st106{opacity:0.5;fill:#FFFFFF;}
	.st107{fill:#91667A;}
	.st108{opacity:0.4;}
	.st109{opacity:0.5;}
	.st110{opacity:0.5;fill:#A7A7A6;}
	.st111{fill:#C16D34;}
	.st112{opacity:0.4;fill:#FFFFFF;}
	.st113{fill:none;stroke:#501338;stroke-width:1.5687;stroke-linecap:round;stroke-linejoin:round;stroke-miterlimit:10;}
	.st114{opacity:0.27;}
	.st115{fill:#E78B6F;}
	.st116{opacity:0.2;fill:#F48E8E;}
	.st117{fill:#99744B;}
	.st118{fill:#825D38;}
	.st119{fill:#C9CAA6;}
	.st120{fill:#BCBC96;}
	.st121{fill:none;stroke:#462062;stroke-width:0.7845;stroke-linecap:round;stroke-miterlimit:10;}
	.st122{fill:#66402A;}
	.st123{fill:#935C35;}
	.st124{opacity:0.6;fill:#7A4928;}
	.st125{opacity:0.4;fill:#F48E8E;}
	.st126{fill:#E1E1E1;}
	.st127{fill:#C1C1C1;}
	.st128{fill:#52363A;}
	.st129{fill:#C6C5C4;}
	.st130{opacity:0.6;}
	.st131{fill:#888888;}
	.st132{fill:#515252;}
	.st133{opacity:0.6;fill:#888888;}
	.st134{fill:#616160;}
	.st135{fill:#515150;}
	.st136{fill:#957B66;}
	.st137{fill:#B89984;}
	.st138{fill:#787878;}
	.st139{fill:#775F4F;}
	.st140{fill:#D7B9A8;}
	.st141{fill:#99999A;}
	.st142{opacity:0.4;fill:#E6DEC9;}
	.st143{fill:none;stroke:#462062;stroke-width:0.7586;stroke-linecap:round;stroke-miterlimit:10;}
	.st144{fill:#3F4242;}
	.st145{opacity:0.5;fill:#F0B39C;}
	.st146{opacity:0.57;fill:#B89AA6;}
	.st147{fill:#619F7F;}
	.st148{fill:#548E6E;}
	.st149{fill:#C16A2F;}
	.st150{fill:#CE413A;}
	.st151{fill:#B23330;}
	.st152{opacity:0.62;fill:#E48C7D;}
	.st153{fill:#5E3827;}
	.st154{fill:#F48E8E;}
	.st155{fill:#444445;}
	.st156{fill:#353435;}
	.st157{opacity:0.5;fill:#B89AA6;}
	.st158{fill:#4D4C4D;}
	.st159{fill:#444344;}
	.st160{opacity:0.6;fill:#A1A1A1;}
	.st161{fill:#282827;}
	.st162{fill:#636464;}
	.st163{fill:#575959;}
	.st164{fill:#3A3A3A;}
	.st165{opacity:0.5;fill:#787878;}
	.st166{fill:none;stroke:#462062;stroke-width:0.8198;stroke-linecap:round;stroke-miterlimit:10;}
	.st167{fill:#5B5B5C;}
	.st168{fill:#E4E4E4;}
	.st169{fill:#FFF1EA;}
	.st170{fill:#E1CDC5;}
	.st171{opacity:0.4;fill:#F0B39C;}
	.st172{opacity:0.5;fill:#ADADAD;}
	.st173{fill:#B58F5B;}
	.st174{fill:#606060;}
	.st175{fill:#4F5150;}
	.st176{opacity:0.6;fill:#989A9C;}
	.st177{fill:#5D7A6D;}
	.st178{fill:#4C685B;}
	.st179{fill:none;stroke:#462062;stroke-width:0.8057;stroke-linecap:round;stroke-miterlimit:10;}
	.st180{fill:#F7B975;}
	.st181{fill:#8D7449;}
	.st182{opacity:0.35;fill:#F7B975;}
	.st183{fill:#686868;}
	.st184{fill:#959595;}
	.st185{opacity:0.3;fill:#FFFFFF;}
	.st186{fill:#4C4B4C;}
	.st187{fill:#A27F67;}
	.st188{fill:#C6A691;}
	.st189{opacity:0.2;fill:#684D39;}
	.st190{fill:#926E56;}
	.st191{opacity:0.8;fill:#3A3A3A;}
	.st192{fill:#ED3E2B;}
	.st193{fill:#DB2C1F;}
	.st194{opacity:0.7;fill:#989A9C;}
	.st195{fill:#6B4845;}
	.st196{fill:#846363;}
	.st197{fill:#5E3E3C;}
	.st198{fill:none;stroke:#501338;stroke-width:1.6206;stroke-miterlimit:10;}
	.st199{opacity:0.5;fill:#E29780;}
	.st200{opacity:0.6;fill:#FFFFFF;}
	.st201{fill:#ECD8BB;}
	.st202{opacity:0.3;fill:#937B70;}
	.st203{fill:#FCF9F4;}
	.st204{opacity:0.6;fill:#F0B39C;}
	.st205{fill:none;stroke:#462062;stroke-width:0.7828;stroke-linecap:round;stroke-miterlimit:10;}
	.st206{fill:#CDCDCD;}
	.st207{opacity:0.5;fill:#A8A7A7;}
	.st208{fill:#868686;}
	.st209{opacity:0.3;fill:#F0B39C;}
	.st210{opacity:0.7;fill:#F0B39C;}
	.st211{fill:#735A99;stroke:#501338;stroke-width:1.5656;stroke-miterlimit:10;}
	.st212{opacity:0.5;fill:#FCF9F4;}
	.st213{opacity:0.5;fill:#FDDCC0;}
	.st214{fill:#6B3A37;}
	.st215{fill:#92A3D3;}
	.st216{fill:#B0C2E4;}
	.st217{fill:#7790BC;}
	.st218{fill:#7F95C6;}
	.st219{fill:#D0A7C2;}
	.st220{fill:#B7BE79;}
	.st221{fill:#725F82;}
	.st222{fill:#635175;}
	.st223{fill:none;stroke:#501338;stroke-width:1.5843;stroke-miterlimit:10;}
	.st224{fill:#C5B8DA;}
	.st225{fill:#A999C9;}
	.st226{fill:#8B6445;}
	.st227{fill:#7A5439;}
	.st228{fill:none;stroke:#501338;stroke-width:1.5751;stroke-linecap:round;stroke-linejoin:round;stroke-miterlimit:10;}
	.st229{fill:#D9CEB7;}
	.st230{fill:#CCBDA2;}
	.st231{opacity:0.2;fill:#FFFFFF;}
	.st232{fill:#B61F30;}
	.st233{fill:#595B5B;}
</style>
<g>
	<g>
		<g>
			<path class="st23" d="M190.2,453.5H44.8c-4,0-7.3-3.3-7.3-7.3v0c0-4,3.3-7.3,7.3-7.3h145.4c4,0,7.3,3.3,7.3,7.3v0
				C197.5,450.3,194.3,453.5,190.2,453.5z"/>
			<g>
				<g>
					<path class="st24" d="M187.8,409.2H47.3c-4.1,0-7.5,3.4-7.5,7.5v27.6c0,4.1,3.4,7.5,7.5,7.5h140.5c4.1,0,7.5-3.4,7.5-7.5v-27.6
						C195.3,412.5,191.9,409.2,187.8,409.2z M193.3,444.2c0,3-2.4,5.5-5.5,5.5H47.3c-3,0-5.5-2.5-5.5-5.5v-27.6c0-3,2.5-5.5,5.5-5.5
						h140.5c3,0,5.5,2.5,5.5,5.5V444.2z"/>
					<path class="st25" d="M193.3,416.6v27.6c0,3-2.4,5.5-5.5,5.5H47.3c-3,0-5.5-2.5-5.5-5.5v-27.6c0-3,2.5-5.5,5.5-5.5h140.5
						C190.8,411.2,193.3,413.6,193.3,416.6z"/>
				</g>
			</g>
		</g>
		<g>
			<g>
				<path class="st24" d="M64.9,424.7h-5v12.6h-1.5v-14h8v14h-1.5V424.7z"/>
				<path class="st24" d="M74.8,436.7c-0.3,0.3-0.7,0.5-1.2,0.7c-0.5,0.2-1,0.2-1.6,0.2c-0.6,0-1.2-0.1-1.6-0.4
					c-0.5-0.2-0.8-0.6-1.1-1.1c-0.3-0.5-0.5-1-0.7-1.7c-0.1-0.6-0.2-1.4-0.2-2.2c0-1.7,0.3-3,0.9-3.9s1.5-1.3,2.7-1.3
					c0.4,0,0.7,0,1.1,0.1c0.4,0.1,0.7,0.3,1,0.6c0.3,0.3,0.5,0.7,0.7,1.2c0.2,0.5,0.3,1.2,0.3,2c0,0.2,0,0.5,0,0.7
					c0,0.3,0,0.5-0.1,0.8h-5.1c0,0.6,0,1.1,0.1,1.6c0.1,0.5,0.2,0.9,0.4,1.2c0.2,0.3,0.5,0.6,0.8,0.8c0.3,0.2,0.7,0.3,1.2,0.3
					c0.4,0,0.7-0.1,1.1-0.2c0.4-0.1,0.6-0.3,0.8-0.5L74.8,436.7z M73.7,431.3c0-1-0.1-1.7-0.4-2.2c-0.3-0.5-0.7-0.7-1.3-0.7
					c-0.6,0-1.1,0.2-1.5,0.7c-0.4,0.5-0.6,1.2-0.6,2.2H73.7z"/>
				<path class="st24" d="M82,432.9h-3.5v4.5h-1.4v-10h1.4v4.2H82v-4.2h1.4v10H82V432.9z"/>
				<path class="st24" d="M91.3,436.9c-0.3,0.3-0.7,0.4-1.1,0.6s-0.9,0.2-1.3,0.2c-0.6,0-1.2-0.1-1.6-0.4c-0.4-0.2-0.8-0.6-1.1-1.1
					c-0.3-0.5-0.5-1-0.6-1.7s-0.2-1.4-0.2-2.2c0-1.7,0.3-3,0.9-3.9c0.6-0.9,1.5-1.3,2.6-1.3c0.5,0,1,0,1.3,0.1s0.7,0.2,1,0.4
					l-0.4,1.3c-0.5-0.3-1.1-0.5-1.7-0.5c-0.7,0-1.3,0.3-1.6,0.9c-0.4,0.6-0.5,1.6-0.5,3c0,0.5,0,1.1,0.1,1.5
					c0.1,0.5,0.2,0.9,0.4,1.3c0.2,0.4,0.4,0.6,0.7,0.8c0.3,0.2,0.7,0.3,1.1,0.3c0.3,0,0.7-0.1,1-0.2c0.3-0.1,0.5-0.3,0.7-0.4
					L91.3,436.9z"/>
				<path class="st24" d="M97.9,431.6l0.1-1.5h-0.1l-0.7,1.7l-3.4,5.6h-0.9v-10h1.4v5.9l-0.1,1.5h0.1l0.7-1.6l3.4-5.8h0.9v10h-1.4
					V431.6z"/>
				<path class="st24" d="M101.2,432.4c0-1.8,0.3-3.1,0.9-4s1.5-1.3,2.7-1.3c1.2,0,2.1,0.4,2.7,1.3c0.6,0.9,0.9,2.2,0.9,3.9
					c0,1.8-0.3,3.1-0.9,4s-1.5,1.3-2.6,1.3c-1.2,0-2.1-0.4-2.7-1.3C101.5,435.4,101.2,434.1,101.2,432.4z M102.7,432.4
					c0,0.6,0,1.1,0.1,1.6c0.1,0.5,0.2,0.9,0.4,1.2c0.2,0.3,0.4,0.6,0.7,0.8c0.3,0.2,0.6,0.3,1,0.3c0.7,0,1.2-0.3,1.6-0.9
					c0.3-0.6,0.5-1.6,0.5-3c0-0.6,0-1.1-0.1-1.6c-0.1-0.5-0.2-0.9-0.4-1.3s-0.4-0.6-0.6-0.8c-0.3-0.2-0.6-0.3-1-0.3
					c-0.7,0-1.2,0.3-1.6,0.9C102.9,430,102.7,431,102.7,432.4z"/>
				<path class="st24" d="M115.2,432.9h-3.5v4.5h-1.4v-10h1.4v4.2h3.5v-4.2h1.4v10h-1.4V432.9z"/>
				<path class="st24" d="M125,436.7c-0.3,0.3-0.7,0.5-1.2,0.7c-0.5,0.2-1,0.2-1.6,0.2c-0.6,0-1.2-0.1-1.6-0.4
					c-0.5-0.2-0.8-0.6-1.1-1.1c-0.3-0.5-0.5-1-0.7-1.7c-0.1-0.6-0.2-1.4-0.2-2.2c0-1.7,0.3-3,0.9-3.9s1.5-1.3,2.7-1.3
					c0.4,0,0.7,0,1.1,0.1c0.4,0.1,0.7,0.3,1,0.6c0.3,0.3,0.5,0.7,0.7,1.2c0.2,0.5,0.3,1.2,0.3,2c0,0.2,0,0.5,0,0.7
					c0,0.3,0,0.5-0.1,0.8H120c0,0.6,0,1.1,0.1,1.6c0.1,0.5,0.2,0.9,0.4,1.2c0.2,0.3,0.5,0.6,0.8,0.8c0.3,0.2,0.7,0.3,1.2,0.3
					c0.4,0,0.7-0.1,1.1-0.2c0.4-0.1,0.6-0.3,0.8-0.5L125,436.7z M123.8,431.3c0-1-0.1-1.7-0.4-2.2c-0.3-0.5-0.7-0.7-1.3-0.7
					c-0.6,0-1.1,0.2-1.5,0.7c-0.4,0.5-0.6,1.2-0.6,2.2H123.8z"/>
				<path class="st24" d="M127.2,427.4h1l0.2,1.1h0.1c0.5-0.9,1.3-1.3,2.3-1.3c1.1,0,1.8,0.4,2.4,1.2c0.5,0.8,0.8,2.1,0.8,3.9
					c0,0.8-0.1,1.6-0.3,2.3c-0.2,0.7-0.4,1.2-0.7,1.7c-0.3,0.5-0.7,0.8-1.2,1.1c-0.5,0.2-1,0.4-1.5,0.4c-0.4,0-0.7,0-0.9-0.1
					c-0.2,0-0.5-0.1-0.7-0.3v4.1h-1.4V427.4z M128.7,435.8c0.2,0.2,0.4,0.3,0.6,0.4c0.2,0.1,0.5,0.1,0.9,0.1c0.7,0,1.3-0.4,1.7-1.1
					c0.4-0.7,0.6-1.7,0.6-3.1c0-0.6,0-1.1-0.1-1.5c-0.1-0.5-0.2-0.8-0.4-1.2c-0.2-0.3-0.4-0.6-0.6-0.8c-0.2-0.2-0.5-0.3-0.9-0.3
					c-1,0-1.6,0.6-1.9,1.8V435.8z"/>
				<path class="st24" d="M135.4,436.5c0-0.3,0.1-0.6,0.3-0.8c0.2-0.2,0.4-0.3,0.8-0.3c0.3,0,0.6,0.1,0.9,0.4
					c0.2,0.3,0.3,0.7,0.3,1.3c0,0.4-0.1,0.8-0.2,1.2c-0.1,0.4-0.3,0.7-0.4,0.9s-0.4,0.5-0.6,0.7c-0.2,0.2-0.4,0.3-0.6,0.4l-0.5-0.7
					c0.2-0.1,0.3-0.2,0.5-0.4c0.2-0.2,0.3-0.3,0.4-0.5c0.1-0.2,0.2-0.4,0.2-0.6c0.1-0.2,0.1-0.4,0.1-0.6c-0.3,0.1-0.5,0-0.7-0.2
					S135.4,436.9,135.4,436.5z"/>
				<path class="st24" d="M149.4,433.1c0,0.7-0.1,1.3-0.2,1.8c-0.2,0.6-0.4,1-0.7,1.4s-0.7,0.7-1.1,0.9c-0.4,0.2-0.9,0.3-1.5,0.3
					c-1.1,0-2-0.4-2.6-1.2c-0.6-0.8-0.9-2.1-0.9-3.7c0-1.4,0.1-2.7,0.4-3.8c0.3-1.1,0.7-2.1,1.2-2.9c0.5-0.8,1.1-1.4,1.7-1.9
					s1.4-0.8,2.1-1l0.4,1.2c-0.6,0.2-1.1,0.4-1.6,0.8c-0.5,0.4-0.9,0.8-1.3,1.4s-0.7,1.1-0.9,1.8c-0.2,0.7-0.4,1.4-0.5,2.1
					c0.2-0.4,0.5-0.7,0.9-0.9c0.4-0.3,0.9-0.4,1.5-0.4c1,0,1.7,0.3,2.3,1C149.1,430.7,149.4,431.8,149.4,433.1z M148,433.3
					c0-2-0.7-2.9-2.1-2.9c-0.5,0-0.9,0.2-1.3,0.5c-0.4,0.3-0.6,0.7-0.8,1.1c0,0.2,0,0.3,0,0.5c0,0.2,0,0.3,0,0.5
					c0,0.4,0,0.9,0.1,1.3c0.1,0.4,0.2,0.8,0.4,1.1c0.2,0.3,0.4,0.6,0.7,0.8c0.3,0.2,0.6,0.3,1,0.3c0.6,0,1.1-0.3,1.5-0.8
					S148,434.2,148,433.3z"/>
				<path class="st24" d="M157.5,423.4v1.4h-3.8v4.1l0.7-0.1c1.1,0,1.9,0.4,2.5,1.1c0.6,0.7,0.9,1.8,0.9,3.1c0,0.7-0.1,1.4-0.3,2
					c-0.2,0.6-0.5,1.1-0.9,1.4c-0.4,0.4-0.8,0.7-1.3,0.9c-0.5,0.2-1,0.3-1.5,0.3c-0.9,0-1.7-0.1-2.2-0.4l0.4-1.3
					c0.2,0.1,0.5,0.2,0.8,0.3c0.3,0,0.6,0.1,1,0.1c0.8,0,1.4-0.3,1.8-0.8c0.5-0.6,0.7-1.3,0.7-2.3c0-1-0.3-1.8-0.7-2.3
					c-0.5-0.5-1.1-0.7-2-0.7l-1.3,0.1v-6.8H157.5z"/>
				<path class="st24" d="M167.4,432.9l-2.2,4.4h-1.6l2.5-4.6l0.5-0.6l-0.8-0.8l-2-4.1h1.5l2.1,4.3h0.8v-4.3h1.4v4.5l0.7-0.3
					l2.1-4.2h1.5l-2.1,4.1l-0.6,0.6l0.8,0.8l2.3,4.5h-1.7l-2.2-4.5h-0.8v4.5h-1.4v-4.7L167.4,432.9z"/>
				<path class="st24" d="M175.1,436.5c0-0.4,0.1-0.7,0.3-0.8c0.2-0.2,0.4-0.3,0.7-0.3c0.3,0,0.5,0.1,0.7,0.3
					c0.2,0.2,0.3,0.5,0.3,0.8c0,0.4-0.1,0.7-0.3,0.9c-0.2,0.2-0.4,0.3-0.7,0.3c-0.3,0-0.5-0.1-0.7-0.3
					C175.2,437.1,175.1,436.8,175.1,436.5z"/>
			</g>
		</g>
	</g>
	<g>
		<g>
			<g>
				<path class="st224" d="M179.8,368.8c-0.1,0.3-0.1,0.6-0.2,1c0,0.1,0,0.1-0.1,0.2c-0.1,0.3-0.2,0.6-0.3,1
					c-0.3,0.8-0.6,1.6-0.9,2.3c-0.1,0.2-0.2,0.4-0.3,0.5c-0.1,0.2-0.2,0.3-0.3,0.5c-0.1,0.2-0.2,0.3-0.3,0.5
					c-0.1,0.2-0.2,0.3-0.3,0.5c-0.2,0.3-0.4,0.6-0.7,0.9c-0.2,0.3-0.5,0.6-0.7,0.9c-0.5,0.6-1.1,1.1-1.7,1.6
					c-0.7,0.6-1.6,1.2-2.4,1.7c0,0,0,0,0,0c-0.3,0.2-0.7,0.4-1.1,0.6c-1,0.5-2,0.9-3.1,1.3c-0.2,0.1-0.4,0.2-0.7,0.2
					c-0.7,0.3-1.5,0.5-2.3,0.7c-0.3,0.1-0.6,0.1-0.8,0.2c-0.1,0-0.3,0.1-0.4,0.1c-0.3,0.1-0.6,0.2-1,0.2c-0.4,0.1-0.9,0.2-1.3,0.3
					c-0.4,0.1-0.9,0.2-1.3,0.2c-0.7,0.1-1.3,0.2-2,0.3c-0.8,0.1-1.6,0.2-2.5,0.3c0,0-0.1,0-0.1,0c-0.9,0.1-1.8,0.2-2.8,0.3
					c-1.9,0.2-3.9,0.3-6,0.4c-0.3,0-0.7,0-1,0c-0.7,0-1.4,0.1-2.1,0.1c-1.8,0.1-3.7,0.1-5.6,0.1c-4.6,0.1-7.3-0.5-14-2.5
					c-1.9-0.5-3.9-0.5-5.8,0c-6.7,1.9-9.4,2.6-14,2.5c-1.9,0-3.8-0.1-5.6-0.1c-0.7,0-1.4,0-2.1-0.1c-0.4,0-0.7,0-1,0
					c-2.1-0.1-4.1-0.2-6-0.4c-1-0.1-1.9-0.2-2.8-0.3c-0.1,0-0.1,0-0.1,0c-0.9-0.1-1.7-0.2-2.5-0.3c-0.7-0.1-1.4-0.2-2-0.3
					c-0.4-0.1-0.9-0.2-1.3-0.2c-0.5-0.1-0.9-0.2-1.3-0.3c-0.3-0.1-0.6-0.1-1-0.2c-0.1,0-0.3-0.1-0.4-0.1c-0.3-0.1-0.6-0.1-0.8-0.2
					c-0.8-0.2-1.6-0.5-2.3-0.7c-0.2-0.1-0.4-0.2-0.7-0.2c-1.1-0.4-2.1-0.8-3.1-1.3c-0.4-0.2-0.7-0.4-1.1-0.6c0,0,0,0,0,0
					c-0.9-0.5-1.7-1.1-2.4-1.7c-0.6-0.5-1.2-1-1.7-1.6c-0.3-0.3-0.5-0.6-0.7-0.9c-0.3-0.3-0.5-0.6-0.7-0.9c-0.1-0.2-0.2-0.3-0.3-0.5
					c-0.1-0.2-0.2-0.3-0.3-0.5c-0.1-0.2-0.2-0.3-0.3-0.5c-0.1-0.2-0.2-0.4-0.3-0.5c-0.4-0.7-0.7-1.5-0.9-2.3c-0.1-0.3-0.2-0.6-0.3-1
					c0-0.1,0-0.1-0.1-0.2c-0.1-0.3-0.2-0.6-0.2-1c-0.3-1.6-1.1-3.7-1.3-5.6c-1.6-18.4,4.2-25.6,10.7-35.4c2-3,4.3-5.5,5.3-7.4
					c0.2-0.4,0.5-0.9,0.8-1.2c2.3-3.1,6.2-4.7,10.1-4.1l32,5.4c1.1,0.2,2.3,0.2,3.5,0l32-5.4c4-0.7,8.1,1.1,10.3,4.4
					c0.2,0.3,0.4,0.6,0.6,0.9c2.8,5.1,9.9,12.8,13,20.8c2.8,7.2,3.9,13.3,2.7,20.4c-0.1,0.3,0.1,1.8,0.1,2.1
					C181,365.7,180.1,367.1,179.8,368.8z"/>
				<path class="st106" d="M65.7,340.9c2.6-7.2,5.5-12,5.5-12l-0.2-0.4l-0.4,0.1l-1.4,1.9c0,0-6,9.1-8.4,17.2
					c-2.5,8.1-1,14,1.4,21.8c-1.7-9.1,0.2-18.6,2.7-26.2c0.6,0.9,1.6,2.2,3.2,3.5c0.1,0.1,0.3,0,0.2-0.2
					C66.6,344.2,65.8,341.8,65.7,340.9z"/>
				<g class="st109">
					<path class="st225" d="M166.6,323c2.8-2.4,4.3-4.3,3.9-4.9c-0.3-0.5-0.6-1-0.9-1.4h-4l-19.8,4.7c0,0-18.6,2.5-25.4,6.9
						c-6.8-4.4-25.4-6.9-25.4-6.9l-19.8-4.7h-4c-0.3,0.4-0.6,0.9-0.9,1.4c-0.3,0.6,1.1,2.5,3.9,4.9c-6.3,9.5-19.5,22.7-12.9,46.7
						c0,0,0,0,0,0c0,0.1,0,0.1,0.1,0.2c0.1,0.3,0.2,0.6,0.3,1c0.3,0.8,0.6,1.6,0.9,2.3c0.1,0.2,0.2,0.4,0.3,0.5l0.3,0.5
						c0.1,0.1,0.1,0.2,0.2,0.4c0.1,0.2,0.3,0.4,0.4,0.6c0.2,0.3,0.4,0.6,0.7,0.9c0.2,0.3,0.5,0.6,0.7,0.9c0.5,0.6,1.1,1.1,1.7,1.6
						c0.7,0.6,1.6,1.2,2.4,1.7c0,0,0,0,0,0c0.3,0.2,0.7,0.4,1.1,0.6c1,0.5,2,0.9,3.1,1.3c0.2,0.1,0.4,0.2,0.7,0.2
						c0.7,0.3,1.5,0.5,2.3,0.7c0.3,0.1,0.6,0.1,0.8,0.2c0.1,0,0.3,0.1,0.4,0.1c0.3,0.1,0.6,0.2,1,0.2c0.4,0.1,0.9,0.2,1.3,0.3
						c0.4,0.1,0.9,0.2,1.3,0.2c0.7,0.1,1.3,0.2,2,0.3c0.8,0.1,1.6,0.2,2.5,0.3c0,0,0.1,0,0.1,0c0.9,0.1,1.8,0.2,2.8,0.3
						c1.9,0.2,3.9,0.3,6,0.4c0.3,0,0.7,0,1,0c0.7,0,1.4,0.1,2.1,0.1c1.8,0.1,3.7,0.1,5.6,0.1c4.6,0.1,7.3-0.5,14-2.5
						c0.9-0.3,1.9-0.4,2.9-0.4c1,0,2,0.1,2.9,0.4c6.7,1.9,9.4,2.6,14,2.5c1.9,0,3.8-0.1,5.6-0.1c0.7,0,1.4,0,2.1-0.1
						c0.4,0,0.7,0,1,0c2.1-0.1,4.1-0.2,6-0.4c1-0.1,1.9-0.2,2.8-0.3c0.1,0,0.1,0,0.1,0c0.9-0.1,1.7-0.2,2.5-0.3
						c0.7-0.1,1.4-0.2,2-0.3c0.4-0.1,0.9-0.2,1.3-0.2c0.5-0.1,0.9-0.2,1.3-0.3c0.3-0.1,0.6-0.1,1-0.2c0.1,0,0.3-0.1,0.4-0.1
						c0.3-0.1,0.6-0.1,0.8-0.2c0.8-0.2,1.6-0.5,2.3-0.7c0.2-0.1,0.4-0.2,0.7-0.2c1.1-0.4,2.1-0.8,3.1-1.3c0.4-0.2,0.7-0.4,1.1-0.6
						c0,0,0,0,0,0c0.9-0.5,1.7-1.1,2.5-1.7c0.6-0.5,1.2-1,1.7-1.6c0.3-0.3,0.5-0.6,0.7-0.9c0.2-0.3,0.5-0.6,0.7-0.9
						c0.1-0.2,0.3-0.4,0.4-0.6c0.1-0.1,0.1-0.2,0.2-0.4l0.3-0.5c0.1-0.2,0.2-0.4,0.3-0.5c0.3-0.7,0.6-1.5,0.9-2.3
						c0.1-0.3,0.2-0.6,0.3-1c0-0.1,0-0.1,0.1-0.2C186.1,345.7,173,332.6,166.6,323z M121.1,372.6
						C121.1,372.6,121.1,372.5,121.1,372.6C121.1,372.5,121.1,372.5,121.1,372.6C121.1,372.5,121.1,372.5,121.1,372.6z M167.2,364.2
						L167.2,364.2c-0.1,0.3-0.2,0.7-0.3,1.1c-3.1,15-19.3,18.4-38.6,12c-1-0.5-1.9-1-2.8-1.7c-0.9-0.7-1.7-1.5-2.4-2.3
						c-0.5-0.5-0.9-1.1-1.4-1.6c0.7-0.9,1.3-1.9,1.8-2.9c0.7-1.4,1.3-2.9,1.7-4.5c0-0.1,0-0.2-0.1-0.3c-0.1-0.1-0.3-0.1-0.3,0
						c-0.8,1.3-1.6,2.7-2.4,3.9c-0.8,1.3-1.7,2.5-2.7,3.7c-1,1.1-2.1,2.2-3.3,3.2c-1,0.8-2.2,1.6-3.4,2.3
						c-19.5,6.6-35.9,3.2-39-11.9c-0.1-0.4-0.2-0.8-0.3-1.1l0,0c-2.5-24.1,4-36.2,5.4-37.1c0.1-0.1,0.2-0.1,0.2-0.1l0,0
						c6.6,4.5,16.4,9.5,27.8,11.9c4.3,3.2,8.2,5.2,10.3,6.2c-1,0.2-2,0.4-3,0.6c-2.3,0.3-4.6,0.5-7.1,0.4c-0.1,0-0.1,0.1-0.1,0.1
						c0,0.1,0.1,0.2,0.1,0.2c2.5,0.9,5,1.2,7.5,1.2c2.5-0.1,4.9-0.5,7.1-1.3c2.3-0.8,4.4-1.8,6.4-3.1c2-1.3,3.8-2.7,5.5-4.4
						c11.4-2.4,21.2-7.4,27.8-11.9l0,0c0,0,0.1,0,0.2,0.1C163.3,327.9,169.8,340.1,167.2,364.2z"/>
					<path class="st225" d="M156.2,364.8c-1.9,1.1-4.9,2.7-10.5,3.4c-5.1,0.7-10-0.3-12.8-1.7c-0.1,0.2-0.1,0.3-0.1,0.5
						c0.1,2.8,5.5,8.7,12.7,7.7c10.3-1.4,10.9-8.5,10.7-9.6C156.3,365,156.3,364.9,156.2,364.8z"/>
					<path class="st225" d="M95.2,368.2c-5.5-0.7-8.6-2.3-10.5-3.4c0,0.1-0.1,0.2-0.1,0.2c-0.2,1.1,0.4,8.2,10.7,9.6
						c7.1,1,12.6-4.9,12.7-7.7c0-0.1,0-0.3-0.1-0.5C105.2,367.8,100.3,368.9,95.2,368.2z"/>
				</g>
				<path class="st6" d="M136.6,386.7c-4.2,0-6.9-0.6-13.5-2.5c-1.7-0.5-3.6-0.5-5.3,0c-6.9,2-9.7,2.6-14.3,2.5
					c-1.9,0-3.8-0.1-5.6-0.1c-0.7,0-1.4,0-2.2-0.1l-1,0c-2.2-0.1-4.2-0.2-6-0.4c-0.9-0.1-1.9-0.2-2.8-0.3c-0.1,0-0.2,0-0.2,0
					c-0.8-0.1-1.7-0.2-2.5-0.3c-0.7-0.1-1.4-0.2-2-0.3c-0.5-0.1-0.9-0.2-1.3-0.2c-0.5-0.1-0.9-0.2-1.4-0.3c-0.3-0.1-0.7-0.2-1-0.2
					l-0.4-0.1c-0.3-0.1-0.6-0.1-0.9-0.2c-0.8-0.2-1.6-0.5-2.3-0.7l-0.7-0.2c-1.1-0.4-2.2-0.9-3.2-1.4c-0.3-0.2-0.7-0.4-1-0.5h0
					L69,381c-0.9-0.6-1.8-1.1-2.6-1.8c-0.6-0.5-1.2-1.1-1.8-1.7c-0.3-0.3-0.5-0.6-0.8-0.9c-0.2-0.3-0.5-0.6-0.7-1
					c-0.1-0.2-0.2-0.3-0.3-0.5c-0.1-0.2-0.2-0.3-0.3-0.5l-0.3-0.5c-0.1-0.2-0.2-0.4-0.3-0.6c-0.4-0.7-0.7-1.5-0.9-2.4
					c-0.1-0.3-0.2-0.5-0.2-0.8l0,0l-0.1-0.4c-5.8-21.1,3.5-34,10.2-43.3c1.8-2.4,3.3-4.6,4.4-6.5c0.1-0.1,0.1-0.2,0.2-0.3l0.1-0.1
					c0.1-0.1,0.2-0.3,0.2-0.4c0.1-0.1,0.1-0.1,0.1-0.2l0.4-0.6l0,0c2.5-3.3,6.6-4.8,10.7-4.2l32,5.4c1.1,0.2,2.1,0.2,3.2,0l31.9-5.4
					c4.3-0.7,8.7,1.1,11.1,4.7c0.2,0.3,0.4,0.6,0.6,1l0,0c1.1,2,2.6,4.1,4.4,6.5c6.8,9.4,16,22.2,10.2,43.3c0,0.1,0,0.1-0.1,0.2
					c-0.1,0.3-0.2,0.6-0.3,1c-0.3,0.9-0.6,1.7-0.9,2.4c-0.1,0.2-0.2,0.4-0.3,0.6l-0.3,0.5c-0.1,0.2-0.2,0.4-0.3,0.5
					c-0.1,0.2-0.2,0.4-0.3,0.5c-0.3,0.4-0.5,0.7-0.7,1c-0.2,0.3-0.5,0.6-0.8,0.9c-0.5,0.6-1.2,1.2-1.8,1.7c-0.8,0.6-1.6,1.2-2.5,1.8
					l-0.2,0.1c-0.3,0.2-0.6,0.3-0.9,0.5c-1,0.5-2,1-3.2,1.4l-0.7,0.2c-0.8,0.3-1.6,0.5-2.4,0.7c-0.3,0.1-0.6,0.2-0.9,0.2l-0.4,0.1
					c-0.3,0.1-0.7,0.2-1,0.2c-0.4,0.1-0.9,0.2-1.4,0.3c-0.4,0.1-0.9,0.2-1.3,0.2c-0.7,0.1-1.3,0.2-2,0.3c-0.8,0.1-1.6,0.2-2.5,0.3
					c0,0-0.1,0-0.2,0c-0.9,0.1-1.8,0.2-2.8,0.3c-1.8,0.2-3.8,0.3-6,0.4l-1.1,0c-0.7,0-1.4,0.1-2.1,0.1c-1.8,0.1-3.7,0.1-5.6,0.1
					C137.1,386.7,136.9,386.7,136.6,386.7z M120.5,382.2c1,0,2.1,0.1,3.1,0.4c6.8,2,9.4,2.5,13.8,2.5c1.9,0,3.8-0.1,5.6-0.1
					c0.7,0,1.4,0,2.1-0.1l1.1,0c2.2-0.1,4.2-0.2,5.9-0.4c0.9-0.1,1.9-0.2,2.8-0.3l0.1,0c0.9-0.1,1.7-0.2,2.5-0.3
					c0.7-0.1,1.3-0.2,2-0.3c0.4-0.1,0.9-0.2,1.3-0.2c0.5-0.1,0.9-0.2,1.3-0.3c0.3-0.1,0.6-0.1,0.9-0.2l0.4-0.1
					c0.3-0.1,0.5-0.1,0.8-0.2c0.8-0.2,1.5-0.4,2.3-0.7l0.7-0.2c1.1-0.4,2.1-0.8,3-1.3c0.3-0.2,0.6-0.3,1-0.5l0.3-0.2
					c0.8-0.5,1.5-1,2.2-1.5c0.6-0.5,1.1-1,1.6-1.5c0.2-0.3,0.5-0.6,0.7-0.9c0.2-0.3,0.4-0.5,0.6-0.9c0.1-0.2,0.2-0.3,0.3-0.5
					c0.1-0.2,0.2-0.3,0.3-0.5l0.3-0.5c0.1-0.2,0.2-0.3,0.2-0.5c0.3-0.7,0.6-1.4,0.9-2.2c0.1-0.3,0.2-0.6,0.3-0.9l0-0.1
					c0,0,0-0.1,0-0.1c5.6-20.4-3.4-32.9-10-42c-1.7-2.4-3.4-4.6-4.5-6.7c-0.2-0.3-0.3-0.6-0.5-0.8c-2.1-3.1-5.8-4.7-9.5-4.1
					l-31.9,5.4c-1.2,0.2-2.5,0.2-3.7,0l-32-5.4c-3.6-0.6-7.2,0.8-9.3,3.8c-0.1,0.1-0.1,0.1-0.1,0.2l-0.2,0.3
					c-0.1,0.1-0.1,0.2-0.2,0.3l-0.1,0.2c0,0.1-0.1,0.1-0.1,0.2c-1.1,2.1-2.7,4.3-4.5,6.7c-6.5,9-15.5,21.4-10.1,41.6l0.1,0.4
					c0,0,0,0.1,0,0.1l0,0.1c0.1,0.3,0.2,0.6,0.3,0.9c0.2,0.8,0.5,1.5,0.9,2.2c0.1,0.2,0.2,0.4,0.3,0.5l0.3,0.5
					c0.1,0.1,0.2,0.3,0.3,0.5c0.1,0.2,0.2,0.3,0.3,0.5c0.3,0.4,0.4,0.7,0.6,0.9c0.2,0.3,0.5,0.6,0.7,0.9c0.5,0.5,1,1,1.6,1.5
					c0.7,0.5,1.4,1.1,2.2,1.5l0.3,0.2c0.3,0.2,0.6,0.4,1,0.5c0.9,0.5,1.9,0.9,3,1.3l0.7,0.2c0.7,0.2,1.5,0.5,2.2,0.7
					c0.3,0.1,0.5,0.1,0.8,0.2l0.4,0.1c0.3,0.1,0.6,0.2,1,0.2c0.4,0.1,0.9,0.2,1.3,0.3c0.4,0.1,0.9,0.2,1.3,0.2
					c0.6,0.1,1.3,0.2,2,0.3c0.8,0.1,1.6,0.2,2.5,0.3l0.1,0c0.9,0.1,1.8,0.2,2.8,0.3c1.8,0.2,3.7,0.3,5.9,0.4l1,0
					c0.7,0,1.4,0.1,2.1,0.1c1.8,0.1,3.7,0.1,5.6,0.1c4.4,0.1,7-0.5,13.8-2.4C118.4,382.4,119.4,382.2,120.5,382.2z"/>
				<path class="st6" d="M178.7,370.8c0.3,0.2-2.9,2.8-7.4,4.8c-0.1,0.1,0,0.3,0.1,0.2c5-1.2,7.8-2.9,7.6-3.1L178.7,370.8z"/>
				<path class="st6" d="M63.8,373.9c-0.3,0.3,3.7,2.6,9,4c0.1,0,0.1,0.3-0.1,0.3c-5.8-0.5-9.2-1.9-9-2.1L63.8,373.9z"/>
				<rect x="109" y="202.4" class="st5" width="19.4" height="19.4"/>
				<polygon class="st224" points="120.5,291.5 86.3,291.5 86.8,309.9 120.5,319.1 154.1,309.9 154.7,291.5 				"/>
				<g>
					<path class="st224" d="M101.7,305c0.6,0.3,2.1,1,2.1,1c-4.5,6.6-6.1,15.3-6.4,24.8c-1.6-0.4-3.1-0.8-4.6-1.2
						C31.2,312.2,31.5,248.1,67,218.8c7.8-6.5,17.3-11.2,28.3-13.4c1.8-0.4,3.6-0.7,5.5-0.9c0,0,1.9,6.1,7.5,10.4
						c2.9,2.2,6.9,3.9,12.2,3.9v74.4H86.3L84,238.8C63.4,249.2,53.9,285.8,101.7,305z"/>
					<path class="st106" d="M70.1,302.4C70,302.3,70,302.3,70.1,302.4c-4.4,2.5-6.7,4.3-8,5.5c-29.8-28.2-12.4-70.1,4.9-89
						c-35.5,29.3-35.8,93.4,25.7,110.7l0-0.1l0.3-3.9c-12.7-4.4-22.4-10-29.5-16.4C64.5,307.9,66.4,305.8,70.1,302.4z"/>
					<path class="st225" d="M103.7,305.9l-6.4,24.8c-2.8-0.7-2-0.4-4.6-1.3c0,0,0.2-8.5,3.8-20.8c-18.7-9.1-27.9-19.5-31.3-29.6
						c-1.7,0.6-4.3,1.2-8.1,1.9c0,0,0-0.1,0-0.1c3.8-1.5,6.2-2.7,7.6-3.5c-1.3-4.6-1.4-9.2-0.7-13.4c-3.7-2.6-14.4-9.9-14.6-10.1
						l15.9,5.1c3.9-11.7,13.5-20.4,19.5-21.6l-0.8,1.3v0c-20.6,10.4-30.1,47.1,17.6,66.2C102.3,305.2,103.1,305.8,103.7,305.9z"/>
					<path class="st6" d="M120.5,218c-14.6,0-18.8-13.1-19-13.7l-0.2-0.6l-0.7,0.1c-36.4,4.3-57,34.7-58.5,62.6
						c-1.4,25,12.3,55.3,55,65.2l0.9,0.2l0-1c0.3-10.8,2.3-18.6,6.3-24.4l0.5-0.8l-0.8-0.4c-0.1,0-1.5-0.7-2.1-1h0
						c-28.7-11.5-33.7-28-34-36.7c-0.5-11.1,5.7-22,15.4-27.4l2.2,53.9l0.1,1.7l1.6,1.3l-0.2-4.6l-2.3-54.9l-1.1,0.6
						c-10.9,5.5-17.9,17.4-17.3,29.5c0.4,9.2,5.5,26.3,35,38.1c0.3,0.1,0.8,0.4,1.2,0.6c-3.7,5.8-5.6,13.4-6,23.5
						c-41-9.9-54.2-39.2-52.9-63.4c1.5-27,21.4-56.6,56.5-61c1.1,2.8,6.1,13.7,19.5,14.2v20.3h1.6V218H120.5z"/>
					<g>
						<g>
							<path class="st5" d="M101.9,305.1c0.9,0.3,1.5,0.5,1.8,0.6c2.6,0.9,7.3-2.4,9.3-3.3c1.5-0.7,3.3,2.9,4.1,4.8
								c0.3,0.7,0.9,1.1,1.6,1.3l5.8,1.1c1,0.2,1.7,1,1.8,1.9c0,0,0.3,24.8-8.7,23.6c-7.5-1-14.3-2.5-20.6-4.3
								C98.4,318.7,100.6,309.8,101.9,305.1z"/>
							<path class="st13" d="M120.3,308.2c0,0,6.4,0.1,6.3,4.1c-0.1,4-1,12.4-2,16c-1.1,3.6-3.2,6.1-3.7,6.5c-0.5,0.4-3.7,0.5-6.6,0
								c-2.9-0.5-17-3.6-17-3.6s-1,0.2-0.8-1c0.2-1.2,3-19.1,4.2-22.4c1-2.9,1.2-3.2,1.2-3.2l2.7,0.9c0,0-4.4,13.1-3.3,17.3
								c5.8,1.2,14.5,3.4,14.5,3.4S120.8,319.1,120.3,308.2z"/>
							<path class="st7" d="M116.8,324.5c0,0,2.6-7,2.6-16.3l1.8,0.2C121.3,308.5,121.4,316.4,116.8,324.5z"/>
							<path class="st6" d="M117.5,323.2C117.5,323.2,117.5,323.2,117.5,323.2c3-4.8,4.2-14.9,4.2-14.9l-1.4-0.1
								C120.6,309.3,119.8,317.7,117.5,323.2z"/>
							<path class="st6" d="M126.3,316.1c-1.3,0.5-2.7,0.8-4,0.8c1.3,0.4,2.6,0.6,3.8,0.4L126.3,316.1z"/>
							<path class="st6" d="M125.4,323.4c-1.4,0.6-2.7,0.9-4,0.8c1.3,0.4,2.6,0.6,3.8,0.4L125.4,323.4z"/>
							<path class="st6" d="M123.8,329.3c-0.6,0.4-1.4,0.5-2.3,0.5c0.8,0.3,1.6,0.4,2.2,0.3L123.8,329.3z"/>
							<path class="st7" d="M112.1,305.9c-0.5,0-1,0.1-1.5,0.2c-0.5,0.1-0.9,0.3-1.3,0.5c-0.4,0.2-0.8,0.5-1.2,0.7
								c-0.4,0.3-0.7,0.6-1.1,1l0,0c0.5,0,1-0.2,1.4-0.3c0.5-0.1,0.9-0.3,1.3-0.5c0.4-0.2,0.8-0.4,1.2-0.7
								C111.4,306.6,111.8,306.3,112.1,305.9z"/>
						</g>
						<path class="st6" d="M117.5,335.8c-7.3-1-14.2-2.4-20.7-4.3l-0.6-0.2l0.1-0.7c1.4-11.6,3.5-20.4,5-25.7l0.2-0.8l1.8,0.6
							c0.4,0.1,0.7,0.2,0.8,0.3c1.6,0.6,4.8-1.2,6.9-2.3c0.7-0.4,1.3-0.7,1.8-0.9c0.4-0.2,0.9-0.2,1.4,0c1.2,0.5,2.4,2.2,3.7,5.2
							c0.2,0.4,0.6,0.7,1,0.8l5.8,1.1c1.3,0.2,2.3,1.3,2.4,2.7c0,0.7,0.1,18.1-5.4,23c-1,0.9-2.2,1.4-3.4,1.4
							C118,335.8,117.8,335.8,117.5,335.8z M113.4,303.1c-0.4,0.2-1,0.5-1.7,0.9c-2.5,1.4-5.9,3.2-8.2,2.4c-0.1-0.1-0.4-0.1-0.8-0.3
							l-0.2-0.1c-1.2,4.5-3.2,12.9-4.6,24c6.2,1.8,12.9,3.2,19.9,4.1c1.1,0.1,2-0.2,2.9-0.9c5-4.4,4.9-21.7,4.9-21.8
							c-0.1-0.6-0.5-1.1-1.1-1.2l-5.8-1.1c-1-0.2-1.8-0.8-2.2-1.7c-1.2-2.9-2.3-4.1-2.8-4.4C113.5,303.1,113.4,303.1,113.4,303.1
							C113.4,303.1,113.4,303.1,113.4,303.1z"/>
					</g>
					<path class="st19" d="M48.8,245.6c0,0,6.5,1.6,8.8,4.7c0.2,0.2-0.1,0.5-0.3,0.4c-4.7-2.7-9.4-3.1-9.4-3.2L48.8,245.6z"/>
					<path class="st6" d="M91.5,328.9c0.6-5.6,1.4-9.8,4.3-17.7c-1.9,7.9-2.3,12.6-2.7,18L91.5,328.9z"/>
				</g>
				<g>
					<path class="st224" d="M148.2,329.6c-1.5,0.4-3,0.8-4.6,1.2c-0.3-9.6-2-18.2-6.4-24.8c0,0,1.5-0.7,2.1-1
						c44.1-17.7,39.4-50.4,22.1-63.4c-1.4-1.1-2.9-2-4.4-2.8l0,0.5l-1.1,27.2l-0.9,20.4l-4.2,0l-30.2,6.4v-74.4
						c1.7,0,3.3-0.2,4.7-0.5c7.3-1.6,11.4-6.7,13.4-10.2c1.1-2,1.6-3.6,1.6-3.6c0.8,0.1,1.5,0.2,2.3,0.3c7.2,1.1,13.9,3.3,19.9,6.3
						c2.1,1,4,2.2,5.9,3.5c0.3,0.2,0.6,0.4,1,0.6c1.6,1.1,3.2,2.3,4.7,3.6C209.5,248.1,209.8,312.2,148.2,329.6z"/>
					<path class="st225" d="M176.9,264.1c1.9,11.3-2,24.6-18.7,36.5c0.8,1.4,2.5,3.7,5.6,7.5c0,0,0,0-0.1,0.1c-3.9-3-6-5.1-7.1-6.4
						c-3.5,2.4-7.6,4.7-12.2,7c3.6,12.4,3.8,20.8,3.8,20.8c-2.6,0.8-1.7,0.6-4.6,1.3l-6.4-24.8c0.7-0.1,1.5-0.7,2.1-1
						c47.7-19.1,38.3-55.8,17.6-66.2v0l-0.8-1.3c6,1.2,15.6,9.9,19.5,21.6l15.9-5.1C191.3,254.1,180.5,261.6,176.9,264.1z"/>
					<g class="st108">
						<path class="st7" d="M174,218.8c16.2,17.8,32.5,55.7,9.9,83.7c-1.3-1.1-3.8-2.7-8.2-4.9c0,0,0,0,0,0.1c3.9,3.1,5.9,5.1,7,6.3
							c-7.4,8.5-18.6,16-34.7,21.6l0.3,3.9l0,0.1C209.8,312.2,209.5,248.1,174,218.8z"/>
					</g>
					<path class="st6" d="M198.8,266.3c-1.6-27.9-22.2-58.3-58.5-62.6l-0.7-0.1l-0.2,0.6c-0.2,0.6-4.4,13.7-19,13.7h-0.8v90.3h1.6
						v-88.7c13.3-0.4,18.4-11.4,19.5-14.2c35.1,4.4,55,34,56.5,61c1.4,24.2-11.9,53.5-52.9,63.4c-0.4-10.2-2.4-17.7-6-23.5
						c0.4-0.2,0.9-0.4,1.2-0.6c29.6-11.9,34.6-29,35-38.1c0.5-12.1-6.4-24-17.3-29.5l-1.1-0.6l-0.3,38.3l-0.5,0.8
						c0.6-0.3,0.2,1.9,0.7,1.5l1.3-0.7l0.2-37.4c9.7,5.4,15.9,16.3,15.4,27.4c-0.3,7.6-4,20.8-23.4,31.7c-0.3,0.2-0.7,0.4-1.1,0.6
						c-2.9,1.6-6,3-9.6,4.5h0c-0.7,0.3-2.1,1-2.1,1l-0.8,0.4l0.5,0.8c4,5.9,6,13.6,6.3,24.4l0,1l0.9-0.2
						C186.5,321.6,200.2,291.3,198.8,266.3z"/>
					<g>
						<g>
							<path class="st5" d="M139,305.1c-0.9,0.3-1.5,0.5-1.8,0.6c-2.6,0.9-7.3-2.4-9.3-3.3c-1.5-0.7-3.3,2.9-4.1,4.8
								c-0.3,0.7-0.9,1.1-1.6,1.3l-5.8,1.1c-1,0.2-1.7,1-1.8,1.9c0,0-0.3,24.8,8.7,23.6c7.5-1,14.3-2.5,20.6-4.3
								C142.5,318.7,140.4,309.8,139,305.1z"/>
							<path class="st13" d="M120.6,308.2c0,0-6.4,0.1-6.3,4.1c0.1,4,1,12.4,2,16s3.2,6.1,3.7,6.5c0.5,0.4,3.7,0.5,6.6,0
								c2.9-0.5,17-3.6,17-3.6s1,0.2,0.8-1c-0.2-1.2-3-19.1-4.2-22.4c-1-2.9-1.2-3.2-1.2-3.2l-2.7,0.9c0,0,4.4,13.1,3.3,17.3
								c-5.8,1.2-14.5,3.4-14.5,3.4S120.2,319.1,120.6,308.2z"/>
							<path class="st7" d="M124.1,324.5c0,0-2.6-7-2.6-16.3l-1.8,0.2C119.7,308.5,119.5,316.4,124.1,324.5z"/>
							<path class="st6" d="M123.4,323.2C123.4,323.2,123.4,323.2,123.4,323.2c-3-4.8-4.2-14.9-4.2-14.9l1.4-0.1
								C120.3,309.3,121.2,317.7,123.4,323.2z"/>
							<path class="st6" d="M114.7,316.1c1.3,0.5,2.7,0.8,4,0.8c-1.3,0.4-2.6,0.6-3.8,0.4L114.7,316.1z"/>
							<path class="st6" d="M115.5,323.4c1.4,0.6,2.7,0.9,4,0.8c-1.3,0.4-2.6,0.6-3.8,0.4L115.5,323.4z"/>
							<path class="st6" d="M117.2,329.3c0.6,0.4,1.4,0.5,2.3,0.5c-0.8,0.3-1.6,0.4-2.2,0.3L117.2,329.3z"/>
							<path class="st7" d="M128.8,305.9c0.5,0,1,0.1,1.5,0.2c0.5,0.1,0.9,0.3,1.3,0.5c0.4,0.2,0.8,0.5,1.2,0.7
								c0.4,0.3,0.7,0.6,1.1,1l0,0c-0.5,0-1-0.2-1.4-0.3c-0.5-0.1-0.9-0.3-1.3-0.5c-0.4-0.2-0.8-0.4-1.2-0.7
								C129.5,306.6,129.2,306.3,128.8,305.9z"/>
						</g>
						<path class="st6" d="M122.7,335.8c-1.3,0-2.4-0.5-3.4-1.4c-5.6-4.9-5.4-22.3-5.4-23c0.1-1.4,1.1-2.5,2.4-2.7l5.8-1.1
							c0.5-0.1,0.8-0.4,1-0.8c1.3-3,2.5-4.7,3.7-5.2c0.5-0.2,1-0.2,1.4,0c0.5,0.2,1.1,0.5,1.8,0.9c2.1,1.2,5.3,2.9,6.9,2.3
							c0.2-0.1,0.4-0.1,0.8-0.3l1.8-0.6l0.2,0.8c1.5,5.3,3.6,14.1,5,25.7l0.1,0.7l-0.6,0.2c-6.5,1.9-13.5,3.4-20.7,4.3
							C123.2,335.8,122.9,335.8,122.7,335.8z M127.5,303.1c0,0-0.1,0-0.1,0c-0.6,0.2-1.6,1.5-2.8,4.4c-0.4,0.9-1.2,1.6-2.2,1.7
							l-5.8,1.1c-0.6,0.1-1.1,0.6-1.1,1.2c0,0.1-0.1,17.3,4.9,21.8c0.9,0.8,1.8,1.1,2.9,0.9c6.9-0.9,13.6-2.3,19.9-4.1
							c-1.4-11.1-3.4-19.6-4.6-24l-0.2,0.1c-0.4,0.1-0.6,0.2-0.8,0.3c-2.3,0.8-5.7-1-8.2-2.4C128.6,303.6,128,303.3,127.5,303.1
							C127.6,303.1,127.6,303.1,127.5,303.1z"/>
					</g>
					<path class="st6" d="M173.2,274.2c0.9,0.2,6.5,1.6,8.9,4c0.1,0.1,0,0.3-0.2,0.3c-4.3-2-8.4-2.6-9.3-2.8c-0.1,0-0.2-0.1-0.1-0.2
						l0.5-1.2C173,274.3,173.1,274.2,173.2,274.2z"/>
					<path class="st6" d="M149.4,328.9c-0.6-5.6-1.4-9.8-4.3-17.7c1.9,7.9,2.3,12.6,2.7,18L149.4,328.9z"/>
				</g>
				<path class="st224" d="M121.9,299.8l0-83c-4-0.7-19.4-3.8-26-14.5c-28.6,0.3-52.1,35.9-53.1,47.5c0,0.1,1.1,0.9,1.2,1l27.3,11.1
					c0.1,0.1,0.3,0,0.3-0.2c0.6-2.1,4.8-16.5,13.9-22.5L83.1,293c1.1,0.9,2.5,2,3.9,3l1.1-0.7L121.9,299.8z"/>
				<path class="st225" d="M104.1,206.8c0,0,5.5,48.4-5.2,96.1c-1.5-0.7-4.8-2.2-4.8-2.2s7-41.4,5.9-55.8c-1.2-14.4-6-42.3-6-42.3
					L104.1,206.8z"/>
				<path class="st224" d="M120.5,299.3l0-83c4-0.7,19.4-3.8,26-14.5c28.6,0.3,51.1,36.6,52.1,48.3c0,0.1-0.1,0.2-0.1,0.2
					l-27.3,11.1c-0.1,0.1-0.3,0-0.3-0.2c-0.6-2.1-4.8-16.5-13.9-22.5l2.4,53.8c-1.1,1-2.4,2-3.9,3l-1.6,1.1L120.5,299.3z"/>
				<path class="st225" d="M136.2,207.1c0,0-5.5,48.4,5.2,96.1c1.5-0.7,4.8-2.2,4.8-2.2s-7-41.4-5.9-55.8c1.2-14.4,6-42.3,6-42.3
					L136.2,207.1z"/>
				<path class="st28" d="M169.1,209.4c-0.4,0.6-0.8,1.1-1.2,1.6c-5.7-4.2-12.5-7.3-20.3-8.1c-0.1-0.3,0-0.6,0-0.8
					c0.4-1,2.5-0.7,5,0c0.7,0.2,1.5,0.5,2.3,0.8C157.2,203.9,162.7,205.6,169.1,209.4z"/>
				<g class="st109">
					<path class="st7" d="M86,203.1c-4,1.5-19.3,5.8-30,21.4s-13.3,23-13.6,25c-0.2,1.9,3.6,1.9,3.6,1.9s4.8-15.4,15.5-28.8
						c1.2,0.5,3.8,1.8,9,5.3c0,0,0,0,0.1-0.1c-3.9-4.2-6.3-6.1-7.7-6.9c7.5-8.9,17.6-16.6,30.6-17.9C93.8,200.8,90,201.5,86,203.1z"
						/>
					<path class="st7" d="M185,224.5c-4.9-7.1-10.7-11.8-15.9-15c-0.4,0.6-0.8,1.1-1.2,1.6c8.8,6.4,15.3,15.6,19.7,23.6
						c-1.4,1-3.6,2.9-6.9,6.4c0,0,0,0,0.1,0.1c3.9-2.7,6.3-4.1,7.8-4.8c4.5,8.4,6.6,15.1,6.6,15.1s3.8,0,3.6-1.9
						C198.3,247.5,195.7,240.1,185,224.5z"/>
				</g>
				<g>
					<g>
						<path class="st110" d="M93.5,284.1l-6.7-3.8l-2.3-34.1l-2.2,46.8c1.6,1.3,3.2,2.5,5,3.6L87,284.1H93.5z"/>
						<path class="st110" d="M69.9,252c-0.9-0.4-3.6-1-11.7,0.1c0,0,0,0.1,0,0.1c6.8,0.5,9.6,1.2,10.6,1.6c-0.8,1.5-1.3,2.5-1.3,2.5
							L48.7,252l8.1,4.6c0,0,8.4,2.9,13.2,4.1c3.3-10,7.2-15.2,14.8-23.4C77.9,240.4,72.7,247.4,69.9,252z"/>
					</g>
					<path class="st110" d="M173.3,256.3c0,0-6.5-14.2-17.1-19c7.6,8.2,11.5,13.4,14.8,23.4c4.7-1.2,13.2-4.1,13.2-4.1l8.1-4.6
						L173.3,256.3z"/>
					<path class="st110" d="M146.2,285.4l7.2-0.7l-1.1,12.9c2.3-1.4,4.5-2.9,6.4-4.5l-2.5-55.8l-2.6,43.8L146.2,285.4z"/>
				</g>
				<path class="st6" d="M121.3,300.4h-1.6l0-83.5c-6.1-1.1-19.4-4.6-25.7-14.4c-16,0.4-29,12.4-35.3,19.6
					c-8.9,10.1-14.7,21.7-15.5,27.5l26.3,10.8c1.1-3.8,5.4-16.6,14-22.4l1.3-0.9l-2.7,56.3l-1.6-0.1l2.5-53.1
					c-8,6.4-11.8,19.6-12.3,21.1c-0.1,0.3-0.3,0.5-0.5,0.6c-0.3,0.1-0.6,0.1-0.8,0L42.2,251c-0.4-0.2-0.7-0.6-0.6-1
					c1-12.1,23.8-48.7,52.8-49l0.4,0l0.2,0.4c6.1,9.9,19.9,13.2,25.5,14.1l0.7,0.1L121.3,300.4z M42.8,249.6L42.8,249.6L42.8,249.6z
					"/>
				<path class="st6" d="M119.7,215.6l0.7-0.1c5.6-1,19.4-4.3,25.5-14.1l0.2-0.4l0.4,0c29,0.3,51.8,36.9,52.8,49
					c0,0.4-0.2,0.9-0.6,1l-27.3,11.1c-0.3,0.1-0.6,0.1-0.8,0c-0.3-0.1-0.5-0.4-0.5-0.6c-0.4-1.6-4.3-14.7-12.3-21.1l2.5,53.1
					l-1.6,0.1l-2.7-56.3l1.3,0.9c8.6,5.8,12.9,18.6,14,22.4l26.3-10.8c-0.7-5.8-6.6-17.5-15.5-27.5c-6.3-7.2-19.3-19.2-35.3-19.6
					c-6.3,9.7-19.6,13.2-25.7,14.4l0,83.5h-1.6L119.7,215.6z M198.1,249.6L198.1,249.6C198.1,249.6,198.1,249.6,198.1,249.6z"/>
				<path class="st6" d="M100,214.3c1.5,1.1,3.1,2.1,4.7,3c1.6,0.9,3.3,1.6,5.1,2.2c3.5,1.2,7.1,1.9,10.7,1.9c1.8,0,3.6-0.2,5.4-0.5
					c1.8-0.3,3.5-0.8,5.3-1.4c0.9-0.3,1.7-0.6,2.6-1c0.8-0.4,1.7-0.8,2.5-1.2c0.8-0.4,1.6-0.9,2.4-1.4c0.8-0.5,1.6-1,2.4-1.6l0,0
					c0.1-0.1,0.2,0,0.3,0.1c0.1,0.1,0,0.2-0.1,0.3c-0.7,0.6-1.5,1.2-2.2,1.8c-0.8,0.5-1.5,1.2-2.4,1.6c-0.8,0.5-1.6,1-2.5,1.4
					c-0.8,0.5-1.7,0.8-2.6,1.2c-3.5,1.5-7.3,2.2-11.1,2.2c-3.8,0-7.6-0.8-11.1-2.2c-3.5-1.4-6.8-3.4-9.7-6.1c-0.1-0.1-0.1-0.2,0-0.3
					C99.7,214.3,99.9,214.3,100,214.3L100,214.3z"/>
			</g>
			<g>
				<g>
					<path class="st226" d="M99.8,241.6c0.1,34.3-6.4,59.1-6.4,59.1s-14.9-5.1-21.5-17c-4.9-8.8-5.6-19-5.6-19l-17.6-35.5
						c0,0,6.2-9.5,18.8-19.4c14.9-11.8,25-12.7,25-12.7S99.7,212.9,99.8,241.6z"/>
					<path class="st227" d="M94.2,295.5L93,301c0,0-15.8-7.5-20.1-15.1c0,0-6-9.7-6.6-21.2c-3.4-6.3-8.2-16.6-8.2-16.6l11.4,14
						c0,0,1.6,8.1,2.8,11.6l7.3-1.5l-5.9,4.2c0,0,2.7,8.5,8.6,12.9c4.8-40.4-8.8-74.4-9-75.1c0.2,0.5,7.7,16.9,11.5,36.7
						c3.5,18.6,0.9,37.5,0.4,40.2C89.7,294.1,94.2,295.5,94.2,295.5z"/>
					<path class="st112" d="M51.4,232.8c0,0,13.9-15.8,29.8-25.2c2.1,2.9,4.8,7.1,4.8,7.1s-1.5-5.2-2.3-8.3c2.8-1.3,6.9-3.2,9.8-4
						c-1-3.5-1.6-4.6-1.6-4.6s-10.3,1.5-23.5,12.1c-14.2,11-18.9,19.2-18.9,19.2L51.4,232.8z"/>
					<path class="st6" d="M93.4,301.5c-0.1,0-0.2,0-0.3,0c-0.6-0.2-15.2-5.3-21.9-17.4c-4.6-8.4-5.6-17.8-5.7-19.1L48,229.5
						c-0.1-0.2-0.1-0.5,0-0.8c0.1-0.1,6.4-9.7,18.9-19.6c14.9-11.8,25-12.8,25.4-12.8c0.3,0,0.6,0.2,0.8,0.5
						c0.1,0.2,7.3,16.4,7.4,44.9c0.1,34-6.4,59-6.4,59.3c-0.1,0.2-0.2,0.4-0.4,0.5C93.6,301.4,93.5,301.5,93.4,301.5z M49.6,229.2
						L67,264.3c0,0.1,0.1,0.2,0.1,0.3c0,0.1,0.7,10.1,5.5,18.6c5.5,9.9,17.1,15.1,20.2,16.4c1.1-4.6,6.3-27.7,6.2-58
						c-0.1-25.3-5.8-40.7-7-43.7c-2.3,0.4-11.5,2.5-24,12.4C57,219,50.9,227.4,49.6,229.2z"/>
				</g>
				<g>
					<path class="st6" d="M84.8,297c0,0-0.1,0-0.1,0c-0.4-0.1-0.7-0.5-0.6-0.9c8.1-47.7-13.5-87.5-13.7-87.9
						c-0.2-0.4-0.1-0.9,0.3-1.1c0.4-0.2,0.9-0.1,1.1,0.3c0.2,0.4,22.1,40.7,13.9,88.9C85.5,296.7,85.1,297,84.8,297z"/>
				</g>
			</g>
			<g>
				<g>
					<path class="st226" d="M140.5,241.6c-0.1,34.3,6.4,59.1,6.4,59.1s14.9-5.1,21.5-17c4.9-8.8,5.6-19,5.6-19l17.6-35.5
						c0,0-5.7-10.1-18.8-19.4c-18.8-13.4-25-12.7-25-12.7S140.6,212.9,140.5,241.6z"/>
					<path class="st227" d="M145.8,295.5l1.1,5.6c0,0,15.8-7.5,20.1-15.1c0,0,6-9.7,6.6-21.2c3.4-6.3,8.2-16.6,8.2-16.6l-11.4,14
						c0,0-1.6,8.1-2.8,11.6l-7.3-1.5l5.9,4.2c0,0-2.7,8.5-8.6,12.9c-4.8-40.4,8.8-74.4,9-75.1c-0.2,0.5-7.7,16.9-11.5,36.7
						c-3.5,18.6-0.9,37.5-0.4,40.2C150.3,294.1,145.8,295.5,145.8,295.5z"/>
					<path class="st112" d="M189,232.8c0,0-13.9-16.4-30.8-25.6c-2.2,2.5-5.3,6.9-5.3,6.9s1.5-5.2,2.6-8.3c-2.5-1.2-6-2.6-8.6-3.4
						c1-3.5,1.6-4.6,1.6-4.6s10,2.1,23.5,12.1c14.2,11,18.9,19.2,18.9,19.2L189,232.8z"/>
					<path class="st6" d="M146.9,301.5c-0.1,0-0.3,0-0.4-0.1c-0.2-0.1-0.3-0.3-0.4-0.5c-0.1-0.2-6.5-25.3-6.4-59.3l0.8,0l-0.8,0
						c0.1-28.5,7.3-44.7,7.4-44.9c0.1-0.3,0.4-0.4,0.6-0.5c0.3,0,6.7-0.6,25.5,12.8c13,9.3,18.8,19.3,19,19.7c0.1,0.2,0.1,0.5,0,0.7
						l-17.6,35.4c-0.1,1.4-1,10.8-5.7,19.1c-6.7,12.1-21.3,17.2-21.9,17.4C147.1,301.5,147,301.5,146.9,301.5z M148.3,197.8
						c-1.2,2.8-7,18.3-7.1,43.8l0,0c-0.1,30.3,5.1,53.4,6.2,58c3.2-1.3,14.7-6.4,20.2-16.4c4.7-8.6,5.5-18.5,5.5-18.6
						c0-0.1,0-0.2,0.1-0.3l17.4-35.2c-1.1-1.9-7-10.7-18.3-18.8C156.9,199.3,150,198,148.3,197.8z"/>
				</g>
				<g>
					<path class="st6" d="M155.5,297c-0.4,0-0.7-0.3-0.8-0.7c-8.2-48.3,13.7-88.5,13.9-88.9c0.2-0.4,0.7-0.5,1.1-0.3
						c0.4,0.2,0.5,0.7,0.3,1.1c-0.2,0.4-21.9,40.2-13.7,87.9c0.1,0.4-0.2,0.8-0.6,0.9C155.6,297,155.6,297,155.5,297z"/>
				</g>
			</g>
			<g>
				<g>
					<path class="st226" d="M62.8,313.6c0.8,15.2-4.5,47.8-4.5,47.8l23.1-36.2C81.4,325.1,70.3,319.5,62.8,313.6z"/>
					<path class="st6" d="M58.3,362.1c-0.1,0-0.2,0-0.3-0.1c-0.3-0.1-0.6-0.5-0.5-0.9c0.1-0.3,5.3-32.7,4.5-47.6
						c0-0.3,0.1-0.6,0.4-0.7c0.3-0.1,0.6-0.1,0.8,0.1c7.4,5.8,18.4,11.4,18.5,11.5c0.2,0.1,0.3,0.3,0.4,0.5c0.1,0.2,0,0.4-0.1,0.6
						l-23.1,36.2C58.8,362,58.5,362.1,58.3,362.1z M63.6,315.2c0.3,12.4-2.7,34-4,42.6l20.7-32.4C77.8,324.1,69.9,319.8,63.6,315.2z
						"/>
				</g>
				<path class="st228" d="M75.2,322.4c-6.2,19.8-17,38.9-17,38.9"/>
			</g>
			<g>
				<g>
					<path class="st226" d="M178.5,313.6c-0.8,15.2,4.5,47.8,4.5,47.8l-23.1-36.2C159.9,325.1,171,319.5,178.5,313.6z"/>
					<path class="st6" d="M183.1,362.1c-0.3,0-0.5-0.1-0.7-0.4l-23.1-36.2c-0.1-0.2-0.2-0.4-0.1-0.6c0.1-0.2,0.2-0.4,0.4-0.5
						c0.1-0.1,11.1-5.7,18.5-11.5c0.2-0.2,0.6-0.2,0.8-0.1c0.3,0.1,0.4,0.4,0.4,0.7c-0.8,15,4.4,47.3,4.5,47.6
						c0.1,0.4-0.1,0.7-0.5,0.9C183.2,362.1,183.1,362.1,183.1,362.1z M161,325.4l20.7,32.4c-1.3-8.6-4.3-30.1-4-42.6
						C171.5,319.8,163.5,324.1,161,325.4z"/>
				</g>
				<g>
					<path class="st6" d="M183.1,362.1c-0.3,0-0.5-0.1-0.7-0.4c-0.1-0.2-10.9-19.4-17-39.1c-0.1-0.4,0.1-0.9,0.5-1
						c0.4-0.1,0.9,0.1,1,0.5c6.1,19.5,16.8,38.6,16.9,38.8c0.2,0.4,0.1,0.9-0.3,1.1C183.3,362.1,183.2,362.1,183.1,362.1z"/>
				</g>
			</g>
		</g>
		<g>
			<g>
				<g>
					<path class="st229" d="M171.1,156c0-5-0.1-9.4-0.3-13.5c-2.2-53.2-29.9-66.6-50.8-66.6c-32.4,0-49.2,19.5-50.8,66.6
						C69.1,146.5,69,151,69,156c0,26.4-13.5,39.5-10,61.4c15.2-13.4,26.7-10.1,61.1-10.1c34.4,0,47-1.6,60.8,8.6
						C187.1,197.6,171.1,184.8,171.1,156z"/>
					<path class="st230" d="M121.9,195c3.7,6.2,0,12.2,0,12.2h-11.2c0,0,6-3,7.1-6.1c1.1-3.2,0.5-6.1,0.5-6.1S120.3,195,121.9,195z"
						/>
					<path class="st231" d="M175.7,182.3c0,0,1.9,11.9,2.7,18.6c0.8,6.7-3.1,7.6-14,7.7c4.3,0.9,10.6,2.9,16.5,7.4
						c1.7-5.2,2-10.5,0.6-15.7C180.1,195.1,175.7,182.3,175.7,182.3z"/>
					<path class="st231" d="M65,182.3c0,0-1.9,11.9-2.7,18.6c-0.8,6.7,2.7,7.5,13.7,7.6c-4.3,0.9-10.9,4-16.8,8.4
						c-0.9-6.3-0.9-10.2,0.2-16.3C60.3,195.4,65,182.3,65,182.3z"/>
					<path class="st231" d="M86.7,113.7c0,0,9.8-15,31.9-15s31.4,14.5,31.4,14.5s-10.1-11-31.4-11C99.5,102.3,86.7,113.7,86.7,113.7
						z"/>
					<path class="st231" d="M84.1,91.1c0,0,10.6-15,34.5-15s34,14.5,34,14.5s-10.9-11-34-11C97.9,79.7,84.1,91.1,84.1,91.1z"/>
					<path class="st230" d="M69.4,152.8c0,0,3.3,20.2,10.7,29c8.6,10.2,17.7,12.1,17.7,12.1s-4.1,2.5-3.7,11
						c-10.2-4.7-15.9-8.4-20.2-15.2c-3.9-6.1-5.4-13.1-5.6-19.3C68.3,164.2,69.4,152.8,69.4,152.8z"/>
					<path class="st230" d="M170.8,151.6c0,0-3.2,19.5-14.4,32C148,193,135,195.8,135,195.8s4,3.2,3.6,9.4
						c8.6-2.7,18.9-9.1,23.6-14.6c6.8-8,8.7-14.9,9.8-21.1C170.6,160.6,170.8,151.6,170.8,151.6z"/>
					<path class="st230" d="M90.9,90.9c0,0-6.2,12.5-6.4,25.9c-5.3,5.3-8.5,17.3-8.5,17.3s-0.6-17.9,5.5-30.2
						C86.5,93.7,90.9,90.9,90.9,90.9z"/>
					<path class="st230" d="M148.1,90.9c0,0,2.9,6.6,4.6,15.2c0.7,3.5,1.2,7.4,1.3,11.4c4.1,5.6,9,20,9,20s0.6-21.2-5.5-33.5
						C152.5,93.7,148.1,90.9,148.1,90.9z"/>
					<path class="st6" d="M58.4,219l-0.2-1.4c-1.9-11.7,1.1-21.1,4.2-30.9c2.8-9,5.8-18.3,5.8-30.6c0-4.7,0.1-9.3,0.3-13.6
						c0.8-23.6,5.3-40.4,14-51.4c8.4-10.7,20.7-15.9,37.6-15.9c12.7,0,24.4,4.8,33,13.6c11.4,11.6,17.6,29.7,18.6,53.8
						c0.2,4.2,0.3,8.8,0.3,13.5c0,13.5,3.5,23.4,6.6,32.1c3.5,9.7,6.4,18.1,3.1,28.1l-0.3,1l-0.9-0.6c-11.8-8.7-22.5-8.7-48.3-8.5
						c-3.7,0-7.7,0-12,0c-6.3,0-11.8-0.1-16.7-0.2c-21.8-0.4-31.7-0.6-43.9,10.1L58.4,219z M120,76.7c-16.3,0-28.2,5-36.3,15.3
						c-8.4,10.7-12.9,27.2-13.7,50.5c-0.2,4.2-0.3,8.8-0.3,13.5c0,12.6-3,22-5.9,31.1c-2.9,9.3-5.7,18.1-4.4,28.8
						c12.1-10.2,22.3-10,43.9-9.6c4.9,0.1,10.4,0.2,16.6,0.2c4.3,0,8.3,0,12,0c24.8-0.2,36.5-0.2,48.4,8.2c2.7-9,0-16.5-3.4-26
						c-3.1-8.9-6.7-18.9-6.7-32.6c0-4.7-0.1-9.3-0.3-13.5c-1-23.7-7.1-41.4-18.2-52.7C143.6,81.3,132.3,76.7,120,76.7z"/>
				</g>
				<g>
					<path class="st39" d="M163,142.4c-0.6,22.2-15.1,43.6-28.6,49.5c-8.7,3.8-20.2,3.7-28.9-0.1c-4.5-2-8.9-5.2-12.9-9.3
						c-6.7-7-12.1-16.6-14.8-27.5c-1.1-4.2-1.7-8.7-1.8-13.2c0-34,32.5-39.6,43.2-39.5C128.7,102.4,158.2,104.2,163,142.4z"/>
					<path class="st38" d="M77.1,131.5c0,0-0.7,23.1,12,41.4c13.4,19.3,21,19.2,30.7,20c8.3,0.7,24.5-7,33.7-23.8
						c9.2-16.8,7.4-37.4,7.4-37.4s2.6,8.7,2.3,12.3s-2.4,20.8-12.7,33.4c-10.2,12.6-15.7,15.8-30.3,17.2
						c-14.6,1.4-29.5-12.5-33.5-19C82.8,169.3,73.9,156.7,77.1,131.5z"/>
					<path class="st6" d="M120.1,195.5c-5.2,0-10.4-1-14.9-2.9c-4.6-2-9.1-5.3-13.2-9.5c-7-7.4-12.4-17.3-15-27.9
						c-1.1-4.4-1.7-8.9-1.9-13.4c0-11.4,3.6-20.6,10.6-27.6c10.3-10.2,25.9-12.8,33.4-12.7c3.5,0,14.1,0.2,24.1,5.9
						c11.5,6.6,18.4,18.4,20.6,35l0,0.1l0,0.1c-0.6,22.8-15.5,44.3-29,50.2C130.4,194.5,125.3,195.5,120.1,195.5z M118.8,103.1
						c-7.4,0-22.2,2.6-32,12.3c-6.7,6.6-10.1,15.5-10.1,26.4c0.1,4.3,0.7,8.7,1.8,13c2.6,10.3,7.8,20,14.6,27.1
						c3.9,4.1,8.3,7.3,12.7,9.2c8.5,3.7,19.9,3.7,28.3,0.1c13.1-5.7,27.5-26.6,28.1-48.7c-3.3-25.5-18.2-39.1-43.1-39.4
						C119.1,103.1,119,103.1,118.8,103.1z"/>
				</g>
				<g>
					<path class="st6" d="M138.3,208c-0.1,0-0.1,0-0.2,0c-0.4-0.1-0.7-0.5-0.6-0.9c2.3-9.7-6.7-12.9-7.1-13c-0.4-0.1-0.6-0.6-0.5-1
						c0.1-0.4,0.6-0.6,1-0.5c0.1,0,10.8,3.8,8.2,14.9C139,207.8,138.7,208,138.3,208z"/>
				</g>
				<g>
					<path class="st229" d="M118.2,194.9c0,0,2.8,8-7.9,12.3l-1.1,50.7c0,0-11.6-36-14.8-51.3c-1.9-10.9,4.8-15.3,10-15.3
						C108.5,193,110,194.3,118.2,194.9z"/>
					<path class="st6" d="M109.9,262.6l-1.4-4.5c-0.1-0.4-11.6-36.2-14.8-51.3c-1.1-6.5,0.8-10.3,2.5-12.4c2-2.4,5.1-3.9,8.2-3.9
						h0.2l0.1,0.1c0.8,0.3,1.5,0.6,2.1,0.9c2.7,1.2,4.9,2.1,11.5,2.6l0.5,0l0.2,0.5c0,0.1,2.9,8.5-7.9,13.1L109.9,262.6z
						 M104.3,192.1c-2.6,0-5.2,1.3-6.9,3.3c-2.2,2.6-3,6.5-2.2,11.1c2.5,11.8,10.1,36.5,13.3,46.6l1-46.5l0.5-0.2
						c8.5-3.4,8-9.2,7.6-10.9c-6.4-0.5-8.7-1.5-11.5-2.7C105.6,192.7,105,192.4,104.3,192.1z"/>
				</g>
				<g>
					<polygon class="st229" points="123.4,207.3 138.5,237.6 138.5,207.2 					"/>
					<polygon class="st230" points="127,214.2 138.5,211.5 138.5,207.2 123.8,207.3 					"/>
					<path class="st6" d="M139.3,241l-17.2-34.5l17.1-0.1L139.3,241z M124.7,208l13,26.2l-0.1-26.2L124.7,208z"/>
				</g>
				<g>
					<path class="st6" d="M76.2,143.2c-0.4,0-0.7-0.3-0.8-0.7c0-0.3-3.7-34.6,15.1-52.5c0.3-0.3,0.8-0.3,1.1,0
						c0.3,0.3,0.3,0.8,0,1.1C73.4,108.6,77,142,77,142.3C77,142.8,76.7,143.2,76.2,143.2C76.3,143.2,76.2,143.2,76.2,143.2z"/>
				</g>
				<g>
					<path class="st6" d="M163,143.2C163,143.2,163,143.2,163,143.2c-0.5-0.1-0.8-0.4-0.8-0.9c0-0.3,3.6-33.8-14.6-51.2
						c-0.3-0.3-0.3-0.8,0-1.1c0.3-0.3,0.8-0.3,1.1,0c18.8,18,15.1,52.2,15.1,52.5C163.8,142.9,163.4,143.2,163,143.2z"/>
				</g>
				<g>
					<path class="st6" d="M94.1,200.3c-0.1,0-0.2,0-0.3-0.1C71.4,191,68,171.5,68,160.7c0-0.4,0.4-0.8,0.8-0.8s0.8,0.4,0.8,0.8
						c0,10.4,3.2,29.2,24.8,38.1c0.4,0.2,0.6,0.6,0.4,1C94.7,200.1,94.4,200.3,94.1,200.3z"/>
				</g>
				<g>
					<path class="st6" d="M138.2,201.4c-0.4,0-0.7-0.2-0.8-0.6c-0.2-0.5,0.1-1,0.5-1.1c29.2-9.9,32.3-34.8,32.3-45.1
						c0-0.5,0.4-0.9,0.9-0.9s0.9,0.4,0.9,0.9c0,10.6-3.3,36.5-33.5,46.8C138.4,201.4,138.3,201.4,138.2,201.4z"/>
				</g>
				<g>
					<path class="st6" d="M102.4,207.4c-0.4,0-0.8-0.3-0.8-0.7c-0.8-10.4,9.2-13.7,9.3-13.7c0.4-0.1,0.9,0.1,1,0.5s-0.1,0.9-0.5,1
						c-0.4,0.1-9,2.9-8.2,12.1C103.3,207,102.9,207.4,102.4,207.4C102.5,207.4,102.5,207.4,102.4,207.4z"/>
				</g>
			</g>
			<g>
				<g>
					<g>
						<g>
							<g>
								<path class="st39" d="M114.4,158.7c0,0-3.2,2.1-2.3,4.5c0.9,2.4,3.6,3.4,8.1,3.4c4.7-0.1,7.1-2.3,6.9-4.4
									c-0.2-2.2-2.6-3.7-2.6-3.7"/>
							</g>
						</g>
						<g class="st114">
							<path class="st115" d="M112.3,162.2c0,0,1.9,2.2,6.8,2.3s7.5-2.2,7.5-2.2s0.4,4.1-7.5,3.9S112.3,162.2,112.3,162.2z"/>
						</g>
					</g>
					<g>
						<path class="st6" d="M114.4,158.8c-0.9,0.8-1.7,1.7-2,2.7c-0.1,0.5-0.1,1,0.1,1.5c0.2,0.5,0.5,0.9,0.9,1.3
							c0.7,0.7,1.8,1.1,2.9,1.3c1.1,0.2,2.2,0.3,3.4,0.3c1.2,0,2.3-0.1,3.4-0.3c1.1-0.3,2.1-0.7,2.8-1.5c0.7-0.7,1-1.8,0.6-2.8
							c-0.3-1-1.1-2-2-2.8l0,0c0,0,0-0.1,0-0.2c0,0,0.1,0,0.1,0c0.5,0.3,1,0.7,1.5,1.1c0.4,0.4,0.8,0.9,1.1,1.5
							c0.3,0.6,0.5,1.3,0.4,2c-0.1,0.7-0.4,1.4-0.8,1.9c-0.9,1.1-2.1,1.7-3.3,2c-1.2,0.4-2.5,0.5-3.7,0.5c-1.2,0-2.5-0.1-3.7-0.4
							c-1.2-0.3-2.5-0.8-3.4-1.9c-0.5-0.5-0.8-1.1-1-1.8c-0.2-0.7-0.1-1.4,0.1-2.1c0.3-0.6,0.7-1.1,1.1-1.6c0.4-0.4,0.9-0.8,1.5-1.1
							c0.1,0,0.1,0,0.1,0C114.5,158.7,114.5,158.8,114.4,158.8L114.4,158.8z"/>
					</g>
				</g>
			</g>
			<g>
				<path class="st170" d="M118.6,102.3c0,0-7.6,16-36.8,18.1C91.6,107.2,105.8,102.7,118.6,102.3z"/>
				<path class="st6" d="M80.1,121.3l1-1.4c11-14.6,26.4-18.1,37.4-18.4l1.3,0l-0.6,1.2c-0.3,0.7-8.2,16.4-37.5,18.6L80.1,121.3z
					 M117.2,103.1c-10.2,0.6-23.7,4-33.7,16.3C105.8,117.3,114.8,106.7,117.2,103.1z"/>
			</g>
			<g>
				<path class="st170" d="M118.9,102.3c0,0,0.8,1.7,2.8,4c4.3,4.9,14.2,12.7,34,14.1C147,107.2,133.3,102,118.9,102.3z"/>
				<path class="st110" d="M121,105.7c0,0,7.2,0.7,17.5,4.7c10.3,4.1,13.2,9.5,13.2,9.5h3.6c0,0-5.8-10-15.7-13.5
					c-9.9-3.5-20.5-4.2-20.5-4.2L121,105.7z"/>
				<path class="st110" d="M85.9,119.7c0,0,5.4-5.6,15.6-10c8-3.4,14.2-3.6,14.2-3.6l2.4-3.8c0,0-10.6,0.3-20.1,4.8
					c-11.4,5.4-16.2,13.3-16.2,13.3L85.9,119.7z"/>
				<path class="st6" d="M157.2,121.3l-1.6-0.1c-29.3-2.1-37.2-17.9-37.5-18.6l-0.5-1.1l1.2,0c16.1-0.3,29.4,6.2,37.5,18.5
					L157.2,121.3z M120.2,103c2.3,3.5,11.2,14.3,33.9,16.4C146.5,108.9,134.6,103.1,120.2,103z"/>
			</g>
			<g>
				<path class="st38" d="M108.2,122.1c3.6-0.2,7-0.3,11.9-0.3c4.9,0,8.2,0.1,11.9,0.3c1,0,1.6-0.3,0.8-0.5
					c-3.6-0.8-7.7-1.1-12.7-1.1s-9.1,0.4-12.7,1.2C106.5,121.8,107.1,122.1,108.2,122.1z"/>
			</g>
			<g>
				<path class="st38" d="M116.5,188.1c0.6,0.1,6,0.1,7.2-0.1l0,0c0.1,0,0.2,0,0.2,0.1c0,0.1,0,0.1-0.1,0.2
					c-0.5,0.4-1.2,0.6-1.8,0.8c-0.6,0.2-1.3,0.2-1.9,0.2c-0.6,0-1.3-0.1-1.9-0.2c-0.6-0.1-1.2-0.4-1.8-0.7c-0.1,0-0.1-0.2-0.1-0.2
					C116.3,188.1,116.4,188.1,116.5,188.1L116.5,188.1z"/>
			</g>
		</g>
		<g>
			<g>
				<path class="st6" d="M132.3,145.6c0.1,1.6,1.4,2.9,3.1,3c1.7,0.1,3-1.2,3.3-2.8l-3.2-1.7L132.3,145.6z"/>
				<g>
					<path class="st6" d="M128.6,146.9c0.3-0.8,0.8-1.6,1.5-2.1c0.7-0.5,1.4-0.8,2.2-1c1.5-0.3,3-0.3,4.4,0c1.4,0.3,2.7,0.7,4,1.4
						c1.3,0.6,2.4,1.4,3.5,2.2c0.1,0.1,0.1,0.3,0,0.4c-0.1,0.1-0.2,0.1-0.3,0.1c-1.2-0.6-2.4-1.2-3.6-1.6c-1.2-0.4-2.5-0.7-3.8-0.9
						c-1.3-0.1-2.5-0.1-3.7,0.2c-1.1,0.3-2,0.9-2.4,1.8l0,0c-0.2,0.5-0.7,0.7-1.2,0.5C128.7,147.8,128.4,147.4,128.6,146.9z"/>
				</g>
				
					<ellipse transform="matrix(0.9944 -0.1055 0.1055 0.9944 -14.6927 15.0266)" class="st7" cx="134.8" cy="146.5" rx="0.6" ry="0.6"/>
				<path class="st38" d="M128.9,150.7c0.1-0.1,0.2-0.2,0.3-0.3c1.4,1,4.5,1.9,10,0.4c0.1,0.1,0.1,0.2,0.2,0.4
					C133.5,154,130.4,152.3,128.9,150.7z"/>
			</g>
			<g>
				<path class="st6" d="M106.4,145.6c-0.1,1.6-1.4,2.9-3.1,3c-1.7,0.1-3-1.2-3.3-2.8l3.2-1.7L106.4,145.6z"/>
				<g>
					<path class="st6" d="M108.5,147.5c-0.4-0.9-1.3-1.5-2.4-1.8c-1.1-0.3-2.4-0.3-3.7-0.2c-1.3,0.1-2.5,0.4-3.8,0.9
						c-1.2,0.4-2.5,1-3.6,1.6c-0.1,0.1-0.3,0-0.4-0.1c-0.1-0.1,0-0.3,0.1-0.3c1.1-0.9,2.2-1.6,3.5-2.2c1.2-0.6,2.6-1.1,4-1.4
						c1.4-0.3,2.9-0.4,4.4,0c0.7,0.2,1.5,0.5,2.2,1c0.7,0.5,1.2,1.2,1.5,2.1c0.1,0.5-0.1,1-0.6,1.1
						C109.1,148.2,108.7,148,108.5,147.5L108.5,147.5z"/>
				</g>
				
					<ellipse transform="matrix(0.1055 -0.9944 0.9944 0.1055 -54.5653 232.2491)" class="st7" cx="101.8" cy="146.5" rx="0.6" ry="0.6"/>
				<path class="st38" d="M109.8,150.7c-0.1-0.1-0.2-0.2-0.3-0.3c-1.4,1-4.5,1.9-10,0.4c-0.1,0.1-0.1,0.2-0.2,0.4
					C105.2,154,108.3,152.3,109.8,150.7z"/>
			</g>
		</g>
		<g>
			<path class="st38" d="M93.2,132.3c1.2-0.4,7.5-2.5,16.4,0.5c2.8,0.9,5.6,2.3,8.3,4.1c0.5,0.3,0.8,0.9,0.8,1.5
				c0,0.6-0.3,1.3-0.8,1.6l-4.3,3.2c-0.4,0.3-1,0.4-1.4,0.3c-0.2-0.1-0.5-0.2-0.6-0.4c-0.3-0.3-2.8-3-7.2-4.5
				c-3.2-1.1-6.7-1.3-10.4-0.7c-0.3,0-0.5,0-0.8-0.1c-0.7-0.2-1.1-0.9-1.1-1.7l-0.1-1.9C91.9,133.4,92.5,132.6,93.2,132.3z"/>
			<path class="st38" d="M147.3,131.9c-1.1-0.5-7.1-2.7-15.7,0c-2.7,0.9-5.5,2.1-8.1,3.8c-0.5,0.3-0.8,0.9-0.8,1.5
				c0,0.7,0.2,1.3,0.7,1.7l4,3.3c0.4,0.3,0.9,0.4,1.4,0.3c0.2-0.1,0.5-0.2,0.6-0.4c0.3-0.3,2.8-2.9,7.1-4.2c3.1-1,6.5-1.1,9.9-0.3
				c0.2,0.1,0.5,0,0.7,0c0.6-0.2,1.1-0.8,1.2-1.6l0.1-1.9C148.5,133.1,148,132.3,147.3,131.9z"/>
			<g>
				<path class="st170" d="M146.1,135.7l-0.3,0c-3.8-0.5-7.5-0.2-10.9,0.9c-4.6,1.5-7.3,3.9-7.8,4.4l-0.1,0.1l-0.2,0.1
					c-0.3,0.1-0.5,0-0.8-0.1l-4.3-2.8c-0.3-0.2-0.4-0.5-0.4-0.8c0-0.3,0.2-0.6,0.4-0.8c2.8-1.6,5.6-2.9,8.4-3.8
					c8.9-2.8,15.1-1.2,16.2-0.9c0.4,0.1,0.7,0.5,0.7,1l-0.1,1.7c0,0.4-0.3,0.7-0.7,0.8L146.1,135.7z"/>
				<path class="st110" d="M132.3,137.1c0,0,3.3-5.2,14.3-3.6c0.1,1.7-0.7,2.2-0.7,2.2l-5.1,0.3l-3.5-0.3L132.3,137.1z"/>
				<path class="st6" d="M130.4,133.7c8.7-2.8,14.8-1.1,15.8-0.9c0.1,0,0.1,0.1,0.1,0.2l-0.1,1.7c0,0.1-0.1,0.1-0.1,0.1
					c0,0-0.1,0-0.1,0c-4.5-0.6-8.3-0.1-11.3,0.9c-4.8,1.5-7.6,4.1-8.1,4.6c0,0,0,0-0.1,0c0,0-0.1,0-0.1,0l-4.3-2.8
					c-0.1,0-0.1-0.1,0-0.2C125.1,135.7,127.9,134.5,130.4,133.7 M130,132.2c-2.9,0.9-5.8,2.2-8.6,3.9c-0.5,0.3-0.8,0.8-0.8,1.4
					c0,0.6,0.3,1.1,0.8,1.4l4.3,2.8c0.4,0.3,1,0.4,1.5,0.2c0.2-0.1,0.5-0.2,0.7-0.4c0.3-0.3,3-2.8,7.5-4.2c3.3-1.1,6.9-1.4,10.6-0.8
					c0.3,0,0.5,0,0.8-0.1c0.7-0.2,1.2-0.8,1.2-1.5l0.1-1.7c0.1-0.8-0.4-1.5-1.2-1.8C145.5,131,139.1,129.3,130,132.2L130,132.2z"/>
			</g>
			<g>
				<path class="st170" d="M93.1,136.9l0.3,0c3.8-0.8,7.4-0.7,11,0.1c4.7,1.2,7.6,3.4,8.1,3.9l0.1,0.1l0.2,0.1
					c0.3,0.1,0.5,0,0.8-0.2l4.1-3.1c0.2-0.2,0.4-0.5,0.4-0.8c0-0.3-0.2-0.6-0.5-0.7c-2.9-1.4-5.8-2.5-8.7-3.2
					c-9.1-2.2-15.1-0.2-16.2,0.2c-0.4,0.2-0.7,0.6-0.6,1l0.2,1.7c0.1,0.4,0.3,0.7,0.7,0.8L93.1,136.9z"/>
				<path class="st110" d="M103.9,135.5C103.9,135.5,103.9,135.6,103.9,135.5c-0.1,0.5-0.2,0.9-0.4,1.3l2.1,0.3l2.8,2.1l4.5,2.5
					c0,0,1,0.1,1.8-1.5C110.8,137,106.9,135.8,103.9,135.5z"/>
				<path class="st6" d="M108.7,133.8c2.6,0.6,5.5,1.7,8.5,3.2c0.1,0,0.1,0.1,0,0.2l-4.1,3.1c0,0-0.1,0-0.1,0c0,0,0,0-0.1,0
					c-0.5-0.4-3.5-2.8-8.4-4c-3.1-0.8-6.9-1.1-11.3-0.1c0,0-0.1,0-0.1,0c-0.1,0-0.1-0.1-0.1-0.1l-0.2-1.7c0-0.1,0-0.1,0.1-0.2
					C93.8,133.7,99.7,131.6,108.7,133.8 M109,132.3c-9.3-2.3-15.6-0.2-16.7,0.2c-0.8,0.3-1.2,1-1.1,1.8l0.2,1.7
					c0.1,0.7,0.6,1.3,1.3,1.5c0.3,0.1,0.5,0.1,0.8,0c3.6-0.8,7.2-0.7,10.6,0.1c4.6,1.2,7.5,3.5,7.8,3.7c0.2,0.2,0.4,0.3,0.7,0.4
					c0.5,0.1,1,0,1.4-0.3l4.1-3.1c0.5-0.4,0.7-0.9,0.7-1.5c-0.1-0.6-0.4-1.1-0.9-1.4C114.9,134.2,112,133,109,132.3L109,132.3z"/>
			</g>
		</g>
		<g>
			<path class="st38" d="M131.8,160.8c0.2,0,0.4,0.1,0.6,0.1c-0.2,2.3,0.9,6.3,6.3,11.4c-0.1,0.1-0.2,0.3-0.3,0.4
				C131.2,168.1,131,163.5,131.8,160.8z"/>
			<path class="st38" d="M106.9,160.8c-0.2,0-0.4,0.1-0.6,0.1c0.2,2.3-0.9,6.3-6.3,11.4c0.1,0.1,0.2,0.3,0.3,0.4
				C107.5,168.1,107.7,163.5,106.9,160.8z"/>
		</g>
		<g>
			<path class="st38" d="M115,177.9c1.3-0.2,2.5-0.4,4.3-0.4c1.8,0,3,0.2,4.3,0.4c0.4,0.1,0.6-0.4,0.3-0.7c-1.3-1.1-2.8-1.6-4.6-1.6
				c-1.8,0-3.3,0.5-4.6,1.6C114.4,177.5,114.7,178,115,177.9z"/>
			<path class="st6" d="M123.1,176.6c-1.1-0.7-2.3-1-3.7-1c-1.4,0-2.7,0.3-3.7,1l1.3-0.2c1.6-0.2,3.3-0.2,4.9,0L123.1,176.6z"/>
			<g>
				<path class="st38" d="M113.1,173.4c0,0-0.8-0.7-0.8-0.8c0,0.1-0.7,0-0.7,0.1c0,0,0,0,0,0.1c0,0.3-0.4-0.1-0.8-0.1
					c-0.1,0.1-0.2,0.3-0.4,0.3c0,0.4,0.2,1.1,1,1.9c-0.1-0.3,0-0.7,0.3-1C111.9,173.8,112.6,173.8,113.1,173.4z"/>
				<path class="st38" d="M124.9,173.3c0,0,1.7-0.6,1.7-0.6c0,0.1,0.7,0,0.7,0.1c0,0,0,0,0,0.1c0,0.3,0.4-0.1,0.8-0.1
					c0.1,0.1,0.2,0.3,0.4,0.3c0,0.4-0.2,1.1-1,1.9c0.1-0.3,0-0.7-0.3-1C126.9,173.8,125.5,173.6,124.9,173.3z"/>
				<path class="st6" d="M127.8,172.7c-6.6-1-5.1-2.9-7.6-1.7c-0.3,0.1-0.5,0.2-0.8,0.2c-0.3,0-0.6-0.1-0.8-0.2
					c-2.6-1.3-1.1,0.7-7.6,1.7c-0.5,0.1-0.5,0.5,0,0.7c1.7,0.8,5.1-1,8.5-1c3.4,0,6.8,1.8,8.5,1
					C128.3,173.2,128.3,172.8,127.8,172.7z"/>
				<path class="st6" d="M111.4,171.2c-0.4,0.1-0.7,0.3-1,0.6c-0.3,0.3-0.4,0.7-0.5,1.2c0,0.5,0.1,0.9,0.3,1.3
					c0.2,0.4,0.5,0.7,0.8,0.9c0.1,0.1,0.2,0,0.3-0.1c0,0,0-0.1,0-0.1l0,0c-0.2-0.5-0.5-0.8-0.4-1.7c0.1-0.9,0.5-1,0.7-1.7l0,0
					c0-0.1,0-0.2-0.1-0.3C111.5,171.2,111.4,171.2,111.4,171.2z"/>
				<path class="st6" d="M127.1,171.3c0.4,0,0.8,0.2,1.1,0.5c0.3,0.3,0.5,0.7,0.6,1.2c0.1,0.4,0,0.9-0.1,1.3c-0.2,0.4-0.4,0.7-0.8,1
					c-0.1,0.1-0.2,0-0.3-0.1c0,0,0-0.1,0-0.1l0,0c0.1-0.5,0.4-0.8,0.3-1.7c-0.2-0.9-0.6-1-0.9-1.6l0,0
					C126.9,171.5,126.9,171.3,127.1,171.3C127.1,171.3,127.1,171.3,127.1,171.3z"/>
			</g>
		</g>
	</g>
</g>
</svg>
