<?xml version="1.0" encoding="utf-8"?>
<!-- Generator: Adobe Illustrator 21.0.0, SVG Export Plug-In . SVG Version: 6.00 Build 0)  -->
<svg version="1.1" id="Layer_1" xmlns="http://www.w3.org/2000/svg" xmlns:xlink="http://www.w3.org/1999/xlink" x="0px" y="0px"
	 viewBox="0 0 240.9 453.5" style="enable-background:new 0 0 240.9 453.5;" xml:space="preserve">
<style type="text/css">
	.st0{fill:#794552;}
	.st1{fill:#C7B89E;}
	.st2{fill:#F9A960;}
	.st3{fill:#D17C32;}
	.st4{fill:#956070;}
	.st5{fill:#FDDCC0;}
	.st6{fill:#501338;}
	.st7{fill:#FFFFFF;}
	.st8{fill:#B38091;}
	.st9{fill:#D1D5DB;}
	.st10{fill:#989A9C;}
	.st11{fill:#937B70;}
	.st12{fill:#E6DEC9;}
	.st13{fill:#F0B39C;}
	.st14{fill:#8E183F;}
	.st15{fill:#F5F5F5;}
	.st16{fill:none;stroke:#462062;stroke-width:0.7554;stroke-linecap:round;stroke-miterlimit:10;}
	.st17{fill:#B5BAC0;}
	.st18{fill:#C71F41;}
	.st19{fill:#EF5784;}
	.st20{fill:#A91D41;}
	.st21{opacity:0.5;fill:#C1C1C1;}
	.st22{opacity:0.27;fill:#E78B6F;}
	.st23{fill:#CB8A43;}
	.st24{fill:#754D24;}
	.st25{fill:#FBBA6C;}
	.st26{fill:#837070;}
	.st27{fill:#866A58;}
	.st28{fill:#9A7E67;}
	.st29{fill:#B39885;}
	.st30{fill:#5B4580;}
	.st31{fill:#E1DFDF;}
	.st32{fill:#C0BEBD;}
	.st33{fill:#D53231;}
	.st34{fill:#E94647;}
	.st35{fill:#797083;}
	.st36{fill:#A9A4B4;}
	.st37{fill:#5B5567;}
	.st38{fill:#CE202B;}
	.st39{fill:#EE3734;}
	.st40{fill:#F49294;}
	.st41{fill:#B89AA6;}
	.st42{fill:#D4907B;}
	.st43{fill:#FAB276;}
	.st44{opacity:0.5;fill:#794552;}
	.st45{fill:#B57D90;}
	.st46{opacity:0.7;fill:#794552;}
	.st47{opacity:0.15;fill:#F2E8A5;}
	.st48{fill:#D67E3A;}
	.st49{fill:#735A99;}
	.st50{fill:#644C88;}
	.st51{fill:#9480B4;}
	.st52{fill:#E4D2A4;}
	.st53{fill:#FAEDD0;}
	.st54{fill:#C4B18B;}
	.st55{fill:#735A99;stroke:#501338;stroke-width:1.571;stroke-miterlimit:10;}
	.st56{fill:#C8BFBF;}
	.st57{fill:#B2ABAB;}
	.st58{fill:#FFE098;}
	.st59{fill:#ECC77E;}
	.st60{fill:#FFEBC7;}
	.st61{fill:#A1675E;}
	.st62{fill:#90564F;}
	.st63{fill:#C07F78;}
	.st64{fill:#68485A;}
	.st65{fill:#FFDD81;}
	.st66{fill:#814945;}
	.st67{fill:#945B58;}
	.st68{fill:#B17977;}
	.st69{fill:#884C4A;}
	.st70{fill-rule:evenodd;clip-rule:evenodd;fill:#989A9C;}
	.st71{fill:#D89E98;}
	.st72{fill:#64445C;}
	.st73{fill:#816474;}
	.st74{fill:#A48390;}
	.st75{fill:#DDAD41;}
	.st76{fill:#F48657;}
	.st77{fill:#D77151;}
	.st78{fill:#F8AB89;}
	.st79{fill:#E9C05B;}
	.st80{fill:#9A8691;}
	.st81{fill:#A28F99;}
	.st82{fill:#8780BC;}
	.st83{fill:#6966AD;}
	.st84{fill:#B2ADD5;}
	.st85{fill:#F48C8C;}
	.st86{fill:#E86363;}
	.st87{fill:#F4876E;}
	.st88{fill:#E56A51;}
	.st89{fill:#80655C;}
	.st90{fill:#C3AC6F;}
	.st91{fill:#9F874A;}
	.st92{fill:#DBC68E;}
	.st93{opacity:0.11;fill:#FFFFFF;}
	.st94{fill:#F7A799;}
	.st95{fill:#FCE5A5;}
	.st96{fill:#DEBB6C;}
	.st97{fill:#B67C76;}
	.st98{fill:none;stroke:#462062;stroke-width:0.843;stroke-linecap:round;stroke-miterlimit:10;}
	.st99{fill:#9D9B86;}
	.st100{fill:#8780BC;stroke:#501338;stroke-width:1.6795;stroke-miterlimit:10;}
	.st101{fill:#C5C4B4;}
	.st102{fill:#E9E9D9;}
	.st103{fill:#E9C15D;}
	.st104{opacity:0.3;}
	.st105{fill:#A27388;}
	.st106{opacity:0.5;fill:#FFFFFF;}
	.st107{fill:#91667A;}
	.st108{opacity:0.4;}
	.st109{opacity:0.5;}
	.st110{opacity:0.5;fill:#A7A7A6;}
	.st111{fill:#C16D34;}
	.st112{opacity:0.4;fill:#FFFFFF;}
	.st113{fill:none;stroke:#501338;stroke-width:1.5687;stroke-linecap:round;stroke-linejoin:round;stroke-miterlimit:10;}
	.st114{opacity:0.27;}
	.st115{fill:#E78B6F;}
	.st116{opacity:0.2;fill:#F48E8E;}
	.st117{fill:#99744B;}
	.st118{fill:#825D38;}
	.st119{fill:#C9CAA6;}
	.st120{fill:#BCBC96;}
	.st121{fill:none;stroke:#462062;stroke-width:0.7845;stroke-linecap:round;stroke-miterlimit:10;}
	.st122{fill:#66402A;}
	.st123{fill:#935C35;}
	.st124{opacity:0.6;fill:#7A4928;}
	.st125{opacity:0.4;fill:#F48E8E;}
	.st126{fill:#E1E1E1;}
	.st127{fill:#C1C1C1;}
	.st128{fill:#52363A;}
	.st129{fill:#C6C5C4;}
	.st130{opacity:0.6;}
	.st131{fill:#888888;}
	.st132{fill:#515252;}
	.st133{opacity:0.6;fill:#888888;}
	.st134{fill:#616160;}
	.st135{fill:#515150;}
	.st136{fill:#957B66;}
	.st137{fill:#B89984;}
	.st138{fill:#787878;}
	.st139{fill:#775F4F;}
	.st140{fill:#D7B9A8;}
	.st141{fill:#99999A;}
	.st142{opacity:0.4;fill:#E6DEC9;}
	.st143{fill:none;stroke:#462062;stroke-width:0.7586;stroke-linecap:round;stroke-miterlimit:10;}
	.st144{fill:#3F4242;}
	.st145{opacity:0.5;fill:#F0B39C;}
	.st146{opacity:0.57;fill:#B89AA6;}
	.st147{fill:#619F7F;}
	.st148{fill:#548E6E;}
	.st149{fill:#C16A2F;}
	.st150{fill:#CE413A;}
	.st151{fill:#B23330;}
	.st152{opacity:0.62;fill:#E48C7D;}
	.st153{fill:#5E3827;}
	.st154{fill:#F48E8E;}
	.st155{fill:#444445;}
	.st156{fill:#353435;}
	.st157{opacity:0.5;fill:#B89AA6;}
	.st158{fill:#4D4C4D;}
	.st159{fill:#444344;}
	.st160{opacity:0.6;fill:#A1A1A1;}
	.st161{fill:#282827;}
	.st162{fill:#636464;}
	.st163{fill:#575959;}
	.st164{fill:#3A3A3A;}
	.st165{opacity:0.5;fill:#787878;}
	.st166{fill:none;stroke:#462062;stroke-width:0.8198;stroke-linecap:round;stroke-miterlimit:10;}
	.st167{fill:#5B5B5C;}
	.st168{fill:#E4E4E4;}
	.st169{fill:#FFF1EA;}
	.st170{fill:#E1CDC5;}
	.st171{opacity:0.4;fill:#F0B39C;}
	.st172{opacity:0.5;fill:#ADADAD;}
	.st173{fill:#B58F5B;}
	.st174{fill:#606060;}
	.st175{fill:#4F5150;}
	.st176{opacity:0.6;fill:#989A9C;}
	.st177{fill:#5D7A6D;}
	.st178{fill:#4C685B;}
	.st179{fill:none;stroke:#462062;stroke-width:0.8057;stroke-linecap:round;stroke-miterlimit:10;}
	.st180{fill:#F7B975;}
	.st181{fill:#8D7449;}
	.st182{opacity:0.35;fill:#F7B975;}
	.st183{fill:#686868;}
	.st184{fill:#959595;}
	.st185{opacity:0.3;fill:#FFFFFF;}
	.st186{fill:#4C4B4C;}
	.st187{fill:#A27F67;}
	.st188{fill:#C6A691;}
	.st189{opacity:0.2;fill:#684D39;}
	.st190{fill:#926E56;}
	.st191{opacity:0.8;fill:#3A3A3A;}
	.st192{fill:#ED3E2B;}
	.st193{fill:#DB2C1F;}
	.st194{opacity:0.7;fill:#989A9C;}
	.st195{fill:#6B4845;}
	.st196{fill:#846363;}
	.st197{fill:#5E3E3C;}
	.st198{fill:none;stroke:#501338;stroke-width:1.6206;stroke-miterlimit:10;}
	.st199{opacity:0.5;fill:#E29780;}
	.st200{opacity:0.6;fill:#FFFFFF;}
	.st201{fill:#ECD8BB;}
	.st202{opacity:0.3;fill:#937B70;}
	.st203{fill:#FCF9F4;}
	.st204{opacity:0.6;fill:#F0B39C;}
	.st205{fill:none;stroke:#462062;stroke-width:0.7828;stroke-linecap:round;stroke-miterlimit:10;}
	.st206{fill:#CDCDCD;}
	.st207{opacity:0.5;fill:#A8A7A7;}
	.st208{fill:#868686;}
	.st209{opacity:0.3;fill:#F0B39C;}
	.st210{opacity:0.7;fill:#F0B39C;}
	.st211{fill:#735A99;stroke:#501338;stroke-width:1.5656;stroke-miterlimit:10;}
	.st212{opacity:0.5;fill:#FCF9F4;}
	.st213{opacity:0.5;fill:#FDDCC0;}
	.st214{fill:#6B3A37;}
	.st215{fill:#92A3D3;}
	.st216{fill:#B0C2E4;}
	.st217{fill:#7790BC;}
	.st218{fill:#7F95C6;}
	.st219{fill:#D0A7C2;}
	.st220{fill:#B7BE79;}
	.st221{fill:#725F82;}
	.st222{fill:#635175;}
	.st223{fill:none;stroke:#501338;stroke-width:1.5843;stroke-miterlimit:10;}
	.st224{fill:#C5B8DA;}
	.st225{fill:#A999C9;}
	.st226{fill:#8B6445;}
	.st227{fill:#7A5439;}
	.st228{fill:none;stroke:#501338;stroke-width:1.5751;stroke-linecap:round;stroke-linejoin:round;stroke-miterlimit:10;}
	.st229{fill:#D9CEB7;}
	.st230{fill:#CCBDA2;}
	.st231{opacity:0.2;fill:#FFFFFF;}
	.st232{fill:#B61F30;}
	.st233{fill:#595B5B;}
</style>
<g>
	<g>
		<ellipse class="st0" cx="120.5" cy="367.9" rx="54.1" ry="18.8"/>
		<path class="st72" d="M77.8,308.3L78,311l42.1,19.8c0,0,30-15.4,34-16.1c4-0.7,8.9-4.3,8.9-4.3l0.2-2l-35,5.1l-30.6-3.4l-17.3-1.9
			L77.8,308.3"/>
		<g>
			<path class="st73" d="M37.1,323.7c0,0,7.2-30.6,56.4-6.4s69.4,34.6,69.4,34.6s46.3,1.7,42,9.7c-4.2,8.1-10.6,22.7-18,23.4
				s-90.4-20.4-90.4-20.4S29.8,349.1,37.1,323.7z"/>
			<path class="st3" d="M178.7,383.8c-2.3-0.4-13.7-2.9-22.6-4.8c9.4,2.7,15,4.7,22.5,5.3c1.4,0.1,2.6,0.2,3.7,0.2
				C181,384.2,179.7,383.9,178.7,383.8z"/>
			<path class="st3" d="M121.5,370.9c-6.9-1.6-13.6-3.2-17.6-4.2C109.1,368.1,114.8,369.5,121.5,370.9z"/>
			<path class="st72" d="M36.5,332c2,5.4,14.4,18,30.7,23c9.6,3,18.3,6.4,30.2,9.8c-2.1-0.9-4-1.9-4-1.9l2.7-8.1
				c-16-5.2-29.3-9.6-34-11.7c-21.4-9.2-23.3-13.5-21.4-26.7C40.1,317.3,35.4,328.9,36.5,332z"/>
			<path class="st0" d="M162.9,352c1.6,0,3.2,0.1,4.7,0.1c-1.8-0.1-3.1-0.2-3.4-0.2c-0.6,0-5.3-2.2-10.2-4.6
				C157.6,349.2,160.6,350.8,162.9,352z"/>
			<path class="st0" d="M127.8,372.2c-2.2-0.4-4.3-0.8-6.3-1.3c11.8,2.8,24,5.7,24,5.7s4.8,1.1,10.7,2.4
				C149.4,377,140.6,374.6,127.8,372.2z"/>
			<path class="st0" d="M103.9,366.7c-2.3-0.6-4.4-1.2-6.5-1.8c1,0.4,1.9,0.8,2.8,1C100.7,365.9,102,366.3,103.9,366.7z"/>
			<path class="st0" d="M175.6,381.7c7.5,0.6,16.8,0.2,16.8,0.2c-2,1.8-1,3.1-10.1,2.6c3.9,0.7,8.9,0.8,12.3-4.3
				c4.5-7,10.7-18.2,10.5-19.6c-0.1-1.3-0.9-0.5-0.9-0.4c-2.8-1.1-5.6-2.9-9.8-3.6c-9-1.5-21.2-1.2-31.3-0.5l-5.7,8.7l2.3-9.6
				c-17.1-9.1-36.9-19.3-54.6-27.4l-2.9,14l-6.2,13C97.7,364.7,160.8,380.5,175.6,381.7z"/>
			<path class="st4" d="M159.7,355.2l-3.9,12.4l7.7-10.9c14.7-1,40.4,4.3,37.2,11.3c0-0.1,5.9-7.2,3-9.4c-2-1.5-8.5-3.2-14.4-4.1
				c-7-0.8-16.3-2.1-21.7-2.5h0c-1.5,0-3.1-0.1-4.7-0.1c-2.4-1.2-5.4-2.8-8.8-4.6c-0.1,0-0.1-0.1-0.2-0.1c-6-2.9-12.3-6.2-12.3-6.2
				l-32.1-15.8l-3.4-0.7l-1.1,3.3C122.9,335.9,142.6,346.1,159.7,355.2z"/>
			<path class="st74" d="M48.4,310.6c13.1-0.5,34,6.9,56.7,17.2l1.1-3.3l3.4,0.7l32.1,15.8c0,0,7.5,4.6,13.4,7.5
				C126.5,333.2,64.9,298.2,48.4,310.6z"/>
			<path class="st6" d="M93.4,362.9c0,0,1.9,1.1,4,1.9c0,0,0,0,0,0c2.1,0.6,4.2,1.2,6.5,1.8c4,1,10.7,2.6,17.6,4.2
				c2,0.4,4.1,0.9,6.3,1.3c12.9,2.5,21.6,4.8,28.4,6.8c8.9,1.9,20.3,4.4,22.6,4.8c1,0.2,4.1,1.1,5.4,1.3c9,0.5,13-8.3,14.8-12.5
				c0,0-4.2,5.3-13.6,6.4c-6.8,0.8-18.7-3.5-30.9-9c0,0-46-3.2-57.1-15.1L93.4,362.9z"/>
			<path class="st6" d="M95.6,351.4c0.1,0.1,0.2,0.1,0.2,0.1c-3,8-3.9,11.8-3.9,11.8l-2-0.8C89.9,362.5,93.6,354.6,95.6,351.4z"/>
			<path class="st6" d="M100.8,334.9c-0.1,0-0.2-0.1-0.3-0.1c1.6-8.4,1.9-12.3,1.9-12.3l2.1,0.5C104.6,323,102.2,331.4,100.8,334.9z
				"/>
			<polygon class="st6" points="155.9,367.6 161,351.2 162.7,352.8 			"/>
			<path class="st72" d="M86.3,341.2c0.1,0,0.1,0.1,0.2,0.1c-2.6,7.4-3.3,10.8-3.3,10.8l-2.1-0.6C81,351.5,84.6,343.8,86.3,341.2z"
				/>
			
				<ellipse transform="matrix(0.3854 -0.9228 0.9228 0.3854 -215.9301 401.7458)" class="st4" cx="193.6" cy="363" rx="0.5" ry="4.7"/>
			
				<ellipse transform="matrix(0.4045 -0.9145 0.9145 0.4045 -236.3127 337.2918)" class="st7" cx="140.9" cy="350.1" rx="0.6" ry="14"/>
			<path class="st8" d="M200.5,368.5c0.9-2.7,2.7-6.2,2.7-7.5l-1.5,0.1l1.3-0.9c-0.4-1.6-8.7-4.6-13.8-5.3c0,0,11,1.2,13.5,3.1
				c2.5,1.9,3.1,1.5,2.2,3.7C204,364.2,200.5,368.5,200.5,368.5z"/>
			<path class="st8" d="M104.6,337.6l2.4-12.6l18.8,9.3c-5.4-1.8-17.9-7.3-17.9-7.3L104.6,337.6z"/>
			<path class="st6" d="M185.6,353c-0.1,0.4-0.3,0.9-0.6,1.4c-5.1,8.2-30.5,15.6-30.5,15.6l-8.8,0.9l-29.8-7.2l11.7-6.3l31.3-6.5
				l2.6-0.5c0.8,0.4,1.3,0.7,1.6,0.8C165.7,351.1,175.8,351.6,185.6,353z"/>
			<path class="st6" d="M205.7,359.3c-1.8-3.1-10.8-5.1-20.1-6.3c-9.8-1.3-19.9-1.8-22.4-1.9c-0.3-0.1-0.8-0.4-1.6-0.8
				c-5.9-3-27-13.7-67.6-33.7c-19.5-9.6-34.9-11.9-45.7-6.8c-9.5,4.5-11.8,13.1-11.9,13.7c-1.2,4.1-0.6,8.1,1.7,12.1
				c10.9,18.6,56.4,29.4,58.3,29.8c3.3,0.8,80.7,20.5,90.3,20.5c0.2,0,0.3,0,0.4,0c7-0.6,12.4-11.5,17-20.5c0.6-1.2,1.2-2.3,1.7-3.3
				C206.2,361.1,206.2,360.2,205.7,359.3z M39.5,334.8c-2.1-3.6-2.6-7.2-1.6-10.8l0,0c0-0.1,2.1-8.4,11-12.6
				c3.5-1.7,7.5-2.5,12.1-2.5c8.8,0,19.6,3.1,32.1,9.3c4.3,2.1,8.4,4.1,12.3,6.1c-1.6,14.2-5.4,23.1-13.5,38.4
				C79.9,359.2,48,349.3,39.5,334.8z M204.2,361.3c-0.5,1-1.1,2.1-1.7,3.3c-4.2,8.2-9.6,19.1-15.7,19.6
				c-5.8,0.5-61.5-13.1-90.1-20.4c-0.1,0-1.2-0.3-3.1-0.8c7.8-14.8,11.7-24.1,13.4-38.1c28.5,14.1,45,22.4,51.8,25.9
				c2.4,1.2,3.6,1.8,3.6,1.9l0.2,0.1h0.2c6.7,0,14.8,0.6,22,1.6c9.6,1.3,17.8,3.4,19.3,5.8C204.4,360.5,204.4,360.9,204.2,361.3z"/>
		</g>
		<g>
			<path class="st73" d="M204.7,323.7c0,0-7.2-30.6-56.4-6.4S78.8,352,78.8,352s-46.3,1.7-42,9.7c4.2,8.1,10.6,22.7,18,23.4
				s90.4-20.4,90.4-20.4S212,349.1,204.7,323.7z"/>
			<path class="st3" d="M63,383.8c2.3-0.4,13.7-2.9,22.6-4.8c-9.4,2.7-15,4.7-22.5,5.3c-1.4,0.1-2.6,0.2-3.7,0.2
				C60.8,384.2,62.1,383.9,63,383.8z"/>
			<path class="st3" d="M120.3,370.9c6.9-1.6,13.6-3.2,17.6-4.2C132.7,368.1,126.9,369.5,120.3,370.9z"/>
			<path class="st72" d="M205.2,332c-2,5.4-14.4,18-30.7,23c-9.6,3-18.3,6.4-30.2,9.8c2.1-0.9,4-1.9,4-1.9l-2.7-8.1
				c16-5.2,29.3-9.6,34-11.7c21.4-9.2,23.3-13.5,21.4-26.7C201.7,317.3,206.4,328.9,205.2,332z"/>
			<path class="st0" d="M78.8,352c-1.6,0-3.2,0.1-4.7,0.1c1.8-0.1,3.1-0.2,3.4-0.2c0.6,0,5.3-2.2,10.2-4.6
				C84.2,349.2,81.2,350.8,78.8,352z"/>
			<path class="st0" d="M114,372.2c2.2-0.4,4.3-0.8,6.3-1.3c-11.8,2.8-24,5.7-24,5.7s-4.8,1.1-10.7,2.4
				C92.4,377,101.1,374.6,114,372.2z"/>
			<path class="st0" d="M137.9,366.7c2.3-0.6,4.4-1.2,6.5-1.8c-1,0.4-1.9,0.8-2.8,1C141.1,365.9,139.8,366.3,137.9,366.7z"/>
			<path class="st0" d="M66.2,381.7c-7.5,0.6-16.8,0.2-16.8,0.2c2,1.8,1,3.1,10.1,2.6c-3.9,0.7-8.9,0.8-12.3-4.3
				c-4.5-7-10.7-18.2-10.5-19.6c0.1-1.3,0.9-0.5,0.9-0.4c2.8-1.1,5.6-2.9,9.8-3.6c9-1.5,21.2-1.2,31.3-0.5l5.7,8.7l-2.3-9.6
				c17.1-9.1,36.9-19.3,54.6-27.4l2.9,14l6.2,13C144,364.7,81,380.5,66.2,381.7z"/>
			<path class="st4" d="M82,355.2l3.9,12.4l-7.7-10.9c-14.7-1-40.4,4.3-37.2,11.3c0-0.1-5.9-7.2-3-9.4c2-1.5,8.5-3.2,14.4-4.1
				c7-0.8,16.3-2.1,21.7-2.5h0c1.5,0,3.1-0.1,4.7-0.1c2.4-1.2,5.4-2.8,8.8-4.6c0.1,0,0.1-0.1,0.2-0.1c6-2.9,12.3-6.2,12.3-6.2
				l32.1-15.8l3.4-0.7l1.1,3.3C118.9,335.9,99.1,346.1,82,355.2z"/>
			<path class="st74" d="M193.3,310.6c-13.1-0.5-34,6.9-56.7,17.2l-1.1-3.3l-3.4,0.7L100.1,341c0,0-7.5,4.6-13.4,7.5
				C115.2,333.2,176.8,298.2,193.3,310.6z"/>
			<path class="st6" d="M148.4,362.9c0,0-1.9,1.1-4,1.9c0,0,0,0,0,0c-2.1,0.6-4.2,1.2-6.5,1.8c-4,1-10.7,2.6-17.6,4.2
				c-2,0.4-4.1,0.9-6.3,1.3c-12.9,2.5-21.6,4.8-28.4,6.8c-8.9,1.9-20.3,4.4-22.6,4.8c-1,0.2-4.1,1.1-5.4,1.3
				c-9,0.5-13-8.3-14.8-12.5c0,0,5.4,7,14.8,8.1c6.8,0.8,17.9-2.9,30.1-8.4c0,0,45.6-5.6,56.7-17.5L148.4,362.9z"/>
			<path class="st6" d="M146.2,351.4c-0.1,0.1-0.2,0.1-0.2,0.1c3,8,3.9,11.8,3.9,11.8l2-0.8C151.9,362.5,148.1,354.6,146.2,351.4z"
				/>
			<path class="st6" d="M141,334.9c0.1,0,0.2-0.1,0.3-0.1c-1.6-8.4-1.9-12.3-1.9-12.3l-2.1,0.5C137.2,323,139.6,331.4,141,334.9z"/>
			<polygon class="st6" points="85.9,367.6 80.8,351.2 79,352.8 			"/>
			<path class="st72" d="M155.5,341.2c-0.1,0-0.1,0.1-0.2,0.1c2.6,7.4,3.3,10.8,3.3,10.8l2.1-0.6
				C160.7,351.5,157.2,343.8,155.5,341.2z"/>
			
				<ellipse transform="matrix(0.9228 -0.3854 0.3854 0.9228 -136.1659 46.5999)" class="st7" cx="48.2" cy="363" rx="4.7" ry="0.5"/>
			
				<ellipse transform="matrix(0.9145 -0.4045 0.4045 0.9145 -133.0064 70.7566)" class="st7" cx="100.9" cy="350.1" rx="14" ry="0.6"/>
			<path class="st7" d="M41.3,368.5c-0.9-2.7-2.7-6.2-2.7-7.5l1.5,0.1l-1.3-0.9c0.4-1.6,8.7-4.6,13.8-5.3c0,0-11,1.2-13.5,3.1
				c-2.5,1.9-3.1,1.5-2.2,3.7C37.8,364.2,41.3,368.5,41.3,368.5z"/>
			<path class="st7" d="M137.1,337.6l-2.4-12.6l-18.8,9.3c5.4-1.8,17.9-7.3,17.9-7.3L137.1,337.6z"/>
			<path class="st6" d="M205.5,323.5c-0.1-0.6-2.4-9.2-11.9-13.7c-10.8-5.1-26.2-2.8-45.7,6.8c-46.3,22.7-67.1,33.4-69.2,34.5
				c-4.9,0-38.8,1.9-42.5,8.2c-0.5,0.9-0.5,1.8,0,2.8c0.5,1,1.1,2.1,1.7,3.3c4.6,9,10,19.9,17,20.5c0.1,0,0.3,0,0.4,0
				c9.6,0,86.9-19.6,90.3-20.5c1.9-0.5,47.4-11.2,58.3-29.8C206.1,331.7,206.7,327.6,205.5,323.5z M145,363.8
				c-28.6,7.3-84.3,20.9-90.1,20.4c-6-0.5-11.5-11.4-15.7-19.6c-0.6-1.2-1.2-2.3-1.7-3.3c-0.2-0.4-0.2-0.8,0-1.1
				c2.5-4.2,25.7-7.3,41.3-7.4l0.2,0l0.2-0.1c0.2-0.1,16.8-8.6,55.5-27.7c1.7,13.9,5.6,23.3,13.4,38.1
				C146.2,363.5,145.1,363.8,145,363.8z M202.3,334.8c-8.5,14.5-40.4,24.5-52.5,27.8c-8.1-15.3-11.8-24.2-13.5-38.4
				c3.9-1.9,8-3.9,12.3-6.1c12.6-6.2,23.3-9.3,32.1-9.3c4.6,0,8.6,0.8,12.1,2.5c8.9,4.2,11,12.5,11,12.6l0,0
				C204.9,327.6,204.4,331.2,202.3,334.8z"/>
		</g>
		<path class="st72" d="M73.5,320.2c0,0,2.8,2.2,2,3.7c-0.8,1.5-3.3,4.3-3.3,4.3s3.8,6.7,3,9.9c-0.8,3.2-13.8,8.2-13.8,8.2l-4.5-3.6
			l-0.3-9l8.8-9.3L73.5,320.2"/>
		<path class="st72" d="M169.2,320.6c0,0-2.8,2.2-2,3.7c0.8,1.5,3.3,4.3,3.3,4.3s-3.8,6.7-3,9.9c0.8,3.2,13.8,8.2,13.8,8.2l4.5-3.6
			l0.3-9l-8.8-9.3L169.2,320.6"/>
		<g>
			<g>
				<polygon class="st6" points="133.5,223.4 131.2,218.1 125.1,213.8 124.7,214.1 123,215.6 122.5,215.9 120.5,222 118.4,215.9 
					117.9,215.6 116.2,214.1 115.8,213.8 109.8,218.1 107.4,223.4 104.8,230.3 107.4,237.7 120.5,253.3 133.5,237.7 136.1,230.3 
									"/>
				<path class="st6" d="M120.5,254.4L106.8,238l-2.7-7.8l2.7-7.1l2.5-5.5l6.6-4.8l3.2,2.7l1.4,4.2l1.4-4.2l3.2-2.7l6.6,4.8l2.5,5.5
					l2.7,7.1l-2.7,7.8L120.5,254.4z M108,237.3l12.4,14.9l12.4-14.9l2.4-7l-2.5-6.6l-2.3-5.1l-5.4-3.9l0,0l-2,1.7l-2.7,7.8l-2.7-7.8
					l-2-1.7l-5.4,3.9l-2.3,5.2l-2.5,6.6L108,237.3z"/>
			</g>
			<path class="st10" d="M123.1,216.2c0,0,6.1,5.4,8.1,13c0.3,1.1,0.5,2.2,0.6,3.4c1.3-2.9,2.3-5.4,3.1-7.5c-0.4-0.5-0.8-1-1.3-1.5
				c-2.7-2.9-6.2-5.6-10.5-7.9L123.1,216.2z"/>
			<path class="st10" d="M117.8,216.2c0,0-6.1,5.4-8.1,13c-0.3,1.1-0.5,2.2-0.6,3.4c-1.3-2.9-2.3-5.4-3.1-7.5c0.4-0.5,0.8-1,1.3-1.5
				c2.7-2.9,6.2-5.6,10.5-7.9L117.8,216.2z"/>
		</g>
		<g>
			<path class="st87" d="M186.8,215.9c-5.7-6.9-11.1-11.7-14.5-14.5c-2.4-1.9-3.8-2.9-3.8-2.9l-5.2-2l-2.9-1.1l-8.9-3.5l-9.8-3.9
				l-2,21.9l-19.2,32.5v74.1c0.1-0.1,0.2-0.3,0.3-0.4c1.7-1.8,4.4-1.9,6.7-2.4c4.6-0.9,9.3-1.8,13.9-2.7c4.8-0.9,9.6-1.9,14.2-3.4
				c3-0.9,5.8-2,8.8-2.7c0.6-6.9,1.7-19.3,2.7-31.7c1.6-18.7,3.2-37.6,3.2-38c16.8,32,7.4,70.9,6.8,74.1c-0.6,3.4-7.1,6.5-9.3,8.2
				c-2.2,1.6,3.6,8.5,3.6,8.5l-2.9,8.4c-0.4,1.2,0,2.4,1,3.1c0,0,26.9,15.6,31.1,5.1C225.8,279.4,204.6,237.5,186.8,215.9z"/>
			<path class="st5" d="M177.5,306.9c-0.2,1.2-0.4,2-0.5,2.3c-0.6,3.4-7.1,6.5-9.3,8.2c-1.7,1.2,1.2,5.4,2.7,7.4
				c0.6,0.7,0.7,1.7,0.4,2.5l-2.4,7c-0.4,1.2,0,2.4,1,3.1c0,0,26.9,15.6,31.1,5.1c3.5-8.8,6.1-17.2,8-25.2
				C194.6,311.5,183.5,308.4,177.5,306.9z"/>
			<path class="st88" d="M169.5,231.9c0,0,22.1,21.1,16.2,73.8c10.1,3.7,23.9,8.5,23.9,8.5l-1,3.2l-31-10.4c0,0,6.2-30,1.8-45.3
				C174.8,246.3,169.5,231.9,169.5,231.9z"/>
			<path class="st94" d="M168.7,198.8c0,0,50.1,45.2,35.5,112.7c3.3,1.3,5.3,1,5.3,1s3.8-23.2,2.3-34.1s-2.6-25.7-13.5-45.9
				s-28.8-33.9-28.8-33.9L168.7,198.8z"/>
			<path class="st6" d="M209.1,312.7c-5.5-2.4-12.3-4.3-20.6-6.1c7.6,2.9,15.3,5.6,20.6,8.1V312.7z"/>
			<path class="st94" d="M209.1,298.1c0,0-4.4-1.6-14.4-3.5c13.2,0.3,15.4,2.1,15.4,2.1L209.1,298.1z"/>
			<path class="st88" d="M179.5,290.8c0,0,12.6-1.7,17.9,0.6c-9.7-0.4-17.8,1.4-17.9,1.3C179.5,290.8,179.5,290.8,179.5,290.8z"/>
			<path class="st6" d="M205.6,247.7c0,0-8.1,1-10.7,3.9c5.8-2.2,11.2-2.1,11.2-2.3C205.6,247.7,205.6,247.7,205.6,247.7z"/>
			<path class="st7" d="M178.3,332.1c0,0,13.5,3.7,21.3,4.5l5.5-16.8l2.6,1.2l-6.3,19.9C201.4,340.7,192,340.5,178.3,332.1z"/>
			<path class="st13" d="M207.7,320.8c-7.4-3.5-15.3-5.6-23-5.5c-1.2,5.6-3.4,11.1-6.4,16.7c0,0,10.9,7,22.8,8.9
				c-3.1,4.4-2.6,7.1-12.3,4.6c-9.7-2.4-20.6-9.4-20.6-9.4l1.8-6.6l1.3-3.7l-3.4-5l-0.6-3.2l4.1-2.4l4.5-4.1l1.5-4.4
				c10.6,3.2,20.9,6.8,30.9,10.7L207.7,320.8z"/>
			<path class="st5" d="M172.1,318.6c0.3-0.6,0.7-1.1,1.1-1.5c0.4-0.4,0.9-0.8,1.4-1.1c0.5-0.3,1-0.6,1.6-0.8
				c0.5-0.2,1.1-0.4,1.7-0.5l0,0c-0.4,0.5-0.8,1-1.2,1.4c-0.4,0.4-0.9,0.8-1.4,1.1c-0.5,0.3-1,0.6-1.5,0.9
				C173.3,318.2,172.8,318.4,172.1,318.6z"/>
			<path class="st6" d="M200.7,341.3c0,0-11.3-2.1-16.2-5.8c9.1,3.3,16.8,4.2,16.8,4.2L200.7,341.3z"/>
			<polygon class="st6" points="174.6,340.3 178,336.4 176.1,340.9 			"/>
			<polygon class="st6" points="183,343.9 186.4,339.9 184.5,344.4 			"/>
			<polygon class="st6" points="190.4,345.7 192.4,343.5 191.3,346 			"/>
			<path class="st88" d="M169.8,234.1l-5.4,62.7c-5.2,1.6-10.5,1-16.5,4c-10.4,5.1-19.6,0.9-27.5,4.8V299
				c11.6,0.1,25.2-2.6,39.6-6.8l0.4-5.3l-21.3,4.9l21.7-10.2l8.6-49.8L169.8,234.1z"/>
			<path class="st6" d="M200.2,233.5c-5-9.5-10.8-17.2-16-22.9c-7.1-7.8-16-13.8-25.9-17.5l-17.3-6.4l-2.1,22.8l-19.2,32.5l0.8,74.2
				c0.3-0.1,0.6-0.2,0.9-0.1v-73.6l19.2-32.4l1.9-21l14.7,5.5c10.2,3.8,19.4,10,26.6,18.2c15.5,17.6,35.8,51.9,24.1,103.4
				c-9.1-4.3-19-7.6-29.4-10c3.2-16.7,5.8-46.3-7.5-71.6l-1.5-2.8l-0.1,3.2c0,1.3-5.7,68.1-6.3,75.3l1.6,0.9l0.1-1
				c1.6-19.2,5.2-60.4,6.1-72c12,25.3,8.7,54.4,5.6,69.9c-0.1,0.5-0.2,0.8-0.2,1c-0.4,2.2-4.3,4.7-6.9,6.3c-0.9,0.5-1.6,1-2.1,1.4
				c-0.5,0.3-0.8,0.9-0.8,1.5c-0.3,2.4,2.8,6.4,4,7.9l-2.8,8c-0.5,1.5,0,3.2,1.4,4.2c0.7,0.4,15.3,8.8,24.8,8.8
				c1.3,0,2.5-0.2,3.6-0.5c1.9-0.6,3.2-1.9,3.9-3.7C221.5,292.4,211.8,255.6,200.2,233.5z M199.7,342.2c-0.5,1.3-1.5,2.2-2.9,2.7
				c-8,2.8-26.8-8.1-27-8.1c-0.7-0.5-1-1.4-0.7-2.2l2.7-7.8c0.3-0.9,2.1-4.3,3.7-6.6c-1.6,1.2-3.5,2.8-4.4,4.2c-1.6-2-3.3-4.7-3.2-6
				c0-0.2,0.1-0.3,0.2-0.3c0.5-0.4,1.2-0.8,2-1.3c3-1.9,7.1-4.4,7.7-7.4c0-0.2,0.1-0.5,0.2-1c0-0.1,0.1-0.3,0.1-0.5
				c10.3,2,20.1,5.4,29.4,9.9C205.7,325.6,203.1,333.7,199.7,342.2z"/>
		</g>
		<g>
			<path class="st87" d="M73.2,317.4c-2.2-1.6-8.7-4.8-9.3-8.2c-0.6-3.2-10-42.1,6.8-74.1c0,0.4,1.6,19.3,3.2,38
				c1.1,12.6,2.2,25.2,2.7,32.1c2.9,0.4,5.9,1.3,8.7,1.8c2.8,0.5,5.5,1.2,8.1,2.1c3.9,0.7,7.8,1,11.7,1.9c4.8,1.1,10.5,2.6,15.3,5
				v-73.7l-19.2-32.5l-2-21.9l-16.6,6.6l-10.1,4c-0.1,0.1-70.9,46.9-32.1,144c4.2,10.5,31.1-5.1,31.1-5.1c1-0.7,1.4-2,1-3.2
				l-2.9-8.4C69.6,325.9,75.4,319,73.2,317.4z"/>
			<path class="st5" d="M63.4,306.9c0.2,1.2,0.4,2,0.5,2.3c0.6,3.4,7.1,6.5,9.3,8.2c1.7,1.2-1.2,5.4-2.7,7.4
				c-0.6,0.7-0.7,1.7-0.4,2.5l2.4,7c0.4,1.2,0,2.4-1,3.1c0,0-26.9,15.6-31.1,5.1c-3.5-8.8-6.1-17.2-8-25.2
				C46.3,311.5,57.4,308.4,63.4,306.9z"/>
			<path class="st88" d="M71.4,231.9c0,0-22.1,21.1-16.2,73.8c-10.1,3.7-23.9,8.5-23.9,8.5l1,3.2l31-10.4c0,0-6.2-30-1.8-45.3
				S71.4,231.9,71.4,231.9z"/>
			<path class="st94" d="M82.6,194.5c0,0-58.4,27.5-45.8,117c-3.3,1.3-5.3,1-5.3,1s-3.8-23.2-2.3-34.1c1.5-11,2.6-25.7,13.5-45.9
				s28.8-33.9,28.8-33.9L82.6,194.5z"/>
			<path class="st6" d="M31.9,312.7c5.5-2.4,12.3-4.3,20.6-6.1c-7.6,2.9-15.3,5.6-20.6,8.1V312.7z"/>
			<path class="st94" d="M31.9,299.8c0,0,4.3-3.3,14.3-5.1c-13.2,0.3-15.4,2.1-15.4,2.1L31.9,299.8z"/>
			<path class="st94" d="M42.2,238.6c0,0,8.1-1,11.7-0.5c-5-3.3-11.6-2.7-11.6-2.7L42.2,238.6z"/>
			<path class="st88" d="M61.5,290.8c0,0-12.6-1.7-17.9,0.6c9.7-0.4,17.8,1.4,17.9,1.3C61.5,290.8,61.5,290.8,61.5,290.8z"/>
			<path class="st7" d="M62.6,332.1c0,0-13.5,3.7-21.3,4.5l-5.5-16.8l-2.6,1.2l6.3,19.9C39.5,340.7,49,340.5,62.6,332.1z"/>
			<path class="st13" d="M33.3,320.8c7.4-3.5,15.3-5.6,23-5.5c1.2,5.6,3.4,11.1,6.4,16.7c0,0-10.9,7-22.8,8.9
				c3.1,4.4,2.6,7.1,12.3,4.6c9.7-2.4,20.6-9.4,20.6-9.4l-1.8-6.6l-1.3-3.7l3.4-5l0.6-3.2l-4.1-2.4l-4.5-4.1l-1.5-4.4
				c-10.6,3.2-20.9,6.8-30.9,10.7L33.3,320.8z"/>
			<path class="st5" d="M68.8,318.6c-0.3-0.6-0.7-1.1-1.1-1.5c-0.4-0.4-0.9-0.8-1.4-1.1c-0.5-0.3-1-0.6-1.6-0.8
				c-0.5-0.2-1.1-0.4-1.7-0.5l0,0c0.4,0.5,0.8,1,1.2,1.4c0.4,0.4,0.9,0.8,1.4,1.1c0.5,0.3,1,0.6,1.5,0.9
				C67.6,318.2,68.2,318.4,68.8,318.6z"/>
			<path class="st6" d="M40.2,341.3c0,0,11.3-2.1,16.2-5.8c-9.1,3.3-16.8,4.2-16.8,4.2L40.2,341.3z"/>
			<polygon class="st6" points="66.4,340.3 63,336.4 64.8,340.9 			"/>
			<polygon class="st6" points="56.1,343.9 52.7,339.9 54.6,344.4 			"/>
			<polygon class="st6" points="48.7,345.7 46.7,343.5 47.8,346 			"/>
			<path class="st88" d="M71.1,234.1l5.2,61c5.2,1.6,9.8,5,15.8,8c10.4,5.1,20.5-2.2,28.4,1.7l-2.3-4.9c-11.1-0.9-23.7-3.5-37.4-7
				L80,280.2l9,1.5l-9.3-6.8l-8.2-43.1L71.1,234.1z"/>
			<path class="st6" d="M119.6,314.6c0.5-0.3,1.1-0.4,1.7-0.1v-72.4l-19.2-32.5l-2.1-22.8l-17.3,6.4c-9.9,3.7-18.8,9.6-25.9,17.5
				c-5.2,5.7-11,13.4-16,22.9c-11.7,22-21.3,58.8-1.1,109.3c0.7,1.8,2,3,3.9,3.7c1.1,0.4,2.3,0.5,3.6,0.5c9.5,0,24.1-8.4,24.8-8.8
				c1.4-1,1.9-2.6,1.4-4.2l-2.8-8c1.2-1.4,4.3-5.5,4-7.9c-0.1-0.6-0.4-1.1-0.8-1.5c-0.5-0.4-1.3-0.8-2.1-1.4c-2.6-1.6-6.5-4-6.9-6.3
				c0-0.2-0.1-0.5-0.2-1c-3.2-15.4-6.5-44.6,5.6-69.9c1,11.6,4.5,52.8,6.1,72l0.1,1L78,311c-0.6-7.1-6.4-74.6-6.4-75.9l-0.1-3.2
				l-1.5,2.8c-13.3,25.2-10.6,54.9-7.5,71.6c-10.5,2.3-20.3,5.6-29.4,10c-11.7-51.5,8.6-85.8,24.1-103.4
				c7.2-8.2,16.4-14.4,26.6-18.2l14.7-5.5l1.9,21l19.2,32.4V314.6z M62.8,307.9c0,0.2,0.1,0.3,0.1,0.5c0.1,0.5,0.2,0.8,0.2,1
				c0.5,3,4.6,5.5,7.7,7.4c0.8,0.5,1.5,0.9,2,1.3c0,0,0.1,0.1,0.2,0.3c0.2,1.4-1.6,4.1-3.2,6.1c-0.9-1.4-2.7-3-4.3-4.2
				c1.9,2.7,3.4,5.7,3.7,6.6l2.7,7.8c0.3,0.8,0,1.7-0.7,2.2c-0.1,0.1-18.9,10.9-27,8.1c-1.4-0.5-2.4-1.4-2.9-2.7
				c-3.4-8.5-6-16.6-7.8-24.3C42.7,313.3,52.4,310,62.8,307.9z"/>
		</g>
		<g>
			<path class="st88" d="M119.8,240.9l-32.7-54.4c0,0-13.8,4-9.5,27.2l10.8,1.2l-1.7,11.3c-0.6,3-0.1,3,1.8,3.7L119.8,240.9z"/>
			<path class="st12" d="M78.1,213.2c0,0-1.8-20.2,9.2-24.9c-0.1-1.1-0.5-2.3-2.6-0.6c-2.1,1.6-5.6,4.2-6.6,8.7
				c-1,4.4-1.4,9.7-1.2,12s0.7,5.1,0.7,5.1L78.1,213.2z"/>
			<path class="st94" d="M89.8,209.4l-1.3,18.2l30.2,12.4l-31.4-10.5c0,0-0.9-0.2-0.7-3s2.5-13.9,2.5-13.9L89.8,209.4z"/>
			<path class="st6" d="M90,208.5l-1.8,6.6l0.7,2.2l1.3-8.6C90.1,208.7,90,208.5,90,208.5z"/>
			<path class="st6" d="M87.4,185.6l-0.5,0.2c0.6,0.1-11.3,4.6-10,28l0.1,0.5l10.6,1.2L86.1,226c-0.6,3-0.1,3.6,2,4.4l31.2,11.1
				l1.2-0.9l-1.7-2.7L87.4,185.6z M88.5,229c-1.5-0.5-1.5-0.5-1-2.8l1.8-12l-11-1.2c-3.5-19.5,6.1-24.6,8.5-25.6l31.4,52.2L88.5,229
				z"/>
		</g>
		<g>
			<path class="st88" d="M121.1,240.9l32.7-54.4c0,0,13.8,4,9.5,27.2l-10.8,1.2l1.7,11.3c0.6,3,0.1,3-1.8,3.7L121.1,240.9z"/>
			<path class="st12" d="M162.9,213.2c0,0,1.8-20.2-9.2-24.9c0.1-1.1,0.5-2.3,2.6-0.6c2.1,1.6,5.6,4.2,6.6,8.7c1,4.4,1.4,9.7,1.2,12
				c-0.2,2.3-0.7,5.1-0.7,5.1L162.9,213.2z"/>
			<path class="st94" d="M151.1,209.4l1.3,18.2L122.2,240l31.4-10.5c0,0,0.9-0.2,0.7-3c-0.2-2.7-2.5-13.9-2.5-13.9L151.1,209.4z"/>
			<path class="st6" d="M151,208.5l1.8,6.6l-0.7,2.2l-1.3-8.6C150.8,208.7,150.9,208.5,151,208.5z"/>
			<path class="st6" d="M122.1,237.8l-1.7,2.7l1.2,0.9l31.2-11.1c2.1-0.7,2.6-1.3,2-4.4l-1.6-10.5l10.6-1.2l0.1-0.5
				c-2.6-20.5-11.4-27.3-10-28l-0.5-0.2L122.1,237.8z M122.8,239.5l31.4-52.2c2.4,1,12,6.2,8.5,25.6l-11,1.2l1.8,12
				c0.4,2.2,0.4,2.2-1,2.8L122.8,239.5z"/>
		</g>
		<g>
			<g>
				<g>
					<g>
						<path class="st95" d="M147.8,210.3c6.9,1.3,12.3,3.8,16.3,7.3c0.4,0.3,1,0,0.9-0.5l-1.6-16.6l-1.2-12L147.8,210.3z"/>
						<path class="st96" d="M163.1,214.8c0,0-5-3.8-13-4.2c3.7,1.6,7.5,2.6,9.5,3.9c2.2,1.4,4.7,3.3,4.7,3.3s0.7,0.6,0.6-1.5
							c-0.2-2.2-2-17.3-2-17.3L163.1,214.8z"/>
						<path class="st6" d="M163.7,218.1c-4-3.5-9.4-5.9-16-7.2l-1-0.2l16-24l3,30.4c0,0.5-0.2,1-0.7,1.2c-0.1,0-0.1,0.1-0.2,0.1
							C164.5,218.5,164,218.4,163.7,218.1z M148.9,209.8c6.4,1.4,11.6,3.8,15.5,7.2l-2.6-26.6L148.9,209.8z"/>
					</g>
				</g>
			</g>
			<g>
				<g>
					<g>
						<path class="st95" d="M93.2,210.3c-6.9,1.3-12.3,3.8-16.3,7.3c-0.4,0.3-1,0-0.9-0.5l1.6-16.6l1.2-12L93.2,210.3z"/>
						<path class="st96" d="M77.9,214.8c0,0,5-3.8,13-4.2c-3.7,1.6-7.5,2.6-9.5,3.9c-2.2,1.4-4.7,3.3-4.7,3.3s-0.7,0.6-0.6-1.5
							c0.2-2.2,2-17.3,2-17.3L77.9,214.8z"/>
						<path class="st6" d="M76.1,218.4c-0.1,0-0.1,0-0.2-0.1c-0.4-0.2-0.7-0.7-0.7-1.2l3-30.4l16,24l-1,0.2c-6.7,1.3-12,3.7-16,7.2
							C76.9,218.4,76.5,218.5,76.1,218.4z M79.2,190.4L76.6,217c3.9-3.4,9.2-5.8,15.5-7.2L79.2,190.4z"/>
					</g>
				</g>
			</g>
		</g>
		<g>
			<path class="st67" d="M167,295.7c-3.4,1.1-25.6,7.9-46.5,7.9s-43.1-6.8-46.5-7.9c-0.2-0.1-0.4,0.1-0.4,0.3l1.6,10.7
				c8.6,2.5,27.1,7.1,45.3,7.1s36.7-4.6,45.3-7.1l1.6-10.7C167.4,295.8,167.2,295.7,167,295.7z"/>
			<path class="st68" d="M120.5,303.7c-18.1,0-36.5-4.3-46-6.9l0.2,1.5c8.7,2.5,27.4,7.1,45.8,7.1s37.1-4.6,45.8-7.1l0.2-1.5
				C156.9,299.4,138.5,303.7,120.5,303.7z"/>
			<path class="st69" d="M74.1,303.2l0.6,4.1c8.7,2.5,27.4,7.1,45.8,7.1s37.1-4.6,45.8-7.1l0.6-4.1c-4.9,1.5-26.3,7.7-46.4,7.7
				S79,304.8,74.1,303.2z"/>
			<path class="st6" d="M120.5,314.6c-18.1,0-36.3-4.4-45.5-7.1l-0.5-0.1l-1.7-11.2c-0.1-0.4,0.1-0.8,0.4-1c0.3-0.3,0.7-0.3,1.1-0.2
				c4.1,1.3,25.8,7.8,46.3,7.8c20.5,0,42.1-6.5,46.3-7.8c0.4-0.1,0.8,0,1.1,0.2c0.3,0.3,0.4,0.6,0.4,1l-1.7,11.2l-0.5,0.1
				C156.8,310.2,138.5,314.6,120.5,314.6z M75.9,306.1c9.3,2.6,27,6.9,44.5,6.9c17.5,0,35.2-4.2,44.5-6.9l1.4-9.3
				c-5.7,1.8-26.3,7.6-45.9,7.6c-19.6,0-40.2-5.9-45.9-7.6L75.9,306.1z"/>
			<g>
				<g>
					<circle class="st6" cx="157.6" cy="303.7" r="1.4"/>
					<path class="st68" d="M157.6,304.6c-0.6,0-1.2-0.4-1.4-0.9c0,0,0,0,0,0c0,0.7,0.6,1.3,1.4,1.3s1.4-0.6,1.4-1.3c0,0,0,0,0,0
						C158.7,304.2,158.2,304.6,157.6,304.6z"/>
				</g>
				<g>
					<circle class="st6" cx="83.4" cy="303.7" r="1.4"/>
					<path class="st68" d="M83.4,304.6c-0.6,0-1.2-0.4-1.4-0.9c0,0,0,0,0,0c0,0.7,0.6,1.3,1.4,1.3s1.4-0.6,1.4-1.3c0,0,0,0,0,0
						C84.5,304.2,84,304.6,83.4,304.6z"/>
				</g>
			</g>
			<g>
				<g>
					<circle class="st6" cx="143.2" cy="306.6" r="1.4"/>
					<path class="st68" d="M143.2,307.5c-0.6,0-1.2-0.4-1.4-0.9c0,0,0,0,0,0c0,0.7,0.6,1.3,1.4,1.3s1.4-0.6,1.4-1.3c0,0,0,0,0,0
						C144.4,307.1,143.9,307.5,143.2,307.5z"/>
				</g>
				<g>
					<circle class="st6" cx="97.7" cy="306.6" r="1.4"/>
					<path class="st68" d="M97.7,307.5c-0.6,0-1.2-0.4-1.4-0.9c0,0,0,0,0,0c0,0.7,0.6,1.3,1.4,1.3s1.4-0.6,1.4-1.3c0,0,0,0,0,0
						C98.9,307.1,98.3,307.5,97.7,307.5z"/>
				</g>
			</g>
			<g>
				<circle class="st9" cx="120.5" cy="308.5" r="9.2"/>
				<path class="st10" d="M120.5,313.7c-4.4,0-8.1-3.1-9-7.2c-0.1,0.6-0.2,1.3-0.2,2c0,5.1,4.1,9.2,9.2,9.2c5.1,0,9.2-4.1,9.2-9.2
					c0-0.7-0.1-1.4-0.2-2C128.6,310.6,124.9,313.7,120.5,313.7z"/>
				<path class="st6" d="M120.5,318.6c-5.6,0-10.1-4.5-10.1-10.1c0-5.6,4.5-10.1,10.1-10.1c5.6,0,10.1,4.5,10.1,10.1
					C130.6,314.1,126,318.6,120.5,318.6z M120.5,300.1c-4.6,0-8.4,3.8-8.4,8.4c0,4.6,3.8,8.4,8.4,8.4c4.6,0,8.4-3.8,8.4-8.4
					C128.9,303.9,125.1,300.1,120.5,300.1z"/>
				<path class="st10" d="M120.5,305.1c2.3,0,4.2,1.6,4.7,3.8c0.1-0.3,0.1-0.7,0.1-1c0-2.7-2.2-4.8-4.8-4.8c-2.7,0-4.8,2.2-4.8,4.8
					c0,0.4,0,0.7,0.1,1C116.2,306.7,118.2,305.1,120.5,305.1z"/>
			</g>
			<g>
				<path class="st6" d="M88.2,296.8c0,0-0.2,2.5-0.5,5.6c-0.3,2.8-0.6,6.1-1,8.5c-0.1,0.9-0.2,1.6-0.4,2.2
					C82.7,302.6,87.7,297.3,88.2,296.8C88.2,296.8,88.2,296.8,88.2,296.8z"/>
				<path class="st6" d="M93.6,298.4c-0.8,4.8-1.3,10.2-1.6,16.1c0,0,0,0,0,0l-0.7-2.6l-1.7-6l0.5-3l0.3-1.6l1.3-2.5L93.6,298.4z"/>
				<path class="st73" d="M91.7,312c0.1,1.3,0.3,2.3,0.3,2.5l-0.7-2.6c-1.6-0.3-3.3-0.7-4.6-1c-0.1,0.9-0.2,1.6-0.4,2.2
					c-0.1-0.8-0.2-1.6-0.3-2.3c-0.4-3.7-0.2-6.6,0.2-8.7c0.6-3.4,1.7-5,1.9-5.2c0,0,0,0,0,0s0.3,0,5.5,1.6c-0.9,1.4-1.4,3.1-1.7,4.9
					C91.4,306.4,91.5,309.8,91.7,312z"/>
				<path class="st74" d="M93.6,298.4c-0.9,1.4-1.4,3.1-1.7,4.9l-5.7-1.3c0.7-3.7,1.9-5.3,1.9-5.3S88.5,296.8,93.6,298.4z"/>
				<path class="st72" d="M86,310.8c0.2,0,0.4,0.1,0.7,0.1c-0.1,0.9-0.2,1.6-0.4,2.2C86.2,312.3,86.1,311.5,86,310.8z"/>
				<path class="st72" d="M92,314.4l-0.7-2.6c0.1,0,0.3,0.1,0.4,0.1C91.9,313.3,92,314.2,92,314.4z"/>
			</g>
			<g>
				<path class="st6" d="M153,313.1c-0.1-0.6-0.2-1.3-0.4-2.2c-0.3-2.4-0.7-5.7-1-8.5c-0.3-3.1-0.5-5.6-0.5-5.6s0,0,0,0
					C151.6,297.3,156.5,302.6,153,313.1z"/>
				<path class="st6" d="M149.7,305.9l-1.7,6l-0.7,2.5c0,0,0,0,0,0.1l0,0c-0.3-5.8-0.7-11.3-1.6-16.1l2,0.5l1.3,2.5l0.3,1.6
					L149.7,305.9z"/>
				<path class="st73" d="M153.3,310.8c-0.1,0.7-0.2,1.5-0.3,2.3c-0.1-0.6-0.2-1.3-0.4-2.2c-1.3,0.3-3.1,0.6-4.7,1l-0.7,2.5
					c0.1-0.3,0.2-1.2,0.3-2.4c0.2-2.2,0.4-5.5-0.2-8.6c-0.3-1.8-0.8-3.6-1.7-4.9c5.2-1.6,5.5-1.6,5.5-1.6s0,0,0,0
					c0.2,0.2,1.3,1.9,1.9,5.2C153.5,304.2,153.7,307.1,153.3,310.8z"/>
				<path class="st74" d="M145.7,298.4c0.9,1.4,1.4,3.1,1.7,4.9l5.7-1.3c-0.7-3.7-1.9-5.3-1.9-5.3S150.8,296.8,145.7,298.4z"/>
				<path class="st72" d="M147.6,312c0.1,0,0.3-0.1,0.4-0.1l-0.7,2.5C147.3,314.1,147.4,313.2,147.6,312z"/>
				<path class="st72" d="M153.3,310.8c-0.1,0.7-0.2,1.5-0.3,2.3c-0.1-0.6-0.2-1.3-0.4-2.2C152.9,310.9,153.1,310.8,153.3,310.8z"/>
			</g>
		</g>
		<g>
			<path class="st39" d="M178.8,146.7c3.5,1.1,5.4,7.1,4.9,12.2c-0.4,4.6-2.7,8.7-6.3,11.6c-3.7,3-9.5,4.4-11.8,0.6
				c-0.9-2-1.3-4.2-1-6.4c0.4-3.5,1.6-6.9,3.5-9.8C170.3,151.8,174.5,145.4,178.8,146.7z"/>
			<g>
				<path class="st6" d="M178.9,153.7c-0.7-1.1-1.7-1.4-2.8-1.4c0.7,0.2,1.3,0.5,1.7,1.3c1.1,1.8,0.7,4.6,0,7
					c-0.9,2.7-2.9,4.9-5.4,6c0.1,0.1,0.1,0.3,0.2,0.4c2.9-0.9,5.3-3.3,6.3-6.3C179.6,158.3,179.9,155.5,178.9,153.7z"/>
				<path class="st6" d="M179.2,158.7c-0.1,0.4-2.4,4.4-2.3,3.9c1-2.5,0.8-7.4-2.5-7.2c-0.8,0-0.9-1.6-0.2-2.3
					c0.6-0.6,2-0.9,2.8-0.7c0.8,0.3,1.2,0.6,1.5,1.1c0.2,0.3-0.1,0.7,0,0.9C179.3,155.7,179.5,157.3,179.2,158.7z"/>
				<path class="st38" d="M173.4,158.4c1.3,0.5-0.2,1.9,0.7,2.9c0.2,0.2,0.7,0.3,1.5-0.9c0.7-1.1,0.9-2.2-0.2-3
					c-0.4-0.3-1.2-0.5-1.6-0.3C173.3,157.4,173,158.3,173.4,158.4z"/>
			</g>
			<path class="st39" d="M169.6,169.9C169.6,169.9,169.6,169.9,169.6,169.9C169.6,169.9,169.7,169.9,169.6,169.9c0.2,0,0.2,0,0.4,0
				c0.2,0,0.4,0,0.6,0c0.4,0,0.9-0.1,1.3-0.2c0.9-0.2,1.7-0.4,2.5-0.7c0.8-0.3,1.6-0.8,2.3-1.3c0.7-0.5,1.4-1.2,1.9-1.9
				c-0.4,0.8-1,1.6-1.6,2.2c-0.7,0.7-1.4,1.2-2.2,1.7c-0.8,0.5-1.7,0.9-2.6,1.2c-0.5,0.2-0.9,0.3-1.4,0.4c-0.2,0-0.5,0.1-0.8,0.1
				c-0.1,0-0.3,0-0.4,0c-0.1,0-0.1,0-0.2,0c-0.1,0-0.2,0-0.3-0.1L169.6,169.9z"/>
			<g>
				<g id="Path_349_28_">
					<path class="st39" d="M62.1,146.7c-3.5,1.1-5.4,7.1-4.9,12.2c0.4,4.6,2.7,8.7,6.3,11.6c3.7,3,9.5,4.4,11.8,0.6
						c0.9-2,1.3-4.2,1-6.4c-0.4-3.5-1.6-6.9-3.5-9.8C70.6,151.8,66.4,145.4,62.1,146.7z"/>
					<path class="st6" d="M70.8,174.2c-2.5,0-5.5-1.1-7.9-3.1c-3.8-3-6.2-7.4-6.6-12.1c-0.5-5.3,1.5-11.8,5.5-13.1l0,0
						c4.9-1.5,9.3,5.2,11.5,8.5c2,3.1,3.3,6.6,3.7,10.2c0.3,2.3,0,4.7-1,6.8l0,0.1c-0.9,1.4-2.2,2.3-3.9,2.6
						C71.6,174.2,71.2,174.2,70.8,174.2z M62.4,147.5c-3.2,1-4.8,6.7-4.4,11.4c0.4,4.3,2.5,8.3,5.9,11c2.4,2,5.6,3,7.8,2.6
						c1.2-0.2,2.1-0.8,2.7-1.8c0.9-1.8,1.2-3.9,0.9-5.9c-0.4-3.4-1.5-6.7-3.4-9.5C70,152.4,66,146.4,62.4,147.5z"/>
				</g>
				<g>
					<path class="st6" d="M69.1,166.8c-2.8-1-5.1-3.3-6-6.2c-0.7-2.4-1-5.2,0-7c0.4-0.7,1-1.1,1.7-1.3c-1.1-0.1-2.1,0.2-2.8,1.4
						c-1.1,1.8-0.7,4.6,0,7c1.1,3.4,3.9,5.9,7.3,6.6C69.2,167.1,69.2,167,69.1,166.8z"/>
					<path class="st6" d="M61.8,158.7c0.1,0.4,2.4,4.4,2.3,3.9c-1-2.5-0.8-7.4,2.5-7.2c0.8,0,0.9-1.6,0.2-2.3
						c-0.6-0.6-2-0.9-2.8-0.7c-0.8,0.3-1.2,0.6-1.5,1.1c-0.2,0.3,0.1,0.7,0,0.9C61.6,155.7,61.4,157.3,61.8,158.7z"/>
					<path class="st38" d="M67.3,158.4c-1.3,0.5,0.2,1.8-0.7,2.9c-0.2,0.2-0.7,0.3-1.5-0.8c-0.7-1.1-0.9-2.1,0.2-3
						c0.4-0.3,1.2-0.5,1.6-0.3C67.4,157.4,67.7,158.3,67.3,158.4z"/>
				</g>
				<path class="st38" d="M71.9,171.5c-0.1,0-0.2,0-0.3,0.1c-0.1,0-0.2,0-0.2,0c-0.2,0-0.3,0-0.4,0c-0.3,0-0.5-0.1-0.8-0.1
					c-0.5-0.1-0.9-0.2-1.4-0.4c-0.9-0.3-1.8-0.7-2.6-1.2c-0.8-0.5-1.6-1.1-2.2-1.7c-0.7-0.7-1.2-1.4-1.6-2.2
					c0.6,0.7,1.2,1.4,1.9,1.9c0.7,0.5,1.5,0.9,2.3,1.3c0.8,0.3,1.7,0.6,2.5,0.7c0.4,0.1,0.9,0.1,1.3,0.2c0.2,0,0.4,0,0.6,0
					c0.1,0,0.2,0,0.3,0c0,0,0.1,0,0.1,0c0,0,0,0,0,0L71.9,171.5z"/>
			</g>
			<path class="st6" d="M170.2,174.2c-0.4,0-0.9,0-1.3-0.1c-1.7-0.3-3-1.2-3.9-2.6l0-0.1c-1-2.1-1.4-4.5-1-6.9
				c0.4-3.6,1.6-7.1,3.7-10.2c2.2-3.3,6.6-10,11.5-8.5l0,0c4.1,1.3,6,7.8,5.5,13.1c-0.4,4.8-2.8,9.2-6.6,12.1
				C175.6,173.1,172.7,174.2,170.2,174.2z M166.5,170.7c0.6,1,1.5,1.6,2.7,1.8c2.2,0.4,5.4-0.7,7.8-2.6c3.4-2.7,5.6-6.7,5.9-11
				c0.4-4.7-1.2-10.3-4.4-11.4c-3.7-1.1-7.6,4.9-9.6,7.8c-1.9,2.9-3.1,6.1-3.4,9.5C165.3,166.8,165.6,168.9,166.5,170.7z"/>
		</g>
		<path class="st39" d="M68.5,123.5l3.8,55.8l29.4,44.1l18.9,2.9l18.9-2.9l29.4-44.1l3.8-58l-33.7-0.8c-11.5-2.7-39.7-12.3-51.2-9.7
			L68.5,123.5z"/>
		<polygon class="st40" points="73.1,179 73,156.6 79.9,153.3 72.7,153.1 70.4,133 68.6,134.3 71.1,165.1 72,178.1 72.5,178.9 		"/>
		<polygon class="st38" points="166.6,126.9 163.8,174.2 157.1,195.2 168.7,179.3 171.4,138.1 		"/>
		<path class="st38" d="M129,214.9c0,1.1-3.8,2.1-8.5,2.1c-4.7,0-8.5-0.9-8.5-2.1c0-0.9,5.9-0.7,7.9-0.5c0.4,0,0.8,0,1.2,0
			C123,214.2,129,213.9,129,214.9z"/>
		<path class="st38" d="M70.9,146.4c-0.1,0,0.7-19.8,0.7-19.8l7.6-5.4c0,0,20.8,15.2,48.6,7.8c5.1-2,4.4-3.5,3.4-3.9
			c-0.9-0.4,15.6,4.1,22.2,0.3c1.5-1.6,0-2.3,0-2.3l13.1,3.9l2.9,10.4l1.9,0.8l0.8-16.4l-15.4-3l-39.8-2.3L92.4,117l-15.3-2.2
			l-7.9-1c0,0-2.7,5-2.6,5.2c0,0.2-0.7,6.1-0.7,6.1L70.9,146.4z"/>
		<polygon class="st38" points="73.1,179 77.6,184.8 104.7,219.3 120.5,225.4 101.6,223.4 72.2,179.3 		"/>
		<polygon class="st38" points="167.6,177.5 136.1,218.4 125.2,221.8 103.5,220.3 119.8,225.4 138.7,223.4 168,179.3 		"/>
		<path class="st6" d="M120.5,227.2l-19.4-3l-29.7-44.6l0-0.2l-3.8-56.3l19.7-13l0.1,0c9.1-2.1,27.9,3.2,41.6,7
			c3.9,1.1,7.3,2,9.9,2.7l34.5,0.8l-3.8,59.1l-0.1,0.2l-29.6,44.4L120.5,227.2z M102.1,222.6l18.4,2.8l18.4-2.8l29-43.6l3.7-56.9
			l-33-0.8c-2.6-0.6-6.1-1.6-10-2.7c-13.5-3.8-31.9-8.9-40.6-7l-18.6,12.3l3.7,55.1L102.1,222.6z"/>
		<path class="st61" d="M172.7,120.8l-1.9,26.1l17.1-30.5l-1.3-2.3c-13.1-22.7-37.3-36.6-63.4-36.6h-4.3c-25.2,0-48.6,12.9-62,34.2
			l-2.9,4.7l15.9,30.5l-1.4-23.4l9.1-6.9c9.8,5.2,25.9,10.9,47.6,8.9c0.5,0,0.7-0.8,0.2-1.1c-1.4-0.8-3.5-2.2-5.8-3.9
			c8.5,2.2,18.7,3.4,30.7,2.3c0.5,0,0.7-0.8,0.2-1.1c-0.9-0.5-2.1-1.3-3.4-2.2c7.8,1.7,17,2.5,27.4,1.6c0.5,0,0.7-0.8,0.2-1.1
			c-2.3-1.4-7-1.7-10.6-5.3L172.7,120.8z"/>
		<path class="st97" d="M68.6,138.9l-8.6-22.7c0,0,38.2-48.3,91.6-32c0,0-11.5-10.1-41.5-6.1S65.1,99,58,109.7c-3.1,4.9-3.9,7-3.9,7
			l11.3,21.9l4,6.8L68.6,138.9z"/>
		<path class="st66" d="M151,83c0,0-2,11-22.5,12.1c5.1,2.5,15.5,2.5,20.5,1c-15.6,5.5-19.9,4.4-23.3,5.9c8.6,2,23-0.2,36.9,11
			c4.6,4.2,6.2,5.8,9.9,6.7c3.6,0.8,2.3,1.5,2.3,1.5l-2.6,0.5l-0.7,13.4l-0.6,10.6l6.5-10.7l10.5-18.6l-6.6-10c0,0-7.1-8.4-8.8-9.8
			c-1.7-1.4-12-9.1-14.3-10.1C155.9,85.5,151,83,151,83z"/>
		<path class="st71" d="M74.3,106.6c2.6,1.2,5.1,2.3,7.7,3.4c2.6,1,5.2,1.9,7.9,2.7c0.7,0.2,1.3,0.4,2,0.6l2,0.6l2,0.6
			c0.7,0.2,1.4,0.3,2,0.5c2.7,0.7,5.4,1.3,8.2,2.1l0,0.1c-2.8,0-5.7-0.2-8.5-0.7c-1.4-0.2-2.8-0.5-4.2-0.8c-1.4-0.3-2.8-0.7-4.1-1.1
			c-2.7-0.9-5.4-1.9-7.9-3.2C78.9,109.9,76.5,108.4,74.3,106.6L74.3,106.6z"/>
		<path class="st71" d="M110.3,117.1c3.2,0.7,6.5,1.3,9.7,1.8c3.2,0.5,6.5,1,9.7,1.5c3.3,0.4,6.5,0.8,9.8,1.1
			c3.3,0.3,6.5,0.5,9.8,0.6l0,0c-3.3,0.4-6.6,0.5-9.9,0.4c-3.3-0.1-6.6-0.4-9.9-0.8c-3.3-0.5-6.5-1-9.8-1.8
			C116.6,119.1,113.4,118.2,110.3,117.1L110.3,117.1z"/>
		<path class="st71" d="M135.4,115.3c3.2,0.8,6.4,1.5,9.7,2.1c3.2,0.6,6.5,1.1,9.7,1.5c3.3,0.4,6.5,0.8,9.8,1
			c3.3,0.2,6.6,0.4,9.9,0.3l0,0c-3.3,0.6-6.6,0.7-9.9,0.7c-3.3-0.1-6.6-0.3-9.9-0.8c-3.3-0.5-6.6-1-9.8-1.8
			C141.7,117.5,138.5,116.5,135.4,115.3L135.4,115.3z"/>
		<path class="st71" d="M72.9,111.8c0.8,0.6,1.6,1.1,2.4,1.6c0.4,0.2,0.8,0.5,1.3,0.7l1.3,0.6c1.7,0.8,3.5,1.5,5.3,2.2
			c3.6,1.3,7.3,2.5,11,3.5c1.8,0.5,3.7,1,5.6,1.5l2.8,0.7c0.9,0.2,1.9,0.4,2.8,0.6c3.8,0.8,7.5,1.5,11.4,1.8l0,0
			c-3.9,0.6-7.9,0.4-11.8,0c-1-0.1-1.9-0.3-2.9-0.4l-2.9-0.5c-1.9-0.4-3.8-0.9-5.7-1.4c-3.8-1.1-7.5-2.4-11-4.1
			c-1.8-0.8-3.5-1.8-5.2-2.9c-0.8-0.6-1.6-1.1-2.4-1.8C74.2,113.3,73.5,112.5,72.9,111.8L72.9,111.8z"/>
		<g>
			<path class="st6" d="M82.1,117.9c0,0-7.9-3.2-9.8-7.1c-0.2,0.9,0.5,4.5,4.6,6.8C77.2,117,82.1,117.9,82.1,117.9z"/>
			<path class="st6" d="M106.3,115.9c0,0.1-0.1,0.2-0.2,0.3c9,4,12,4.3,15.8,7c0.2,0.1,2.9-2.4,2.9-2.4S112.9,118,106.3,115.9z"/>
			<path class="st6" d="M133.8,114.8c0,0.1-0.1,0.2-0.2,0.3c9,4,12,4.3,15.8,7c0.2,0.1,2.9-2.4,2.9-2.4S140.3,116.8,133.8,114.8z"/>
			<path class="st6" d="M188.9,116.4l-1.5-2.7c-13.2-22.8-37.8-37-64.2-37h-4.3c-25.6,0-49,12.9-62.7,34.6l-3.2,5.1l17.9,34.5
				l-1.6-26.9l8.3-6.3c9.9,5.1,26,10.7,47.6,8.7c0.6-0.1,1.1-0.5,1.2-1.1c0.1-0.6-0.1-1.2-0.6-1.6c-0.6-0.4-1.4-0.8-2.2-1.4
				c8.6,1.8,17.5,2.2,26.8,1.4c0.6-0.1,1.1-0.5,1.2-1.1c0.1-0.5,0-1-0.4-1.4c6.6,1.1,13.4,1.4,20.4,1l-1.7,28.4L188.9,116.4z
				 M147.3,118.7l-4.2-0.9l3.5,2.4c1.1,0.7,2,1.3,2.8,1.8c-10.3,0.9-20.2,0.1-29.6-2.4l-4-1.1l3.3,2.5c2,1.5,3.9,2.7,5.2,3.6
				c-21.2,1.8-36.9-3.8-46.4-8.9l-0.5-0.3l-9.8,7.4l1.2,19.9l-13.9-26.6l2.7-4.3C70.9,91,93.8,78.4,118.8,78.4h4.3
				c25.8,0,49.8,13.9,62.7,36.2l1.1,1.8l-15,26.9l1.3-21.2c0.5,0,0.9-0.1,1.4-0.1c0.6-0.1,1.1-0.5,1.2-1.1c0.1-0.6-0.1-1.2-0.6-1.6
				c-2.2-1.3-6.1-0.6-11.8-5.7c-0.1,0.1-0.5,0.1-0.6,0.2c1.4,1.7,4.8,5.6,10.9,6.6C164.5,121.1,155.7,120.6,147.3,118.7z"/>
			<path class="st6" d="M173.1,118.9l0.3-0.2c0,0,4.8,1.2,6.1,1.2c-0.2,0.5-1.7,2-6.2,2.2c1.8-1.6,1.2-2.3,1.2-2.3L173.1,118.9z"/>
		</g>
		<g>
			<path class="st38" d="M146.9,145.5c-2.2-0.6-4.8-0.5-7.7,0.2c-3.7,1-6.5,2.8-6.5,2.8l-0.7,0.4l-5.1-6.6l0.5-0.5
				c2.6-2.6,5.6-4.4,8.9-5.3c6.5-1.7,11.8,0.8,12,0.9l0.6,0.3l-1.2,8.1L146.9,145.5z"/>
			<path class="st61" d="M144.9,143.2c-2.3-0.4-4.9-0.2-7.6,0.8c-3.6,1.3-6.2,3.3-6.3,3.3l-0.6,0.5l-5.6-6.2l0.5-0.6
				c2.4-2.8,5.3-4.9,8.5-6c6.4-2.2,11.8-0.2,12.1-0.1l0.6,0.2l-0.6,8.2L144.9,143.2z"/>
			<path class="st66" d="M128.3,145.4c0,0,6.3-4.3,11.2-5.2c6.7-1.3,6.4-5.1,6.4-5.1l0.2,5.7l-0.5,2.8c0,0-5-1.3-8.8,0.6
				c-3.9,1.9-6,3.4-6,3.4L128.3,145.4z"/>
			<path class="st6" d="M128.5,145.9c0,0,1.5-1.6,4.6-3.4c-4,1.1-5.1,2.5-5.1,2.5l0.5,1"/>
			<path class="st71" d="M126.4,142.9c0,0,3.5-6.2,14-8c-1.6-0.6-5.8,0.1-5.8,0.1l-5.8,2.3L126,140l-0.9,1.3L126.4,142.9z"/>
			<path class="st6" d="M134,135.9c6.1-2.2,11.5-0.1,11.5-0.1s0,0-0.5,6.6c-2.8-0.5-5.7,0-8.1,0.9c-3.8,1.3-6.5,3.4-6.5,3.4l-4.6-5
				C128.5,138.6,131.4,136.8,134,135.9 M133.5,134.3c-3.3,1.2-6.3,3.3-8.8,6.2l-1,1.1l1,1.1l4.6,5l1,1.2l1.2-0.9c0,0,2.6-1.9,6-3.2
				c2.6-0.9,5.1-1.2,7.2-0.8l1.9,0.3l0.1-1.9l0.5-6.6l0.1-1.2l-1.2-0.4C145.9,134.1,140.1,132,133.5,134.3L133.5,134.3z"/>
		</g>
		<g>
			<path class="st38" d="M99.3,145.8c2.3-0.4,4.9,0,7.6,1.1c3.6,1.4,6.1,3.5,6.2,3.5l0.6,0.5l5.8-6l-0.5-0.6c-2.3-2.9-5.1-5-8.3-6.2
				c-6.3-2.4-11.8-0.5-12.1-0.4l-0.6,0.2l0.3,8.2L99.3,145.8z"/>
			<path class="st61" d="M98.4,143.7c2.3-0.5,4.9-0.3,7.7,0.6c3.6,1.2,6.3,3.1,6.4,3.1l0.6,0.5l5.4-6.3l-0.5-0.5
				c-2.5-2.8-5.4-4.7-8.6-5.7c-6.4-2.1-11.8,0.2-12.1,0.3l-0.6,0.2l0.8,8.1L98.4,143.7z"/>
			<path class="st66" d="M97.7,141.1c0,0,7.6-0.5,12.3,1.2c6.4,2.3,8.1-1.2,8.1-1.2l-2.7,5l-1.9,2.1c0,0-3.6-3.7-7.9-4
				c-4.3-0.4-6.9-0.2-6.9-0.2L97.7,141.1z"/>
			<path class="st6" d="M117.1,144.2c0,0-1.4-1.7-4.4-3.6c3.9,1.4,5,2.8,5,2.8l-0.6,0.9"/>
			<path class="st71" d="M97,137.7c0,0,6.2-3.5,16.1,0.3c-1-1.4-5-2.9-5-2.9l-6.1-1l-3.8,0.9l-1.5,0.7L97,137.7z"/>
			<path class="st6" d="M109,136c2.7,0.9,5.6,2.5,8.3,5.5l-4.4,5.2c0,0-2.8-2-6.6-3.2c-2.4-0.8-5.3-1.2-8.1-0.6
				c-0.7-6.6-0.7-6.6-0.7-6.6S102.8,134,109,136 M109.5,134.4c-6.7-2.1-12.4,0.2-12.7,0.3l-1.1,0.5l0.1,1.2l0.7,6.6l0.2,1.9l1.8-0.4
				c2.1-0.5,4.6-0.3,7.2,0.6c3.5,1.1,6.1,3,6.1,3l1.3,0.9l1-1.2l4.4-5.2l1-1.1l-1-1.1C115.9,137.5,112.9,135.5,109.5,134.4
				L109.5,134.4z"/>
		</g>
		<path class="st38" d="M143.3,182.4c0,0,8.6,2.1,15.4-12.1C149.2,178.5,143.3,182.4,143.3,182.4z"/>
		<path class="st38" d="M99.8,183.1c0,0-8.6,2.1-15.4-12.1C93.9,179.2,99.8,183.1,99.8,183.1z"/>
		<g>
			<polygon class="st40" points="121.4,156.2 123.6,170.8 129.9,173.3 122.6,173.1 114.9,178.1 120.9,171.9 			"/>
			<path class="st38" d="M129.9,155.4c0,0,7,5.6,20-0.8c-3.4-2.4-10.7-3.1-12.1-3.1C132.1,151.5,129.9,155.4,129.9,155.4z"/>
			<path class="st38" d="M111,155.4c0,0-7,5.6-20-0.8c3.4-2.4,10.7-3.1,12.1-3.1C108.8,151.5,111,155.4,111,155.4z"/>
			<path class="st38" d="M129.9,155.4c0,0,1.1,6.5,12.7,6.9C134.3,158.2,129.9,155.4,129.9,155.4z"/>
			<path class="st38" d="M111,155.4c0,0-1.1,6.5-12.7,6.9C106.7,158.2,111,155.4,111,155.4z"/>
			<g>
				<g>
					<path class="st6" d="M111,155.4c0,0-3.9-11-20-0.8C106.3,149.1,111,155.4,111,155.4z"/>
					<path class="st6" d="M107.6,152.2c-0.2,2.4-2.2,4.3-4.7,4.4c-2.5,0.1-4.6-1.8-4.9-4.2L107.6,152.2z"/>
					
						<ellipse transform="matrix(0.1137 -0.9935 0.9935 0.1137 -63.1867 236.7701)" class="st7" cx="101.1" cy="153.8" rx="0.7" ry="0.7"/>
				</g>
			</g>
			<g>
				<g>
					<path class="st6" d="M129.9,155.4c0,0,3.9-11,20-0.8C134.6,149.1,129.9,155.4,129.9,155.4z"/>
					<path class="st6" d="M133.3,152.2c0.2,2.4,2.2,4.3,4.7,4.4s4.6-1.8,4.9-4.2L133.3,152.2z"/>
					
						<ellipse transform="matrix(0.9935 -0.1137 0.1137 0.9935 -16.6106 16.4272)" class="st7" cx="135.7" cy="153.8" rx="0.7" ry="0.7"/>
				</g>
			</g>
			<path class="st38" d="M114.9,179.6c1.8,2.8,6.7,4.2,17.4,3.7C121.2,181.9,119.1,181,114.9,179.6z"/>
			<path class="st38" d="M110.9,181.5c0,0,4.4,11,21.9,2.9c-7.4,0.8-11.7,0.2-11.7,0.2l-8.7-2.5L110.9,181.5z"/>
			<polygon class="st38" points="120.7,156.2 119.8,157.1 117.6,168.7 110.3,178.7 110.3,180.1 119.8,171.8 121,166.4 			"/>
			<path class="st6" d="M132.7,184.1c-16.2,0.4-18.1-1.8-19.6-4l8.8-8.7l-0.6-15.1h-0.7l-1.2,13.6l-9.2,10.3c0,0.5,2.2,7.8,22.5,4.2
				C132.8,184.3,132.8,184.2,132.7,184.1z"/>
		</g>
		<g>
			<path class="st38" d="M121.3,187.8c-11.2-3-20.8,0.8-27.1,12.7c0,0,18.6,2.7,26.2-4.6c7.1,7.8,26.3,6.9,26.3,6.9
				C140.9,190.8,132.7,185.5,121.3,187.8z"/>
			<g>
				<path class="st61" d="M120.5,185.5c-12.9-2.5-20.7,0.4-27.3,11.9c0,0,19,3.8,27.3-3.4c8.4,7.3,27.2,2.8,27.2,2.8
					C140.7,185.5,133.3,183,120.5,185.5z"/>
				<path class="st97" d="M128.2,190.3c-0.3,0.9,0.8,3,2,4.7c-3.4-0.4-7-1.3-9.4-3.6c-2.3,2.2-5.7,3.2-9.1,3.5
					c1.9-1.7,3.7-3.6,3.9-4.6c-1.2,1.7-4.4,3.5-6.9,4.7c-4.2,0-7.7-0.7-7.7-0.7c3.9-7.3,7.9-9.7,14.1-9.4c1.7,0.1,3.5,0.3,5.4,0.8
					c2.8-0.6,5.3-0.8,7.6-0.6c5.3,0.5,9.3,3.3,12.9,9.6c0,0-3.7,0.6-7.6,0.6C131.6,194.1,129.3,192.4,128.2,190.3z"/>
				<path class="st6" d="M148.4,196.4c-4.5-7.3-9.2-11.1-15.6-12.2c0,0,0,0-0.1,0c-3.4,0.1-6.1,0.1-8.4-0.1c-1,0.1-2.1,0.3-3.2,0.5
					c-0.2,0-0.4,0.1-0.6,0.1c-2.3-0.4-4.3-0.7-6.3-0.8c-0.5,0-1.1,0-1.6,0c-9,0.1-14.9,4.1-20.2,13.2l-0.6,1l1.2,0.2
					c0.2,0,1,0.2,2.3,0.4c2,0.3,5.3,0.7,8.9,0.7c5.6,0,12.1-0.9,16.4-4.2c6.5,5.1,17.9,4.1,23.7,3.2c2.1-0.3,3.4-0.6,3.6-0.7
					l1.1-0.3L148.4,196.4z M121,193.4l-0.6-0.5l-0.5,0.5c-6,5.2-18.1,4.4-23.7,3.7c-0.7-0.1-1.3-0.2-1.8-0.3c3-5,6.3-8.2,10.4-9.9
					c2.8-1.2,6.1-1.6,9.8-1.4c1.7,0.1,3.6,0.4,5.6,0.8l0.2,0l0.2,0c3.6-0.7,6.7-1,9.4-0.8c6.7,0.4,11.2,3.4,15.6,9.8
					c0.2,0.3,0.4,0.6,0.6,0.9c-0.7,0.1-1.8,0.3-3.1,0.5C137.2,197.6,126.6,198.2,121,193.4z"/>
				<path class="st6" d="M130.3,185.4c-8.3,3.2-13.3,1.9-16.1-0.1c2,0.1,4.3,0.4,6.7,0.8C124.4,185.5,127.5,185.2,130.3,185.4z"/>
			</g>
		</g>
	</g>
	<g>
		<g>
			<path class="st23" d="M194.6,453.5H49.2c-4,0-7.3-3.3-7.3-7.3v0c0-4,3.3-7.3,7.3-7.3h145.4c4,0,7.3,3.3,7.3,7.3v0
				C202,450.3,198.7,453.5,194.6,453.5z"/>
			<g>
				<g>
					<path class="st24" d="M192.2,409.2H51.7c-4.1,0-7.5,3.4-7.5,7.5v27.6c0,4.1,3.4,7.5,7.5,7.5h140.5c4.1,0,7.5-3.4,7.5-7.5v-27.6
						C199.7,412.5,196.3,409.2,192.2,409.2z M197.7,444.2c0,3-2.4,5.5-5.5,5.5H51.7c-3,0-5.5-2.5-5.5-5.5v-27.6c0-3,2.5-5.5,5.5-5.5
						h140.5c3,0,5.5,2.5,5.5,5.5V444.2z"/>
					<path class="st25" d="M197.7,416.6v27.6c0,3-2.4,5.5-5.5,5.5H51.7c-3,0-5.5-2.5-5.5-5.5v-27.6c0-3,2.5-5.5,5.5-5.5h140.5
						C195.2,411.2,197.7,413.6,197.7,416.6z"/>
				</g>
			</g>
		</g>
		<g>
			<path class="st24" d="M102.9,422h1.6v7.2l0.7-0.3l3.4-6.9h1.8l-3.5,6.7l-0.7,0.7l0.9,0.9l3.8,7.1h-2l-3.7-7.2h-0.8v7.2h-1.6v-7.4
				l-0.7,0.3l-3.7,7.1h-1.9l3.8-6.9l0.9-0.8l-0.8-0.8l-3.6-6.9h1.9l3.4,6.9h0.8V422z"/>
			<path class="st24" d="M118.2,436.6c-0.4,0.3-0.8,0.6-1.3,0.7c-0.5,0.2-1.1,0.3-1.7,0.3c-0.7,0-1.3-0.1-1.8-0.4
				c-0.5-0.3-0.9-0.7-1.3-1.2c-0.3-0.5-0.6-1.1-0.7-1.8s-0.2-1.5-0.2-2.4c0-1.9,0.3-3.3,1-4.3s1.7-1.5,2.9-1.5
				c0.4,0,0.8,0.1,1.2,0.2s0.8,0.3,1.1,0.6c0.3,0.3,0.6,0.7,0.8,1.3s0.3,1.3,0.3,2.2c0,0.3,0,0.5,0,0.8c0,0.3,0,0.6-0.1,0.9h-5.6
				c0,0.6,0.1,1.2,0.2,1.7c0.1,0.5,0.3,1,0.5,1.3c0.2,0.4,0.5,0.6,0.8,0.8c0.3,0.2,0.8,0.3,1.3,0.3c0.4,0,0.8-0.1,1.2-0.2
				c0.4-0.1,0.7-0.3,0.9-0.5L118.2,436.6z M117,430.7c0-1.1-0.1-1.9-0.5-2.4c-0.3-0.5-0.8-0.8-1.4-0.8c-0.7,0-1.2,0.3-1.6,0.8
				c-0.4,0.5-0.6,1.3-0.7,2.4H117z"/>
			<path class="st24" d="M121.6,432.4v-1.3h1.2c0.2,0,0.4,0,0.6-0.1c0.2-0.1,0.4-0.2,0.5-0.4c0.2-0.2,0.3-0.3,0.4-0.6
				c0.1-0.2,0.1-0.4,0.1-0.7c0-0.6-0.2-1-0.5-1.3c-0.3-0.3-0.8-0.4-1.4-0.4c-0.5,0-0.9,0.1-1.2,0.2c-0.4,0.1-0.7,0.3-0.9,0.4
				L120,427c0.4-0.2,0.8-0.4,1.3-0.6s1.1-0.2,1.7-0.2c1,0,1.7,0.2,2.2,0.7s0.8,1.1,0.8,2c0,0.6-0.1,1.1-0.4,1.5
				c-0.3,0.5-0.7,0.8-1.1,1v0.1c0.7,0.2,1.2,0.5,1.5,0.9c0.3,0.5,0.4,1.1,0.4,1.8c0,0.9-0.3,1.7-0.9,2.3c-0.6,0.6-1.6,0.9-2.8,0.9
				c-0.6,0-1.1-0.1-1.5-0.2s-0.8-0.3-1.1-0.4l0.4-1.4c0.3,0.2,0.6,0.3,1,0.4c0.4,0.1,0.8,0.1,1.2,0.1c0.7,0,1.3-0.2,1.6-0.5
				c0.4-0.3,0.5-0.8,0.5-1.5c0-0.5-0.2-1-0.5-1.3c-0.3-0.3-0.9-0.5-1.7-0.5H121.6z"/>
			<path class="st24" d="M136.5,440.2h-1.1l-0.3-2.8h-6.5l-0.3,2.8h-1.1v-4.2h1c0.1-0.2,0.2-0.5,0.4-0.9s0.3-1,0.5-1.8
				c0.1-0.8,0.3-1.7,0.4-2.8c0.1-1.1,0.2-2.5,0.2-4h5.5v9.6h1.3V440.2z M133.6,435.9v-8.1h-2.5c0,0.6-0.1,1.3-0.1,2.1
				c-0.1,0.7-0.1,1.5-0.2,2.2c-0.1,0.7-0.2,1.4-0.4,2.1c-0.1,0.7-0.3,1.2-0.5,1.7H133.6z"/>
			<path class="st24" d="M144.7,436.6c-0.4,0.3-0.8,0.6-1.3,0.7c-0.5,0.2-1.1,0.3-1.7,0.3c-0.7,0-1.3-0.1-1.8-0.4
				c-0.5-0.3-0.9-0.7-1.3-1.2c-0.3-0.5-0.6-1.1-0.7-1.8s-0.2-1.5-0.2-2.4c0-1.9,0.3-3.3,1-4.3s1.7-1.5,2.9-1.5
				c0.4,0,0.8,0.1,1.2,0.2s0.8,0.3,1.1,0.6c0.3,0.3,0.6,0.7,0.8,1.3s0.3,1.3,0.3,2.2c0,0.3,0,0.5,0,0.8c0,0.3,0,0.6-0.1,0.9h-5.6
				c0,0.6,0.1,1.2,0.2,1.7c0.1,0.5,0.3,1,0.5,1.3c0.2,0.4,0.5,0.6,0.8,0.8c0.3,0.2,0.8,0.3,1.3,0.3c0.4,0,0.8-0.1,1.2-0.2
				c0.4-0.1,0.7-0.3,0.9-0.5L144.7,436.6z M143.5,430.7c0-1.1-0.1-1.9-0.5-2.4c-0.3-0.5-0.8-0.8-1.4-0.8c-0.7,0-1.2,0.3-1.6,0.8
				c-0.4,0.5-0.6,1.3-0.7,2.4H143.5z"/>
		</g>
	</g>
</g>
</svg>
