<?xml version="1.0" encoding="utf-8"?>
<!-- Generator: Adobe Illustrator 21.0.0, SVG Export Plug-In . SVG Version: 6.00 Build 0)  -->
<svg version="1.1" id="Layer_1" xmlns="http://www.w3.org/2000/svg" xmlns:xlink="http://www.w3.org/1999/xlink" x="0px" y="0px"
	 viewBox="0 0 240.9 453.5" style="enable-background:new 0 0 240.9 453.5;" xml:space="preserve">
<style type="text/css">
	.st0{fill:#794552;}
	.st1{fill:#C7B89E;}
	.st2{fill:#F9A960;}
	.st3{fill:#D17C32;}
	.st4{fill:#956070;}
	.st5{fill:#FDDCC0;}
	.st6{fill:#501338;}
	.st7{fill:#FFFFFF;}
	.st8{fill:#B38091;}
	.st9{fill:#D1D5DB;}
	.st10{fill:#989A9C;}
	.st11{fill:#937B70;}
	.st12{fill:#E6DEC9;}
	.st13{fill:#F0B39C;}
	.st14{fill:#8E183F;}
	.st15{fill:#F5F5F5;}
	.st16{fill:none;stroke:#462062;stroke-width:0.7554;stroke-linecap:round;stroke-miterlimit:10;}
	.st17{fill:#B5BAC0;}
	.st18{fill:#C71F41;}
	.st19{fill:#EF5784;}
	.st20{fill:#A91D41;}
	.st21{opacity:0.5;fill:#C1C1C1;}
	.st22{opacity:0.27;fill:#E78B6F;}
	.st23{fill:#CB8A43;}
	.st24{fill:#754D24;}
	.st25{fill:#FBBA6C;}
	.st26{fill:#837070;}
	.st27{fill:#866A58;}
	.st28{fill:#9A7E67;}
	.st29{fill:#B39885;}
	.st30{fill:#5B4580;}
	.st31{fill:#E1DFDF;}
	.st32{fill:#C0BEBD;}
	.st33{fill:#D53231;}
	.st34{fill:#E94647;}
	.st35{fill:#797083;}
	.st36{fill:#A9A4B4;}
	.st37{fill:#5B5567;}
	.st38{fill:#CE202B;}
	.st39{fill:#EE3734;}
	.st40{fill:#F49294;}
	.st41{fill:#B89AA6;}
	.st42{fill:#D4907B;}
	.st43{fill:#FAB276;}
	.st44{opacity:0.5;fill:#794552;}
	.st45{fill:#B57D90;}
	.st46{opacity:0.7;fill:#794552;}
	.st47{opacity:0.15;fill:#F2E8A5;}
	.st48{fill:#D67E3A;}
	.st49{fill:#735A99;}
	.st50{fill:#644C88;}
	.st51{fill:#9480B4;}
	.st52{fill:#E4D2A4;}
	.st53{fill:#FAEDD0;}
	.st54{fill:#C4B18B;}
	.st55{fill:#735A99;stroke:#501338;stroke-width:1.571;stroke-miterlimit:10;}
	.st56{fill:#C8BFBF;}
	.st57{fill:#B2ABAB;}
	.st58{fill:#FFE098;}
	.st59{fill:#ECC77E;}
	.st60{fill:#FFEBC7;}
	.st61{fill:#A1675E;}
	.st62{fill:#90564F;}
	.st63{fill:#C07F78;}
	.st64{fill:#68485A;}
	.st65{fill:#FFDD81;}
	.st66{fill:#814945;}
	.st67{fill:#945B58;}
	.st68{fill:#B17977;}
	.st69{fill:#884C4A;}
	.st70{fill-rule:evenodd;clip-rule:evenodd;fill:#989A9C;}
	.st71{fill:#D89E98;}
	.st72{fill:#64445C;}
	.st73{fill:#816474;}
	.st74{fill:#A48390;}
	.st75{fill:#DDAD41;}
	.st76{fill:#F48657;}
	.st77{fill:#D77151;}
	.st78{fill:#F8AB89;}
	.st79{fill:#E9C05B;}
	.st80{fill:#9A8691;}
	.st81{fill:#A28F99;}
	.st82{fill:#8780BC;}
	.st83{fill:#6966AD;}
	.st84{fill:#B2ADD5;}
	.st85{fill:#F48C8C;}
	.st86{fill:#E86363;}
	.st87{fill:#F4876E;}
	.st88{fill:#E56A51;}
	.st89{fill:#80655C;}
	.st90{fill:#C3AC6F;}
	.st91{fill:#9F874A;}
	.st92{fill:#DBC68E;}
	.st93{opacity:0.11;fill:#FFFFFF;}
	.st94{fill:#F7A799;}
	.st95{fill:#FCE5A5;}
	.st96{fill:#DEBB6C;}
	.st97{fill:#B67C76;}
	.st98{fill:none;stroke:#462062;stroke-width:0.843;stroke-linecap:round;stroke-miterlimit:10;}
	.st99{fill:#9D9B86;}
	.st100{fill:#8780BC;stroke:#501338;stroke-width:1.6795;stroke-miterlimit:10;}
	.st101{fill:#C5C4B4;}
	.st102{fill:#E9E9D9;}
	.st103{fill:#E9C15D;}
	.st104{opacity:0.3;}
	.st105{fill:#A27388;}
	.st106{opacity:0.5;fill:#FFFFFF;}
	.st107{fill:#91667A;}
	.st108{opacity:0.4;}
	.st109{opacity:0.5;}
	.st110{opacity:0.5;fill:#A7A7A6;}
	.st111{fill:#C16D34;}
	.st112{opacity:0.4;fill:#FFFFFF;}
	.st113{fill:none;stroke:#501338;stroke-width:1.5687;stroke-linecap:round;stroke-linejoin:round;stroke-miterlimit:10;}
	.st114{opacity:0.27;}
	.st115{fill:#E78B6F;}
	.st116{opacity:0.2;fill:#F48E8E;}
	.st117{fill:#99744B;}
	.st118{fill:#825D38;}
	.st119{fill:#C9CAA6;}
	.st120{fill:#BCBC96;}
	.st121{fill:none;stroke:#462062;stroke-width:0.7845;stroke-linecap:round;stroke-miterlimit:10;}
	.st122{fill:#66402A;}
	.st123{fill:#935C35;}
	.st124{opacity:0.6;fill:#7A4928;}
	.st125{opacity:0.4;fill:#F48E8E;}
	.st126{fill:#E1E1E1;}
	.st127{fill:#C1C1C1;}
	.st128{fill:#52363A;}
	.st129{fill:#C6C5C4;}
	.st130{opacity:0.6;}
	.st131{fill:#888888;}
	.st132{fill:#515252;}
	.st133{opacity:0.6;fill:#888888;}
	.st134{fill:#616160;}
	.st135{fill:#515150;}
	.st136{fill:#957B66;}
	.st137{fill:#B89984;}
	.st138{fill:#787878;}
	.st139{fill:#775F4F;}
	.st140{fill:#D7B9A8;}
	.st141{fill:#99999A;}
	.st142{opacity:0.4;fill:#E6DEC9;}
	.st143{fill:none;stroke:#462062;stroke-width:0.7586;stroke-linecap:round;stroke-miterlimit:10;}
	.st144{fill:#3F4242;}
	.st145{opacity:0.5;fill:#F0B39C;}
	.st146{opacity:0.57;fill:#B89AA6;}
	.st147{fill:#619F7F;}
	.st148{fill:#548E6E;}
	.st149{fill:#C16A2F;}
	.st150{fill:#CE413A;}
	.st151{fill:#B23330;}
	.st152{opacity:0.62;fill:#E48C7D;}
	.st153{fill:#5E3827;}
	.st154{fill:#F48E8E;}
	.st155{fill:#444445;}
	.st156{fill:#353435;}
	.st157{opacity:0.5;fill:#B89AA6;}
	.st158{fill:#4D4C4D;}
	.st159{fill:#444344;}
	.st160{opacity:0.6;fill:#A1A1A1;}
	.st161{fill:#282827;}
	.st162{fill:#636464;}
	.st163{fill:#575959;}
	.st164{fill:#3A3A3A;}
	.st165{opacity:0.5;fill:#787878;}
	.st166{fill:none;stroke:#462062;stroke-width:0.8198;stroke-linecap:round;stroke-miterlimit:10;}
	.st167{fill:#5B5B5C;}
	.st168{fill:#E4E4E4;}
	.st169{fill:#FFF1EA;}
	.st170{fill:#E1CDC5;}
	.st171{opacity:0.4;fill:#F0B39C;}
	.st172{opacity:0.5;fill:#ADADAD;}
	.st173{fill:#B58F5B;}
	.st174{fill:#606060;}
	.st175{fill:#4F5150;}
	.st176{opacity:0.6;fill:#989A9C;}
	.st177{fill:#5D7A6D;}
	.st178{fill:#4C685B;}
	.st179{fill:none;stroke:#462062;stroke-width:0.8057;stroke-linecap:round;stroke-miterlimit:10;}
	.st180{fill:#F7B975;}
	.st181{fill:#8D7449;}
	.st182{opacity:0.35;fill:#F7B975;}
	.st183{fill:#686868;}
	.st184{fill:#959595;}
	.st185{opacity:0.3;fill:#FFFFFF;}
	.st186{fill:#4C4B4C;}
	.st187{fill:#A27F67;}
	.st188{fill:#C6A691;}
	.st189{opacity:0.2;fill:#684D39;}
	.st190{fill:#926E56;}
	.st191{opacity:0.8;fill:#3A3A3A;}
	.st192{fill:#ED3E2B;}
	.st193{fill:#DB2C1F;}
	.st194{opacity:0.7;fill:#989A9C;}
	.st195{fill:#6B4845;}
	.st196{fill:#846363;}
	.st197{fill:#5E3E3C;}
	.st198{fill:none;stroke:#501338;stroke-width:1.6206;stroke-miterlimit:10;}
	.st199{opacity:0.5;fill:#E29780;}
	.st200{opacity:0.6;fill:#FFFFFF;}
	.st201{fill:#ECD8BB;}
	.st202{opacity:0.3;fill:#937B70;}
	.st203{fill:#FCF9F4;}
	.st204{opacity:0.6;fill:#F0B39C;}
	.st205{fill:none;stroke:#462062;stroke-width:0.7828;stroke-linecap:round;stroke-miterlimit:10;}
	.st206{fill:#CDCDCD;}
	.st207{opacity:0.5;fill:#A8A7A7;}
	.st208{fill:#868686;}
	.st209{opacity:0.3;fill:#F0B39C;}
	.st210{opacity:0.7;fill:#F0B39C;}
	.st211{fill:#735A99;stroke:#501338;stroke-width:1.5656;stroke-miterlimit:10;}
	.st212{opacity:0.5;fill:#FCF9F4;}
	.st213{opacity:0.5;fill:#FDDCC0;}
	.st214{fill:#6B3A37;}
	.st215{fill:#92A3D3;}
	.st216{fill:#B0C2E4;}
	.st217{fill:#7790BC;}
	.st218{fill:#7F95C6;}
	.st219{fill:#D0A7C2;}
	.st220{fill:#B7BE79;}
	.st221{fill:#725F82;}
	.st222{fill:#635175;}
	.st223{fill:none;stroke:#501338;stroke-width:1.5843;stroke-miterlimit:10;}
	.st224{fill:#C5B8DA;}
	.st225{fill:#A999C9;}
	.st226{fill:#8B6445;}
	.st227{fill:#7A5439;}
	.st228{fill:none;stroke:#501338;stroke-width:1.5751;stroke-linecap:round;stroke-linejoin:round;stroke-miterlimit:10;}
	.st229{fill:#D9CEB7;}
	.st230{fill:#CCBDA2;}
	.st231{opacity:0.2;fill:#FFFFFF;}
	.st232{fill:#B61F30;}
	.st233{fill:#595B5B;}
</style>
<g>
	<g>
		<ellipse class="st0" cx="118.1" cy="366.6" rx="51.7" ry="18"/>
		<g>
			<g>
				<path class="st174" d="M162.3,353.5c-6,6-9.2,11.6-11.2,19.2c-0.5,2-1,4.3-1.4,6.7c-2.7-0.6-5.4-1.3-8.2-1.9
					c-15.9-3.8-31.8-7.8-39.9-9.8c-3.4-0.9-5.4-1.4-5.4-1.4s-66.8-15.6-59.4-40.9c0,0,7.2-30.6,56.5-6.4
					c24.9,12.2,42.4,21,53.6,26.6C156.1,350.3,161.1,352.9,162.3,353.5z"/>
				<path class="st175" d="M149.8,378.7l1.5-6.6l-55.6-15.6c-4.5-1.4-8.7-2.8-12.6-4.1c0.4-1.6,1.3-4.7,3-9.5c-0.1,0-0.1,0-0.2-0.1
					c-1.2,1.9-3.5,6.6-4.6,8.9c-6.8-2.2-12.4-4.2-16.2-5.6c3.9-1.7,9.2-4.5,9.7-6.5c0.8-3.2-3-9.9-3-9.9s2.5-2.7,3.3-4.3
					c0.8-1.5-2-3.7-2-3.7l-8,4.1l-8.8,9.3l0.2,7.3c-16.6-7.8-18-12.4-16.3-24.4c-0.6,0.8-5.3,12.4-4.2,15.5c2,5.4,14.4,18,30.7,23.1
					c9.6,3,18.3,6.4,30.2,9.9C94.8,365.6,149.8,378.7,149.8,378.7z"/>
				<path class="st176" d="M48,312.3c13.1-0.5,34,6.9,56.7,17.2l48.5,22.5c0,0-4.5-4.7,1.5-1.7C126.1,334.8,64.5,299.8,48,312.3z"/>
				<path class="st6" d="M95.1,353c0.1,0.1,0.2,0.1,0.2,0.1c-3,8-3.9,11.8-3.9,11.8l-2-0.8C89.4,364.2,93.2,356.3,95.1,353z"/>
				<path class="st6" d="M78.3,326.4c-0.1,0-0.2-0.1-0.3-0.1C79.7,317.9,80,314,80,314l2.1,0.5C82.1,314.5,79.7,322.9,78.3,326.4z"
					/>
				<path class="st162" d="M205.9,363.2c-0.1-1.1-0.6-2.1-1.6-2.9c-0.4-0.3-1-0.5-1.9-0.5h0c-2.6-0.1-7,0.8-11.1,1c-0.3,0-0.6,0-1,0
					c-0.4,0-0.7,0-1.1,0c-0.6,0-1.3-0.1-1.9-0.1c-0.4-0.1-0.9-0.1-1.4-0.2h0c-0.2,0-0.4-0.1-0.5-0.1c-1-0.2-2.1-0.5-3.3-0.8
					c-2.1-0.6-4.5-1.3-6.8-2c-0.2-0.1-0.3-0.1-0.5-0.1c-5.4-1.7-10.5-3.4-11.6-3.8c-0.1,0-0.2-0.1-0.2-0.1c-0.1,0.1-0.1,0.1-0.2,0.2
					c-1,1-2,2.1-2.9,3.1c-3.2,3.8-5.4,7.6-7,12.1c-0.1,0.4-0.3,0.7-0.4,1.1c-0.1,0.3-0.2,0.5-0.3,0.8c-0.1,0.1-0.1,0.3-0.1,0.4
					c-0.1,0.3-0.2,0.6-0.2,0.8c0,0,0,0.1,0,0.1c0,0.1,0,0.1-0.1,0.2c-0.1,0.4-0.2,0.8-0.3,1.2c0,0.1-0.1,0.3-0.1,0.4
					c-0.4,1.4-0.7,2.9-0.9,4.5c0,0.1,0,0.2,0,0.3c0,0.1,0,0.1,0,0.2c0,0.1,0,0.2,0,0.2c0,0.1,0,0.2-0.1,0.3c0.2,0.1,0.8,0.2,1.5,0.4
					h0c5.7,1.3,24.1,5.4,27,5.7c0,0,0,0,0.1,0c0.1,0,0.1,0,0.2,0c4.6,0,8.7-1.5,12.1-3.3c0.4-0.2,0.9-0.5,1.3-0.7
					c3.7-2.2,6.2-4.7,7-5.7c1.7-2,4.3-5.3,5.6-8.5c0.1-0.2,0.2-0.4,0.2-0.6c0-0.1,0.1-0.2,0.1-0.4c0-0.1,0.1-0.2,0.1-0.3
					c0,0,0-0.1,0-0.1c0,0,0-0.1,0-0.1c0-0.1,0.1-0.2,0.1-0.3c0.1-0.4,0.1-0.7,0.2-1.1v0c0-0.1,0-0.1,0-0.2c0-0.2,0-0.4,0-0.6
					c0,0,0,0,0-0.1c0,0,0,0,0,0v-0.1C205.9,363.4,205.9,363.3,205.9,363.2z"/>
				<path class="st163" d="M188.2,376.1c-2.3,1-4.6,1.6-6.9,1.9c-0.5-1.7-1.1-4.2-1.6-7.4c-0.1,0-0.2,0.1-0.3,0.1
					c0,1.9,0.3,4.9,0.6,7.5c-6.3,0.4-12.3-1.3-17-2.9c0.4-1.7,1.1-3.9,2.2-6.7c-0.1,0-0.2,0-0.3-0.1c-0.8,1.5-2,4.2-3,6.4
					c-1.4-0.5-2.6-0.9-3.7-1.2c7.9-6.1,14.5-13.1,17.2-16.1c-0.2-0.1-0.3-0.1-0.5-0.1c-5.4-1.7-10.5-3.4-11.6-3.8
					c-0.1,0-0.2-0.1-0.2-0.1c-0.1,0.1-0.1,0.1-0.2,0.2l-1.1-0.5l-3,3.4l-3.9,5.7l-4.1,9.8l-1.3,6.5l3.7,1.7c0,0,20.9,4.8,24.5,5.1
					c3.6,0.3,12.2-2.6,13.3-3.5C192.3,381,189.5,378.4,188.2,376.1z"/>
				<g class="st109">
					<path class="st41" d="M187.2,361.1l-1.7-0.8c0,0-1,6.1-1.1,8.8c0.1,0,0.1,0,0.2,0.1C185.8,363.2,187.1,360.9,187.2,361.1z"/>
				</g>
				<path class="st164" d="M191.7,381.4c3.7-2.2,6.2-4.7,7-5.7c3.1-3.7,9.2-11.7,4.7-15.4c-1.5-1.3-7.6,0.3-13,0.6
					C189,362.5,182.6,370.9,191.7,381.4z"/>
				<path class="st6" d="M205.9,363.2c0-0.2,0-0.3-0.1-0.4c0-0.3-0.1-0.6-0.2-0.9c0-0.1-0.1-0.3-0.2-0.4c-0.2-0.5-0.5-1-1-1.5
					c-0.1-0.2-0.3-0.3-0.5-0.5c-0.1-0.1-0.2-0.1-0.2-0.2h0c-0.2-0.1-0.4-0.2-0.6-0.3c-0.2-0.1-0.5-0.1-0.7-0.2c-0.1,0-0.2,0-0.4,0
					c-0.1,0-0.2,0-0.3,0c-0.8-0.1-1.9,0-3.1,0.1c-0.4,0-0.8,0.1-1.1,0.1c-0.5,0.1-1,0.1-1.5,0.2c-1.2,0.2-2.4,0.3-3.6,0.4
					c-0.5,0.1-1,0.1-1.4,0.1c-0.1,0-0.2,0-0.4,0c-0.1,0-0.1,0-0.2,0l-0.4,0l-0.2,0.3c-0.1,0.2-0.3,0.4-0.5,0.7
					c-0.2,0.2-0.4,0.5-0.5,0.8c-1.8,2.6-4.3,8-1.3,14.7c0.7,1.5,1.7,3.1,3,4.8c0.2,0.3,0.4,0.5,0.6,0.8l0.2,0.3l0.2,0.3l0,0l0.6-0.4
					c0.1-0.1,0.3-0.2,0.4-0.2c0.2-0.1,0.4-0.3,0.6-0.4c0.2-0.1,0.4-0.3,0.6-0.4c0.7-0.5,1.4-1,2-1.5c0.4-0.3,0.8-0.6,1.1-0.9
					c0.1-0.1,0.2-0.2,0.3-0.3c0.3-0.2,0.5-0.5,0.7-0.7c0,0,0,0,0,0c0.2-0.2,0.4-0.4,0.6-0.6c0-0.1,0.1-0.1,0.1-0.1
					c0.3-0.3,0.5-0.6,0.7-0.8v0c0.6-0.8,1.6-1.9,2.6-3.3c0.2-0.2,0.4-0.5,0.5-0.8c0.5-0.8,1.1-1.7,1.6-2.5c0.5-1,1-2,1.3-3
					c0-0.1,0-0.1,0.1-0.2v0c0-0.1,0-0.1,0.1-0.2c0-0.1,0.1-0.2,0.1-0.3c0,0,0-0.1,0-0.1c0-0.1,0.1-0.2,0.1-0.3c0,0,0-0.1,0-0.1
					l0-0.1c0,0,0-0.1,0-0.1c0-0.2,0.1-0.4,0.1-0.5c0-0.1,0-0.3,0-0.4c0-0.2,0-0.4,0-0.6c0,0,0-0.1,0-0.1v-0.1
					C205.9,363.4,205.9,363.3,205.9,363.2z M191.2,361.6c0.1,0,0.2,0,0.3,0c0.1,0,0.2,0,0.3,0c0.3,0,0.5-0.1,0.8-0.1
					c0.6-0.1,1.2-0.1,1.8-0.2c0.3,0,0.6-0.1,0.9-0.1c0.3,0,0.6-0.1,0.9-0.1c1.8-0.2,3.7-0.5,5-0.5c0.5,0,1,0,1.3,0.1
					c0.1,0,0.3,0.1,0.3,0.2c0.1,0.1,0.2,0.2,0.3,0.3c0.4,0.4,0.7,0.9,0.9,1.5c0.3,1,0.2,2.2-0.3,3.6c-0.3,0.9-0.8,1.9-1.5,3
					c-0.3,0.5-0.6,1-1,1.5c-0.4,0.5-0.7,1.1-1.1,1.6c-0.2,0.3-0.4,0.6-0.6,0.9c-0.4,0.6-0.9,1.2-1.4,1.8c-0.1,0.1-0.1,0.1-0.2,0.2
					c-0.2,0.2-0.4,0.4-0.6,0.6c-0.1,0.1-0.1,0.1-0.2,0.2c-0.2,0.1-0.3,0.3-0.5,0.5c-0.2,0.2-0.4,0.3-0.6,0.5
					c-0.2,0.2-0.4,0.4-0.6,0.5c-0.3,0.3-0.7,0.6-1.1,0.8c-0.8,0.6-1.6,1.2-2.5,1.8c-1.3-1.6-2.2-3.1-2.8-4.5
					c-3.2-7.1,0.5-12.6,1.8-14.2C191,361.6,191.1,361.6,191.2,361.6z"/>
				<path class="st6" d="M150.5,362c0.1,0.1,0.2,0.1,0.4,0.2c-4.2,11.2-4.7,16.5-4.4,16.6l-2.9-1C143.6,377.8,148.1,366.6,150.5,362
					z"/>
				<path class="st164" d="M162.3,353.5c-6,6-9.2,11.6-11.2,19.2c-0.5,2-1,4.3-1.4,6.7c-2.7-0.6-5.4-1.3-8.2-1.9
					c-15.9-3.8-31.8-7.8-39.9-9.8l14.6-20.1l30.6-2C156.1,350.3,161.1,352.9,162.3,353.5z"/>
				<path class="st6" d="M158.4,359.2c0.5-0.6,1-1.2,1.5-1.8C159.3,358,158.8,358.6,158.4,359.2z M205.9,363.6c0-0.1,0-0.3,0-0.4
					c0-0.2,0-0.3-0.1-0.4c-0.1-0.3-0.1-0.6-0.2-0.9c0-0.1-0.1-0.3-0.2-0.4c-0.2-0.5-0.6-1-1-1.5c-0.2-0.2-0.3-0.3-0.5-0.4
					c-0.1-0.1-0.2-0.1-0.2-0.2h0c-0.2-0.1-0.4-0.2-0.6-0.3c-0.2-0.1-0.5-0.1-0.7-0.2c-0.1,0-0.2,0-0.4,0c-0.1,0-0.2,0-0.3,0
					c-0.8-0.1-1.9,0-3.1,0.1c-0.4,0-0.8,0.1-1.1,0.1c-0.5,0.1-1,0.1-1.5,0.2c-1.2,0.2-2.4,0.3-3.6,0.4c-0.5,0.1-1,0.1-1.4,0.1
					c-0.1,0-0.2,0-0.4,0c-1.4,0.1-2.7,0.1-3.9-0.1c-0.9-0.1-2.3-0.4-3.9-0.8c-5.6-1.5-14.4-4.4-18.2-5.7c-0.9-0.3-1.6-0.5-1.8-0.6
					c0,0,0,0,0,0c-0.1,0-0.1,0-0.1,0l-0.5-0.2l-0.4,0.4c-0.1,0.1-0.1,0.1-0.2,0.2c0,0-0.1,0.1-0.1,0.1c-0.2,0.2-0.3,0.4-0.5,0.5
					c-0.3,0.3-0.6,0.6-0.8,0.9c-0.3,0.3-0.5,0.6-0.8,0.8c-0.3,0.3-0.5,0.6-0.7,0.8l0,0c-1.1,1.3-2,2.5-2.9,3.9c-0.6,1-1.2,2-1.8,3
					c-0.2,0.3-0.4,0.7-0.5,1c-0.2,0.3-0.3,0.7-0.5,1.1c-0.2,0.4-0.3,0.7-0.5,1.1c-0.1,0.3-0.3,0.6-0.4,0.9c-0.2,0.4-0.3,0.9-0.5,1.3
					c-0.1,0.4-0.3,0.8-0.4,1.2c-0.2,0.7-0.5,1.5-0.7,2.2c0,0.1,0,0.1-0.1,0.2c-0.1,0.4-0.2,0.8-0.3,1.3c0,0.1-0.1,0.3-0.1,0.4
					c-0.1,0.2-0.1,0.5-0.2,0.7c0,0.1,0,0.1,0,0.2c0,0,0,0,0,0c-0.1,0.2-0.1,0.5-0.2,0.8c-0.1,0.4-0.2,0.7-0.2,1.1
					c-0.1,0.3-0.1,0.6-0.2,1c-0.1,0.3-0.1,0.5-0.1,0.8l0,0.1l0,0.2l0,0.1c0,0.2-0.1,0.4-0.1,0.5c0,0,0,0.1,0,0.1l-0.1,0.7l0.7,0.2
					c0,0,0,0,0,0l0.3,0.1c3.5,0.9,26.2,6,28.6,6c5,0,9.6-1.7,13.2-3.8c0.3-0.2,0.7-0.4,1-0.6c0.2-0.1,0.4-0.3,0.6-0.4
					c0.2-0.1,0.4-0.3,0.6-0.4c0.7-0.5,1.4-1,2-1.5c0.4-0.3,0.8-0.6,1.1-0.9c0.1-0.1,0.2-0.2,0.3-0.3c0.3-0.2,0.5-0.5,0.7-0.7
					c0,0,0,0,0,0c0.2-0.2,0.4-0.4,0.6-0.6c0-0.1,0.1-0.1,0.1-0.1c0.3-0.3,0.5-0.6,0.7-0.8v0c0.6-0.8,1.6-1.9,2.6-3.3
					c0.2-0.2,0.4-0.5,0.5-0.8c0.5-0.8,1.1-1.7,1.6-2.5c0.4-0.8,0.8-1.6,1.1-2.3c0.1-0.2,0.2-0.4,0.2-0.6c0-0.1,0-0.1,0.1-0.2v0
					c0-0.1,0-0.1,0.1-0.2c0-0.1,0.1-0.2,0.1-0.3c0.1-0.2,0.1-0.4,0.1-0.6l0-0.1c0,0,0-0.1,0-0.1c0-0.2,0.1-0.4,0.1-0.5
					c0-0.1,0-0.1,0-0.2v0c0-0.1,0-0.1,0-0.2c0,0,0-0.1,0-0.1C205.9,364,205.9,363.8,205.9,363.6
					C205.9,363.6,205.9,363.6,205.9,363.6z M150.6,378.7L150.6,378.7l0-0.2c0.1-0.8,0.3-1.5,0.4-2.2c0.1-0.7,0.3-1.3,0.4-1.9
					c0-0.2,0.1-0.3,0.1-0.4c0-0.1,0-0.2,0.1-0.3c0.1-0.5,0.2-0.9,0.4-1.4c0-0.1,0-0.1,0.1-0.2c0.1-0.3,0.1-0.5,0.2-0.7
					c0,0,0-0.1,0-0.1c0,0,0,0,0-0.1c0-0.1,0.1-0.3,0.1-0.4c0.1-0.3,0.2-0.5,0.3-0.8c0.1-0.4,0.3-0.8,0.4-1.1
					c0.1-0.2,0.2-0.4,0.2-0.6c0.1-0.3,0.2-0.5,0.3-0.8c0.2-0.5,0.4-1.1,0.7-1.6c0.2-0.4,0.4-0.8,0.6-1.2c0.1-0.3,0.3-0.6,0.4-0.8
					c0.4-0.7,0.8-1.4,1.2-2.1c0.2-0.3,0.4-0.6,0.6-0.9c0.2-0.3,0.4-0.6,0.6-0.9c0-0.1,0.1-0.1,0.1-0.2c0.2-0.3,0.4-0.5,0.6-0.8
					c0.5-0.6,1-1.2,1.5-1.8c0.7-0.9,1.5-1.7,2.4-2.6c0.1-0.1,0.2-0.2,0.3-0.3h0c0.6,0.2,1.6,0.5,2.8,1h0c4,1.4,10.8,3.6,15.9,5
					c1.6,0.4,3,0.8,4.1,1c0.4,0.1,0.8,0.2,1.1,0.2c0.1,0,0.2,0,0.3,0h0c0.6,0.1,1.3,0.1,1.9,0.1c0.3,0,0.7,0,1,0
					c0.5,0,0.9,0,1.4-0.1c0.1,0,0.2,0,0.3,0c0.1,0,0.2,0,0.3,0c0.3,0,0.5-0.1,0.8-0.1c0.6-0.1,1.2-0.1,1.8-0.2
					c0.3,0,0.6-0.1,0.9-0.1c0.3,0,0.6-0.1,0.9-0.1c1.8-0.2,3.7-0.5,5-0.5c0.5,0,1,0,1.3,0.1c0.1,0,0.3,0.1,0.3,0.2
					c0.1,0.1,0.2,0.2,0.3,0.3c0.4,0.4,0.7,0.9,0.9,1.5c0.3,1,0.2,2.2-0.3,3.6c-0.3,0.9-0.8,1.9-1.5,3c-0.3,0.5-0.6,1-1,1.5
					c-0.4,0.5-0.7,1.1-1.1,1.6c-0.2,0.3-0.4,0.6-0.6,0.9c-0.4,0.6-0.9,1.2-1.4,1.8c-0.1,0.1-0.1,0.1-0.2,0.2
					c-0.2,0.2-0.4,0.4-0.6,0.6c-0.1,0.1-0.1,0.1-0.2,0.2c-0.2,0.2-0.3,0.3-0.5,0.5c-0.2,0.2-0.4,0.3-0.6,0.5
					c-0.2,0.2-0.4,0.4-0.6,0.5c-0.3,0.3-0.7,0.6-1.1,0.8c-0.8,0.6-1.6,1.2-2.5,1.8c-0.2,0.1-0.3,0.2-0.5,0.3c-0.1,0-0.1,0.1-0.2,0.1
					c0,0,0,0-0.1,0c-0.2,0.1-0.5,0.3-0.7,0.4c-3.4,1.9-7.5,3.4-12.1,3.4C176.3,384.6,155.3,379.9,150.6,378.7
					C150.6,378.7,150.6,378.7,150.6,378.7z M158.4,359.2c0.5-0.6,1-1.2,1.5-1.8C159.3,358,158.8,358.6,158.4,359.2z"/>
				<path class="st6" d="M162.7,352.7C162.7,352.7,162.7,352.7,162.7,352.7c-2.3-1.2-23.1-11.8-69.2-34.5
					c-19.5-9.6-34.9-11.9-45.7-6.8c-9.5,4.5-11.8,13.1-11.9,13.7c-1.2,4.1-0.6,8.1,1.7,12.1c10.9,18.6,56.4,29.4,58.3,29.8
					c0,0,0,0,0.1,0c1.4,0.4,20.2,5.1,40.2,9.9c4.4,1.1,8.8,2.1,13.2,3.1c0,0,0,0,0,0l0.3,0.1l0.6,0.1l0.1-0.9c0-0.1,0-0.2,0.1-0.3
					c0-0.1,0.1-0.3,0.1-0.4c0-0.1,0-0.1,0-0.2c0.1-0.8,0.3-1.5,0.4-2.2c0.1-0.7,0.3-1.3,0.4-1.9c0-0.2,0.1-0.3,0.1-0.4
					c0-0.1,0-0.2,0.1-0.3c0.1-0.5,0.2-0.9,0.4-1.4c0-0.1,0-0.1,0.1-0.2c0.1-0.3,0.1-0.5,0.2-0.7c0,0,0-0.1,0-0.1c0,0,0,0,0-0.1
					c0-0.1,0.1-0.3,0.1-0.4c0.1-0.3,0.2-0.5,0.3-0.8c0.1-0.4,0.3-0.8,0.4-1.1c0.1-0.2,0.2-0.4,0.2-0.6c0.1-0.3,0.2-0.5,0.3-0.8
					c0.2-0.5,0.4-1.1,0.7-1.6c0.2-0.4,0.4-0.8,0.6-1.2c0.1-0.3,0.3-0.6,0.4-0.8c0.4-0.7,0.8-1.4,1.2-2.1c0.2-0.3,0.4-0.6,0.6-0.9
					c0.2-0.3,0.4-0.6,0.6-0.9c0-0.1,0.1-0.1,0.1-0.2c0.2-0.3,0.4-0.6,0.6-0.8c0.5-0.6,0.9-1.2,1.5-1.8c0.7-0.9,1.5-1.7,2.4-2.6
					c0.1-0.1,0.2-0.2,0.3-0.3c0.1-0.1,0.2-0.3,0.4-0.4l0.2-0.2l0.2-0.2l0.3-0.3l0.1-0.1L162.7,352.7z M151,369.7
					c-0.2,0.7-0.5,1.5-0.7,2.2c0,0.1,0,0.1-0.1,0.2c-0.1,0.4-0.2,0.8-0.3,1.3c0,0.1-0.1,0.3-0.1,0.4c-0.1,0.2-0.1,0.5-0.2,0.7
					c0,0.1,0,0.1,0,0.2c-0.1,0.3-0.1,0.5-0.2,0.8c-0.1,0.4-0.2,0.7-0.2,1.1c-0.1,0.3-0.1,0.6-0.2,1c-0.1,0.3-0.1,0.6-0.2,0.9
					c-0.8-0.2-1.7-0.4-2.5-0.6c-0.9-0.2-1.7-0.4-2.6-0.6c-0.8-0.2-1.7-0.4-2.5-0.6c-18.5-4.4-37.1-9.1-43.1-10.6
					c-1.2-0.3-1.9-0.5-2-0.5c-0.1,0-1.8-0.4-4.6-1.2c-0.6-0.2-1.3-0.4-2-0.6c-13.3-3.8-42.6-13.5-50.6-27.3
					c-2.1-3.6-2.6-7.2-1.6-10.8l0,0c0,0,0.6-2.4,2.5-5.2c0,0,0,0,0,0s0,0,0,0c1.7-2.5,4.4-5.4,8.5-7.3c0.5-0.2,1.1-0.5,1.6-0.7h0
					c10.2-3.9,24.6-1.4,42.6,7.5c3.2,1.6,6.3,3.1,9.2,4.5c0.7,0.3,1.3,0.6,2,1c23.4,11.5,39.1,19.4,48.2,24c3.4,1.7,5.9,3,7.6,3.8
					c0.5,0.2,0.9,0.4,1.2,0.6c-0.3,0.3-0.6,0.6-0.8,0.9c-0.3,0.3-0.5,0.6-0.8,0.8c-0.3,0.3-0.5,0.6-0.7,0.8l0,0
					c-1.1,1.3-2,2.5-2.9,3.9c-0.7,1-1.3,2-1.8,3c-0.2,0.3-0.4,0.7-0.5,1c-0.2,0.3-0.3,0.7-0.5,1.1c-0.2,0.4-0.3,0.7-0.5,1.1
					c-0.1,0.3-0.3,0.6-0.4,0.9c-0.2,0.4-0.3,0.9-0.5,1.3C151.3,368.9,151.2,369.3,151,369.7z"/>
			</g>
		</g>
		<g>
			<g>
				<path class="st174" d="M204.3,325.8c0,0-7.2-30.6-56.5-6.4c-46,22.6-66.6,33.2-69.1,34.5c7.6,7.7,10.8,14.5,12.6,25.9
					c25.1-5.9,53.5-13.1,53.5-13.1S211.7,351.1,204.3,325.8z"/>
				<path class="st175" d="M200.7,318.6c1.9,13.1,0,17.4-21.4,26.7c-3.2,1.4-10.3,3.9-19.6,7c-1.1-2.4-3.4-7-4.6-8.9
					c-0.1,0-0.1,0.1-0.2,0.1c1.6,4.7,2.5,7.8,3,9.5c-3.3,1.1-6.9,2.3-10.6,3.5c-0.6-1.1-1.1-2.1-1.5-2.8c-0.1,0.1-0.2,0.1-0.2,0.1
					c0.4,1,0.7,2,1.1,2.9c-0.4,0.1-0.9,0.3-1.3,0.4l-50.9,14.3c-1.3-3.2-2.9-6.7-4-8.8c-0.1,0.1-0.2,0.1-0.4,0.2
					c1.3,3.6,2.3,6.6,3,9l-3.4,1l1.5,6.6c0,0,1.2-0.3,3.3-0.8c0,0.5,0,0.8-0.1,0.8l2.9-1c0,0-0.1-0.2-0.2-0.4
					c14.2-3.4,48.5-11.5,46.8-10.8c1.9-0.6,3.7-1.1,5.5-1.7c0,0.1,0,0.1,0,0.1l1.6-0.7c8.5-2.7,15.5-5.3,23.1-7.7
					c16.3-5,28.6-17.6,30.7-23.1C206,331,201.3,319.4,200.7,318.6z"/>
				<path class="st176" d="M193,312.7c-13.1-0.5-34,6.9-56.7,17.2l-48.5,22.5c0,0,4.5-4.7-1.5-1.7
					C114.8,335.3,176.4,300.2,193,312.7z"/>
				<path class="st6" d="M90.6,380.8l-0.1-0.9c-1.9-11.5-5.2-18.1-12.4-25.4l-0.8-0.8l1-0.5c2.2-1.1,23.1-11.8,69.2-34.5
					c19.5-9.6,34.9-11.9,45.7-6.8c9.5,4.5,11.8,13.1,11.9,13.7c1.2,4.1,0.6,8.1-1.7,12.1c-10.9,18.6-56.4,29.4-58.3,29.8
					c-0.3,0.1-28.7,7.3-53.5,13.1L90.6,380.8z M80.1,354.1c6.8,7.1,10,13.8,11.9,24.6c24.6-5.8,52.4-12.8,52.6-12.9
					c0.5-0.1,46.8-11.1,57.3-29c2.1-3.6,2.6-7.2,1.6-10.8l0,0c0-0.1-2.1-8.4-11-12.6c-10.3-4.8-25.2-2.6-44.2,6.8
					C106.2,340.8,85.1,351.5,80.1,354.1z"/>
				<path class="st6" d="M140.6,337c0.1,0,0.2-0.1,0.3-0.1c-1.6-8.4-1.9-12.3-1.9-12.3l-2.1,0.5C136.8,325.1,139.2,333.5,140.6,337z
					"/>
				<path class="st162" d="M90.3,378.9c-0.3-1.7-0.6-3.3-1-4.8c-1.6-6.6-4.1-11.7-8.4-16.8c-0.9-1.1-1.9-2.2-3.1-3.3
					c0,0-19.1,6.6-24.3,7.2c-1.2,0.2-2.5,0.2-3.9,0.1c-5.4-0.3-11.5-1.8-13-0.6c-4.5,3.8,1.6,11.7,4.7,15.4c0.9,1,3.4,3.5,7,5.7
					c3.6,2.2,8.2,4,13.4,4c2.3,0,26.5-5.5,28.7-6.1C90.4,379.7,90.3,379.1,90.3,378.9z"/>
				<path class="st157" d="M56.6,369.5c-0.1,0-0.1,0-0.2,0.1c-1.2-6-2.5-8.2-2.6-8.1l1.7-0.8C55.4,360.7,56.5,366.8,56.6,369.5z"/>
				<path class="st163" d="M90.1,372.7l-4.1-9.8l-3.9-5.7l-3-3.4l-3.7,1.6l-0.1,0.2c0,0,5.9,3.7,8.6,18.2c-1.3,0.3-3,0.8-4.9,1.5
					c-1-2.2-2.2-4.9-3-6.4c-0.1,0-0.2,0.1-0.3,0.1c1.1,2.8,1.7,5,2.2,6.7c-4.7,1.5-10.8,3.3-17,2.9c0.3-2.5,0.6-5.6,0.6-7.5
					c-0.1,0-0.2,0-0.3-0.1c-0.5,3.3-1.1,5.7-1.6,7.4c-2.3-0.3-4.6-0.8-6.9-1.9c-1.3,2.4-4,4.9-2.8,5.9c1.2,1,9.7,3.8,13.3,3.5
					s24.5-5.1,24.5-5.1l3.7-1.7L90.1,372.7z"/>
				<path class="st6" d="M62.6,386.7c-10.3,0-18.7-7.3-21.1-10.1c-2.5-3-10-12.1-4.6-16.6c1.3-1.1,4.1-0.7,8-0.2
					c3.1,0.4,6.6,0.8,9.3,0.5c5.1-0.6,24-7.1,24.2-7.2l0.5-0.2l0.4,0.4c1.1,1.1,2.2,2.3,3.1,3.4c4.3,5.1,6.9,10.2,8.6,17.1
					c0.4,1.5,0.7,3.1,1,4.9l0.1,0.4c0,0.2,0.1,0.5,0.1,0.6l0.1,0.7l-0.7,0.2C89.5,381.2,65.1,386.7,62.6,386.7z M39.7,361
					c-0.8,0-1.4,0.1-1.7,0.3c-2.7,2.3-1.1,7.1,4.8,14.2c2.2,2.6,10.1,9.5,19.8,9.5c2,0,23.1-4.7,27.8-5.8l0-0.2
					c-0.3-1.8-0.6-3.3-1-4.8c-1.6-6.6-4.1-11.5-8.2-16.4c-0.8-1-1.7-1.9-2.6-2.9c-3.1,1.1-19.2,6.5-24,7.1c-2.9,0.4-6.6-0.1-9.8-0.5
					C42.9,361.3,41,361,39.7,361z"/>
				<path class="st164" d="M49.2,381.8c-3.7-2.2-6.2-4.7-7-5.7c-3.1-3.7-9.2-11.7-4.7-15.4c1.5-1.3,7.6,0.3,13,0.6
					C51.9,362.9,58.3,371.3,49.2,381.8z"/>
				<path class="st6" d="M49.4,382.9l-0.6-0.4c-3.7-2.2-6.3-4.8-7.3-5.9c-2.5-3-10-12.1-4.6-16.6c1.2-1,3.7-0.8,8-0.2
					c1.8,0.2,3.8,0.5,5.6,0.6l0.4,0l0.2,0.3c1.5,1.7,8.3,10.7-1.2,21.7L49.4,382.9z M39.7,361c-0.8,0-1.4,0.1-1.6,0.3
					c-2.8,2.3-1.1,7.1,4.8,14.2c0.8,1,3.1,3.2,6.2,5.2c7.6-9.3,2.6-16.7,1-18.7c-1.8-0.1-3.6-0.3-5.4-0.6
					C42.9,361.3,41,361,39.7,361z"/>
			</g>
		</g>
		<g>
			<g>
				<path class="st177" d="M197,343.7c-4,10.1-29.7-4.9-29.7-4.9c-1-0.7-1.4-1.9-1-3l2.8-8c0,0-5.6-6.6-3.4-8.1
					c2.1-1.6,8.4-4.6,8.9-7.8c0.5-3.1,9.6-40.3-6.5-70.9c0,0.4-1.5,18.4-3.1,36.3c-1.3,15.4-2.6,30.6-3,34.7
					c-0.1,0.7-0.3,0.7-0.8,0.9c-9.9,3.5-24.9,11.4-40.7,19.1c0-13.4,0-84.1,0-84.1l18.4-31l1.9-20.9l9.4,3.7l8.5,3.4l2.7,1.1l4.9,2
					c0,0,1.4,0.9,3.7,2.8c3.3,2.7,8.4,7.3,13.9,13.9C200.9,243.3,221.1,283.3,197,343.7z"/>
				<path class="st5" d="M175,309.6c-0.2,1.1-0.4,1.9-0.4,2.2c-0.6,3.2-6.8,6.2-8.9,7.8c-1.6,1.2,1.1,5.1,2.6,7.1
					c0.5,0.7,0.7,1.6,0.4,2.4l-2.3,6.7c-0.4,1.1,0,2.3,1,3c0,0,25.7,14.9,29.7,4.8c3.4-8.4,5.9-16.4,7.7-24.1
					C191.3,314,180.7,311,175,309.6z"/>
				<path class="st178" d="M167.3,237.9c0,0,21.2,20.1,15.4,70.5c9.7,3.5,22.8,8.1,22.8,8.1l-0.9,3l-29.6-10c0,0,5.9-28.7,1.7-43.3
					C172.4,251.7,167.3,237.9,167.3,237.9z"/>
				<path class="st142" d="M205.6,315c0,0-1.9,0.3-5.1-0.9c1-4.6,1.7-9.2,2.1-13.6c-2.2-0.6-5.8-1.5-11.2-2.5
					c5.6,0.1,9.1,0.5,11.3,1c4.3-56-36.1-92.5-36.1-92.5l0.8-0.3c0,0,17.2,13,27.6,32.4c10.4,19.3,11.5,33.4,12.9,43.9
					C209.2,292.8,205.6,315,205.6,315z"/>
				<path class="st6" d="M205.1,315.2c-5.3-2.2-11.7-4.1-19.7-5.8c7.3,2.8,14.7,5.3,19.7,7.7V315.2z"/>
				<path class="st6" d="M176.9,294.2c0,0,12.1-1.6,17.1,0.6c-9.3-0.4-17,1.4-17.1,1.2C176.9,294.2,176.9,294.2,176.9,294.2z"/>
				<path class="st6" d="M201.9,253c0,0-7.7,0.9-10.2,3.7c5.5-2.1,10.7-2,10.7-2.2C201.9,253,201.9,253,201.9,253z"/>
				<path class="st7" d="M175.8,333.7c0,0,12.9,3.5,20.3,4.3l5.2-16.1l2.5,1.1l-6,19C197.8,342,188.8,341.7,175.8,333.7z"/>
				<path class="st13" d="M203.8,323c-7-3.3-14.6-5.4-22-5.3c-1.1,5.3-3.3,10.6-6.1,16c0,0,10.4,6.7,21.8,8.5
					c-3,4.2-2.5,6.7-11.7,4.4c-9.3-2.3-19.7-9-19.7-9l1.7-6.3l1.2-3.5l-3.2-4.8l-0.5-3l3.9-2.3l4.3-3.9l1.4-4.2
					c10.1,3.1,20,6.5,29.5,10.3L203.8,323z"/>
				<path class="st5" d="M169.9,320.8c0.3-0.6,0.7-1,1.1-1.4c0.4-0.4,0.9-0.7,1.3-1.1c0.5-0.3,1-0.6,1.5-0.8
					c0.5-0.2,1.1-0.4,1.7-0.5l0,0c-0.3,0.5-0.7,0.9-1.1,1.3c-0.4,0.4-0.9,0.7-1.3,1c-0.5,0.3-0.9,0.6-1.5,0.8
					C171,320.5,170.5,320.7,169.9,320.8z"/>
				<path class="st6" d="M197.2,342.5c0,0-10.8-2-15.5-5.5c8.7,3.1,16.1,4,16.1,4L197.2,342.5z"/>
				<polygon class="st6" points="172.2,341.6 175.4,337.8 173.6,342.1 				"/>
				<polygon class="st6" points="180.2,345 183.5,341.2 181.7,345.5 				"/>
				<polygon class="st6" points="187.3,346.7 189.2,344.6 188.2,347 				"/>
				<path class="st178" d="M167.7,240l-5,72.4c-5.2,1.8-10,3.8-15.9,6.6c-10,4.7-18,8.8-25.6,12.6l-0.8-6.1l37.9-15.3l1.8-14.2
					l-9.6,2.2l10.2-7.1l6.6-53.2L167.7,240z"/>
				<path class="st6" d="M196.6,239.5c-4.8-9.1-10.4-16.4-15.3-21.9c-6.8-7.5-15.3-13.2-24.7-16.7l-16.5-6.1l-2,21.8l-18.4,31.1
					l0.8,75.3l0.8-1.8v-73l18.4-31l1.8-20.1l14.1,5.2c9.8,3.6,18.5,9.6,25.4,17.4c14.8,16.8,34.2,49.6,23.1,98.8
					c-8.7-4.1-18.1-7.3-28.1-9.5c3-16,5.5-44.3-7.2-68.4l-1.4-2.7l-0.1,3c0,1.3-5.5,65.1-6.1,72l1.5,0.8l0.1-1
					c1.6-18.4,5-57.8,5.9-68.8c11.5,24.2,8.3,52,5.3,66.8c-0.1,0.5-0.2,0.8-0.2,1c-0.4,2.1-4.1,4.4-6.6,6c-0.8,0.5-1.5,0.9-2,1.3
					c-0.4,0.3-0.7,0.8-0.8,1.4c-0.3,2.3,2.7,6.2,3.8,7.5l-2.7,7.6c-0.5,1.4,0,3.1,1.3,4c0.7,0.4,14.7,8.4,23.7,8.4
					c1.3,0,2.4-0.2,3.4-0.5c1.8-0.6,3.1-1.8,3.7-3.5C217,295.8,207.8,260.6,196.6,239.5z M196.2,343.4c-0.5,1.3-1.4,2.1-2.8,2.6
					c-7.7,2.7-25.6-7.7-25.8-7.8c-0.7-0.5-0.9-1.3-0.7-2.1l2.6-7.4c0.3-0.9,2-4.1,3.5-6.3c-1.5,1.2-3.3,2.7-4.2,4
					c-1.5-1.9-3.2-4.5-3-5.8c0-0.2,0.1-0.3,0.1-0.3c0.5-0.3,1.1-0.8,1.9-1.2c2.9-1.8,6.8-4.2,7.3-7.1c0-0.2,0.1-0.5,0.2-0.9
					c0-0.1,0.1-0.3,0.1-0.4c9.9,1.9,19.2,5.1,28.1,9.5C201.9,327.5,199.5,335.3,196.2,343.4z"/>
			</g>
			<g>
				<path class="st177" d="M120.5,247.9l0.1,83.9c0,0-31.5-16.4-41.6-19.1c0,0-0.1-1.1-0.3-3.6c-0.5-6.3-1.6-19-2.7-31.8
					c-1.5-17.9-3.1-35.9-3.1-36.3c-16.1,30.6-7,67.8-6.5,70.9c0.6,3.2,6.8,6.2,8.9,7.8c2.1,1.6-3.4,8.1-3.4,8.1l2.8,8
					c0.4,1.1,0,2.3-1,3c0,0-25.7,14.9-29.7,4.8C6.9,250.9,74.5,206.1,74.7,206.1l9.7-3.9l15.8-6.3l1.9,20.9L120.5,247.9z"/>
				<path class="st5" d="M66,309.6c0.2,1.1,0.4,1.9,0.4,2.2c0.6,3.2,6.8,6.2,8.9,7.8c1.6,1.2-1.1,5.1-2.6,7.1
					c-0.5,0.7-0.7,1.6-0.4,2.4l2.3,6.7c0.4,1.1,0,2.3-1,3c0,0-25.7,14.9-29.7,4.8c-3.4-8.4-5.9-16.4-7.7-24.1
					C49.6,314,60.2,311,66,309.6z"/>
				<path class="st178" d="M73.6,237.9c0,0-21.2,20.1-15.4,70.5c-9.7,3.5-22.8,8.1-22.8,8.1l0.9,3l29.6-10c0,0-5.9-28.7-1.7-43.3
					C68.5,251.7,73.6,237.9,73.6,237.9z"/>
				<path class="st142" d="M48.9,241.3c2.3,0.2,5.4,0.8,8,2.5c-2.3-0.3-6.7,0-9.2,0.2c-6,13.9-9.9,31.8-8.7,54.6
					c2.2-0.4,5.6-0.7,10.5-0.8c-4.8,0.9-8.2,2.1-10.4,3.1c0.3,4.2,0.7,8.5,1.3,13c-3.2,1.2-5.1,0.9-5.1,0.9s-3.6-22.2-2.2-32.6
					c1.4-10.5,2.5-24.6,12.9-43.9c10.4-19.3,27.6-32.4,27.6-32.4l10.6-3.8C83.3,202.7,62,213.2,48.9,241.3z"/>
				<path class="st6" d="M35.8,315.2c5.3-2.2,11.7-4.1,19.7-5.8c-7.3,2.8-14.7,5.3-19.7,7.7V315.2z"/>
				<path class="st6" d="M64.1,294.2c0,0-12.1-1.6-17.1,0.6c9.3-0.4,17,1.4,17.1,1.2C64.1,294.2,64.1,294.2,64.1,294.2z"/>
				<path class="st7" d="M65.2,333.7c0,0-12.9,3.5-20.3,4.3l-5.2-16.1l-2.5,1.1l6,19C43.1,342,52.1,341.7,65.2,333.7z"/>
				<path class="st13" d="M37.1,323c7-3.3,14.6-5.4,22-5.3c1.1,5.3,3.3,10.6,6.1,16c0,0-10.4,6.7-21.8,8.5c3,4.2,2.5,6.7,11.7,4.4
					c9.3-2.3,19.7-9,19.7-9l-1.7-6.3l-1.2-3.5l3.2-4.8l0.5-3l-3.9-2.3l-4.3-3.9l-1.4-4.2c-10.1,3.1-20,6.5-29.5,10.3L37.1,323z"/>
				<path class="st5" d="M71.1,320.8c-0.3-0.6-0.7-1-1.1-1.4c-0.4-0.4-0.9-0.7-1.3-1.1c-0.5-0.3-1-0.6-1.5-0.8
					c-0.5-0.2-1.1-0.4-1.7-0.5l0,0c0.3,0.5,0.7,0.9,1.1,1.3c0.4,0.4,0.9,0.7,1.3,1c0.5,0.3,0.9,0.6,1.5,0.8
					C70,320.5,70.5,320.7,71.1,320.8z"/>
				<path class="st6" d="M43.8,342.5c0,0,10.8-2,15.5-5.5c-8.7,3.1-16.1,4-16.1,4L43.8,342.5z"/>
				<polygon class="st6" points="68.8,341.6 65.5,337.8 67.3,342.1 				"/>
				<polygon class="st6" points="59,345 55.7,341.2 57.5,345.5 				"/>
				<polygon class="st6" points="51.9,346.7 50,344.6 51,347 				"/>
				<path class="st178" d="M73.3,240l5,72.4c5,1.5,10.3,3.6,16,6.5c9.9,4.9,18.6,9.2,26.2,12.9v-6.2l-37.9-15.3l-1.2-9.6l6.6,0.7
					l-7.1-4.7l-7.3-58.8L73.3,240z"/>
				<path class="st6" d="M102.9,216.6l-2-21.8l-16.5,6.1c-9.5,3.5-18,9.2-24.7,16.7c-4.9,5.5-10.5,12.8-15.3,21.9
					c-11.1,21-20.4,56.2-1.1,104.5c0.7,1.7,1.9,2.9,3.7,3.5c1,0.3,2.2,0.5,3.4,0.5c9.1,0,23-8,23.7-8.4c1.3-0.9,1.8-2.5,1.3-4
					l-2.7-7.6c1.1-1.4,4.1-5.3,3.8-7.5c-0.1-0.6-0.3-1.1-0.8-1.4c-0.5-0.4-1.2-0.8-2-1.3c-2.5-1.5-6.2-3.8-6.6-6
					c0-0.2-0.1-0.5-0.2-1c-3-14.8-6.2-42.6,5.3-66.8c0.9,11.1,4.3,50.5,5.9,68.8l0.1,1l1.6-0.2c-0.6-6.8-6.1-71.3-6.2-72.6l-0.1-3
					l-1.4,2.7C59.5,264.7,62,293,65,309c-10,2.2-19.4,5.4-28.1,9.5c-11.1-49.2,8.3-82,23.1-98.8c6.9-7.8,15.6-13.8,25.4-17.4
					l14.1-5.2l1.8,20.1l18.4,31v83.7l1.1,1.6l0.5-0.4v-85.4L102.9,216.6z M65.3,310.6c0,0.1,0.1,0.3,0.1,0.4
					c0.1,0.4,0.1,0.7,0.2,0.9c0.5,2.9,4.4,5.3,7.3,7.1c0.8,0.5,1.5,0.9,1.9,1.2c0,0,0.1,0.1,0.1,0.3c0.2,1.3-1.5,3.9-3,5.8
					c-0.9-1.3-2.6-2.9-4.1-4c1.8,2.5,3.2,5.4,3.5,6.3l2.6,7.4c0.3,0.8,0,1.6-0.7,2.1c-0.1,0.1-18.1,10.4-25.8,7.8
					c-1.4-0.5-2.2-1.3-2.8-2.6c-3.2-8.1-5.7-15.9-7.4-23.3C46.1,315.7,55.5,312.5,65.3,310.6z"/>
			</g>
			<g>
				<g>
					<g>
						<path class="st177" d="M85.9,255.4l18.1-1l0.5,13.5c0.1,2.8-1.3,5.4-3.7,6.8l-0.4,0.2c-2.5,1.5-5.5,1.7-8.1,0.6l-0.7-0.3
							c-2.6-1.1-4.4-3.6-4.7-6.5L85.9,255.4z"/>
						<path class="st6" d="M104,260.5l-0.6,0.2l0.1,1.7l1-0.3L104,260.5z"/>
						<path class="st6" d="M104.7,253.6L85,254.7l1.1,14.3c0.2,3.2,2.2,5.9,5.1,7.1l0.7,0.3c1.2,0.5,2.5,0.8,3.8,0.8
							c1.8,0,3.5-0.5,5.1-1.4l0.4-0.2c2.6-1.6,4.2-4.5,4.1-7.5L104.7,253.6z M86.7,256.2l16.5-0.9l0.2,5.4l-4.1,1.3
							c-2.6,0.8-5.5,0.9-8.2,0.3l-4-0.9L86.7,256.2z M100.3,274.1l-0.4,0.2c-2.2,1.3-5,1.5-7.4,0.5l-0.7-0.3c-2.4-1-4-3.2-4.2-5.8
							l-0.4-5.8l3.5,0.8c1.3,0.3,2.6,0.4,3.9,0.4c1.7,0,3.4-0.3,5.1-0.8l3.7-1.1l0.2,5.6C103.7,270.5,102.5,272.8,100.3,274.1z"/>
					</g>
				</g>
				<g>
					<g>
						<path class="st177" d="M153.7,263l-0.4,5.8c-0.2,2.6-1.8,4.8-4.2,5.8l-0.7,0.3c-2.4,1-5.2,0.8-7.4-0.5l-0.4-0.2
							c-2.1-1.3-3.4-3.6-3.3-6.1l0.2-5.6l3.7,1.1c1.7,0.5,3.4,0.8,5.1,0.8c1.3,0,2.6-0.2,3.9-0.4L153.7,263z"/>
						<path class="st177" d="M154.2,256.2l-0.4,5.2l-2.1,0.5l-1.9,0.4c-2.7,0.6-5.5,0.5-8.2-0.3l-1.9-0.6l-2.3-0.7l0.2-5.4
							L154.2,256.2z"/>
						<path class="st6" d="M136.2,253.6l-0.5,14.3c-0.1,3.1,1.5,6,4.1,7.5l0.4,0.2c1.5,0.9,3.3,1.4,5.1,1.4c1.3,0,2.6-0.3,3.8-0.8
							l0.7-0.3c2.9-1.2,4.9-4,5.1-7.1l1.1-14.3L136.2,253.6z M153.2,268.8c-0.2,2.6-1.8,4.8-4.2,5.8l-0.7,0.3
							c-2.4,1-5.2,0.8-7.4-0.5l-0.4-0.2c-2.1-1.3-3.4-3.6-3.3-6.1l0.2-5.6l3.7,1.1c1.7,0.5,3.4,0.8,5.1,0.8c1.3,0,2.6-0.2,3.9-0.4
							l3.5-0.8L153.2,268.8z M153.8,261.3l-2.1,0.5l-1.9,0.4c-2.7,0.6-5.5,0.5-8.2-0.3l-1.9-0.6l-2.3-0.7l0.2-5.4l16.4,0.9
							L153.8,261.3z"/>
					</g>
				</g>
			</g>
		</g>
		<g>
			<g>
				<g>
					<g>
						<polygon class="st9" points="134.3,216.3 131.8,210.6 125.4,206.1 124.9,206.5 123.1,208 122.6,208.4 120.5,214.7 
							118.3,208.4 117.8,208 116,206.5 115.5,206.1 109.2,210.6 106.7,216.3 104,223.5 106.7,231.3 120.5,247.7 134.3,231.3 
							137,223.5 						"/>
						<path class="st6" d="M120.5,248.9L106,231.6l-2.9-8.2l2.8-7.5l2.6-5.8l7-5l3.4,2.8l1.5,4.4l1.5-4.4l3.4-2.8l7,5l2.6,5.8
							l2.8,7.5l-2.9,8.2L120.5,248.9z M107.4,230.9l13.1,15.7l13.1-15.7l2.6-7.4l-2.6-6.9l-2.4-5.4l-5.7-4.1l0,0l-2.1,1.8l-2.8,8.2
							l-2.8-8.2l-2.1-1.8l-5.7,4.1l-2.4,5.4l-2.6,6.9L107.4,230.9z"/>
						<polygon class="st180" points="111.9,212.3 117.5,220 113,229.2 120.4,246.3 128.2,229.2 123.2,219.7 129,212.3 122.6,208.4 
							118.1,208.3 						"/>
						<polygon class="st157" points="122.9,208.7 120.7,218.9 123.5,238.6 128.2,229.2 123.2,219.7 129,212.3 126.4,210.7 						"/>
					</g>
					<path class="st157" d="M123.3,208.6c0,0,6.4,5.7,8.6,13.7c0.3,1.1,0.5,2.3,0.6,3.5c1.4-3,2.4-5.7,3.2-7.9
						c-0.4-0.6-0.9-1.1-1.4-1.6c-2.8-3.1-6.5-5.9-11.1-8.3L123.3,208.6z"/>
					<path class="st157" d="M117.7,208.6c0,0-6.4,5.7-8.6,13.7c-0.3,1.1-0.5,2.3-0.6,3.5c-1.4-3-2.4-5.7-3.2-7.9
						c0.4-0.6,0.9-1.1,1.4-1.6c2.8-3.1,6.5-5.9,11.1-8.3L117.7,208.6z"/>
				</g>
				<g>
					<path class="st181" d="M121,248l-25.4-58.2c0,0-14.2,2.2-12.9,25.7l10.6,2.6l-3.2,11c-1,2.9-0.5,2.9,1.3,3.9L121,248z"/>
					<path class="st182" d="M83.1,215.1c0,0,0.8-20.3,12.4-23.5c0-1.1-0.2-2.3-2.5-1c-2.2,1.3-6.1,3.5-7.7,7.7
						c-1.6,4.3-2.6,9.4-2.7,11.8c-0.1,2.4,0.1,5.1,0.1,5.1L83.1,215.1z"/>
					<path class="st182" d="M95.3,212.9l-3.2,17.6l27.9,16.4l-29.8-14.5c0,0-0.8-0.3-0.3-3c0.5-2.7,4.3-13.5,4.3-13.5L95.3,212.9z"
						/>
					<path class="st6" d="M95.5,211.9l-2.6,6.3l0.4,2.3l2.4-8.3C95.7,212.2,95.6,212,95.5,211.9z"/>
					<path class="st6" d="M96,188.9l-0.6,0.1c-0.2,0-14.9,2.6-13.5,26.5l0,0.5l10.4,2.5l-2.9,10.2c-1,2.9-0.6,3.6,1.4,4.6l29.6,15
						l1.3-0.8l-1.3-2.9L96,188.9z M91.5,232.1c-1.4-0.7-1.4-0.7-0.7-2.9l3.4-11.7l-10.8-2.6c-1-19.8,9.2-23.7,11.7-24.3l24.4,55.8
						L91.5,232.1z"/>
				</g>
				<g>
					<path class="st181" d="M120.7,247.3l0-1l24.7-56.5c0,0,14.2,2.2,12.9,25.7l-10.6,2.6l3.2,11c1,2.9,0.5,2.9-1.3,3.9l-28.4,14.4
						L120.7,247.3z"/>
					<path class="st182" d="M155.6,198.4c-0.1-0.2-0.2-0.4-0.2-0.5c-0.6,0.3-1.2,0.7-1.8,1c3.8,7,4.2,16.3,4.2,16.3l0.4,0.2
						c0,0,0.1-2.8,0.1-5.1C158.2,207.8,157.2,202.6,155.6,198.4z"/>
					<path class="st182" d="M145.7,212.9l3.4,17.6l-28.1,16.5l29.8-14.5c0,0,0.8-0.3,0.3-3c-0.5-2.7-4.3-13.5-4.3-13.5L145.7,212.9z
						"/>
					<path class="st6" d="M145.4,211.9l2.6,6.3l-0.5,2.1l-0.8-2.8l-1.6-5.6C145.3,212,145.3,212,145.4,211.9z"/>
					<path class="st6" d="M145.5,189l-0.6-0.1l-24.6,56.3v3.3l29.8-15.1c2-1,2.4-1.7,1.4-4.6l-2.9-10.2l10.4-2.5l0-0.5
						C160.4,191.6,145.7,189.1,145.5,189z M157.6,214.9l-10.8,2.6l3.4,11.7c0.7,2.2,0.7,2.2-0.7,2.9l-28,14.2l24.4-55.8
						C148.4,191.2,158.6,195.1,157.6,214.9z"/>
					<polygon class="st182" points="133,223.6 121.4,246.4 131.8,222.8 					"/>
				</g>
				<g>
					<g>
						<path class="st10" d="M122.7,208.2c6.6,3.5,11.3,7.6,14.2,12.4c0.3,0.5,1,0.3,1.1-0.2l3.4-17.3l2.5-12.4L122.7,208.2z"/>
						<path class="st9" d="M136.7,217.4c0,0-3.9-5.4-11.8-8.2c3.2,2.7,6.8,5,8.4,6.8c1.8,2.1,3.8,4.7,3.8,4.7s0.6,0.8,1.1-1.4
							c0.5-2.2,3.2-18,3.2-18L136.7,217.4z"/>
						<path class="st6" d="M136.4,221c-2.9-4.7-7.6-8.8-14-12.1l-0.4-0.9l23-19l-6.3,31.6c-0.1,0.5-0.5,0.9-1,1c-0.1,0-0.2,0-0.2,0
							C137,221.6,136.6,221.3,136.4,221z M123.9,208.1c6,3.3,10.5,7.3,13.5,12l5.5-27.6L123.9,208.1z"/>
					</g>
					<g>
						<path class="st9" d="M118.2,208.2c-6.6,3.5-11.3,7.6-14.2,12.4c-0.3,0.5-1,0.3-1.1-0.2l-3.4-17.3L97,190.7L118.2,208.2z"/>
						<path class="st7" d="M104.2,217.4c0,0,3.9-5.4,11.8-8.2c-3.2,2.7-6.8,5-8.4,6.8c-1.8,2.1-3.8,4.7-3.8,4.7s-0.6,0.8-1.1-1.4
							c-0.5-2.2-3.2-18-3.2-18L104.2,217.4z"/>
						<path class="st6" d="M103.5,221.6c-0.1,0-0.2,0-0.2,0c-0.5-0.1-0.9-0.5-1-1L96,188.9l23,19l-0.4,0.9c-6.3,3.3-11,7.4-14,12.1
							C104.3,221.3,103.9,221.6,103.5,221.6z M98.1,192.4l5.5,27.6c2.9-4.6,7.5-8.7,13.5-12L98.1,192.4z"/>
					</g>
				</g>
			</g>
			<path class="st6" d="M130,212.3l-7.1-4.7l-5.1-0.1l-7,4.8l5.7,7.8l-4.5,9.1l8.3,19.2l8.8-19.2l-5-9.4L130,212.3z M113.1,212.5
				l5.2-3.4l4.1,0.1l5.3,3.3l-4.9,6.2c-2.1-0.9-4.1-0.3-5.1,0.2L113.1,212.5z M127.2,229.2l-6.9,15l-6.5-15l4.2-8.6
				c0.6-0.3,2.6-1.2,4.5-0.1L127.2,229.2z"/>
		</g>
		<g>
			<g>
				<path class="st183" d="M169.7,121.2l-50-3.6l-50,3.6l7.5-13.9L86,91.2c2.4-4.5,8-6.4,12.7-4.4l18.4,8c1.7,0.8,3.7,0.8,5.4,0
					l18.4-8c4.7-2.1,10.2-0.2,12.7,4.4l9,16.6L169.7,121.2z"/>
				<g>
					<path class="st184" d="M169.7,121.2l-50-3.6l-50,3.6l7.5-13.9c12.4-1.4,26.1-2.2,40.5-2.2c16.1,0,31.3,1,44.7,2.8L169.7,121.2z
						"/>
				</g>
				<path class="st185" d="M77.9,116.6l6.7-13.5l3.8-0.4l-3.2-0.9l4.4-8.8c0,0,3.3-5.8,9.6-5.9c-2.9-1.7-7.8-1.8-10.6,1
					c-2.9,2.8-16.9,29.2-16.9,29.2L77.9,116.6z"/>
				<path class="st185" d="M161.5,116.6l-8.4-16.9l-5-0.2l4.2-1.2l-2.6-5.2c0,0-3.3-5.8-9.6-5.9c2.9-1.7,7.8-1.8,10.6,1
					c2.9,2.8,16.9,29.2,16.9,29.2L161.5,116.6z"/>
				<path class="st6" d="M171.2,122.2l-51.5-3.8l-51.5,3.8l17-31.4c2.6-4.9,8.7-7,13.8-4.7l18.4,8c1.5,0.7,3.2,0.7,4.8,0l18.4-8
					c5.1-2.2,11.2-0.1,13.8,4.7L171.2,122.2z M119.7,116.7L119.7,116.7l48.5,3.5l-15.5-28.6c-2.2-4.1-7.3-5.9-11.6-4l-18.4,8
					c-1.9,0.9-4.2,0.9-6.1,0l-18.4-8c-4.3-1.9-9.4-0.1-11.6,4l-15.5,28.6L119.7,116.7z"/>
			</g>
			<g>
				<path class="st186" d="M198.2,139.9c0,4.3-3.4,8.4-9.5,12c-13.6,8-40.3,13.4-71,13.4c-31,0-58-5.5-71.4-13.7
					c-5.8-3.5-9.1-7.5-9.1-11.7c0-14,36-25.4,80.5-25.4S198.2,125.9,198.2,139.9z"/>
				<path class="st6" d="M117.8,166.1c-30.2,0-57.7-5.3-71.8-13.8c-6.3-3.8-9.5-8-9.5-12.4c0-14.7,35.7-26.2,81.3-26.2
					c45.6,0,81.3,11.5,81.3,26.2c0,4.5-3.3,8.8-9.9,12.7C175,160.9,147.6,166.1,117.8,166.1z M117.8,115.3
					c-21.4,0-41.5,2.6-56.7,7.4c-14.6,4.6-23,10.9-23,17.2c0,3.8,3,7.6,8.7,11c13.8,8.4,41,13.6,71,13.6c29.6,0,56.6-5.1,70.5-13.3
					c6-3.5,9.1-7.4,9.1-11.3c0-6.3-8.4-12.6-23-17.2C159.3,117.9,139.2,115.3,117.8,115.3z"/>
			</g>
			<g>
				<path class="st5" d="M175.3,142.7c3.4,1.1,5.2,6.8,4.7,11.7c-0.4,4.4-2.5,8.4-6,11.1c-3.5,2.8-9.1,4.2-11.3,0.6
					c-0.9-1.9-1.2-4-0.9-6.1c0.4-3.4,1.5-6.6,3.4-9.4C167.1,147.6,171.2,141.4,175.3,142.7z"/>
				<g>
					<path class="st6" d="M175.3,149.4c-0.6-1.1-1.6-1.4-2.7-1.3c0.6,0.1,1.2,0.5,1.6,1.2c1,1.7,0.7,4.4,0,6.7
						c-0.8,2.6-2.7,4.6-5.1,5.7c0.1,0.1,0.1,0.3,0.2,0.4c2.8-0.9,5.1-3.1,6-6C176,153.8,176.3,151.2,175.3,149.4z"/>
					<path class="st6" d="M175.6,154.2c-0.1,0.4-2.3,4.2-2.2,3.8c0.9-2.3,0.8-7-2.4-6.9c-0.8,0-0.9-1.5-0.2-2.2
						c0.5-0.6,1.9-0.9,2.7-0.7c0.7,0.3,1.1,0.6,1.4,1.1c0.2,0.2-0.1,0.6,0,0.9C175.7,151.3,175.9,152.8,175.6,154.2z"/>
					<path class="st13" d="M170.1,153.9c1.2,0.5-0.2,1.8,0.7,2.8c0.2,0.2,0.7,0.3,1.4-0.8c0.6-1,0.9-2.1-0.2-2.9
						c-0.3-0.3-1.1-0.4-1.5-0.3C170,152.9,169.7,153.8,170.1,153.9z"/>
				</g>
				<path class="st13" d="M166.5,164.9C166.5,164.9,166.5,164.9,166.5,164.9C166.4,164.9,166.5,164.9,166.5,164.9c0.2,0,0.2,0,0.3,0
					c0.2,0,0.4,0,0.6,0c0.4,0,0.8-0.1,1.2-0.2c0.8-0.1,1.6-0.4,2.4-0.7c0.8-0.3,1.5-0.7,2.2-1.2c0.7-0.5,1.3-1.1,1.8-1.8
					c-0.4,0.8-0.9,1.5-1.6,2.1c-0.6,0.6-1.4,1.2-2.1,1.6c-0.8,0.5-1.6,0.8-2.5,1.1c-0.4,0.1-0.9,0.3-1.3,0.4c-0.2,0-0.5,0.1-0.7,0.1
					c-0.1,0-0.3,0-0.4,0c-0.1,0-0.1,0-0.2,0c-0.1,0-0.2,0-0.3-0.1L166.5,164.9z"/>
				<g>
					<g id="Path_349_33_">
						<path class="st5" d="M65.3,142.9c-3.4,1.1-5.2,6.8-4.7,11.7c0.4,4.4,2.5,8.4,6,11.1c3.5,2.8,9.1,4.2,11.3,0.6
							c0.9-1.9,1.2-4,0.9-6.1c-0.4-3.4-1.5-6.6-3.4-9.4C73.4,147.7,69.4,141.6,65.3,142.9z"/>
						<path class="st6" d="M73.6,169.2c-2.4,0-5.2-1.1-7.5-2.9c-3.6-2.8-5.9-7.1-6.3-11.6c-0.5-5,1.4-11.3,5.3-12.5l0,0
							c4.7-1.5,8.9,5,11,8.1c2,2.9,3.2,6.3,3.5,9.8c0.3,2.2,0,4.5-1,6.5l0,0.1c-0.8,1.3-2.1,2.2-3.7,2.5
							C74.4,169.1,74,169.2,73.6,169.2z M65.5,143.6c-3,1-4.6,6.4-4.2,10.8c0.4,4.1,2.4,7.9,5.7,10.5c2.3,1.9,5.3,2.9,7.5,2.5
							c1.1-0.2,2-0.8,2.6-1.7c0.8-1.8,1.1-3.7,0.8-5.6c-0.3-3.2-1.5-6.4-3.3-9.1C72.8,148.3,69,142.5,65.5,143.6z"/>
					</g>
					<g>
						<path class="st6" d="M72,162.1c-2.7-1-4.8-3.1-5.7-5.9c-0.7-2.3-1-4.9,0-6.7c0.4-0.7,1-1.1,1.6-1.2c-1-0.1-2,0.2-2.7,1.3
							c-1,1.7-0.7,4.4,0,6.7c1,3.2,3.7,5.6,7,6.3C72.1,162.4,72,162.3,72,162.1z"/>
						<path class="st6" d="M65,154.3c0.1,0.4,2.3,4.2,2.2,3.8c-0.9-2.3-0.8-7,2.4-6.9c0.8,0,0.9-1.5,0.2-2.2
							c-0.5-0.6-1.9-0.9-2.7-0.7c-0.7,0.3-1.1,0.6-1.4,1.1c-0.2,0.2,0.1,0.6,0,0.9C64.8,151.5,64.6,153,65,154.3z"/>
						<path class="st13" d="M70.3,154.1c-1.2,0.5,0.2,1.8-0.7,2.7c-0.2,0.2-0.7,0.3-1.4-0.8c-0.6-1-0.9-2,0.2-2.9
							c0.3-0.3,1.1-0.4,1.5-0.3C70.4,153.1,70.7,153.9,70.3,154.1z"/>
					</g>
					<path class="st13" d="M74.7,166.5c-0.1,0-0.2,0-0.3,0.1c-0.1,0-0.2,0-0.2,0c-0.1,0-0.3,0-0.4,0c-0.3,0-0.5-0.1-0.7-0.1
						c-0.5-0.1-0.9-0.2-1.3-0.4c-0.9-0.3-1.7-0.7-2.5-1.1c-0.8-0.5-1.5-1-2.1-1.6c-0.6-0.6-1.2-1.4-1.6-2.1c0.5,0.7,1.1,1.3,1.8,1.8
						c0.7,0.5,1.5,0.9,2.2,1.2c0.8,0.3,1.6,0.5,2.4,0.7c0.4,0.1,0.8,0.1,1.2,0.2c0.2,0,0.4,0,0.6,0c0.1,0,0.2,0,0.3,0
						c0,0,0.1,0,0.1,0c0,0,0,0,0,0L74.7,166.5z"/>
				</g>
				<path class="st6" d="M167,169c-0.4,0-0.8,0-1.2-0.1c-1.6-0.3-2.9-1.1-3.7-2.5l0-0.1c-1-2.1-1.3-4.3-1-6.6
					c0.4-3.4,1.6-6.8,3.5-9.7c2.1-3.1,6.3-9.6,11-8.1l0,0c3.9,1.3,5.8,7.5,5.3,12.5c-0.4,4.5-2.7,8.8-6.3,11.6
					C172.2,167.9,169.4,169,167,169z M163.4,165.6c0.6,0.9,1.4,1.5,2.6,1.7c2.1,0.4,5.1-0.6,7.5-2.5c3.3-2.6,5.3-6.4,5.7-10.5
					c0.4-4.5-1.1-9.9-4.2-10.9c-3.5-1.1-7.3,4.7-9.1,7.4c-1.8,2.7-2.9,5.8-3.3,9.1C162.3,161.9,162.6,163.9,163.4,165.6z"/>
			</g>
			<path class="st5" d="M71.4,139.7l1.9,38c0.5,9.4,7,17,16,19.6c6.4,1.8,13.5,4.7,19.1,7.9c3.6,2.1,7.9,2.8,12,2.8l0.3-0.1
				c4.2,0,7.6-0.9,11.2-3c5.6-3.2,13-5.4,19.3-7.3c8.3-2.6,15.5-10.4,16-19.8l1.9-38c0,0-23.6-17.5-48.9-17.7
				C94.2,121.9,71.4,139.7,71.4,139.7z"/>
			<g>
				<path class="st13" d="M91.1,144.3c1.1-0.7,6.9-4.3,16.4-3.5c3,0.3,6.1,0.9,9.3,2c0.6,0.2,1,0.7,1.1,1.3c0.2,0.6,0,1.3-0.4,1.8
					l-3.5,4.2c-0.4,0.4-0.9,0.6-1.4,0.6c-0.3,0-0.5-0.1-0.7-0.3c-0.3-0.2-3.5-2.3-8.3-2.7c-3.5-0.3-7,0.3-10.5,1.9
					c-0.2,0.1-0.5,0.2-0.8,0.1c-0.7-0.1-1.3-0.6-1.5-1.4l-0.5-1.9C90.1,145.7,90.4,144.8,91.1,144.3z"/>
				<path class="st13" d="M150.7,145.6c-0.9-0.8-6.1-4.9-15.3-4.9c-2.9,0-6,0.4-9.1,1.2c-0.6,0.1-1,0.6-1.3,1.2
					c-0.2,0.6-0.2,1.3,0.2,1.8l2.8,4.5c0.3,0.5,0.7,0.7,1.2,0.7c0.3,0,0.5-0.1,0.7-0.2c0.4-0.2,3.6-1.9,8.3-1.9c3.4,0,6.7,1,9.8,2.8
					c0.2,0.1,0.5,0.2,0.7,0.2c0.7,0,1.3-0.5,1.6-1.2l0.7-1.8C151.4,147.1,151.3,146.1,150.7,145.6z"/>
				<g>
					<path class="st187" d="M148.4,148.9l-0.2-0.1c-3.5-1.7-7.2-2.6-10.9-2.6c-5,0-8.4,1.5-9,1.9l-0.2,0.1l-0.2,0
						c-0.3,0-0.5-0.1-0.7-0.3l-3.3-4c-0.2-0.2-0.3-0.6-0.2-0.9c0.1-0.3,0.4-0.5,0.7-0.6c3.2-0.7,6.4-1.1,9.4-1.1
						c9.5,0,15.1,3.5,16.1,4.2c0.4,0.3,0.5,0.7,0.3,1.1l-0.7,1.7c-0.2,0.4-0.5,0.6-0.9,0.6H148.4z"/>
					<path class="st188" d="M124.7,144.7c0,0,6.8-2.6,13-2.7c-4.2-0.8-11-0.8-11-0.8l-3.3,1.6l0.5,1.5L124.7,144.7z"/>
					<path class="st21" d="M134.4,146c0,0,4.8-4,15.1,0.9c-0.4,1.7-1.4,1.9-1.4,1.9l-5.1-1.4l-3.3-1.4L134.4,146z"/>
					<path class="st6" d="M133.7,142c9.4,0,14.8,3.5,15.6,4.1c0.1,0,0.1,0.1,0.1,0.2l-0.7,1.7c0,0.1-0.1,0.1-0.2,0.1
						c0,0-0.1,0-0.1,0c-4.2-2-8-2.6-11.3-2.6c-5.2,0-8.7,1.6-9.3,1.9c0,0,0,0-0.1,0c0,0-0.1,0-0.1-0.1l-3.3-4c0-0.1,0-0.2,0.1-0.2
						C127.9,142.3,130.9,142,133.7,142 M133.7,140.4c-3.1,0-6.3,0.4-9.6,1.1c-0.6,0.1-1.1,0.5-1.2,1.1c-0.2,0.6-0.1,1.2,0.3,1.6
						l3.3,4c0.3,0.4,0.8,0.6,1.4,0.6c0.3,0,0.5-0.1,0.8-0.2c0.4-0.2,3.7-1.8,8.6-1.8c3.6,0,7.1,0.8,10.6,2.5
						c0.2,0.1,0.5,0.2,0.8,0.2c0.7,0,1.4-0.4,1.7-1.1l0.7-1.7c0.3-0.8,0-1.6-0.6-2.1C149.2,144.1,143.5,140.4,133.7,140.4
						L133.7,140.4z"/>
				</g>
				<g>
					<path class="st187" d="M92.2,148.9l0.2-0.1c3.5-1.7,7.2-2.6,10.9-2.6c5,0,8.4,1.5,9,1.9l0.2,0.1l0.2,0c0.3,0,0.5-0.1,0.7-0.3
						l3.3-4c0.2-0.2,0.3-0.6,0.2-0.9c-0.1-0.3-0.4-0.5-0.7-0.6c-3.2-0.7-6.4-1.1-9.4-1.1c-9.5,0-15.1,3.5-16.1,4.2
						c-0.4,0.3-0.5,0.7-0.3,1.1l0.7,1.7c0.2,0.4,0.5,0.6,0.9,0.6H92.2z"/>
					<path class="st188" d="M110.2,141.3l-3.6-0.8c0,0-0.4,0.1-1,0.2c-0.1,0.7-0.3,1.3-0.6,2c5.7,0.2,11,1.4,10.8,1.5l0.8-1.4
						L110.2,141.3z"/>
					<path class="st21" d="M102.6,144.8c0,0,0,0.1,0,0.1c0.1,0.4,0,0.9-0.1,1.3l2.2-0.2l3.3,1.4l5.1,1.4c0,0,1-0.2,1.4-1.9
						C109.7,144.6,105.6,144.4,102.6,144.8z"/>
					<path class="st6" d="M106.8,142c2.7,0,5.8,0.3,9.2,1.1c0.1,0,0.1,0.1,0.1,0.2l-3.3,4c0,0-0.1,0.1-0.1,0.1c0,0,0,0-0.1,0
						c-0.6-0.3-4.2-1.9-9.3-1.9c-3.2,0-7.1,0.6-11.3,2.6c0,0-0.1,0-0.1,0c-0.1,0-0.1,0-0.2-0.1l-0.7-1.7c0-0.1,0-0.1,0.1-0.2
						C92,145.6,97.4,142,106.8,142 M106.8,140.4c-9.8,0-15.5,3.6-16.5,4.4c-0.7,0.5-0.9,1.3-0.6,2.1l0.7,1.7
						c0.3,0.7,0.9,1.1,1.7,1.1c0.3,0,0.5-0.1,0.8-0.2c3.4-1.6,7-2.5,10.6-2.5c4.9,0,8.3,1.6,8.6,1.8c0.2,0.1,0.5,0.2,0.8,0.2
						c0.5,0,1-0.2,1.4-0.6l3.3-4c0.4-0.5,0.5-1.1,0.3-1.6c-0.2-0.6-0.7-1-1.2-1.1C113.2,140.8,109.9,140.4,106.8,140.4L106.8,140.4z
						"/>
				</g>
			</g>
			<path class="st13" d="M73.2,161c0,0-0.4,22.4,7.6,29.7c8,7.3,13.7,5.2,24.6,10.3c4,1.9,9,4.7,14.9,4.8s16.5-6.6,22.8-8
				s21-6.4,23.9-27.5c0.7,6.3-0.5,14.1-5.6,21.2c-3.6,2.7-8.4,5.6-10.4,6.1c-2.1,0.6-9.7,3.1-11.7,4.1s-12.3,5.8-14.5,6.5
				s-9.7-0.2-16.1-3.2s-13-6.2-17.5-7.1c-4.4-0.9-12.7-5.2-15.1-10.3c-2.4-5.1-3.2-11-3.1-12.9c0.1-1.9-1-12.6-1-12.6L73.2,161z"/>
			<path class="st6" d="M120.3,208.5c-4.3,0-8.5-1.2-12.3-3.3c-4.7-2.7-11.1-5.2-19-7.5c-9.3-2.7-16-11-16.5-20.7l-2-38.6
				c0,0,23.7-16.6,49.1-17.1c26.4-0.6,50.5,17.9,50.5,17.9l-2,37.9c-0.5,9.7-7.1,18-16.5,20.7c-7.9,2.3-14.3,4.8-19,7.5
				C128.8,207.3,124.5,208.5,120.3,208.5z M71.4,139.7l2.7,37.1c0.5,9,6.6,16.7,15.3,19.2c8,2.3,14.5,4.9,19.3,7.6
				c3.6,2,7.5,3.1,11.5,3.1c4,0,8-1.1,11.5-3.1c4.8-2.8,11.3-5.3,19.3-7.6c8.7-2.5,14.8-10.2,15.3-19.2l2.7-37.1
				c0,0-25.9-15.2-49.3-15.2C93.4,124.5,71.4,139.7,71.4,139.7z"/>
			<g>
				<path class="st187" d="M84.4,132.7L72.6,156l-1.2-17C71.4,139,79.6,134.5,84.4,132.7z"/>
				<path class="st6" d="M72,159l-1.5-20.5l0.5-0.2c0.3-0.2,8.3-4.5,13.1-6.3l1.9-0.7L72,159z M72.2,139.4l1,13.6l9.5-18.8
					C78.7,135.9,73.7,138.6,72.2,139.4z"/>
			</g>
			<g>
				<path class="st187" d="M156,132.7l12.1,25.6l1-18.8C169.1,139.4,160.8,134.4,156,132.7z"/>
				<path class="st6" d="M168.7,161.5l-14.3-30.3l1.8,0.7c4.8,1.8,12.9,6.6,13.3,6.8l0.4,0.3L168.7,161.5z M157.6,134.2l9.8,20.8
					l0.8-15.2C166.8,139,161.7,136,157.6,134.2z"/>
			</g>
			<path class="st13" d="M111.5,199.6c3.8,4.1,9.4,4.7,18.7-0.5C119,201,116.4,200.2,111.5,199.6z"/>
			<path class="st5" d="M116,177.3c0,0,3,3.9,12,1.6c-0.6-1.2-1.6-2.3-1.6-2.3s-6.8,0.8-6.9,0.8C119.5,177.2,116,177.3,116,177.3z"
				/>
			<path class="st189" d="M72.9,149.5c0,0,15.8-14.2,46.8-14.2s48,13.8,48,13.8l0.5-9.2c0,0-21.9-14.6-47.5-15.4
				c-26.2-0.8-48.6,14.9-48.6,14.9L72.9,149.5z"/>
			<path class="st13" d="M116.6,176.4c1.2,1.2,4.7,3.8,9.1-0.5c0.4-0.4,0.3-0.9-0.3-0.7c-2.9,1-6.8,0.9-8.7,0.5
				C116.5,175.7,116.4,176.1,116.6,176.4z"/>
			<path class="st6" d="M117.1,177.6c0,0,3.6,2.3,9.3,1c0.6-0.1,1.2,0.1,1.6,0.6l0,0c0,0-5.5,2-10.8-0.2
				C116.3,177.6,117.1,177.6,117.1,177.6z"/>
			<g>
				<g>
					<path class="st190" d="M123.9,185.9l-0.3,1.4h-9.4l-0.1-1.7l-1.1,1.7h-0.4c-0.1,0-2,0-16.2-0.6l-1,0l0.3-0.9
						c3.8-11.4,12.2-12.7,12.6-12.8l0,0l0,0c0,0,4.8-0.1,10.8-0.1c4.1,0,7.8,0.1,11,0.2c7.9,0.3,13.8,12,14.1,12.5l0.5,1L130,187
						l-0.5-0.7l-0.1,0.8l-4.9,0.1L123.9,185.9z"/>
					<path class="st6" d="M119.3,173.5c3.4,0,7.3,0,11,0.2c7.5,0.3,13.4,12.1,13.4,12.1l-13.4,0.5l-1.5-2l-0.2,2.2l-3.7,0.1
						l-1.2-2.9l-0.7,2.9h-8.1l-0.2-3.3l-2.1,3.3c0,0-1.8,0-16.2-0.6c3.8-11.1,12-12.3,12-12.3S113.2,173.5,119.3,173.5 M119.3,172
						c-6.1,0-10.8,0.1-10.9,0.1l-0.1,0l-0.1,0c-0.4,0.1-9.2,1.4-13.2,13.3l-0.6,1.9l2,0.1c18.9,1.6,47.4-0.2,47.4-0.2l2.3-0.1l-1-2
						c-0.3-0.5-6.4-12.6-14.7-12.9C127.1,172.1,123.3,172,119.3,172L119.3,172z"/>
				</g>
				<path class="st187" d="M141.5,184.7c0,0-4.4-6.7-8.9-8.8c-4.8,1.6-9.9,1.9-13.3,2c-7.1,0.1-11.5-2.5-11.5-2.5s-6.5,2.8-8.5,8.8
					l-0.3,0.5l5.9,0.3l2.5-2.9l-0.9,3l6.1,0.3l2.6-3.9l0.5,3.9l6.9,0.1l1.2-2.9l1.5,2.6l2.9,0.1l0.7-2.2l1.5,2.2l5.7-0.3l-1.2-2.9
					l2.8,2.8L141.5,184.7z"/>
			</g>
			<g>
				<g>
					<path class="st13" d="M143.2,160.1c-1.9,2.8-9.2,6.3-12.6,1.2C135.1,162.5,137.6,163,143.2,160.1z"/>
					<g>
						<ellipse class="st6" cx="135.2" cy="155.9" rx="3.7" ry="3.3"/>
						
							<ellipse transform="matrix(0.9799 -0.1996 0.1996 0.9799 -28.34 29.8083)" class="st7" cx="133.7" cy="155.5" rx="0.8" ry="0.8"/>
					</g>
					<path class="st6" d="M128.5,156.6c1-1.5,2.4-2.8,4.2-3.5c0.9-0.3,1.9-0.5,2.9-0.4c0.9,0.1,1.9,0.3,2.8,0.8
						c1.7,0.9,2.8,2.4,4.2,3.1c1.4,0.8,3.2,1,4.8,0.9l0,0c0.1,0,0.2,0.1,0.3,0.2c0,0.1-0.1,0.2-0.2,0.2c-0.9,0.2-1.8,0.3-2.7,0.2
						c-0.9,0-1.8-0.2-2.7-0.6c-1.7-0.8-2.9-2.2-4.3-2.8c-0.7-0.3-1.5-0.5-2.2-0.6c-0.8,0-1.5,0-2.3,0.3c-1.5,0.5-2.9,1.5-4.1,2.6
						l0,0c-0.1,0.1-0.4,0.1-0.5,0C128.5,156.9,128.4,156.7,128.5,156.6z"/>
				</g>
				<g>
					<path class="st13" d="M97.1,160.1c1.9,2.8,9.2,6.3,12.6,1.2C105.2,162.5,102.7,163,97.1,160.1z"/>
					<g>
						<ellipse class="st6" cx="105.1" cy="155.9" rx="3.7" ry="3.3"/>
						
							<ellipse transform="matrix(0.1996 -0.9799 0.9799 0.1996 -70.0202 225.2035)" class="st7" cx="102.8" cy="155.5" rx="0.8" ry="0.8"/>
					</g>
					<path class="st6" d="M111.8,156.6c-1-1.5-2.4-2.8-4.2-3.5c-0.9-0.3-1.9-0.5-2.9-0.4c-0.9,0.1-1.9,0.3-2.8,0.8
						c-1.7,0.9-2.8,2.4-4.2,3.1c-1.4,0.8-3.2,1-4.8,0.9l0,0c-0.1,0-0.2,0.1-0.3,0.2c0,0.1,0.1,0.2,0.2,0.2c0.9,0.2,1.8,0.3,2.7,0.2
						c0.9,0,1.8-0.2,2.7-0.6c1.7-0.8,2.9-2.2,4.3-2.8c0.7-0.3,1.5-0.5,2.2-0.6c0.8,0,1.5,0,2.3,0.3c1.5,0.5,2.9,1.5,4.1,2.6l0,0
						c0.1,0.1,0.4,0.1,0.5,0C111.8,156.9,111.9,156.7,111.8,156.6z"/>
				</g>
			</g>
			<g>
				<g>
					<g>
						<g>
							<g>
								<path class="st5" d="M115.2,167c0,0-3.3,2-2.5,4.5c0.8,2.5,3.5,3.6,8.1,3.7c4.8,0.1,7.4-2.1,7.2-4.3
									c-0.1-2.2-2.5-3.9-2.5-3.9"/>
							</g>
						</g>
						<g class="st114">
							<path class="st115" d="M113,170.5c0,0,1.8,2.3,6.8,2.7c5,0.3,7.7-1.9,7.7-1.9s0.2,4.2-7.8,3.7S113,170.5,113,170.5z"/>
						</g>
					</g>
					<g>
						<path class="st6" d="M115.2,167.1c-0.9,0.8-1.8,1.7-2.1,2.7c-0.2,0.5-0.2,1,0,1.5c0.2,0.5,0.5,1,0.8,1.3
							c0.7,0.7,1.8,1.2,2.9,1.5c1.1,0.3,2.3,0.4,3.5,0.4c1.2,0.1,2.3,0,3.4-0.2c1.1-0.2,2.2-0.7,2.9-1.4c0.8-0.7,1.1-1.8,0.7-2.8
							c-0.3-1.1-1.1-2.1-1.9-2.9l0,0c0,0,0-0.1,0-0.2c0,0,0.1,0,0.1,0c0.5,0.3,1,0.7,1.5,1.2c0.4,0.5,0.8,1,1.1,1.6
							c0.3,0.6,0.4,1.3,0.3,2c-0.1,0.7-0.5,1.4-0.9,1.9c-0.9,1.1-2.2,1.6-3.5,2c-1.3,0.3-2.6,0.4-3.8,0.3c-1.3-0.1-2.5-0.2-3.8-0.5
							c-1.2-0.3-2.5-0.9-3.4-2c-0.4-0.5-0.8-1.2-0.9-1.8c-0.2-0.7-0.1-1.5,0.2-2.1c0.3-0.6,0.7-1.1,1.2-1.5c0.5-0.4,1-0.8,1.6-1.1
							c0.1,0,0.1,0,0.1,0C115.3,167,115.3,167.1,115.2,167.1L115.2,167.1z"/>
					</g>
				</g>
			</g>
		</g>
	</g>
	<g>
		<g>
			<path class="st23" d="M193.2,453.5H47.8c-4,0-7.3-3.3-7.3-7.3v0c0-4,3.3-7.3,7.3-7.3h145.4c4,0,7.3,3.3,7.3,7.3v0
				C200.5,450.3,197.2,453.5,193.2,453.5z"/>
			<g>
				<g>
					<path class="st24" d="M190.7,409.2H50.2c-4.1,0-7.5,3.4-7.5,7.5v27.6c0,4.1,3.4,7.5,7.5,7.5h140.5c4.1,0,7.5-3.4,7.5-7.5v-27.6
						C198.2,412.5,194.9,409.2,190.7,409.2z M196.2,444.2c0,3-2.4,5.5-5.5,5.5H50.2c-3,0-5.5-2.5-5.5-5.5v-27.6c0-3,2.5-5.5,5.5-5.5
						h140.5c3,0,5.5,2.5,5.5,5.5V444.2z"/>
					<path class="st25" d="M196.2,416.6v27.6c0,3-2.4,5.5-5.5,5.5H50.2c-3,0-5.5-2.5-5.5-5.5v-27.6c0-3,2.5-5.5,5.5-5.5h140.5
						C193.8,411.2,196.2,413.6,196.2,416.6z"/>
				</g>
			</g>
		</g>
		<g>
			<g>
				<path class="st24" d="M67.7,424.7h-5v12.6h-1.5v-14h8v14h-1.5V424.7z"/>
				<path class="st24" d="M71.7,427.4h1l0.2,1.1H73c0.5-0.9,1.3-1.3,2.3-1.3c1.1,0,1.8,0.4,2.4,1.2c0.5,0.8,0.8,2.1,0.8,3.9
					c0,0.8-0.1,1.6-0.3,2.3c-0.2,0.7-0.4,1.2-0.7,1.7c-0.3,0.5-0.7,0.8-1.2,1.1c-0.5,0.2-1,0.4-1.5,0.4c-0.4,0-0.7,0-0.9-0.1
					c-0.2,0-0.5-0.1-0.7-0.3v4.1h-1.4V427.4z M73.1,435.8c0.2,0.2,0.4,0.3,0.6,0.4c0.2,0.1,0.5,0.1,0.9,0.1c0.7,0,1.3-0.4,1.7-1.1
					c0.4-0.7,0.6-1.7,0.6-3.1c0-0.6,0-1.1-0.1-1.5s-0.2-0.8-0.4-1.2c-0.2-0.3-0.4-0.6-0.6-0.8c-0.2-0.2-0.5-0.3-0.9-0.3
					c-1,0-1.6,0.6-1.9,1.8V435.8z"/>
				<path class="st24" d="M79.9,432.4c0-1.8,0.3-3.1,0.9-4c0.6-0.8,1.5-1.3,2.7-1.3c1.2,0,2.1,0.4,2.7,1.3s0.9,2.2,0.9,3.9
					c0,1.8-0.3,3.1-0.9,4s-1.5,1.3-2.6,1.3c-1.2,0-2.1-0.4-2.7-1.3S79.9,434.1,79.9,432.4z M81.4,432.4c0,0.6,0,1.1,0.1,1.6
					s0.2,0.9,0.4,1.2s0.4,0.6,0.7,0.8c0.3,0.2,0.6,0.3,1,0.3c0.7,0,1.2-0.3,1.6-0.9c0.3-0.6,0.5-1.6,0.5-3c0-0.6,0-1.1-0.1-1.6
					c-0.1-0.5-0.2-0.9-0.4-1.3c-0.2-0.3-0.4-0.6-0.6-0.8c-0.3-0.2-0.6-0.3-1-0.3c-0.7,0-1.2,0.3-1.6,0.9
					C81.6,430,81.4,431,81.4,432.4z"/>
				<path class="st24" d="M92.6,437.4c-0.2,0.1-0.4,0.1-0.6,0.1c-0.2,0-0.4,0-0.5,0c-1,0-1.7-0.4-2.3-1.3c-0.5-0.8-0.8-2.2-0.8-4
					c0-1.8,0.3-3.1,0.9-3.9c0.6-0.8,1.4-1.3,2.5-1.3c0.3,0,0.6,0,0.8,0.1v-3.9h1.4v3.9c0.2,0,0.4-0.1,0.5-0.1s0.3,0,0.4,0
					c0.5,0,1,0.1,1.4,0.3s0.7,0.5,1,0.8s0.5,0.9,0.6,1.5c0.1,0.6,0.2,1.4,0.2,2.3c0,1.8-0.3,3.2-0.8,4.1c-0.6,0.9-1.4,1.4-2.4,1.4
					c-0.1,0-0.3,0-0.4,0c-0.2,0-0.3-0.1-0.4-0.1v3.9h-1.4V437.4z M91.9,436.4c0.1,0,0.3,0,0.4,0c0.1,0,0.3,0,0.4-0.1v-7.7
					c-0.2-0.1-0.5-0.1-0.7-0.1c-0.6,0-1.1,0.3-1.5,0.9c-0.4,0.6-0.5,1.6-0.5,3c0,1.2,0.2,2.2,0.5,2.9
					C90.7,436,91.2,436.4,91.9,436.4z M94.7,428.4c-0.1,0-0.2,0-0.3,0c-0.1,0-0.2,0-0.4,0.1v7.8c0.1,0,0.2,0,0.3,0.1
					c0.1,0,0.3,0,0.4,0c1.3,0,2-1.4,2-4.2c0-1.2-0.2-2.2-0.5-2.8S95.5,428.4,94.7,428.4z"/>
				<path class="st24" d="M106,436.7c-0.3,0.3-0.7,0.5-1.2,0.7c-0.5,0.2-1,0.2-1.6,0.2c-0.6,0-1.2-0.1-1.6-0.4
					c-0.5-0.2-0.8-0.6-1.1-1.1c-0.3-0.5-0.5-1-0.7-1.6c-0.1-0.6-0.2-1.4-0.2-2.2c0-1.7,0.3-3,0.9-3.9c0.6-0.9,1.5-1.3,2.7-1.3
					c0.4,0,0.7,0,1.1,0.1c0.4,0.1,0.7,0.3,1,0.6c0.3,0.3,0.5,0.7,0.7,1.2c0.2,0.5,0.3,1.2,0.3,2c0,0.2,0,0.5,0,0.7
					c0,0.3,0,0.5-0.1,0.8h-5.1c0,0.6,0,1.1,0.1,1.6c0.1,0.5,0.2,0.9,0.4,1.2c0.2,0.3,0.5,0.6,0.8,0.8s0.7,0.3,1.2,0.3
					c0.4,0,0.7-0.1,1.1-0.2c0.4-0.1,0.6-0.3,0.8-0.5L106,436.7z M104.9,431.3c0-1-0.1-1.7-0.4-2.2s-0.7-0.7-1.3-0.7
					c-0.6,0-1.1,0.2-1.5,0.7c-0.4,0.5-0.6,1.2-0.6,2.2H104.9z"/>
				<path class="st24" d="M113.6,436.9c-0.3,0.3-0.7,0.4-1.1,0.6s-0.9,0.2-1.3,0.2c-0.6,0-1.2-0.1-1.6-0.4c-0.4-0.2-0.8-0.6-1.1-1.1
					c-0.3-0.5-0.5-1-0.6-1.7c-0.1-0.6-0.2-1.4-0.2-2.1c0-1.7,0.3-3,0.9-3.9c0.6-0.9,1.5-1.3,2.6-1.3c0.5,0,1,0,1.3,0.1
					c0.4,0.1,0.7,0.2,1,0.4l-0.4,1.3c-0.5-0.3-1.1-0.5-1.7-0.5c-0.7,0-1.3,0.3-1.6,1c-0.4,0.6-0.5,1.6-0.5,3c0,0.5,0,1.1,0.1,1.5
					c0.1,0.5,0.2,0.9,0.4,1.3c0.2,0.4,0.4,0.6,0.7,0.8c0.3,0.2,0.7,0.3,1.1,0.3c0.3,0,0.7-0.1,1-0.2c0.3-0.1,0.5-0.3,0.7-0.4
					L113.6,436.9z"/>
				<path class="st24" d="M120.4,436.9c-0.3,0.3-0.7,0.4-1.1,0.6s-0.9,0.2-1.3,0.2c-0.6,0-1.2-0.1-1.6-0.4c-0.4-0.2-0.8-0.6-1.1-1.1
					c-0.3-0.5-0.5-1-0.6-1.7c-0.1-0.6-0.2-1.4-0.2-2.1c0-1.7,0.3-3,0.9-3.9c0.6-0.9,1.5-1.3,2.6-1.3c0.5,0,1,0,1.3,0.1
					c0.4,0.1,0.7,0.2,1,0.4l-0.4,1.3c-0.5-0.3-1.1-0.5-1.7-0.5c-0.7,0-1.3,0.3-1.6,1c-0.4,0.6-0.5,1.6-0.5,3c0,0.5,0,1.1,0.1,1.5
					c0.1,0.5,0.2,0.9,0.4,1.3c0.2,0.4,0.4,0.6,0.7,0.8c0.3,0.2,0.7,0.3,1.1,0.3c0.3,0,0.7-0.1,1-0.2c0.3-0.1,0.5-0.3,0.7-0.4
					L120.4,436.9z"/>
				<path class="st24" d="M121.2,432.4c0-1.8,0.3-3.1,0.9-4c0.6-0.8,1.5-1.3,2.7-1.3c1.2,0,2.1,0.4,2.7,1.3s0.9,2.2,0.9,3.9
					c0,1.8-0.3,3.1-0.9,4s-1.5,1.3-2.6,1.3c-1.2,0-2.1-0.4-2.7-1.3S121.2,434.1,121.2,432.4z M122.7,432.4c0,0.6,0,1.1,0.1,1.6
					s0.2,0.9,0.4,1.2s0.4,0.6,0.7,0.8c0.3,0.2,0.6,0.3,1,0.3c0.7,0,1.2-0.3,1.6-0.9c0.3-0.6,0.5-1.6,0.5-3c0-0.6,0-1.1-0.1-1.6
					c-0.1-0.5-0.2-0.9-0.4-1.3c-0.2-0.3-0.4-0.6-0.6-0.8c-0.3-0.2-0.6-0.3-1-0.3c-0.7,0-1.2,0.3-1.6,0.9
					C122.9,430,122.7,431,122.7,432.4z"/>
				<path class="st24" d="M130.3,427.4h1l0.2,1.1h0.1c0.5-0.9,1.3-1.3,2.3-1.3c1.1,0,1.8,0.4,2.4,1.2c0.5,0.8,0.8,2.1,0.8,3.9
					c0,0.8-0.1,1.6-0.3,2.3c-0.2,0.7-0.4,1.2-0.7,1.7c-0.3,0.5-0.7,0.8-1.2,1.1c-0.5,0.2-1,0.4-1.5,0.4c-0.4,0-0.7,0-0.9-0.1
					c-0.2,0-0.5-0.1-0.7-0.3v4.1h-1.4V427.4z M131.7,435.8c0.2,0.2,0.4,0.3,0.6,0.4c0.2,0.1,0.5,0.1,0.9,0.1c0.7,0,1.3-0.4,1.7-1.1
					c0.4-0.7,0.6-1.7,0.6-3.1c0-0.6,0-1.1-0.1-1.5s-0.2-0.8-0.4-1.2c-0.2-0.3-0.4-0.6-0.6-0.8c-0.2-0.2-0.5-0.3-0.9-0.3
					c-1,0-1.6,0.6-1.9,1.8V435.8z"/>
				<path class="st24" d="M138.5,436.5c0-0.3,0.1-0.6,0.3-0.8c0.2-0.2,0.4-0.3,0.8-0.3c0.3,0,0.6,0.1,0.9,0.4
					c0.2,0.3,0.3,0.7,0.3,1.3c0,0.4-0.1,0.8-0.2,1.2c-0.1,0.4-0.3,0.7-0.4,0.9s-0.4,0.5-0.6,0.7c-0.2,0.2-0.4,0.3-0.6,0.4l-0.5-0.7
					c0.2-0.1,0.3-0.2,0.5-0.4c0.2-0.2,0.3-0.3,0.4-0.5c0.1-0.2,0.2-0.4,0.2-0.6c0.1-0.2,0.1-0.4,0.1-0.6c-0.3,0.1-0.5,0-0.7-0.2
					S138.5,436.9,138.5,436.5z"/>
				<path class="st24" d="M151.5,423.4v1.4h-3.8v4.1l0.7-0.1c1.1,0,1.9,0.4,2.5,1.1s0.9,1.8,0.9,3.1c0,0.7-0.1,1.4-0.3,2
					c-0.2,0.6-0.5,1.1-0.9,1.4c-0.4,0.4-0.8,0.7-1.3,0.9c-0.5,0.2-1,0.3-1.5,0.3c-0.9,0-1.7-0.1-2.2-0.4l0.4-1.3
					c0.2,0.1,0.5,0.2,0.8,0.3c0.3,0,0.6,0.1,1,0.1c0.8,0,1.4-0.3,1.8-0.8c0.5-0.6,0.7-1.3,0.7-2.3c0-1-0.3-1.8-0.7-2.3
					c-0.5-0.5-1.1-0.7-2-0.7l-1.3,0.1v-6.8H151.5z"/>
				<path class="st24" d="M154.2,430.4c0-1.3,0.1-2.4,0.2-3.3s0.4-1.7,0.7-2.3c0.3-0.6,0.7-1,1.2-1.3c0.5-0.3,1-0.4,1.6-0.4
					c0.6,0,1.2,0.1,1.7,0.4s0.9,0.7,1.2,1.3s0.5,1.3,0.7,2.3c0.1,0.9,0.2,2,0.2,3.3c0,1.3-0.1,2.4-0.2,3.3s-0.4,1.7-0.7,2.2
					c-0.3,0.6-0.7,1-1.2,1.3c-0.5,0.3-1,0.4-1.6,0.4c-0.7,0-1.2-0.1-1.7-0.4c-0.5-0.3-0.9-0.7-1.2-1.3c-0.3-0.6-0.5-1.3-0.7-2.3
					C154.2,432.7,154.2,431.6,154.2,430.4z M155.7,430.4c0,1.9,0.2,3.4,0.5,4.4s0.9,1.5,1.7,1.5c0.8,0,1.3-0.5,1.7-1.4
					c0.4-0.9,0.5-2.4,0.5-4.5c0-1.9-0.2-3.4-0.5-4.4c-0.3-1-0.9-1.5-1.7-1.5c-0.8,0-1.3,0.5-1.7,1.4
					C155.8,426.8,155.7,428.3,155.7,430.4z"/>
				<path class="st24" d="M170.5,432.9l-2.2,4.4h-1.6l2.5-4.6l0.5-0.6l-0.8-0.8l-2-4.1h1.5l2.1,4.3h0.8v-4.3h1.4v4.5l0.7-0.3
					l2.1-4.2h1.5l-2.1,4.1l-0.6,0.6l0.8,0.8l2.3,4.5h-1.7l-2.2-4.5h-0.8v4.5h-1.4v-4.7L170.5,432.9z"/>
				<path class="st24" d="M178.2,436.5c0-0.4,0.1-0.7,0.3-0.8c0.2-0.2,0.4-0.3,0.7-0.3c0.3,0,0.5,0.1,0.7,0.3
					c0.2,0.2,0.3,0.5,0.3,0.8c0,0.4-0.1,0.7-0.3,0.9c-0.2,0.2-0.4,0.3-0.7,0.3c-0.3,0-0.5-0.1-0.7-0.3
					C178.2,437.1,178.2,436.8,178.2,436.5z"/>
			</g>
		</g>
	</g>
</g>
</svg>
