<?xml version="1.0" encoding="utf-8"?>
<!-- Generator: Adobe Illustrator 21.0.0, SVG Export Plug-In . SVG Version: 6.00 Build 0)  -->
<svg version="1.1" id="Layer_1" xmlns="http://www.w3.org/2000/svg" xmlns:xlink="http://www.w3.org/1999/xlink" x="0px" y="0px"
	 viewBox="0 0 240.9 453.5" style="enable-background:new 0 0 240.9 453.5;" xml:space="preserve">
<style type="text/css">
	.st0{fill:#92A3D3;}
	.st1{fill:#7F95C6;}
	.st2{fill:#B0C2E4;}
	.st3{fill:#501338;}
	.st4{fill:#7790BC;}
	.st5{fill:#816474;}
	.st6{fill:#68485A;}
	.st7{fill:#D0A7C2;}
	.st8{fill:#FDDCC0;}
	.st9{fill:#F0B39C;}
	.st10{fill:#B7BE79;}
	.st11{fill:#725F82;}
	.st12{fill:#635175;}
	.st13{fill:#FFFFFF;}
	.st14{opacity:0.5;fill:#B89AA6;enable-background:new    ;}
	.st15{fill:#8780BC;}
	.st16{fill:#FFDD81;}
	.st17{fill:#E9C15D;}
	.st18{fill:none;stroke:#501338;stroke-width:1.5843;stroke-miterlimit:10;}
	.st19{opacity:0.2;fill:#F48E8E;enable-background:new    ;}
	.st20{fill:#CB8A43;}
	.st21{fill:#754D24;}
	.st22{fill:#FBBA6C;}
</style>
<g>
	<g>
		<path class="st0" d="M179,370.1c-0.1,0.3-0.1,0.6-0.2,1c0,0.1,0,0.1-0.1,0.2c-0.1,0.3-0.2,0.6-0.3,1c-0.3,0.8-0.6,1.6-0.9,2.3
			c-0.1,0.2-0.2,0.4-0.3,0.5c-0.1,0.2-0.2,0.3-0.3,0.5s-0.2,0.3-0.3,0.5s-0.2,0.3-0.3,0.5c-0.2,0.3-0.4,0.6-0.7,1
			c-0.2,0.3-0.5,0.6-0.8,0.9c-0.5,0.6-1.1,1.1-1.7,1.6c-0.8,0.6-1.6,1.2-2.5,1.7l0,0c-0.3,0.2-0.7,0.4-1.1,0.6c-1,0.5-2,0.9-3.1,1.3
			c-0.2,0.1-0.4,0.2-0.7,0.2c-0.7,0.3-1.5,0.5-2.3,0.7c-0.3,0.1-0.6,0.2-0.8,0.2c-0.1,0-0.3,0.1-0.4,0.1c-0.3,0.1-0.6,0.2-1,0.2
			c-0.4,0.1-0.9,0.2-1.4,0.3c-0.4,0.1-0.9,0.2-1.3,0.2c-0.7,0.1-1.3,0.2-2,0.3c-0.8,0.1-1.6,0.2-2.5,0.3c0,0-0.1,0-0.2,0
			c-0.9,0.1-1.8,0.2-2.8,0.3c-1.9,0.2-3.9,0.3-6,0.4c-0.3,0-0.7,0-1.1,0c-0.7,0-1.4,0.1-2.1,0.1c-1.8,0.1-3.7,0.1-5.6,0.1
			c-4.6,0.1-7.4-0.5-14.1-2.5c-1.9-0.5-3.9-0.5-5.8,0c-6.7,2-9.5,2.6-14.1,2.5c-1.9,0-3.8-0.1-5.6-0.1c-0.7,0-1.4,0-2.1-0.1
			c-0.4,0-0.7,0-1.1,0c-2.1-0.1-4.1-0.2-6-0.4c-1-0.1-1.9-0.2-2.8-0.3c-0.1,0-0.1,0-0.2,0c-0.9-0.1-1.7-0.2-2.5-0.3
			c-0.7-0.1-1.4-0.2-2-0.3c-0.4-0.1-0.9-0.2-1.3-0.2c-0.5-0.1-0.9-0.2-1.4-0.3c-0.3-0.1-0.6-0.2-1-0.2c-0.1,0-0.3-0.1-0.4-0.1
			c-0.3-0.1-0.6-0.1-0.8-0.2c-0.8-0.2-1.6-0.5-2.3-0.7c-0.2-0.1-0.4-0.2-0.7-0.2c-1.1-0.4-2.1-0.8-3.1-1.3c-0.4-0.2-0.7-0.4-1.1-0.6
			l0,0c-0.9-0.5-1.7-1.1-2.5-1.7c-0.6-0.5-1.2-1-1.7-1.6c-0.3-0.3-0.5-0.6-0.8-0.9s-0.5-0.6-0.7-1c-0.1-0.2-0.2-0.3-0.3-0.5
			s-0.2-0.3-0.3-0.5s-0.2-0.3-0.3-0.5s-0.2-0.4-0.3-0.5c-0.4-0.7-0.7-1.5-0.9-2.3c-0.1-0.3-0.2-0.6-0.3-1c0-0.1,0-0.1-0.1-0.2
			c-0.1-0.3-0.2-0.6-0.2-1c-0.3-1.6-1.1-4.6-1.3-6.5c-0.3-3.7-3.2-9.1,6.7-28.4c1.3-2.5,8.4-11.8,9.4-13.7c0.2-0.4,0.5-0.9,0.8-1.2
			c2.3-3.1,6.2-4.8,10.1-4.1l32.1,5.4c1.2,0.2,2.3,0.2,3.5,0l32.1-5.4c4.1-0.7,8.1,1.1,10.4,4.4c0.2,0.3,0.4,0.6,0.6,0.9
			c5.3,9.8,9.1,10.4,14.7,25.8c0.1,0.3,1.7,5.3,1.7,11C180.5,360.1,179.4,368.4,179,370.1z"/>
		<path class="st1" d="M164.2,321.5c-0.2-0.3-0.4-0.6-0.6-0.9l-2.5,1.3l-0.4,6c0,0,0.1,0,0.2,0.1c1.5,1,8,13.2,5.4,37.4
			c-0.1,0.3-0.2,0.7-0.3,1.1c-3.1,15-19.4,18.5-38.8,12.1c-1-0.5-1.9-1-2.8-1.7s-1.7-1.5-2.4-2.3c-0.5-0.5-0.9-1.1-1.4-1.6
			c0.7-0.9,1.3-1.9,1.8-3c0.7-1.4,1.3-2.9,1.7-4.5c0-0.1,0-0.2-0.1-0.3c-0.1-0.1-0.3-0.1-0.3,0c-0.8,1.3-1.6,2.7-2.4,4
			s-1.7,2.5-2.7,3.7s-2.1,2.2-3.3,3.2c-1,0.8-2.2,1.6-3.4,2.3c-19.6,6.7-36.1,3.2-39.2-11.9c-0.1-0.4-0.2-0.8-0.3-1.1l0,0
			c-2.5-24.3,4-36.4,5.5-37.4c0.1-0.1,0.2-0.1,0.2-0.1l-0.4-6l-2.5-1.3c-0.2,0.3-0.4,0.6-0.6,0.9c-5.3,9.8-21.9,23.2-14.6,49.6l0,0
			c0,0.1,0,0.1,0.1,0.2c0.1,0.3,0.2,0.6,0.3,1c0.3,0.8,0.6,1.6,0.9,2.3c0.1,0.2,0.2,0.4,0.3,0.5l0.3,0.5c0.1,0.1,0.1,0.2,0.2,0.4
			c0.1,0.2,0.3,0.4,0.4,0.6c0.2,0.3,0.5,0.6,0.7,1c0.2,0.3,0.5,0.6,0.8,0.9c0.5,0.6,1.1,1.1,1.7,1.6c0.8,0.6,1.6,1.2,2.5,1.7l0,0
			c0.3,0.2,0.7,0.4,1.1,0.6c1,0.5,2,0.9,3.1,1.3c0.2,0.1,0.4,0.2,0.7,0.2c0.7,0.3,1.5,0.5,2.3,0.7c0.3,0.1,0.6,0.2,0.8,0.2
			c0.1,0,0.3,0.1,0.4,0.1c0.3,0.1,0.6,0.2,1,0.2c0.4,0.1,0.9,0.2,1.4,0.3c0.4,0.1,0.9,0.2,1.3,0.2c0.7,0.1,1.3,0.2,2,0.3
			c0.8,0.1,1.6,0.2,2.5,0.3c0,0,0.1,0,0.2,0c0.9,0.1,1.8,0.2,2.8,0.3c1.9,0.2,3.9,0.3,6,0.4c0.3,0,0.7,0,1.1,0
			c0.7,0,1.4,0.1,2.1,0.1c1.8,0.1,3.7,0.1,5.6,0.1c4.6,0.1,7.4-0.5,14.1-2.5c0.9-0.3,1.9-0.4,2.9-0.4s2,0.1,2.9,0.4
			c6.7,2,9.5,2.6,14.1,2.5c1.9,0,3.8-0.1,5.6-0.1c0.7,0,1.4,0,2.1-0.1c0.4,0,0.7,0,1.1,0c2.1-0.1,4.1-0.2,6-0.4
			c1-0.1,1.9-0.2,2.8-0.3c0.1,0,0.1,0,0.2,0c0.9-0.1,1.7-0.2,2.5-0.3c0.7-0.1,1.4-0.2,2-0.3c0.4-0.1,0.9-0.2,1.3-0.2
			c0.5-0.1,0.9-0.2,1.4-0.3c0.3-0.1,0.6-0.2,1-0.2c0.1,0,0.3-0.1,0.4-0.1c0.3-0.1,0.6-0.1,0.8-0.2c0.8-0.2,1.6-0.5,2.3-0.7
			c0.2-0.1,0.4-0.2,0.7-0.2c1.1-0.4,2.1-0.8,3.1-1.3c0.4-0.2,0.7-0.4,1.1-0.6l0,0c0.9-0.5,1.7-1.1,2.5-1.7c0.6-0.5,1.2-1,1.7-1.6
			c0.3-0.3,0.5-0.6,0.8-0.9c0.2-0.3,0.5-0.6,0.7-1c0.1-0.2,0.3-0.4,0.4-0.6c0.1-0.1,0.1-0.2,0.2-0.4l0.3-0.5
			c0.1-0.2,0.2-0.4,0.3-0.5c0.3-0.7,0.6-1.5,0.9-2.3c0.1-0.3,0.2-0.6,0.3-1c0-0.1,0-0.1,0.1-0.2C186,344.6,169.5,331.3,164.2,321.5z
			 M120,373.8C120,373.9,120,373.9,120,373.8C120,373.9,120,373.9,120,373.8C120,373.9,120,373.8,120,373.8z"/>
		<path class="st2" d="M69.6,329.6l0.2,0.4c0,0-12.7,21.5-9.1,40.9c-2.4-7.8-3.9-13.8-1.4-21.9s8.5-17.3,8.5-17.3l1.4-1.9
			L69.6,329.6z"/>
		<path class="st3" d="M135.6,388.1c-4.2,0-7-0.6-13.6-2.5c-1.8-0.5-3.6-0.5-5.4,0c-7,2-9.7,2.6-14.4,2.5c-1.9,0-3.8-0.1-5.6-0.1
			c-0.7,0-1.5,0-2.2-0.1h-1c-2.3-0.1-4.2-0.2-6-0.4c-1-0.1-1.9-0.2-2.8-0.3c-0.1,0-0.2,0-0.2,0c-0.8-0.1-1.7-0.2-2.5-0.3
			c-0.7-0.1-1.4-0.2-2-0.3c-0.5-0.1-0.9-0.2-1.3-0.3c-0.5-0.1-0.9-0.2-1.4-0.3c-0.3-0.1-0.7-0.2-1-0.2l-0.4-0.1
			c-0.3-0.1-0.6-0.1-0.9-0.2c-0.8-0.2-1.6-0.5-2.4-0.7l-0.7-0.2c-1.2-0.4-2.2-0.9-3.2-1.4c-0.3-0.2-0.7-0.4-1-0.5l0,0l-0.2-0.1
			c-0.9-0.6-1.8-1.2-2.6-1.8c-0.6-0.5-1.2-1.1-1.8-1.7c-0.3-0.3-0.5-0.6-0.8-0.9c-0.2-0.3-0.5-0.6-0.7-1c-0.1-0.2-0.2-0.3-0.3-0.5
			s-0.2-0.3-0.3-0.5l-0.3-0.5c-0.1-0.2-0.2-0.4-0.3-0.6c-0.4-0.7-0.7-1.5-0.9-2.4c-0.1-0.3-0.2-0.5-0.2-0.8l0,0l-0.1-0.4
			c-5.8-21.3,3.5-34.2,10.3-43.6c1.8-2.5,3.3-4.6,4.4-6.6c0.1-0.1,0.1-0.2,0.2-0.3l0.1-0.1c0.1-0.1,0.2-0.3,0.2-0.4
			c0.1-0.1,0.1-0.1,0.1-0.2l0.4-0.6l0,0c2.5-3.3,6.6-4.9,10.7-4.2l32.1,5.4c1.1,0.2,2.2,0.2,3.2,0l32.1-5.4
			c4.3-0.7,8.7,1.1,11.2,4.8c0.2,0.3,0.4,0.6,0.6,1l0,0c1.1,2,2.6,4.1,4.4,6.6c6.8,9.4,16.1,22.3,10.3,43.6c0,0.1,0,0.1-0.1,0.2
			c-0.1,0.3-0.2,0.7-0.3,1c-0.3,0.9-0.6,1.7-1,2.4c-0.1,0.2-0.2,0.4-0.3,0.6l-0.3,0.5c-0.1,0.2-0.2,0.4-0.3,0.6s-0.2,0.4-0.3,0.5
			c-0.3,0.4-0.5,0.7-0.7,1s-0.5,0.6-0.8,0.9c-0.6,0.6-1.2,1.2-1.8,1.7c-0.8,0.6-1.6,1.2-2.6,1.8l-0.2,0.1c-0.3,0.2-0.6,0.4-1,0.5
			c-1,0.5-2,1-3.2,1.4l-0.7,0.2c-0.8,0.3-1.6,0.5-2.4,0.7c-0.3,0.1-0.6,0.2-0.9,0.2l-0.4,0.1c-0.3,0.1-0.7,0.2-1,0.2
			c-0.5,0.1-0.9,0.2-1.4,0.3c-0.4,0.1-0.9,0.2-1.3,0.2c-0.7,0.1-1.4,0.2-2.1,0.3c-0.8,0.1-1.7,0.2-2.5,0.3c0,0-0.1,0-0.2,0
			c-0.9,0.1-1.8,0.2-2.8,0.3c-1.8,0.2-3.8,0.3-6,0.4h-1.1c-0.7,0-1.4,0.1-2.2,0.1c-1.8,0.1-3.7,0.1-5.6,0.1
			C136.2,388.1,135.9,388.1,135.6,388.1z M119.4,383.6c1.1,0,2.1,0.1,3.1,0.4c6.8,2,9.4,2.5,13.9,2.5c1.9,0,3.8-0.1,5.6-0.1
			c0.7,0,1.4,0,2.1-0.1h1.1c2.2-0.1,4.2-0.2,6-0.4c0.9-0.1,1.9-0.2,2.8-0.3h0.1c0.9-0.1,1.7-0.2,2.5-0.3c0.7-0.1,1.4-0.2,2-0.3
			c0.4-0.1,0.9-0.2,1.3-0.2c0.5-0.1,0.9-0.2,1.3-0.3c0.3-0.1,0.6-0.1,1-0.2l0.4-0.1c0.3-0.1,0.5-0.1,0.8-0.2
			c0.8-0.2,1.5-0.5,2.3-0.7l0.7-0.2c1.1-0.4,2.1-0.8,3-1.3c0.3-0.2,0.7-0.3,1-0.5l0.3-0.2c0.8-0.5,1.5-1,2.2-1.5
			c0.6-0.5,1.1-1,1.6-1.5c0.2-0.3,0.5-0.6,0.7-0.9s0.4-0.5,0.6-0.9c0.1-0.2,0.2-0.3,0.3-0.5s0.2-0.3,0.3-0.5l0.3-0.5
			c0.1-0.2,0.2-0.3,0.2-0.5c0.3-0.7,0.6-1.4,0.9-2.2c0.1-0.3,0.2-0.6,0.3-0.9v-0.1V371c5.6-20.6-3.4-33.1-10-42.2
			c-1.7-2.4-3.4-4.7-4.5-6.8c-0.2-0.3-0.3-0.6-0.5-0.8c-2.1-3.1-5.9-4.7-9.6-4.1l-32.1,5.4c-1.2,0.2-2.5,0.2-3.7,0l-32.1-5.4
			c-3.6-0.6-7.2,0.8-9.4,3.8c-0.1,0.1-0.1,0.1-0.1,0.2l-0.2,0.3c-0.1,0.1-0.1,0.2-0.2,0.3l-0.1,0.2c0,0.1-0.1,0.1-0.1,0.2
			c-1.1,2.1-2.8,4.3-4.5,6.8c-6.6,9.1-15.6,21.5-10.1,41.9l0.1,0.4v0.1v0.1c0.1,0.3,0.2,0.6,0.3,0.9c0.3,0.8,0.5,1.5,0.9,2.2
			c0.1,0.2,0.2,0.4,0.3,0.5l0.3,0.5c0.1,0.1,0.2,0.3,0.3,0.5s0.2,0.3,0.3,0.5c0.3,0.4,0.5,0.7,0.7,0.9c0.2,0.3,0.5,0.6,0.7,0.9
			c0.5,0.5,1,1.1,1.6,1.5c0.7,0.5,1.4,1.1,2.2,1.5l0.3,0.2c0.3,0.2,0.6,0.4,1,0.5c0.9,0.5,1.9,0.9,3,1.3l0.7,0.2
			c0.7,0.2,1.5,0.5,2.3,0.7c0.3,0.1,0.6,0.1,0.8,0.2l0.4,0.1c0.3,0.1,0.6,0.2,1,0.2c0.4,0.1,0.9,0.2,1.3,0.3
			c0.4,0.1,0.9,0.2,1.3,0.2c0.6,0.1,1.3,0.2,2,0.3c0.8,0.1,1.6,0.2,2.5,0.3h0.1c0.9,0.1,1.8,0.2,2.8,0.3c1.8,0.2,3.7,0.3,6,0.4h1
			c0.7,0,1.4,0.1,2.1,0.1c1.8,0.1,3.7,0.1,5.6,0.1c4.4,0.1,7.1-0.5,13.9-2.5C117.3,383.8,118.3,383.6,119.4,383.6z"/>
		<path class="st4" d="M169.8,319.2c-0.3-0.5-0.6-1-0.9-1.4h-4l-19.9,4.7c0,0-18.7,2.5-25.6,7c-6.9-4.4-25.6-7-25.6-7l-19.9-4.7h-4
			c-0.3,0.4-0.6,0.9-0.9,1.4c-1,1.9,15,16,37,20.7c4.3,3.2,8.2,5.2,10.4,6.2c-1,0.2-2,0.4-3.1,0.6c-2.3,0.3-4.7,0.5-7.1,0.4
			c-0.1,0-0.1,0.1-0.1,0.1c0,0.1,0.1,0.2,0.1,0.3c2.5,0.9,5,1.2,7.5,1.2c2.5-0.1,4.9-0.5,7.2-1.3c2.3-0.8,4.4-1.8,6.4-3.1
			c2-1.3,3.8-2.7,5.5-4.4C154.8,335.2,170.8,321.1,169.8,319.2z"/>
		<g>
			<path class="st4" d="M155.4,366.3c0-0.1,0-0.2-0.1-0.2c-1.9,1.1-4.9,2.7-10.5,3.4c-5.1,0.7-10.1-0.3-12.9-1.7
				c-0.1,0.2-0.1,0.4-0.1,0.5c0.1,2.8,5.6,8.7,12.8,7.7C155,374.6,155.6,367.5,155.4,366.3z"/>
			<path class="st4" d="M93.9,369.5c-5.6-0.7-8.6-2.3-10.5-3.4c0,0.1-0.1,0.2-0.1,0.2c-0.2,1.1,0.4,8.2,10.8,9.6
				c7.2,1,12.7-5,12.8-7.7c0-0.1,0-0.3-0.1-0.5C104,369.1,99.1,370.2,93.9,369.5z"/>
		</g>
		<path class="st3" d="M178,372.2c0.3,0.2-3,2.8-7.4,4.8c-0.1,0.1,0,0.3,0.1,0.3c5.1-1.2,7.9-2.9,7.7-3.1L178,372.2z"/>
		<path class="st3" d="M62.3,375.3c-0.3,0.3,3.8,2.6,9.1,4.1c0.1,0,0.1,0.3-0.1,0.3c-5.9-0.5-9.3-1.9-9.1-2.1L62.3,375.3z"/>
		<g>
			<path class="st5" d="M169.1,102.4c-2.1-5.2-10.9-30-44.8-33.1c-26.8-2.5-49.4,9.6-56.8,34.1c-23.3,46.5-35.6,90.4,1.3,112.4
				c31.4-16.9,68-18,100.8-0.3C206.7,187.7,187.6,136,169.1,102.4z"/>
			<path class="st6" d="M185.7,151.2c0,0,4.9,15.5,1.9,30c-3,14.4-9,21.9-9,21.9S190.2,181.7,185.7,151.2z"/>
			<path class="st6" d="M178.5,139.8c0,0,4.9,15.5,1.9,30c-3,14.4-9,21.9-9,21.9S182.9,170.4,178.5,139.8z"/>
			<path class="st6" d="M60.3,145.5c0,0-4.9,15.5-1.9,30c3,14.4,9,21.9,9,21.9S55.9,176.1,60.3,145.5z"/>
			<path class="st6" d="M56.7,201.6c0,0-6.9-8.3-8.4-23.4c-1.2-12.1,1.8-19.4,1.8-19.4S48.1,179.7,56.7,201.6z"/>
			<path class="st6" d="M91.5,100c0,0,8.3,10.1,37.5,9.7c29.2-0.5,35.6,6,39.4,15.5c-4-16.8-19.9-19.3-36.7-18.2
				C114.8,108.2,98.6,103.8,91.5,100z"/>
			<path class="st6" d="M121.5,102.2c0,0,7.5,1.2,19.8,0.4c13.8-0.9,19.4,2.5,22.4,6.2c-3.7-6.2-8.2-8.6-18.2-8.3
				S130.3,102,121.5,102.2z"/>
			<path class="st6" d="M54.9,182.1c0,0,1.8,13.6,9.4,22.7c4.3,5.1,7.1,7.5,7.1,7.5l3.3-1.8c0,0-4.9-2.9-10.9-11
				C57.8,191.5,54.9,182.1,54.9,182.1z"/>
			<path class="st6" d="M182.6,181.3c0,0-1,14.3-7.9,23.2c-3.8,5-7.4,7.3-7.4,7.3l-2.3-1.1c0,0,5-3,10.4-11.5
				C180.6,190.8,182.6,181.3,182.6,181.3z"/>
			<path class="st6" d="M83.7,84.8c-0.3,0.3,15.9-9.5,36.2-9.8C105.8,73,91.8,76.7,83.7,84.8z"/>
			<path class="st6" d="M163.7,96.9c0.2,0.4-12.5-13.7-31.8-20C146,79.2,158.3,86.8,163.7,96.9z"/>
			<path class="st7" d="M98.1,72c0,0,14.1-4.9,28.6-2.6c15,2.4,23,8.5,23,8.5S126.9,68.5,98.1,72z"/>
			<path class="st6" d="M158.4,167.3c0,0-4.9,14.2-6.9,23.3c-3.1,14.2,6.9,19.3,6.9,19.3s-13.6-5-20-5.4c0-4.8,0.1-12.1,0.1-12.1
				S151.4,185.7,158.4,167.3z"/>
			<path class="st6" d="M80.3,167.3c0,0,4.9,14.2,6.9,23.3c3.1,14.2-6.9,19.3-6.9,19.3s13.6-5,20-5.4c0-4.8-0.1-12.1-0.1-12.1
				S87.3,185.7,80.3,167.3z"/>
			<path class="st6" d="M85.7,106.5c0,0,1.3,7.7-2.9,18.1c-2.6,6.5-9.8,12.8-9.8,12.8s4.9-8,7.5-15.5
				C83.2,114.3,85.7,106.5,85.7,106.5z"/>
			<path class="st6" d="M85.7,106.5c0,0,9.2,8.6,19,9.7s28,0.3,34,0.7C116.2,114,94.3,113.3,85.7,106.5z"/>
			<path class="st3" d="M68.7,216.7l-0.4-0.2c-17.4-10.4-25.2-26-23.6-47.8c1.2-17.2,8.2-38.1,22-65.6c7.3-24,29.3-37.2,57.6-34.6
				c22.1,2.1,37.4,13.2,45.3,33.1l0.2,0.5c12,21.8,19.1,41.6,21.2,59c2.9,24-4.2,42.5-21,55l-0.4,0.3l-0.4-0.2
				c-31.6-17-68.1-16.9-100,0.3L68.7,216.7z M117.3,69.7c-24.2,0-42.7,12.6-49.2,33.8v0.1c-13.7,27.4-20.6,48.1-21.8,65.1
				c-1.5,20.9,5.9,36,22.5,46.1c32.2-17.2,68.9-17.3,100.7-0.4c35.2-26.7,18.9-75.5-1.1-111.7v-0.1l-0.2-0.5
				c-7.7-19.3-22.5-30.1-44-32.1C121.8,69.8,119.6,69.7,117.3,69.7z"/>
		</g>
		<g>
			<rect x="100.1" y="180" class="st8" width="38.5" height="47.9"/>
			<path class="st9" d="M138.6,187.3v15.6c-19.3,4.6-36.1-0.8-38.5-6.7v-8.9L138.6,187.3L138.6,187.3z"/>
			<path class="st3" d="M139.4,226.8H99.3v-47.6h40.1V226.8z M100.9,225.3h36.9v-44.5h-36.9V225.3z"/>
		</g>
		<polygon class="st10" points="119.4,292.4 85,292.4 85.5,310.9 119.4,320.1 153.2,310.9 153.8,292.4 		"/>
		<path class="st0" d="M173.2,219.3c-1.5-1.3-3.1-2.5-4.8-3.6c-8.3-5.6-18.1-9.5-29.2-10.8c0,0-3.4,11.3-15.1,13.8
			c-1.4,0.3-3,0.5-4.7,0.5c-15.5,0-19.8-14.3-19.8-14.3c-13.4,1.6-24.8,6.8-34,14.4c-35.7,29.5-36,94,25.9,111.4
			c1.5,0.4,3.1,0.8,4.7,1.2c0.3-9.6,2-18.3,6.5-25c0,0-1.5-0.7-2.1-1c-48-19.3-38.5-56.1-17.7-66.6L85,294h34.4h34.4l2.3-54.7
			c20.8,10.5,30.3,47.3-17.7,66.6c-0.6,0.3-2.1,1-2.1,1c4.5,6.7,6.2,15.4,6.5,25c1.6-0.4,3.1-0.8,4.7-1.2
			C209.2,313.2,208.9,248.7,173.2,219.3z"/>
		<g>
			<path class="st11" d="M71.9,214.5c-1.7,18.5,10.8,24.8,10.8,24.8l2.5,58c0,0,4.8,4.9,15.5,8.7c9.7,3.5,19.5,3.5,19.5,3.5
				l-0.5-59.9c0,0-10.9-2.4-14.8-11.5c-3.3-7.7-6.1-33-6.1-33S86.4,205.8,71.9,214.5z"/>
			<path class="st3" d="M120.1,310.3c-1.1,0-10.3-0.1-19.7-3.5c-10.7-3.8-15.6-8.7-15.8-8.9l-0.2-0.2l-2.5-57.9
				c-2.2-1.3-12.3-8.5-10.8-25.4V214l0.3-0.2c14.5-8.6,26.6-9.5,27.2-9.6h0.8l0.1,0.8c0,0.3,2.8,25.3,6,32.8
				c3.8,8.7,14.2,11.1,14.3,11.1l0.6,0.1l0.5,61.3L120.1,310.3C120.2,310.3,120.2,310.3,120.1,310.3z M86,297c1,1,5.9,5.1,15,8.3
				c7.9,2.9,15.9,3.3,18.4,3.4l-0.5-58.4c-2.4-0.7-11.2-3.6-14.8-11.9c-3-7-5.6-28.1-6.1-32.5c-2.8,0.3-13.4,2-25.3,9.1
				c-1.4,17.4,9.9,23.4,10.4,23.7l0.4,0.2v0.5L86,297z"/>
		</g>
		<g>
			<path class="st11" d="M166.7,213.9c0.6,13.9-10.6,25.4-10.6,25.4l-2.5,58c0,0-4.8,4.9-15.5,8.7c-9.7,3.5-24.5,3.7-24.5,3.7
				l0.4-54.8c-0.2-1.8,0.9-3.5,2.6-4.1c4.8-1.8,14.4-6,17.3-12.8c3.3-7.7,6.1-33,6.1-33S150.6,205.6,166.7,213.9z"/>
			<path class="st3" d="M112.8,310.5l0.4-55.6c-0.2-2.1,1.1-4.1,3.1-4.8c4.1-1.5,14-5.7,16.9-12.3c3.2-7.5,6-32.5,6-32.8l0.1-0.7
				h0.7c0.4,0,11,0.6,27,9l0.4,0.2v0.5c0.6,13.2-9,24-10.6,25.7l-2.5,58l-0.2,0.2c-0.2,0.2-5.1,5.1-15.8,8.9
				c-9.8,3.5-24.1,3.7-24.7,3.7H112.8z M140.7,205.9c-0.5,4.4-3,25.4-6.1,32.5c-3,6.9-12.4,11.3-17.8,13.2c-1.3,0.5-2.2,1.8-2.1,3.3
				l-0.4,54c3.2-0.1,15.2-0.6,23.4-3.6c9.1-3.2,13.9-7.3,15-8.3l2.5-58l0.2-0.2c0.1-0.1,10.7-11.1,10.4-24.3
				C152.8,207.7,143.3,206.2,140.7,205.9z"/>
		</g>
		<path class="st12" d="M134.2,268.4c6.7,5.2,12.8,4.8,16.6,2.4l-0.9,6.5l-10.9,4.2l10.7-0.6l-2.5,17.9c-3.1,1.1-8.1,2.4-15.5,3.1
			c-3.6,0.3-7.7,0.6-12.4,0.6c-15.1,0-23.7-2-28.1-3.6L89,279.8l4.7-0.6l-4.9-2L83.5,238l1.8,59.3l9.1,5.9l8.3,3.6l4.1-0.9l5.5-2.6
			l2.2,1.8l2.3,3.7l18.7-1.8l3.1-2l9.6-3.9l4.6-3.5l1.3-30.7c0.5-1.2,0.7-2.6,0.4-3.8c-0.1,0.2-0.2,0.4-0.3,0.6v-0.4
			c-0.3,0.9-0.7,1.7-1.2,2.5C146.4,276.2,134.2,268.4,134.2,268.4z"/>
		<g>
			<path class="st4" d="M100.4,305.9c-48-19.3-38.5-56.1-17.7-66.6l0,0l0.8-1.3c-8.8,1.8-25.8,20-20.2,40.2c-1.5,0.8-3.9,2-7.7,3.5
				v0.1c3.9-0.7,6.5-1.3,8.2-1.9c3.4,10.1,12.6,20.6,31.4,29.8c-3.6,12.4-3.8,20.9-3.8,20.9c2.6,0.8,1.8,0.6,4.6,1.3l6.5-25
				C101.9,306.8,101.1,306.2,100.4,305.9z"/>
			<path class="st2" d="M62.1,310.1c1-1.3,2.9-3.4,6.6-6.9c0,0,0,0,0-0.1c-4.4,2.6-6.7,4.4-8,5.6C42,291,41.8,267.9,48.5,248.4
				c1.8,0.4,4.6,1.2,7.3,2.8c0.2,0.1,0.5-0.1,0.3-0.4c-1.5-2.1-4.9-3.5-7-4.2c4.1-11,10.3-20.7,16.4-27.5
				c-35.7,29.5-36,94,25.9,111.4v-0.1l0.3-4C79,322.2,69.3,316.5,62.1,310.1z"/>
			<path class="st3" d="M119.4,218.4c-14.7,0-18.9-13.2-19.1-13.8l-0.2-0.6l-0.7,0.1C62.9,208.4,42.1,239,40.6,267
				c-1.4,25.2,12.4,55.6,55.3,65.6l0.9,0.2v-1c0.3-10.9,2.4-18.7,6.3-24.6l0.5-0.8l-0.8-0.4c-0.1,0-1.5-0.7-2.2-1l0,0
				c-28.9-11.6-33.9-28.1-34.2-37c-0.4-11,5.8-21.9,15.6-27.4l2.3,54.2l0.1,1.7l1.6,1.3l-0.2-4.6L83.5,238l-1.1,0.6
				c-11,5.5-18,17.5-17.4,29.7c0.4,9.2,5.5,26.4,35.2,38.4c0.3,0.1,0.8,0.4,1.3,0.6c-3.7,5.9-5.6,13.4-6.1,23.7
				c-41.3-10-54.5-39.4-53.2-63.7c1.5-27.2,21.5-56.9,56.9-61.4c1.1,2.8,6.2,13.8,19.6,14.2v20.4h1.6v-22h-0.9V218.4z"/>
			<g>
				<g>
					<path class="st8" d="M100.7,306c0.9,0.3,1.5,0.5,1.8,0.6c2.6,0.9,7.4-2.4,9.4-3.3c1.5-0.7,3.3,2.9,4.1,4.8
						c0.3,0.7,0.9,1.2,1.6,1.3l5.8,1.1c1,0.2,1.7,1,1.8,2c0,0,0.3,24.9-8.7,23.7c-7.5-1-14.4-2.5-20.7-4.3
						C97.2,319.7,99.4,310.8,100.7,306z"/>
					<path class="st9" d="M119.2,309.2c0,0,6.5,0.1,6.4,4.2s-1,12.5-2.1,16.1s-3.2,6.1-3.8,6.5c-0.5,0.4-3.7,0.5-6.6,0
						S96,332.3,96,332.3s-1,0.2-0.8-1s3-19.2,4.2-22.5c1-2.9,1.2-3.2,1.2-3.2l2.8,0.9c0,0-4.4,13.2-3.3,17.4
						c5.8,1.3,14.6,3.4,14.6,3.4S119.7,320.2,119.2,309.2z"/>
					<path class="st13" d="M115.7,325.6c0,0,2.6-7.1,2.7-16.4l1.8,0.2C120.2,309.5,120.4,317.4,115.7,325.6z"/>
					<path class="st3" d="M116.4,324.2L116.4,324.2c3-4.8,4.2-15,4.2-15l-1.4-0.1C119.5,310.3,118.7,318.7,116.4,324.2z"/>
					<path class="st3" d="M125.2,317.2c-1.4,0.5-2.7,0.8-4.1,0.8c1.3,0.4,2.6,0.6,3.8,0.5L125.2,317.2z"/>
					<path class="st3" d="M124.3,324.4c-1.4,0.6-2.7,0.9-4.1,0.8c1.3,0.5,2.6,0.6,3.8,0.5L124.3,324.4z"/>
					<path class="st3" d="M122.7,330.3c-0.6,0.4-1.5,0.5-2.3,0.5c0.8,0.3,1.6,0.4,2.2,0.3L122.7,330.3z"/>
					<path class="st13" d="M111,306.9c-0.5,0-1,0.1-1.5,0.2s-0.9,0.3-1.3,0.5s-0.8,0.5-1.2,0.8c-0.4,0.3-0.7,0.6-1.1,1l0,0
						c0.5,0,1-0.2,1.4-0.3c0.5-0.1,0.9-0.3,1.3-0.5s0.8-0.4,1.2-0.7C110.3,307.6,110.6,307.3,111,306.9z"/>
				</g>
				<path class="st3" d="M116.4,336.9c-7.3-1-14.3-2.5-20.9-4.4l-0.6-0.2l0.1-0.7c1.4-11.7,3.5-20.5,5-25.9l0.2-0.8l1.8,0.6
					c0.4,0.1,0.7,0.2,0.8,0.3c1.7,0.6,4.9-1.2,7-2.3c0.7-0.4,1.3-0.7,1.8-0.9c0.4-0.2,0.9-0.2,1.4,0c1.2,0.5,2.4,2.2,3.7,5.2
					c0.2,0.4,0.6,0.7,1,0.8l5.8,1.1c1.3,0.2,2.3,1.3,2.4,2.7c0,0.7,0.1,18.2-5.5,23.2c-1,0.9-2.2,1.4-3.4,1.4
					C116.9,336.9,116.6,336.9,116.4,336.9z M112.2,304c-0.4,0.2-1,0.5-1.7,0.9c-2.5,1.4-5.9,3.3-8.3,2.4c-0.2-0.1-0.4-0.1-0.8-0.3
					l-0.2-0.1c-1.2,4.5-3.3,13-4.6,24.2c6.3,1.8,13,3.2,20,4.1c1.1,0.1,2-0.2,2.9-0.9c5.1-4.5,4.9-21.8,4.9-21.9
					c-0.1-0.6-0.5-1.1-1.1-1.2l-5.8-1.1c-1-0.2-1.8-0.8-2.2-1.8c-1.2-2.9-2.3-4.2-2.9-4.4C112.3,304,112.3,304,112.2,304L112.2,304z
					"/>
			</g>
			<path class="st3" d="M90.3,330c0.6-5.6,1.4-9.9,4.3-17.8c-1.9,8-2.3,12.6-2.7,18.1L90.3,330z"/>
		</g>
		<g>
			<path class="st4" d="M155.3,238l0.8,1.3l0,0c20.8,10.5,30.3,47.3-17.7,66.6c-0.6,0.3-1.4,0.9-2.1,1l6.5,25c2.9-0.7,2-0.4,4.6-1.3
				c0,0-0.2-8.5-3.8-20.9c4.7-2.3,8.7-4.6,12.3-7c1.1,1.4,3.2,3.4,7.2,6.5c0,0,0,0,0.1-0.1c-3.2-3.7-4.8-6.1-5.7-7.5
				C195.2,274.4,167.5,240.5,155.3,238z"/>
			<g>
				<path class="st14" d="M155.2,241l-0.9,22.3c0.2-0.5,0.3-1,0.4-1.5C155.7,256.1,155,248.4,155.2,241z"/>
			</g>
			<path class="st2" d="M173.2,219.3c8.1,8.9,16.3,23,19.6,38.2c-1.7,0.5-4.4,1.5-8.6,3.6c0,0,0,0,0,0.1c4.5-1.2,7.3-1.7,9-1.8
				c4.7,24.8-3.8,52.6-46.2,67.3l0.3,4v0.1C209.2,313.2,208.9,248.7,173.2,219.3z"/>
			<path class="st3" d="M198.2,267c-1.6-28-22.3-58.6-58.9-62.9l-0.7-0.1l-0.2,0.6c-0.2,0.6-4.4,13.8-19.1,13.8h-0.8v22h1.6V220
				c13.4-0.4,18.5-11.5,19.6-14.2c35.3,4.5,55.3,34.2,56.9,61.4c1.4,24.4-11.9,53.8-53.2,63.7c-0.4-10.2-2.4-17.8-6.1-23.7
				c0.4-0.2,1-0.4,1.3-0.6c29.7-11.9,34.8-29.2,35.2-38.4c0.5-12.2-6.5-24.1-17.4-29.7l-1.1-0.6l-2.3,55.2l-0.2,4.3
				c0.6-0.3,1.1-0.7,1.6-1.1v-1.6l2.3-54.2c9.8,5.5,15.9,16.4,15.5,27.6c-0.3,7.6-4,20.9-23.5,31.9c-0.3,0.2-0.7,0.4-1.1,0.6
				c-2.9,1.6-6.1,3.1-9.6,4.5l0,0c-0.7,0.3-2.1,1-2.2,1l-0.8,0.4l0.5,0.8c4,5.9,6,13.7,6.3,24.6v1l0.9-0.2
				C185.8,322.7,199.6,292.2,198.2,267z"/>
			<g>
				<g>
					<path class="st8" d="M138,306c-0.9,0.3-1.5,0.5-1.8,0.6c-2.6,0.9-7.4-2.4-9.4-3.3c-1.5-0.7-3.3,2.9-4.1,4.8
						c-0.3,0.7-0.9,1.2-1.6,1.3l-5.8,1.1c-1,0.2-1.7,1-1.8,2c0,0-0.3,24.9,8.7,23.7c7.5-1,14.4-2.5,20.7-4.3
						C141.6,319.7,139.4,310.8,138,306z"/>
					<path class="st9" d="M119.5,309.2c0,0-6.5,0.1-6.4,4.2s1,12.5,2.1,16.1s3.2,6.1,3.8,6.5s3.7,0.5,6.6,0s17.1-3.7,17.1-3.7
						s1,0.2,0.8-1s-3-19.2-4.2-22.5c-1-2.9-1.2-3.2-1.2-3.2l-2.8,0.9c0,0,4.4,13.2,3.3,17.4c-5.8,1.3-14.6,3.4-14.6,3.4
						S119.1,320.2,119.5,309.2z"/>
					<path class="st13" d="M123,325.6c0,0-2.6-7.1-2.7-16.4l-1.8,0.2C118.6,309.5,118.4,317.4,123,325.6z"/>
					<path class="st3" d="M122.3,324.2L122.3,324.2c-3-4.8-4.2-15-4.2-15l1.4-0.1C119.2,310.3,120.1,318.7,122.3,324.2z"/>
					<path class="st3" d="M113.6,317.2c1.4,0.5,2.7,0.8,4.1,0.8c-1.3,0.4-2.6,0.6-3.8,0.5L113.6,317.2z"/>
					<path class="st3" d="M114.4,324.4c1.4,0.6,2.7,0.9,4.1,0.8c-1.3,0.5-2.6,0.6-3.8,0.5L114.4,324.4z"/>
					<path class="st3" d="M116,330.3c0.6,0.4,1.5,0.5,2.3,0.5c-0.8,0.3-1.6,0.4-2.2,0.3L116,330.3z"/>
					<path class="st13" d="M127.8,306.9c0.5,0,1,0.1,1.5,0.2s0.9,0.3,1.3,0.5c0.4,0.2,0.8,0.5,1.2,0.8s0.7,0.6,1.1,1l0,0
						c-0.5,0-1-0.2-1.4-0.3c-0.5-0.1-0.9-0.3-1.3-0.5c-0.4-0.2-0.8-0.4-1.2-0.7C128.5,307.6,128.1,307.3,127.8,306.9z"/>
				</g>
				<path class="st3" d="M121.6,336.9c-1.3,0-2.4-0.5-3.4-1.4c-5.6-4.9-5.5-22.4-5.5-23.2c0.1-1.4,1.1-2.5,2.4-2.7l5.8-1.1
					c0.5-0.1,0.9-0.4,1-0.8c1.3-3,2.5-4.8,3.7-5.2c0.5-0.2,1-0.2,1.4,0c0.5,0.2,1.1,0.6,1.8,0.9c2.1,1.2,5.3,2.9,7,2.3
					c0.2-0.1,0.4-0.1,0.8-0.3l1.8-0.6l0.2,0.8c1.5,5.3,3.6,14.2,5,25.9l0.1,0.7l-0.6,0.2c-6.5,1.9-13.5,3.4-20.9,4.4
					C122.1,336.9,121.9,336.9,121.6,336.9z M126.5,304L126.5,304c-0.7,0.2-1.7,1.5-3,4.4c-0.4,0.9-1.2,1.6-2.2,1.8l-5.8,1.1
					c-0.6,0.1-1.1,0.6-1.1,1.2c0,0.1-0.1,17.4,4.9,21.9c0.9,0.8,1.8,1.1,2.9,0.9c7-0.9,13.7-2.3,20-4.1c-1.4-11.2-3.4-19.7-4.6-24.2
					l-0.2,0.1c-0.4,0.1-0.6,0.2-0.8,0.3c-2.3,0.8-5.8-1-8.3-2.4C127.5,304.5,127,304.2,126.5,304L126.5,304z"/>
			</g>
			<path class="st3" d="M172.4,275c0.9,0.2,6.6,1.6,9,4c0.1,0.1,0,0.3-0.2,0.3c-4.3-2-8.4-2.6-9.3-2.8c-0.1,0-0.2-0.1-0.1-0.2
				l0.5-1.2C172.2,275,172.3,275,172.4,275z"/>
			<path class="st3" d="M148.5,330c-0.6-5.6-1.4-9.9-4.3-17.8c1.9,8,2.3,12.6,2.7,18.1L148.5,330z"/>
		</g>
		<g>
			<path class="st3" d="M155,252.7c1.1,3,1.2,6.4,0.3,9.5s-3,6-5.9,7.8c-1.4,0.9-3.1,1.4-4.7,1.6c-1.7,0.2-3.4,0-5-0.3
				c-3.2-0.8-6-2.5-8.4-4.6l0.2-0.2c1.4,0.8,2.7,1.5,4.2,2.1c1.4,0.6,2.9,1.1,4.4,1.4s3,0.3,4.5,0.2c1.5-0.2,2.9-0.7,4.2-1.4
				c1.3-0.7,2.4-1.7,3.4-2.9c0.9-1.2,2.4-3.6,2.4-6.2C155.5,256.7,155.6,255.8,155,252.7z"/>
		</g>
		<g>
			<path class="st3" d="M83.7,252.7c-0.6,3.1-0.3,6.3,0.8,9.1c0.5,1.4,1.3,2.7,2.2,3.9c1,1.2,2.1,2.1,3.4,2.9
				c1.3,0.7,2.7,1.2,4.2,1.4c1.5,0.2,3,0.1,4.5-0.2c1.5-0.3,2.9-0.8,4.4-1.4c1.4-0.6,2.8-1.4,4.2-2.1l0.2,0.2
				c-2.4,2.1-5.2,3.8-8.4,4.6c-1.6,0.4-3.3,0.5-5,0.3s-3.3-0.7-4.7-1.6c-2.9-1.7-5-4.6-5.9-7.8C82.5,259.1,82.6,255.7,83.7,252.7z"
				/>
		</g>
		<g>
			<circle class="st3" cx="119.4" cy="242.2" r="2.4"/>
			<path class="st15" d="M119.4,241.3c0.7,0,1.3,0.5,1.5,1.2c0-0.1,0-0.2,0-0.3c0-0.8-0.7-1.5-1.5-1.5s-1.5,0.7-1.5,1.5
				c0,0.1,0,0.2,0,0.3C118.1,241.8,118.7,241.3,119.4,241.3z"/>
		</g>
		<g>
			<path class="st3" d="M113.6,255.2L113.6,255.2c-0.1,0-0.2,0-0.5-0.1c-0.4-0.1-0.7-0.5-0.6-0.9s0.5-0.7,0.9-0.6c0.2,0,0.2,0,0.3,0
				c0.4,0.1,0.7,0.5,0.7,0.9C114.3,254.9,113.9,255.2,113.6,255.2z M108.2,252.9c-0.1,0-0.3,0-0.4-0.1c-1.6-1-3-2.3-4.3-3.7
				c-0.3-0.3-0.3-0.8,0.1-1.1c0.3-0.3,0.8-0.3,1.1,0.1c1.2,1.4,2.6,2.5,4,3.5c0.4,0.2,0.5,0.7,0.2,1.1
				C108.7,252.8,108.4,252.9,108.2,252.9z M100.8,244.8c-0.3,0-0.5-0.1-0.7-0.4c-0.9-1.6-1.7-3.3-2.4-5.1c-0.2-0.4,0-0.9,0.5-1
				c0.4-0.2,0.9,0,1,0.5c0.7,1.8,1.4,3.4,2.3,4.9c0.2,0.4,0.1,0.9-0.3,1.1C101,244.8,100.9,244.8,100.8,244.8z M96.7,234.6
				c-0.3,0-0.7-0.2-0.8-0.6c-0.4-1.6-0.9-3.5-1.3-5.4c-0.1-0.4,0.2-0.8,0.6-0.9c0.4-0.1,0.8,0.2,0.9,0.6c0.4,1.9,0.9,3.7,1.3,5.4
				c0.1,0.4-0.1,0.9-0.6,1C96.9,234.5,96.8,234.6,96.7,234.6z M94.3,223.7c-0.4,0-0.7-0.3-0.8-0.6c-0.3-1.7-0.7-3.6-1-5.5
				c-0.1-0.4,0.2-0.8,0.7-0.9c0.4-0.1,0.8,0.2,0.9,0.7c0.3,1.9,0.6,3.7,1,5.4c0.1,0.4-0.2,0.8-0.6,0.9
				C94.4,223.7,94.4,223.7,94.3,223.7z M92.5,212.8c-0.4,0-0.7-0.3-0.8-0.7c-0.5-3.3-0.7-5.5-0.7-5.5c-0.1-0.4,0.3-0.8,0.7-0.9
				c0.4,0,0.8,0.3,0.9,0.7c0,0,0.3,2.2,0.7,5.5C93.4,212.3,93.1,212.7,92.5,212.8L92.5,212.8z"/>
		</g>
		<g>
			<g>
				<path class="st3" d="M146.7,210h-0.1c-0.4-0.1-0.7-0.5-0.7-0.9c0.3-1.7,0.4-2.7,0.4-2.7c0.1-0.4,0.5-0.7,0.9-0.7
					c0.4,0.1,0.7,0.5,0.7,0.9c0,0-0.1,1-0.4,2.8C147.4,209.7,147.1,210,146.7,210z"/>
			</g>
			<g>
				<path class="st3" d="M120.4,301.6c-0.4,0-0.8-0.4-0.8-0.8v-5.7c0-0.4,0.4-0.8,0.8-0.8l0,0c0.4,0,0.8,0.4,0.8,0.8v5.7
					C121.1,301.2,120.8,301.6,120.4,301.6L120.4,301.6z M120.3,290.2c-0.4,0-0.8-0.4-0.8-0.8v-5.7c0-0.4,0.4-0.8,0.8-0.8l0,0
					c0.4,0,0.8,0.4,0.8,0.8v5.7C121.1,289.8,120.8,290.2,120.3,290.2L120.3,290.2z M120.3,278.8c-0.4,0-0.8-0.4-0.8-0.8v-5.7
					c0-0.4,0.4-0.8,0.8-0.8l0,0c0.4,0,0.8,0.4,0.8,0.8v5.7C121.1,278.5,120.7,278.8,120.3,278.8L120.3,278.8z M120.2,267.4
					c-0.4,0-0.8-0.4-0.8-0.8v-5.7c0-0.4,0.3-0.8,0.8-0.8l0,0c0.4,0,0.8,0.4,0.8,0.8v5.7C121,267.1,120.7,267.4,120.2,267.4
					L120.2,267.4z M121.2,256.3c-0.2,0-0.3-0.1-0.5-0.2c-0.3-0.3-0.4-0.8-0.1-1.1c1-1.3,2.7-2.3,5.2-3c0.4-0.1,0.9,0.1,1,0.5
					s-0.1,0.8-0.5,1l-0.2-0.8l0.2,0.8c-2.2,0.7-3.7,1.5-4.5,2.5C121.7,256.2,121.5,256.3,121.2,256.3z M131.3,251.2
					c-0.3,0-0.5-0.1-0.7-0.4c-0.2-0.4-0.1-0.9,0.3-1.1c1.7-1,3.1-2.1,4.3-3.3c0.3-0.3,0.8-0.3,1.1,0s0.3,0.8,0,1.1
					c-1.3,1.4-2.9,2.6-4.7,3.6C131.6,251.2,131.4,251.2,131.3,251.2z M139,243.1c-0.1,0-0.2,0-0.4-0.1c-0.4-0.2-0.5-0.7-0.3-1.1
					c0.8-1.5,1.4-3.1,2-5.1c0.1-0.4,0.6-0.7,1-0.5c0.4,0.1,0.7,0.6,0.5,1c-0.7,2.1-1.3,3.9-2.1,5.4C139.6,243,139.3,243.1,139,243.1
					z M142.6,232.4c-0.1,0-0.1,0-0.2,0c-0.4-0.1-0.7-0.5-0.6-1c0.4-1.7,0.8-3.6,1.2-5.5c0.1-0.4,0.5-0.7,0.9-0.6
					c0.4,0.1,0.7,0.5,0.6,0.9c-0.4,2-0.8,3.9-1.2,5.6C143.3,232.1,142.9,232.4,142.6,232.4z M144.9,221.2h-0.1
					c-0.4-0.1-0.7-0.5-0.6-0.9c0.4-2,0.7-3.9,1-5.6c0.1-0.4,0.5-0.7,0.9-0.7c0.4,0.1,0.7,0.5,0.7,0.9c-0.3,1.7-0.6,3.6-1,5.6
					C145.6,220.9,145.2,221.2,144.9,221.2z"/>
			</g>
			<g>
				<path class="st3" d="M120.4,310c-0.4,0-0.8-0.4-0.8-0.8v-2.8c0-0.4,0.4-0.8,0.8-0.8l0,0c0.4,0,0.8,0.4,0.8,0.8v2.8
					C121.2,309.6,120.8,310,120.4,310L120.4,310z"/>
			</g>
		</g>
		<g>
			<g>
				<g>
					<g>
						<g>
							<path class="st8" d="M160.3,159.1c-3.2-1.3-5.6-4.7-4.8-9.5c0.7-4.2,3.1-8,6.7-10.4C182.2,132.2,174.4,158.3,160.3,159.1z"/>
							<path class="st3" d="M160.2,159.9l-0.2-0.1c-4-1.6-6.1-5.7-5.3-10.3c0.7-4.4,3.3-8.4,7-10.9l0.2-0.1
								c6.7-2.3,9.9-0.9,11.4,0.7c2,2.1,2.3,5.7,0.7,9.7C172,153.9,166.9,159.5,160.2,159.9L160.2,159.9z M162.6,139.9
								c-3.3,2.3-5.6,5.8-6.2,9.8c-0.8,4.6,1.6,7.4,4.1,8.5c5.8-0.4,10.3-5.5,12.1-10c1.3-3.4,1.2-6.4-0.4-8
								C170.5,138.4,167.1,138.3,162.6,139.9z"/>
						</g>
						<g>
							<path class="st3" d="M171.5,143c-0.3-0.9-1-1.3-1.8-1.4c0.5,0.2,0.8,0.6,1.1,1.2c0.5,1.5-0.1,3.5-1,5.1
								c-1,1.9-2.8,3.1-4.8,3.6c0,0.1,0.1,0.2,0.1,0.3c2.3-0.3,4.3-1.6,5.5-3.7C171.4,146.5,172,144.5,171.5,143z"/>
							<path class="st3" d="M171,146.7c-0.1,0.3-2.4,2.8-2.2,2.5c1.1-1.6,1.7-5.2-0.8-5.6c-0.6-0.1-0.4-1.3,0.2-1.7
								c0.5-0.4,1.6-0.4,2.1-0.1c0.5,0.3,0.8,0.6,0.9,1c0.1,0.2-0.2,0.5-0.1,0.7C171.5,144.5,171.5,145.7,171,146.7z"/>
							<path class="st9" d="M165.8,145.9c1.1,0.7-0.5,1.7,0.1,2.8c0.1,0.2,0.6,0.4,1.5-0.5c0.8-0.9,1.2-1.8,0.4-2.8
								c-0.3-0.3-1-0.6-1.4-0.5C165.9,144.9,165.4,145.7,165.8,145.9z"/>
						</g>
						<path class="st9" d="M161.1,155.9L161.1,155.9C161,155.9,161.1,155.9,161.1,155.9c0.2,0,0.3,0,0.4,0c0.2,0,0.4-0.1,0.6-0.1
							c0.4-0.1,0.9-0.2,1.3-0.3c0.9-0.3,1.7-0.6,2.5-1.1s1.5-1,2.2-1.6c0.7-0.7,0.9-0.5,0.3,0.3c-0.6,0.8-1.3,1.5-2,2.1
							c-0.8,0.6-1.6,1.1-2.5,1.6c-0.4,0.2-0.9,0.4-1.4,0.6c-0.2,0.1-0.5,0.2-0.7,0.2c-0.1,0-0.3,0.1-0.4,0.1c-0.1,0-0.1,0-0.3,0
							c-0.1,0-0.2,0-0.4,0L161.1,155.9z"/>
					</g>
				</g>
				<g>
					<g>
						<g>
							<path class="st8" d="M78.8,159.1c3.2-1.3,5.6-4.7,4.8-9.5c-0.7-4.2-3.1-8-6.7-10.4C56.9,132.2,64.7,158.3,78.8,159.1z"/>
							<path class="st3" d="M78.7,159.8c-6.6-0.4-11.7-6-13.7-11c-1.6-4-1.3-7.6,0.7-9.7c1.5-1.6,4.7-3,11.4-0.7l0.2,0.1
								c3.7,2.5,6.3,6.5,7,10.9c0.8,4.6-1.3,8.7-5.3,10.3L78.7,159.8L78.7,159.8z M66.9,140.2c-1.6,1.6-1.7,4.6-0.4,8
								c1.8,4.5,6.3,9.6,12.1,10c2.5-1.1,4.9-3.9,4.1-8.5c-0.6-4-2.9-7.5-6.2-9.8C72,138.3,68.6,138.4,66.9,140.2z"/>
						</g>
						<g>
							<path class="st3" d="M67.6,143c0.3-0.9,1-1.3,1.8-1.4c-0.5,0.2-0.8,0.6-1.1,1.2c-0.5,1.5,0.1,3.5,1,5.1
								c1,1.9,2.8,3.1,4.8,3.6c0,0.1-0.1,0.2-0.1,0.3c-2.3-0.3-4.3-1.6-5.5-3.7C67.7,146.5,67.1,144.5,67.6,143z"/>
							<path class="st3" d="M68.1,146.7c0.1,0.3,2.4,2.8,2.2,2.5c-1.1-1.6-1.7-5.2,0.8-5.6c0.6-0.1,0.4-1.3-0.2-1.7
								c-0.5-0.4-1.6-0.4-2.1-0.1c-0.5,0.3-0.8,0.6-0.9,1c-0.1,0.2,0.2,0.5,0.1,0.7C67.6,144.5,67.6,145.7,68.1,146.7z"/>
							<path class="st9" d="M73.3,145.9c-1.1,0.7,0.5,1.7-0.1,2.8c-0.1,0.2-0.6,0.4-1.5-0.5c-0.8-0.9-1.2-1.8-0.4-2.8
								c0.3-0.3,1-0.6,1.4-0.5C73.2,144.9,73.7,145.7,73.3,145.9z"/>
						</g>
						<path class="st9" d="M78,155.9L78,155.9L78,155.9c-0.2,0-0.3,0-0.4,0c-0.2,0-0.4-0.1-0.6-0.1c-0.4-0.1-0.9-0.2-1.3-0.3
							c-0.9-0.3-1.7-0.6-2.5-1.1s-1.5-1-2.2-1.6c-0.7-0.7-0.9-0.5-0.3,0.3s1.3,1.5,2,2.1c0.8,0.6,1.6,1.1,2.5,1.6
							c0.4,0.2,0.9,0.4,1.4,0.6c0.2,0.1,0.5,0.2,0.7,0.2c0.1,0,0.3,0.1,0.4,0.1s0.1,0,0.3,0c0.1,0,0.2,0,0.4,0L78,155.9z"/>
					</g>
				</g>
			</g>
			<g>
				<g>
					<g>
						<circle class="st16" cx="164.3" cy="158.1" r="4"/>
						<path class="st3" d="M167.5,158.1c0,1.8-1.4,3.2-3.2,3.2s-3.2-1.4-3.2-3.2s1.4-3.2,3.2-3.2
							C166.1,154.9,167.5,156.3,167.5,158.1 M169.1,158.1c0-2.6-2.1-4.8-4.8-4.8s-4.8,2.1-4.8,4.8c0,2.6,2.1,4.8,4.8,4.8
							S169.1,160.7,169.1,158.1L169.1,158.1z"/>
						<path class="st17" d="M165.4,160.6c-1.4,0.6-3.1,0-3.7-1.4c-0.6-1.4,0-3.1,1.4-3.7c0.5-0.2,1.1-0.3,1.6-0.2
							c-0.1,0-0.2,0.1-0.4,0.1c-1.2,0.5-1.7,2-1.2,3.2s2,1.7,3.2,1.2c0.1-0.1,0.2-0.1,0.3-0.2C166.3,160,165.9,160.4,165.4,160.6z"
							/>
						<path class="st13" d="M165.5,158.3c0-0.1,0-0.3,0-0.4c-0.1-0.4-0.4-0.7-0.8-0.8c0.1-0.4,0.4-0.7,0.8-0.8
							c0.6-0.1,1.1,0.2,1.2,0.8c0.1,0.6-0.2,1.1-0.8,1.2C165.8,158.3,165.7,158.3,165.5,158.3z"/>
					</g>
				</g>
				<g>
					<g>
						<circle class="st16" cx="74.8" cy="158.1" r="4"/>
						<path class="st3" d="M74.8,154.9c1.8,0,3.2,1.4,3.2,3.2s-1.4,3.2-3.2,3.2c-1.8,0-3.2-1.4-3.2-3.2
							C71.6,156.3,73,154.9,74.8,154.9 M74.8,153.3c-2.6,0-4.8,2.1-4.8,4.8c0,2.6,2.1,4.8,4.8,4.8c2.6,0,4.8-2.1,4.8-4.8
							C79.6,155.4,77.5,153.3,74.8,153.3L74.8,153.3z"/>
						<path class="st17" d="M77.3,156.9c0.6,1.4,0,3.1-1.4,3.7c-1.4,0.6-3.1,0-3.7-1.4c-0.2-0.5-0.3-1.1-0.2-1.6
							c0,0.1,0.1,0.2,0.1,0.4c0.5,1.2,2,1.7,3.2,1.2s1.7-2,1.2-3.2c-0.1-0.1-0.1-0.2-0.2-0.3C76.7,156,77.1,156.4,77.3,156.9z"/>
						<path class="st13" d="M75,156.8c-0.1,0-0.3,0-0.4,0c-0.4,0.1-0.7,0.4-0.8,0.8c-0.4-0.1-0.7-0.4-0.8-0.8
							c-0.1-0.6,0.2-1.1,0.8-1.2c0.6-0.1,1.1,0.2,1.2,0.8C75,156.5,75,156.7,75,156.8z"/>
					</g>
				</g>
			</g>
			<path class="st8" d="M165.9,137.2c-5,41.1-23.8,60.9-46.3,60.9c-22.2,0-41.1-19.5-46.2-60.1c5.6-4.2,12.4-15.7,12.9-30
				c9.4,7.3,15.9,10,48,8.6C163.5,115.5,165.7,136.6,165.9,137.2z"/>
			<path class="st13" d="M74.2,138.2l2.5,7.8l3.4,0.7l-2.9,0.9c1.4,8.5,3.3,16.7,6.3,24.1c-0.5,1-7.9-20.4-8.8-26.8
				c-0.5-3.6-0.6-6-0.6-6L74.2,138.2z"/>
			<path class="st9" d="M79.1,161.8c0,0,15.3,33.9,39.2,33.9s40.9-25,44.5-67c2.7,4.4,3,9.3,3,9.3s-1.2,6.9-2.3,12.4
				c-1,5.5-7,25.5-13.7,32c-6.6,6.5-12.3,13.6-21.3,14.6s-21,1.9-27.1-3.8c-6.1-5.8-7.8-4.4-11.9-10.8c-4.1-6.4-8.7-12.9-9.1-15
				C80.1,165.3,79.1,161.8,79.1,161.8z"/>
			<path class="st3" d="M165.5,132.6c-2.2,23.5-8.7,41.5-19.2,52.7c-7.4,7.8-16.6,12-26.7,12c-10,0-19.3-4.1-26.6-12
				c-9.8-10.4-16.2-26.8-18.8-47.9c-0.5,0.1-1.1,0.3-1.5,0.5c2.7,21.2,9.2,37.9,19.2,48.4c7.7,8.1,17.3,12.4,27.8,12.4
				s20.1-4.3,27.8-12.4c10.2-10.8,16.7-27.9,19.3-49.8C166.3,134.8,165.9,134.4,165.5,132.6z"/>
			<path class="st18" d="M165.9,137.2L165.9,137.2"/>
			<g>
				<path class="st3" d="M73.5,138.8c-0.2,0-0.5-0.1-0.6-0.3c-0.3-0.4-0.2-0.8,0.2-1.1C79,133,85.2,121.5,85.7,108l0.1-1.5l1.2,0.9
					c9.4,7.2,15.9,9.8,47.5,8.5c27.4-1.1,31.7,17.2,32.2,20.9v0.1c0.1,0.4-0.2,0.8-0.6,0.9c-0.4,0.1-0.8-0.2-0.9-0.6
					c0,0,0-0.1,0-0.2c-0.8-4.8-5.2-20.6-30.6-19.5c-30.8,1.3-38.2-1.1-47.3-7.9c-1,13.3-7.2,24.6-13.2,29.1
					C73.8,138.8,73.6,138.8,73.5,138.8z"/>
			</g>
			<g>
				<g>
					<g>
						<path class="st9" d="M117.4,163.3c0,0,4,1.1,7-0.6C124.5,164.7,120.1,167.7,117.4,163.3z"/>
						<path class="st9" d="M118,137.9c0,0,1.4,14.5-4.7,22.2c-0.9,1.2-1.3,4.5,3.7,5.5c-1.1-1.9-2.1-1.8-1.4-3.9s1.9-4.7,2.2-5.5
							c0.3-0.8,1.8-10.1,1.3-13.2C118.6,139.9,118,137.9,118,137.9z"/>
						<path class="st13" d="M119.3,140.6c0,0,1.6,8.8,0.2,15.9l2.7-0.2l-2.1,1.2c0.8,0.2,1.6,1.3,2.2,1.8h-5.7l1.4-5.1
							c0,0,1.3-8.8,1.2-10.8C119.2,141.6,119.3,140.6,119.3,140.6z"/>
						<path class="st3" d="M117.7,165.8c-0.6-0.1-1.2-0.4-1.7-0.7c-0.5-0.4-1-0.8-1.4-1.4c-0.4-0.6-0.6-1.5-0.4-2.3s0.5-1.4,1-2
							c0.5-0.5,1.2-1,1.9-1.1c0.7-0.2,1.4-0.2,2-0.1c1.3,0.2,2.4,0.6,3.4,1.3c0.1,0.1,0.2,0.3,0.1,0.4c-0.1,0.1-0.2,0.1-0.3,0.1l0,0
							c-1.1-0.1-2.2-0.2-3.2-0.1c-1,0.1-1.8,0.4-2.3,0.9c-0.2,0.3-0.5,0.7-0.6,1s-0.1,0.6,0,1c0.3,0.8,1,1.7,1.7,2.5l0,0
							c0.1,0.1,0.1,0.3,0,0.4C117.9,165.8,117.8,165.8,117.7,165.8z"/>
						<path class="st3" d="M118.9,137.7c0.4,1.9,0.7,3.8,0.9,5.8c0.2,1.9,0.2,3.9,0.1,5.8c-0.1,2-0.4,3.9-0.9,5.8
							c-0.5,1.9-1.2,3.8-2.1,5.6c-0.3,0.5-0.9,0.7-1.4,0.5c-0.5-0.3-0.7-0.9-0.5-1.4l0,0l0,0c0.9-1.6,1.7-3.2,2.2-5s0.9-3.6,1.1-5.5
							s0.3-3.8,0.2-5.6c-0.1-1.9-0.2-3.8-0.5-5.6l0,0c0-0.2,0.1-0.5,0.4-0.5C118.6,137.4,118.8,137.5,118.9,137.7z"/>
					</g>
				</g>
				<g>
					<g>
						<path class="st9" d="M128.9,127.1c1.5,0,2.9-0.1,4.4-0.5c1.5-0.3,3-0.9,4.7-1.2c0.4-0.1,0.9-0.1,1.3-0.1c0.4,0,0.9,0,1.3,0.1
							c0.4,0.1,0.8,0.2,1.2,0.3c0.4,0.1,0.8,0.3,1.2,0.4c1.5,0.7,2.8,1.7,4.1,2.6c0.1,0.1,0.2,0.3,0.1,0.5c-0.1,0.2-0.3,0.2-0.4,0.1
							l0,0c-1.4-0.7-2.8-1.4-4.2-1.8c-0.4-0.1-0.7-0.1-1.1-0.2c-0.4,0-0.7-0.1-1.1-0.1c-0.7,0-1.4,0.1-2.1,0.3
							c-1.4,0.4-2.8,1.2-4.5,1.8c-1.6,0.6-3.3,0.9-5,0.9c-0.7,0-1.3-0.7-1.3-1.5C127.4,127.8,128.1,127.1,128.9,127.1
							C128.8,127.1,128.8,127.1,128.9,127.1L128.9,127.1z"/>
					</g>
					<g>
						<path class="st3" d="M128.2,126.1c1.5,0.1,3,0.1,4.5-0.2c1.5-0.2,3-0.7,4.8-0.8c0.4-0.1,0.9,0,1.3,0c0.4,0,0.9,0.1,1.3,0.1
							c0.4,0.1,0.9,0.2,1.3,0.3c0.4,0.1,0.8,0.3,1.2,0.4c1.6,0.7,2.9,1.6,4.3,2.5c0.1,0.1,0.2,0.3,0.1,0.4c-0.1,0.1-0.3,0.2-0.4,0.1
							l0,0c-1.4-0.7-2.9-1.4-4.4-1.8c-0.4-0.1-0.7-0.2-1.1-0.2c-0.4-0.1-0.7-0.1-1.1-0.1c-0.7,0-1.4,0-2.2,0.2
							c-1.4,0.3-2.9,0.9-4.6,1.3c-1.7,0.4-3.4,0.6-5.1,0.5c-0.8,0-1.4-0.7-1.4-1.4C126.8,126.7,127.4,126.1,128.2,126.1L128.2,126.1
							L128.2,126.1z"/>
					</g>
					<g>
						<path class="st9" d="M111.3,130c-1.7,0-3.4-0.1-5.1-0.6c-1.7-0.4-3.2-1.1-4.6-1.4c-0.7-0.2-1.4-0.2-2.2-0.2
							c-0.4,0.1-0.7,0.1-1.1,0.1c-0.4,0.1-0.7,0.2-1.1,0.3c-1.5,0.4-2.9,1.2-4.3,2l0,0c-0.2,0.1-0.3,0-0.4-0.2s0-0.3,0.1-0.4
							c1.3-1,2.6-2,4.1-2.8c0.4-0.2,0.8-0.3,1.2-0.5c0.4-0.1,0.8-0.2,1.2-0.3c0.4-0.1,0.9-0.1,1.3-0.1s0.9,0,1.3,0
							c1.8,0.2,3.3,0.7,4.8,0.9c1.5,0.3,3,0.3,4.5,0.2l0,0c0.8-0.1,1.4,0.6,1.5,1.4C112.6,129.2,112.1,129.9,111.3,130L111.3,130z"
							/>
					</g>
					<g>
						<path class="st3" d="M111.3,128.9c-1.7,0.1-3.5,0-5.1-0.3c-1.7-0.3-3.2-0.9-4.6-1.1c-0.7-0.1-1.4-0.1-2.2-0.1
							c-0.4,0.1-0.7,0.1-1.1,0.2s-0.7,0.2-1.1,0.3c-1.5,0.5-2.9,1.2-4.3,2l0,0c-0.2,0.1-0.4,0-0.4-0.1c-0.1-0.1,0-0.3,0.1-0.4
							c1.3-1,2.6-2,4.1-2.7c0.4-0.2,0.8-0.3,1.2-0.5c0.4-0.1,0.8-0.2,1.3-0.4c0.4-0.1,0.9-0.2,1.3-0.2s0.9-0.1,1.3,0
							c1.8,0.1,3.3,0.5,4.8,0.6c1.5,0.2,3,0.1,4.5,0l0,0c0.8-0.1,1.4,0.5,1.5,1.2C112.6,128.1,112.1,128.8,111.3,128.9L111.3,128.9z
							"/>
					</g>
				</g>
				<g>
					<g>
						<path class="st3" d="M108,144.2c-0.3,1.9-2,3.3-4,3.2s-3.5-1.7-3.6-3.7c0,0-0.1-2.2,4.2-2.2C108.3,141.6,108,144.2,108,144.2z
							"/>
						<g>
							<path class="st3" d="M110.3,145.5c-0.8-1.2-1.8-2.1-3.1-2.6c-1.3-0.5-2.8-0.5-4.3-0.3s-3,0.7-4.6,1.2c-1.5,0.6-3,1.3-4.5,2
								l0,0c-0.2,0.1-0.4,0-0.4-0.2c-0.1-0.1,0-0.3,0.1-0.4c2.7-2,5.6-3.7,9-4.5c1.7-0.4,3.6-0.6,5.4,0c0.4,0.2,0.9,0.3,1.3,0.6
								l0.6,0.4l0.6,0.5c0.7,0.6,1.3,1.4,1.7,2.2c0.3,0.5,0.1,1.2-0.4,1.5S110.6,146,110.3,145.5L110.3,145.5z"/>
						</g>
						
							<ellipse transform="matrix(0.1996 -0.9799 0.9799 0.1996 -59.1871 215.0045)" class="st13" cx="102" cy="143.7" rx="0.8" ry="0.8"/>
					</g>
					<g>
						<path class="st3" d="M131.5,144.3c0.3,1.9,2,3.2,3.9,3.1c1.9-0.1,3.4-1.7,3.5-3.6c0,0,0.1-2.2-4.1-2.1
							C131.2,141.7,131.5,144.3,131.5,144.3z"/>
						<g>
							<path class="st3" d="M126.9,144.4c0.2-0.4,0.5-0.8,0.8-1.2c0.3-0.3,0.6-0.8,1-1c0.4-0.3,0.8-0.6,1.2-0.8
								c0.2-0.1,0.4-0.2,0.6-0.3l0.7-0.2c1.9-0.6,3.7-0.4,5.4,0s3.3,1.1,4.8,1.8c1.5,0.8,2.9,1.6,4.3,2.6c0.2,0.1,0.2,0.3,0.1,0.5
								c-0.1,0.1-0.3,0.2-0.4,0.1c-1.5-0.7-3-1.3-4.5-1.9c-1.5-0.5-3-1-4.6-1.3c-1.5-0.2-3-0.2-4.3,0.2s-2.3,1.3-3.1,2.5v0.1
								c-0.3,0.5-1,0.7-1.5,0.4C126.8,145.6,126.6,144.9,126.9,144.4z"/>
						</g>
						
							<ellipse transform="matrix(0.9799 -0.1996 0.1996 0.9799 -26.009 29.3994)" class="st13" cx="132.8" cy="143.7" rx="0.8" ry="0.8"/>
					</g>
				</g>
				<g>
					<path class="st9" d="M115.4,179.3c1.3-0.2,2.6-0.4,4.3-0.4c1.8,0,3,0.2,4.3,0.4c0.4,0.1,0.6-0.4,0.3-0.7
						c-1.3-1.1-2.8-1.6-4.6-1.6c-1.8,0-3.3,0.5-4.6,1.6C114.8,178.9,115,179.4,115.4,179.3z"/>
					<path class="st3" d="M123.5,178.1c-1.1-0.7-2.3-1-3.8-1s-2.7,0.3-3.8,1l1.3-0.2c1.6-0.2,3.3-0.2,4.9,0L123.5,178.1z"/>
					<g>
						<path class="st9" d="M113.5,175.3c0,0-0.8-0.7-0.9-0.8c0,0.1-0.7,0-0.7,0.1c0,0,0,0,0,0.1c0,0.3-0.4-0.1-0.8-0.1
							c-0.1,0.1-0.2,0.3-0.4,0.3c0,0.4,0.2,1.1,1,1.9c-0.1-0.3,0-0.7,0.3-1C112.3,175.6,112.9,175.6,113.5,175.3z"/>
						<path class="st9" d="M125.3,175.1l1.7-0.6c0,0.1,0.7,0,0.7,0.1c0,0,0,0,0,0.1c0,0.3,0.4-0.1,0.8-0.1c0.1,0.1,0.2,0.3,0.4,0.3
							c0,0.4-0.2,1.1-1,1.9c0.1-0.3,0-0.7-0.3-1C127.3,175.7,125.9,175.5,125.3,175.1z"/>
						<path class="st3" d="M128.2,174.5c-6.6-1-5.1-3-7.7-1.7c-0.3,0.1-0.5,0.2-0.8,0.2s-0.6-0.1-0.8-0.2c-2.6-1.3-1.1,0.7-7.7,1.7
							c-0.5,0.1-0.5,0.5,0,0.7c1.7,0.8,5.1-1,8.6-1s6.9,1.8,8.6,1C128.7,175,128.7,174.6,128.2,174.5z"/>
						<path class="st3" d="M111.7,173c-0.4,0.1-0.8,0.3-1,0.6c-0.3,0.3-0.4,0.8-0.5,1.2c0,0.5,0.1,0.9,0.3,1.3
							c0.2,0.4,0.5,0.7,0.8,0.9c0.1,0.1,0.2,0,0.3-0.1v-0.1l0,0c-0.2-0.5-0.5-0.8-0.4-1.7s0.5-1,0.7-1.7l0,0c0-0.1,0-0.2-0.1-0.3
							C111.8,173,111.8,173,111.7,173z"/>
						<path class="st3" d="M127.5,173.1c0.4,0,0.8,0.2,1.1,0.5s0.5,0.7,0.6,1.2s0,0.9-0.1,1.3c-0.2,0.4-0.4,0.7-0.8,1
							c-0.1,0.1-0.2,0-0.3-0.1v-0.1l0,0c0.1-0.5,0.4-0.9,0.3-1.8c-0.2-0.9-0.6-1-0.9-1.6l0,0C127.3,173.3,127.3,173.2,127.5,173.1
							L127.5,173.1z"/>
					</g>
				</g>
			</g>
			<ellipse transform="matrix(0.866 -0.5 0.5 0.866 -68.0914 67.6495)" class="st19" cx="92.2" cy="160.9" rx="5.9" ry="10.5"/>
			<ellipse transform="matrix(0.5 -0.866 0.866 0.5 -66.7633 206.1903)" class="st19" cx="145.2" cy="160.9" rx="10.5" ry="5.9"/>
		</g>
	</g>
	<g>
		<g>
			<path class="st20" d="M193.2,453.5H47.8c-4,0-7.3-3.3-7.3-7.3l0,0c0-4,3.3-7.3,7.3-7.3h145.4c4,0,7.3,3.3,7.3,7.3l0,0
				C200.5,450.3,197.2,453.5,193.2,453.5z"/>
			<g>
				<g>
					<path class="st21" d="M190.7,409.2H50.2c-4.1,0-7.5,3.4-7.5,7.5v27.6c0,4.1,3.4,7.5,7.5,7.5h140.5c4.1,0,7.5-3.4,7.5-7.5v-27.6
						C198.2,412.5,194.9,409.2,190.7,409.2z M196.2,444.2c0,3-2.4,5.5-5.5,5.5H50.2c-3,0-5.5-2.5-5.5-5.5v-27.6c0-3,2.5-5.5,5.5-5.5
						h140.5c3,0,5.5,2.5,5.5,5.5V444.2z"/>
					<path class="st22" d="M196.2,416.6v27.6c0,3-2.4,5.5-5.5,5.5H50.2c-3,0-5.5-2.5-5.5-5.5v-27.6c0-3,2.5-5.5,5.5-5.5h140.5
						C193.8,411.2,196.2,413.6,196.2,416.6z"/>
				</g>
			</g>
		</g>
		<g>
			<g>
				<path class="st21" d="M86,428.2l0.2-2.1h-0.1l-0.6,2l-2.8,6.1h-0.5l-3-6.1l-0.6-2h-0.1l0.3,2.1v9.2h-1.4v-14h1.3l3.4,6.9
					l0.5,1.6l0,0l0.5-1.7l3.2-6.9h1.3v14H86V428.2z"/>
				<path class="st21" d="M88.9,427.4h1.7l1.9,6.4l0.4,2.2l0,0l0.4-2.2l1.7-6.4h1.6l-3,10v4h-1.4v-4L88.9,427.4z"/>
				<path class="st21" d="M104.8,439.9h-1l-0.2-2.5h-5.9l-0.3,2.5h-1v-3.8h0.9c0.1-0.1,0.2-0.4,0.3-0.8c0.1-0.4,0.3-0.9,0.4-1.6
					s0.3-1.6,0.3-2.6c0.1-1,0.2-2.2,0.2-3.7h5v8.7h1.2L104.8,439.9L104.8,439.9z M102.2,436.1v-7.4H100c0,0.6-0.1,1.2-0.1,1.9
					c0,0.7-0.1,1.4-0.2,2c-0.1,0.7-0.2,1.3-0.3,1.9c-0.1,0.6-0.3,1.1-0.5,1.6H102.2z"/>
				<path class="st21" d="M105.3,427.4h1.7l1.9,6.4l0.4,2.2l0,0l0.4-2.2l1.7-6.4h1.6l-3,10v4h-1.4v-4L105.3,427.4z"/>
				<path class="st21" d="M114.2,427.4h1l0.2,1.1h0.1c0.5-0.9,1.3-1.3,2.3-1.3c1.1,0,1.8,0.4,2.4,1.2c0.5,0.8,0.8,2.1,0.8,3.9
					c0,0.8-0.1,1.6-0.3,2.3c-0.2,0.7-0.4,1.2-0.7,1.7c-0.3,0.5-0.7,0.8-1.2,1.1s-1,0.4-1.5,0.4c-0.4,0-0.7,0-0.9-0.1
					c-0.2,0-0.5-0.1-0.7-0.3v4.1h-1.4v-14.1H114.2z M115.6,435.8c0.2,0.2,0.4,0.3,0.6,0.4s0.5,0.1,0.9,0.1c0.7,0,1.3-0.4,1.7-1.1
					c0.4-0.7,0.6-1.7,0.6-3.1c0-0.6,0-1.1-0.1-1.5c-0.1-0.5-0.2-0.8-0.4-1.2c-0.2-0.3-0.4-0.6-0.6-0.8c-0.2-0.2-0.5-0.3-0.9-0.3
					c-1,0-1.6,0.6-1.9,1.8v5.7H115.6z"/>
				<path class="st21" d="M122.3,436.5c0-0.3,0.1-0.6,0.3-0.8s0.4-0.3,0.8-0.3c0.3,0,0.6,0.1,0.9,0.4c0.2,0.3,0.3,0.7,0.3,1.3
					c0,0.4-0.1,0.8-0.2,1.2s-0.3,0.7-0.4,0.9c-0.2,0.3-0.4,0.5-0.6,0.7s-0.4,0.3-0.6,0.4l-0.5-0.7c0.2-0.1,0.3-0.2,0.5-0.4
					c0.2-0.2,0.3-0.3,0.4-0.5s0.2-0.4,0.2-0.6c0.1-0.2,0.1-0.4,0.1-0.6c-0.3,0.1-0.5,0-0.7-0.2C122.5,437.2,122.3,436.9,122.3,436.5
					z"/>
				<path class="st21" d="M130.1,435.8c0.3,0.1,0.5,0.3,0.9,0.3c0.3,0.1,0.7,0.1,1.1,0.1c0.4,0,0.7-0.1,1-0.2s0.6-0.4,0.8-0.6
					c0.2-0.3,0.4-0.6,0.5-1s0.2-0.8,0.2-1.2c0-1-0.2-1.7-0.7-2.2c-0.4-0.5-1-0.7-1.8-0.7h-1.2v-0.6l2.3-4.5l0.8-0.8l-1.1,0.1h-3.1
					v-1.3h5.8v0.6l-2.6,4.8l-0.6,0.6l0,0l0.6-0.1c0.4,0,0.8,0.1,1.2,0.3c0.4,0.2,0.7,0.4,1,0.7c0.3,0.3,0.5,0.7,0.6,1.2
					c0.2,0.5,0.2,1,0.2,1.7s-0.1,1.4-0.3,1.9c-0.2,0.6-0.5,1-0.8,1.4c-0.4,0.4-0.8,0.7-1.2,0.9c-0.5,0.2-1,0.3-1.5,0.3
					s-0.9,0-1.3-0.1s-0.8-0.2-1.1-0.3L130.1,435.8z"/>
				<path class="st21" d="M144.4,423.4v1.4h-3.8v4.1l0.7-0.1c1.1,0,1.9,0.4,2.5,1.1s0.9,1.8,0.9,3.1c0,0.7-0.1,1.4-0.3,2
					s-0.5,1.1-0.9,1.4c-0.4,0.4-0.8,0.7-1.3,0.9c-0.5,0.2-1,0.3-1.5,0.3c-0.9,0-1.7-0.1-2.2-0.4l0.4-1.3c0.2,0.1,0.5,0.2,0.8,0.3
					c0.3,0,0.6,0.1,1,0.1c0.8,0,1.4-0.3,1.8-0.8c0.5-0.6,0.7-1.3,0.7-2.3s-0.3-1.8-0.7-2.3c-0.5-0.5-1.1-0.7-2-0.7l-1.3,0.1v-6.8
					h5.2V423.4z"/>
				<path class="st21" d="M154.4,432.9l-2.2,4.4h-1.6l2.5-4.6l0.5-0.6l-0.8-0.8l-2-4.1h1.5l2.1,4.3h0.8v-4.3h1.4v4.5l0.7-0.3
					l2.1-4.2h1.5l-2.1,4.1l-0.6,0.6l0.8,0.8l2.3,4.5h-1.7l-2.2-4.5h-0.8v4.5h-1.4v-4.7L154.4,432.9z"/>
				<path class="st21" d="M162,436.5c0-0.4,0.1-0.7,0.3-0.8c0.2-0.2,0.4-0.3,0.7-0.3s0.5,0.1,0.7,0.3c0.2,0.2,0.3,0.5,0.3,0.8
					c0,0.4-0.1,0.7-0.3,0.9c-0.2,0.2-0.4,0.3-0.7,0.3s-0.5-0.1-0.7-0.3C162.1,437.1,162,436.8,162,436.5z"/>
			</g>
		</g>
	</g>
</g>
</svg>
