<?xml version="1.0" encoding="utf-8"?>
<!-- Generator: Adobe Illustrator 21.0.0, SVG Export Plug-In . SVG Version: 6.00 Build 0)  -->
<svg version="1.1" id="Layer_1" xmlns="http://www.w3.org/2000/svg" xmlns:xlink="http://www.w3.org/1999/xlink" x="0px" y="0px"
	 viewBox="0 0 240.9 453.5" style="enable-background:new 0 0 240.9 453.5;" xml:space="preserve">
<style type="text/css">
	.st0{fill:#794552;}
	.st1{fill:#C7B89E;}
	.st2{fill:#F9A960;}
	.st3{fill:#D17C32;}
	.st4{fill:#956070;}
	.st5{fill:#FDDCC0;}
	.st6{fill:#501338;}
	.st7{fill:#FFFFFF;}
	.st8{fill:#B38091;}
	.st9{fill:#D1D5DB;}
	.st10{fill:#989A9C;}
	.st11{fill:#937B70;}
	.st12{fill:#E6DEC9;}
	.st13{fill:#F0B39C;}
	.st14{fill:#8E183F;}
	.st15{fill:#EE3734;}
	.st16{fill:#CE202B;}
	.st17{fill:#F5F5F5;}
	.st18{fill:#F49294;}
	.st19{fill:#B5BAC0;}
	.st20{fill:#C71F41;}
	.st21{fill:#EF5784;}
	.st22{fill:#A91D41;}
	.st23{opacity:0.5;fill:#C1C1C1;enable-background:new    ;}
	.st24{fill:#CB8A43;}
	.st25{fill:#754D24;}
	.st26{fill:#FBBA6C;}
</style>
<g>
	<g>
		<ellipse class="st0" cx="120.5" cy="369.9" rx="48.5" ry="16.9"/>
		<polygon class="st1" points="120.5,322.1 80.9,319 72.3,328.2 120.5,346 168.6,328.2 160,319 		"/>
		<g>
			<path class="st2" d="M45.8,330.2c0,0,6.5-27.4,50.6-5.7c44.1,21.7,62.2,31,62.2,31s41.5,1.5,37.7,8.7s-9.5,20.4-16.2,20.9
				s-81-18.3-81-18.3S39.2,352.9,45.8,330.2z"/>
			<path class="st3" d="M172.7,384c-2-0.3-12.3-2.6-20.3-4.3c8.4,2.4,13.4,4.2,20.2,4.7c1.2,0.1,2.3,0.2,3.3,0.2
				C174.7,384.5,173.6,384.2,172.7,384z"/>
			<path class="st3" d="M121.4,372.5c-6.1-1.5-12.1-2.9-15.8-3.7C110.3,370,115.4,371.3,121.4,372.5z"/>
			<path class="st3" d="M45.3,337.6c1.8,4.9,12.9,16.2,27.5,20.6c8.6,2.7,16.4,5.7,27.1,8.8c-1.9-0.8-3.6-1.7-3.6-1.7l2.4-7.3
				c-14.3-4.6-26.3-8.6-30.5-10.4c-19.2-8.2-20.9-12-19.2-23.8C48.5,324.5,44.2,334.9,45.3,337.6z"/>
			<path class="st0" d="M158.5,355.5c1.5,0,2.9,0.1,4.2,0.1c-1.7-0.1-2.8-0.2-3-0.2c-0.6,0-4.7-1.9-9.1-4.1
				C153.7,353,156.4,354.5,158.5,355.5z"/>
			<path class="st0" d="M127,373.6c-2-0.4-3.8-0.8-5.7-1.1c10.5,2.5,21.5,5.1,21.5,5.1s4.3,0.9,9.6,2.1
				C146.4,378,138.5,375.9,127,373.6z"/>
			<path class="st0" d="M105.6,368.8c-2-0.6-4-1.1-5.8-1.6c0.9,0.4,1.7,0.7,2.5,0.9C102.7,368.1,103.9,368.3,105.6,368.8z"/>
			<path class="st0" d="M169.9,382.2c6.7,0.5,15,0.1,15,0.1c-1.8,1.6-0.9,2.8-9,2.3c3.5,0.6,8,0.8,11-3.9c4.1-6.3,9.5-16.3,9.4-17.5
				s-0.8-0.4-0.8-0.4c-2.5-1-5-2.6-8.8-3.2c-8.1-1.4-19-1.1-28-0.4l-5.1,7.8l2-8.6c-15.3-8.2-33-17.3-49-24.5l-2.6,12.5l-5.5,11.7
				C100.1,366.9,156.6,381.1,169.9,382.2z"/>
			<path class="st4" d="M155.7,358.5l-3.5,11.1l6.9-9.8c13.2-0.9,36.2,3.9,33.3,10.1c0,0,5.3-6.4,2.7-8.4c-1.8-1.4-7.6-2.9-12.9-3.6
				c-6.3-0.8-14.6-1.9-19.5-2.2l0,0c-1.4,0-2.8-0.1-4.2-0.1c-2.1-1.1-4.8-2.5-7.9-4.2c-0.1,0-0.1-0.1-0.2-0.1
				c-5.4-2.6-11-5.5-11-5.5l-28.7-14.1l-3-0.6l-1,3C122.6,341.1,140.3,350.3,155.7,358.5z"/>
			<path class="st5" d="M55.9,318.5c11.8-0.4,30.5,6.2,50.8,15.4l1-3l3,0.6l28.7,14.1c0,0,6.7,4.1,12,6.8
				C125.9,338.7,70.7,307.3,55.9,318.5z"/>
			<path class="st6" d="M96.2,365.4c0,0,1.7,0.9,3.6,1.7l0,0c1.8,0.6,3.8,1.1,5.8,1.6c3.6,0.9,9.6,2.3,15.8,3.7
				c1.8,0.4,3.7,0.8,5.7,1.1c11.5,2.2,19.3,4.3,25.4,6.1c7.9,1.7,18.2,4,20.3,4.3c0.9,0.1,3.6,1,4.9,1.2c8.1,0.4,11.7-7.4,13.3-11.2
				c0,0-3.8,4.8-12.2,5.7c-6.1,0.7-16.8-3.2-27.7-8.1c0,0-41.2-2.9-51.2-13.6L96.2,365.4z"/>
			<path class="st6" d="M98.2,355c0.1,0,0.1,0.1,0.2,0.1c-2.7,7.2-3.5,10.6-3.5,10.6l-1.8-0.7C93.1,365,96.4,357.9,98.2,355z"/>
			<path class="st6" d="M102.8,340.3c-0.1,0-0.2-0.1-0.2-0.1c1.5-7.5,1.7-11,1.7-11l1.9,0.4C106.2,329.6,104.1,337.2,102.8,340.3z"
				/>
			<polygon class="st6" points="152.2,369.5 156.8,354.8 158.3,356.3 			"/>
			<path class="st3" d="M89.8,345.9c0.1,0,0.1,0,0.2,0.1c-2.3,6.6-3,9.7-3,9.7l-1.9-0.5C85.1,355.2,88.3,348.2,89.8,345.9z"/>
			
				<ellipse transform="matrix(0.3854 -0.9228 0.9228 0.3854 -222.8473 396.2482)" class="st4" cx="186" cy="365.4" rx="0.4" ry="4.2"/>
			
				<ellipse transform="matrix(0.4045 -0.9145 0.9145 0.4045 -241.0517 337.6179)" class="st7" cx="138.7" cy="353.9" rx="0.5" ry="12.5"/>
			<path class="st8" d="M192.2,370.4c0.8-2.4,2.4-5.6,2.4-6.7l-1.4,0.1l1.2-0.8c-0.3-1.4-7.8-4.1-12.3-4.7c0,0,9.9,1,12.1,2.8
				c2.2,1.7,2.8,1.3,2,3.4S192.2,370.4,192.2,370.4z"/>
			<path class="st8" d="M106.3,342.6l2.2-11.3l16.8,8.3c-4.8-1.6-16-6.5-16-6.5L106.3,342.6z"/>
			<path class="st6" d="M178.8,356.4c-0.1,0.4-0.3,0.8-0.6,1.3c-4.6,7.4-27.3,13.9-27.3,13.9l-7.9,0.8l-26.7-6.4l10.5-5.7l28-5.9
				l2.4-0.5c0.7,0.4,1.2,0.6,1.4,0.7C161,354.8,170,355.2,178.8,356.4z"/>
			<path class="st6" d="M196.8,362.1c-1.6-2.7-9.7-4.5-18-5.7c-8.8-1.2-17.8-1.6-20.1-1.7c-0.2-0.1-0.7-0.4-1.4-0.7
				c-5.3-2.7-24.2-12.3-60.6-30.2c-17.5-8.6-31.3-10.6-41-6.1c-8.5,4-10.5,11.7-10.7,12.3c-1.1,3.6-0.5,7.3,1.5,10.8
				c9.7,16.6,50.5,26.3,52.3,26.7c3,0.8,72.3,18.3,80.9,18.3c0.1,0,0.3,0,0.4,0c6.3-0.5,11.1-10.3,15.3-18.4c0.5-1.1,1-2.1,1.5-2.9
				C197.3,363.8,197.3,362.9,196.8,362.1z M47.9,340.1c-1.9-3.2-2.3-6.4-1.4-9.7l0,0c0-0.1,1.9-7.5,9.9-11.3
				c3.1-1.5,6.8-2.2,10.8-2.2c7.9,0,17.5,2.8,28.8,8.3c3.9,1.9,7.5,3.7,11,5.4c-1.5,12.7-4.8,20.7-12.1,34.4
				C84.1,362.1,55.5,353.1,47.9,340.1z M195.5,363.9c-0.5,0.9-1,1.9-1.5,3c-3.7,7.3-8.6,17.1-14,17.6c-5.2,0.5-55.1-11.8-80.7-18.3
				c-0.1,0-1.1-0.3-2.7-0.7c7-13.2,10.5-21.6,12-34.1c25.6,12.6,40.4,20.1,46.4,23.2c2.2,1.1,3.2,1.6,3.3,1.7l0.2,0.1h0.2
				c6,0,13.2,0.6,19.7,1.4c8.6,1.2,16,3,17.3,5.2C195.7,363.2,195.7,363.5,195.5,363.9z"/>
		</g>
		<g>
			<path class="st2" d="M195.9,330.2c0,0-6.5-27.4-50.6-5.7c-44.1,21.7-62.2,31-62.2,31s-41.5,1.5-37.7,8.7s9.5,20.4,16.2,20.9
				s81-18.3,81-18.3S202.5,352.9,195.9,330.2z"/>
			<path class="st3" d="M69,384c2-0.3,12.3-2.6,20.3-4.3c-8.4,2.4-13.4,4.2-20.2,4.7c-1.2,0.1-2.3,0.2-3.3,0.2
				C67,384.5,68.1,384.2,69,384z"/>
			<path class="st3" d="M120.3,372.5c6.1-1.5,12.1-2.9,15.8-3.7C131.4,370,126.3,371.3,120.3,372.5z"/>
			<path class="st3" d="M196.4,337.6c-1.8,4.9-12.9,16.2-27.5,20.6c-8.6,2.7-16.4,5.7-27.1,8.8c1.9-0.8,3.6-1.7,3.6-1.7L143,358
				c14.3-4.6,26.3-8.6,30.5-10.4c19.2-8.3,20.8-12.1,19.2-23.9C193.2,324.5,197.5,334.9,196.4,337.6z"/>
			<path class="st0" d="M83.2,355.5c-1.5,0-2.9,0.1-4.2,0.1c1.7-0.1,2.8-0.2,3-0.2c0.6,0,4.7-1.9,9.1-4.1
				C88,353,85.3,354.5,83.2,355.5z"/>
			<path class="st0" d="M114.7,373.6c2-0.4,3.8-0.8,5.7-1.1c-10.5,2.5-21.5,5.1-21.5,5.1s-4.3,0.9-9.6,2.1
				C95.3,378,103.1,375.9,114.7,373.6z"/>
			<path class="st0" d="M136.1,368.8c2-0.6,4-1.1,5.8-1.6c-0.9,0.4-1.7,0.7-2.5,0.9C139,368.1,137.8,368.3,136.1,368.8z"/>
			<path class="st0" d="M71.8,382.2c-6.7,0.5-15,0.1-15,0.1c1.8,1.6,0.9,2.8,9,2.3c-3.5,0.6-8,0.8-11-3.9
				c-4.1-6.3-9.5-16.3-9.4-17.5s0.8-0.4,0.8-0.4c2.5-1,5-2.6,8.8-3.2c8.1-1.4,19-1.1,28-0.4l5,7.8l-2-8.6c15.3-8.2,33-17.3,49-24.5
				l2.6,12.5l5.5,11.7C141.6,366.9,85.1,381.1,71.8,382.2z"/>
			<path class="st4" d="M86,358.5l3.5,11.1l-6.9-9.8c-13.2-0.9-36.2,3.9-33.3,10.1c0,0-5.3-6.4-2.7-8.4c1.8-1.4,7.6-2.9,12.9-3.6
				c6.3-0.8,14.6-1.9,19.5-2.2l0,0c1.4,0,2.8-0.1,4.2-0.1c2.1-1.1,4.8-2.5,7.9-4.2c0.1,0,0.1-0.1,0.2-0.1c5.4-2.6,11-5.5,11-5.5
				l28.7-14.1l3-0.6l1,3C119,341.1,101.4,350.3,86,358.5z"/>
			<path class="st5" d="M185.8,318.5c-11.8-0.4-30.5,6.2-50.8,15.4l-1-3l-3,0.6l-28.7,14.1c0,0-6.7,4.1-12,6.8
				C115.8,338.7,171,307.3,185.8,318.5z"/>
			<path class="st6" d="M145.5,365.4c0,0-1.7,0.9-3.6,1.7l0,0c-1.8,0.6-3.8,1.1-5.8,1.6c-3.6,0.9-9.6,2.3-15.8,3.7
				c-1.8,0.4-3.7,0.8-5.7,1.1c-11.5,2.2-19.3,4.3-25.4,6.1c-7.9,1.7-18.2,4-20.3,4.3c-0.9,0.1-3.6,1-4.9,1.2
				c-8.1,0.4-11.7-7.4-13.3-11.2c0,0,4.9,6.3,13.3,7.3c6.1,0.7,16-2.6,26.9-7.5c0,0,40.8-5,50.8-15.6L145.5,365.4z"/>
			<path class="st6" d="M143.5,355c-0.1,0-0.1,0.1-0.2,0.1c2.7,7.2,3.5,10.6,3.5,10.6l1.8-0.7C148.6,365,145.3,357.9,143.5,355z"/>
			<path class="st6" d="M138.9,340.3c0.1,0,0.2-0.1,0.2-0.1c-1.5-7.5-1.7-11-1.7-11l-1.9,0.4C135.5,329.6,137.6,337.2,138.9,340.3z"
				/>
			<polygon class="st6" points="89.5,369.5 84.9,354.8 83.4,356.3 			"/>
			<path class="st3" d="M151.9,345.9c-0.1,0-0.1,0-0.2,0.1c2.3,6.6,3,9.7,3,9.7l1.9-0.5C156.6,355.2,153.4,348.2,151.9,345.9z"/>
			
				<ellipse transform="matrix(0.9228 -0.3854 0.3854 0.9228 -136.519 49.692)" class="st7" cx="55.7" cy="365.4" rx="4.2" ry="0.4"/>
			
				<ellipse transform="matrix(0.9145 -0.4045 0.4045 0.9145 -134.3464 71.9059)" class="st7" cx="103" cy="353.9" rx="12.5" ry="0.5"/>
			<path class="st7" d="M49.5,370.4c-0.8-2.4-2.4-5.6-2.4-6.7l1.4,0.1l-1.2-0.8c0.3-1.4,7.8-4.1,12.3-4.7c0,0-9.9,1-12.1,2.8
				c-2.2,1.7-2.8,1.3-2,3.4S49.5,370.4,49.5,370.4z"/>
			<path class="st7" d="M135.4,342.6l-2.2-11.3l-16.8,8.3c4.8-1.6,16-6.5,16-6.5L135.4,342.6z"/>
			<path class="st6" d="M196.6,330c-0.1-0.5-2.1-8.2-10.7-12.3c-9.7-4.6-23.5-2.5-41,6.1c-41.5,20.4-60.1,29.9-62,30.9
				c-4.4,0-34.7,1.7-38.1,7.3c-0.5,0.8-0.5,1.6,0,2.5s1,1.9,1.5,2.9c4.1,8.1,9,17.9,15.3,18.4c0.1,0,0.2,0,0.4,0
				c8.6,0,77.9-17.6,80.9-18.3c1.7-0.4,42.5-10.1,52.3-26.7C197.2,337.3,197.7,333.7,196.6,330z M142.5,366.1
				c-25.7,6.5-75.6,18.8-80.7,18.3c-5.4-0.5-10.3-10.2-14-17.6c-0.5-1.1-1.1-2.1-1.5-3c-0.2-0.4-0.2-0.7,0-1
				c2.3-3.8,23.1-6.5,37-6.6h0.2l0.2-0.1c0.2-0.1,15-7.7,49.7-24.9c1.5,12.5,5,20.9,12,34.1C143.6,365.9,142.6,366.1,142.5,366.1z
				 M193.8,340.1c-7.6,13-36.2,21.9-47.1,24.9c-7.3-13.7-10.6-21.7-12.1-34.4c3.5-1.7,7.1-3.5,11-5.4c11.2-5.5,20.9-8.3,28.8-8.3
				c4.1,0,7.7,0.7,10.8,2.2c8,3.8,9.9,11.2,9.9,11.3l0,0C196.1,333.7,195.7,336.9,193.8,340.1z"/>
		</g>
		<path class="st3" d="M78.4,327.1c0,0,2.5,2,1.8,3.3c-0.7,1.4-3,3.8-3,3.8s3.4,6,2.7,8.8c-0.7,2.9-12.3,7.3-12.3,7.3l-4-3.3
			l-0.3-8.1l7.9-8.3L78.4,327.1"/>
		<path class="st3" d="M164.2,327.4c0,0-2.5,2-1.8,3.3s3,3.8,3,3.8s-3.4,6-2.7,8.8c0.7,2.9,12.3,7.3,12.3,7.3l4-3.3l0.3-8.1
			l-7.9-8.3L164.2,327.4"/>
		<g>
			<g>
				<polygon class="st9" points="132.2,247.1 130.1,242.3 124.7,238.4 124.3,238.7 122.7,240 122.3,240.4 120.5,245.7 118.6,240.4 
					118.2,240 116.7,238.7 116.3,238.4 110.9,242.3 108.8,247.1 106.4,253.2 108.8,259.8 120.5,273.8 132.2,259.8 134.5,253.2 				
					"/>
				<path class="st6" d="M120.5,274.8l-12.3-14.7l-2.4-6.9l2.4-6.4l2.2-5l6-4.3l2.9,2.4l1.3,3.8l1.3-3.8l2.9-2.4l6,4.3l2.2,5
					l2.4,6.4l-2.4,6.9L120.5,274.8z M109.3,259.5l11.1,13.3l11.1-13.3l2.2-6.3l-2.2-5.9l-2-4.6l-4.9-3.5l0,0l-1.8,1.5l-2.4,7l-2.4-7
					l-1.8-1.5l-4.9,3.5l-2,4.6l-2.2,5.9L109.3,259.5z"/>
			</g>
			<path class="st10" d="M122.9,240.6c0,0,5.4,4.8,7.3,11.6c0.3,1,0.4,2,0.5,3c1.2-2.6,2.1-4.8,2.8-6.7c-0.4-0.5-0.8-0.9-1.2-1.4
				c-2.4-2.6-5.5-5-9.4-7.1V240.6z"/>
			<path class="st10" d="M118.1,240.6c0,0-5.4,4.8-7.3,11.6c-0.3,1-0.4,2-0.5,3c-1.2-2.6-2.1-4.8-2.8-6.7c0.4-0.5,0.8-0.9,1.2-1.4
				c2.4-2.6,5.5-5,9.4-7.1L118.1,240.6z"/>
			<g>
				<circle class="st6" cx="120.5" cy="248.7" r="1.7"/>
				<path class="st9" d="M120.7,248.3c0.1,0,0.2,0,0.3,0.1c-0.1-0.2-0.3-0.4-0.6-0.4c-0.4,0-0.7,0.3-0.7,0.7c0,0.1,0,0.3,0.1,0.4
					C119.9,248.6,120.3,248.3,120.7,248.3z"/>
			</g>
		</g>
		<g>
			<path class="st1" d="M192.2,347.1c-3.8,9.4-27.9-4.5-27.9-4.5c-0.9-0.6-1.3-1.8-0.9-2.8l2.6-7.5c0,0-5.2-6.2-3.2-7.6
				c2-1.5,7.8-4.3,8.4-7.3c0.5-2.9,9-37.8-6.1-66.4c0,0.4-1.4,17.3-2.9,34.1c-1.2,14.4-2.5,28.7-2.8,32.5c-0.1,0.6-0.4,0.5-0.4,0.5
				l-38.5,12.1v-72.8l17.2-29.1l1.8-19.6l8.8,3.5l7.9,3.2l2.6,1l4.6,1.8c0,0,1.3,0.9,3.4,2.6c3.1,2.5,7.9,6.8,13,13
				C195.9,253,214.8,290.5,192.2,347.1z"/>
			<path class="st5" d="M171.6,315.1c-0.2,1.1-0.4,1.8-0.4,2.1c-0.5,3-6.4,5.9-8.4,7.3c-1.5,1.1,1.1,4.8,2.4,6.6
				c0.5,0.7,0.6,1.5,0.4,2.3l-2.2,6.3c-0.4,1,0,2.2,0.9,2.8c0,0,24.1,14,27.9,4.5c3.2-7.9,5.5-15.4,7.2-22.6
				C186.9,319.3,177,316.5,171.6,315.1z"/>
			<path class="st11" d="M164.4,247.9c0,0,19.8,18.9,14.5,66.1c9.1,3.3,21.4,7.6,21.4,7.6l-0.9,2.9l-27.8-9.4c0,0,5.6-26.9,1.6-40.6
				C169.2,260.9,164.4,247.9,164.4,247.9z"/>
			<path class="st12" d="M163.7,218.3c0,0,44.9,40.5,31.8,101c3,1.2,4.8,0.9,4.8,0.9s3.4-20.8,2.1-30.6c-1.3-9.8-2.4-23-12.1-41.2
				c-9.7-18.1-25.8-30.4-25.8-30.4L163.7,218.3z"/>
			<path class="st6" d="M199.8,320.4c-5-2.1-11-3.8-18.5-5.5c6.8,2.6,13.7,5,18.5,7.2V320.4z"/>
			<path class="st12" d="M199.9,307.3c0,0-3.9-1.4-12.9-3.1c11.8,0.3,13.8,1.9,13.8,1.9L199.9,307.3z"/>
			<path class="st6" d="M173.3,300.7c0,0,11.3-1.5,16.1,0.6c-8.7-0.4-16,1.3-16,1.2C173.3,300.7,173.3,300.7,173.3,300.7z"/>
			<path class="st6" d="M196.8,262.1c0,0-7.3,0.9-9.6,3.5c5.2-2,10-1.9,10-2C196.8,262.1,196.8,262.1,196.8,262.1z"/>
			<path class="st7" d="M172.3,337.7c0,0,12.1,3.3,19.1,4l4.9-15.1l2.3,1l-5.6,17.8C193,345.5,184.5,345.2,172.3,337.7z"/>
			<path class="st13" d="M198.6,327.7c-6.6-3.1-13.7-5-20.6-4.9c-1.1,5-3.1,10-5.7,15c0,0,9.8,6.3,20.4,8c-2.8,4-2.3,6.3-11,4.1
				c-8.7-2.2-18.4-8.4-18.4-8.4l1.6-5.9l1.1-3.3l-3-4.5l-0.5-2.8l3.7-2.1l4-3.6l1.4-3.9c9.5,2.9,18.7,6.1,27.7,9.6L198.6,327.7z"/>
			<path class="st5" d="M166.8,325.6c0.3-0.5,0.6-0.9,1-1.3s0.8-0.7,1.2-1s0.9-0.5,1.4-0.8c0.5-0.2,1-0.4,1.6-0.5l0,0
				c-0.3,0.5-0.7,0.9-1.1,1.2c-0.4,0.4-0.8,0.7-1.2,1s-0.9,0.6-1.4,0.8C167.8,325.3,167.3,325.5,166.8,325.6z"/>
			<path class="st6" d="M192.4,346c0,0-10.1-1.8-14.5-5.2c8.2,2.9,15.1,3.7,15.1,3.7L192.4,346z"/>
			<polygon class="st6" points="169,345.1 172,341.6 170.3,345.6 			"/>
			<polygon class="st6" points="176.5,348.3 179.5,344.8 177.9,348.7 			"/>
			<polygon class="st6" points="183.2,350 184.9,347.9 183.9,350.2 			"/>
			<path class="st11" d="M164.7,249.9l-4.7,67.9c-4.7,1.4-9.7,3.4-15,6.1c-9.3,4.6-17.5,8.6-24.5,12.1v-5.9l35.5-14.3l0.4-4.7
				l-19.1,4.4l19.4-9.1l7.7-58.3L164.7,249.9z"/>
			<path class="st6" d="M191.9,249.4c-4.5-8.6-9.7-15.4-14.4-20.5c-6.3-7-14.3-12.4-23.2-15.7l-15.5-5.8l-1.9,20.4l-17.2,29.1
				l0.8,70.6l0.8-1.7v-68.4l17.2-29.1l1.7-18.8l13.2,4.9c9.2,3.4,17.4,9,23.8,16.3c13.9,15.8,32.1,46.5,21.6,92.7
				c-8.2-3.9-17-6.8-26.4-8.9c2.8-15,5.2-41.5-6.7-64.1l-1.3-2.5l-0.1,2.8c0,1.2-5.1,61.1-5.7,67.5l1.4,0.8l0.1-0.9
				c1.5-17.2,4.6-54.2,5.5-64.5c10.8,22.7,7.8,48.8,5,62.6c-0.1,0.4-0.1,0.7-0.2,0.9c-0.3,2-3.9,4.2-6.2,5.6
				c-0.8,0.5-1.4,0.9-1.9,1.2c-0.4,0.3-0.7,0.8-0.7,1.3c-0.2,2.1,2.5,5.8,3.6,7.1l-2.5,7.1c-0.5,1.4,0,2.9,1.2,3.7
				c0.6,0.4,13.7,7.9,22.2,7.9c1.2,0,2.3-0.1,3.2-0.5c1.7-0.6,2.9-1.7,3.5-3.3C211,302.2,202.3,269.1,191.9,249.4z M191.5,346.8
				c-0.5,1.2-1.3,2-2.6,2.4c-7.2,2.5-24-7.2-24.2-7.3c-0.6-0.4-0.9-1.2-0.6-1.9l2.4-7c0.3-0.8,1.9-3.9,3.3-5.9
				c-1.4,1.1-3.1,2.5-3.9,3.7c-1.4-1.8-3-4.2-2.8-5.4c0-0.2,0.1-0.2,0.1-0.3c0.4-0.3,1.1-0.7,1.8-1.2c2.7-1.7,6.4-4,6.9-6.6
				c0-0.2,0.1-0.5,0.2-0.9c0-0.1,0.1-0.3,0.1-0.4c9.3,1.8,18,4.8,26.3,8.9C196.8,331.9,194.5,339.2,191.5,346.8z"/>
		</g>
		<g>
			<path class="st1" d="M120.5,257.3V331l-38.9-13.7c0,0-0.1-0.2-0.3-2.5c-0.5-5.9-1.5-17.8-2.6-29.8c-1.4-16.8-2.9-33.7-2.9-34.1
				c-15.1,28.7-6.6,63.6-6.1,66.4c0.5,3,6.4,5.8,8.4,7.3s-3.2,7.6-3.2,7.6l2.6,7.5c0.4,1,0,2.2-0.9,2.8c0,0-24.1,14-27.9,4.5
				c-34.8-87,28.7-129,28.8-129l9.1-3.6l14.9-5.9l1.8,19.6L120.5,257.3z"/>
			<path class="st5" d="M69.4,315.1c0.2,1.1,0.4,1.8,0.4,2.1c0.5,3,6.4,5.9,8.4,7.3c1.5,1.1-1.1,4.8-2.4,6.6
				c-0.5,0.7-0.6,1.5-0.4,2.3l2.2,6.3c0.4,1,0,2.2-0.9,2.8c0,0-24.1,14-27.9,4.5c-3.2-7.9-5.5-15.4-7.2-22.6
				C54,319.3,64,316.5,69.4,315.1z"/>
			<path class="st11" d="M76.5,247.9c0,0-19.8,18.9-14.5,66.1c-9.1,3.3-21.4,7.6-21.4,7.6l0.9,2.9l27.8-9.4c0,0-5.6-26.9-1.6-40.6
				C71.7,260.9,76.5,247.9,76.5,247.9z"/>
			<path class="st12" d="M86.5,214.5c0,0-52.4,24.6-41.1,104.8c-3,1.2-4.8,0.9-4.8,0.9s-3.4-20.8-2.1-30.6c1.3-9.8,2.4-23,12.1-41.2
				c9.7-18.1,25.8-30.4,25.8-30.4L86.5,214.5z"/>
			<path class="st6" d="M41.1,320.4c5-2.1,11-3.8,18.5-5.5c-6.8,2.6-13.7,5-18.5,7.2V320.4z"/>
			<path class="st12" d="M41.1,308.8c0,0,3.9-2.9,12.9-4.6c-11.8,0.3-13.8,1.9-13.8,1.9L41.1,308.8z"/>
			<path class="st12" d="M50.3,254c0,0,7.3-0.9,10.5-0.4c-4.4-3-10.4-2.4-10.4-2.4L50.3,254z"/>
			<path class="st6" d="M67.6,300.7c0,0-11.3-1.5-16.1,0.6c8.7-0.4,16,1.3,16,1.2C67.6,300.7,67.6,300.7,67.6,300.7z"/>
			<path class="st7" d="M68.6,337.7c0,0-12.1,3.3-19.1,4l-4.9-15.1l-2.3,1l5.6,17.8C48,345.5,56.4,345.2,68.6,337.7z"/>
			<path class="st13" d="M42.3,327.7c6.6-3.1,13.7-5,20.6-4.9c1.1,5,3.1,10,5.7,15c0,0-9.8,6.3-20.4,8c2.8,4,2.3,6.3,11,4.1
				s18.4-8.4,18.4-8.4l-1.6-5.9l-1.1-3.3l3-4.5l0.5-2.8l-3.7-2.1l-4-3.6l-1.4-3.9c-9.5,2.9-18.7,6.1-27.7,9.6L42.3,327.7z"/>
			<path class="st5" d="M74.2,325.6c-0.3-0.5-0.6-0.9-1-1.3s-0.8-0.7-1.2-1c-0.4-0.3-0.9-0.5-1.4-0.8c-0.5-0.2-1-0.4-1.6-0.5l0,0
				c0.3,0.5,0.7,0.9,1.1,1.2c0.4,0.4,0.8,0.7,1.2,1c0.4,0.3,0.9,0.6,1.4,0.8C73.1,325.3,73.6,325.5,74.2,325.6z"/>
			<path class="st6" d="M48.5,346c0,0,10.1-1.8,14.5-5.2c-8.2,2.9-15.1,3.7-15.1,3.7L48.5,346z"/>
			<polygon class="st6" points="72,345.1 69,341.6 70.6,345.6 			"/>
			<polygon class="st6" points="62.8,348.3 59.8,344.8 61.4,348.7 			"/>
			<polygon class="st6" points="56.1,350 54.4,347.9 55.4,350.2 			"/>
			<path class="st11" d="M76.2,249.9l4.7,67.9c4.7,1.4,9.7,3.4,15,6.1c9.3,4.6,17.5,8.6,24.5,12.1v-5.8l-35.5-14.4l-0.7-11.3l8,1.4
				l-8.4-6.1L76.5,248L76.2,249.9z"/>
			<path class="st6" d="M104,227.9l-1.9-20.4l-15.5,5.8c-8.9,3.3-16.9,8.6-23.2,15.7c-4.6,5.1-9.8,12-14.4,20.5
				c-10.4,19.7-19.1,52.7-1,97.9c0.6,1.6,1.8,2.7,3.5,3.3c1,0.3,2,0.5,3.2,0.5c8.5,0,21.6-7.5,22.2-7.9c1.2-0.9,1.7-2.4,1.2-3.7
				l-2.5-7.1c1.1-1.3,3.8-4.9,3.6-7.1c-0.1-0.6-0.3-1-0.7-1.3c-0.5-0.3-1.1-0.8-1.9-1.2c-2.3-1.4-5.8-3.6-6.2-5.6
				c0-0.2-0.1-0.5-0.2-0.9c-2.8-13.8-5.8-40,5-62.6c0.9,10.4,4,47.3,5.5,64.5l0.1,0.9l1.5-0.2c-0.6-6.4-5.7-66.9-5.8-68l-0.1-2.8
				l-1.3,2.5c-11.9,22.6-9.5,49.2-6.7,64.1c-9.4,2.1-18.2,5-26.4,8.9c-10.4-46.1,7.8-76.9,21.6-92.7c6.5-7.4,14.7-12.9,23.8-16.3
				l13.2-4.9l1.7,18.8l17.2,29.1V336l1.1,1.5l0.5-0.3v-80.1L104,227.9z M68.8,316.1c0,0.1,0.1,0.3,0.1,0.4c0.1,0.4,0.1,0.7,0.2,0.9
				c0.5,2.7,4.2,5,6.9,6.6c0.7,0.5,1.4,0.8,1.8,1.2c0,0,0.1,0.1,0.1,0.3c0.1,1.2-1.4,3.7-2.9,5.4c-0.8-1.2-2.4-2.7-3.9-3.8
				c1.7,2.4,3,5.1,3.3,5.9l2.4,7c0.2,0.7,0,1.5-0.6,1.9c-0.1,0.1-17,9.8-24.2,7.3c-1.3-0.4-2.1-1.2-2.6-2.4c-3-7.6-5.3-14.9-7-21.8
				C50.8,320.9,59.5,317.9,68.8,316.1z"/>
		</g>
		<g>
			<path class="st11" d="M120.9,283.2L98.1,231c0,0-12.8,2-11.5,23.1l9.5,2.3l-2.8,9.8c-0.9,2.6-0.4,2.6,1.2,3.5L120.9,283.2z"/>
			<path class="st12" d="M87,253.8c0,0,0.7-18.1,11.1-21.1c0-1-0.2-2.1-2.2-0.9c-2,1.2-5.4,3.1-6.9,6.9c-1.4,3.8-2.3,8.5-2.4,10.6
				s0.1,4.6,0.1,4.6L87,253.8z"/>
			<path class="st12" d="M97.9,251.8l-3.3,16l25.4,14.5l-26.7-13c0,0-0.7-0.3-0.3-2.7c0.5-2.4,3.8-12.1,3.8-12.1L97.9,251.8z"/>
			<path class="st6" d="M98.1,250.9l-2.4,5.6l0.4,2l2.2-7.4C98.3,251.1,98.2,250.9,98.1,250.9z"/>
			<path class="st6" d="M98.5,230.3l-0.5,0.1c-0.1,0-13.3,2.3-12.1,23.7v0.5l9.3,2.3l-2.6,9.2c-0.9,2.6-0.5,3.2,1.3,4.1l26.5,13.5
				l1.2-0.7l-1.2-2.6L98.5,230.3z M94.5,269c-1.3-0.6-1.3-0.6-0.6-2.6l3-10.5l-9.7-2.4c-0.9-17.7,8.3-21.2,10.5-21.8l21.8,50
				L94.5,269z"/>
		</g>
		<g>
			<path class="st11" d="M120,283.2l22.8-52.1c0,0,12.8,2,11.5,23.1l-9.5,2.3l2.8,9.8c0.9,2.6,0.4,2.6-1.2,3.5L120,283.2z"/>
			<path class="st1" d="M152,238.8c-0.1-0.2-0.1-0.3-0.2-0.5c-0.5,0.3-1.1,0.6-1.6,0.9c3.4,6.3,3.8,14.6,3.8,14.6l0.4,0.1
				c0,0,0.1-2.5,0.1-4.6C154.3,247.2,153.4,242.6,152,238.8z"/>
			<path class="st12" d="M143,251.8l3.6,16.2l-25.7,14.3l26.7-13c0,0,0.7-0.3,0.3-2.7s-3.8-12.1-3.8-12.1L143,251.8z"/>
			<path class="st6" d="M142.8,250.9l2.4,5.6l-0.4,1.9L144,256l-1.4-5C142.7,250.9,142.7,250.9,142.8,250.9z"/>
			<path class="st6" d="M142.9,230.4l-0.5-0.1l-22,50.4v3l26.7-13.6c1.8-0.9,2.1-1.5,1.3-4.1l-2.6-9.2l9.3-2.3V254
				C156.2,232.7,143,230.4,142.9,230.4z M153.7,253.6L144,256l3,10.5c0.6,1.9,0.6,1.9-0.6,2.6l-25.1,12.8l21.8-50
				C145.4,232.4,154.6,235.9,153.7,253.6z"/>
			<polygon class="st12" points="131.7,261.4 121.3,281.8 130.6,260.7 			"/>
		</g>
		<g>
			<g>
				<path class="st10" d="M122.8,239.9c5.6,3,9.6,6.5,12.1,10.5c0.2,0.4,0.8,0.3,0.9-0.2l2.9-14.7l2.1-10.6L122.8,239.9z"/>
				<path class="st9" d="M134.8,247.7c0,0-3.3-4.6-10-7c2.7,2.3,5.8,4.2,7.2,5.8c1.5,1.8,3.2,4,3.2,4s0.5,0.7,0.9-1.2
					s2.7-15.3,2.7-15.3L134.8,247.7z"/>
				<path class="st6" d="M134.4,250.7c-2.5-4-6.5-7.5-11.9-10.3l-0.8-0.4l20-16.5l-5.3,26.8c-0.1,0.4-0.4,0.8-0.9,0.9
					c-0.1,0-0.1,0-0.2,0C135,251.2,134.6,251,134.4,250.7z M123.9,239.8c5.1,2.8,9,6.2,11.5,10.2l4.7-23.5L123.9,239.8z"/>
			</g>
			<g>
				<path class="st10" d="M118.1,239.9c-5.6,3-9.6,6.5-12.1,10.5c-0.2,0.4-0.8,0.3-0.9-0.2l-2.9-14.7l-2.1-10.6L118.1,239.9z"/>
				<path class="st9" d="M106.2,247.7c0,0,3.3-4.6,10-7c-2.7,2.3-5.8,4.2-7.2,5.8c-1.5,1.8-3.2,4-3.2,4s-0.5,0.7-0.9-1.2
					s-2.7-15.3-2.7-15.3L106.2,247.7z"/>
				<path class="st6" d="M105.6,251.2c-0.1,0-0.1,0-0.2,0c-0.4-0.1-0.8-0.4-0.9-0.9l-5.3-26.8l20,16.5l-0.8,0.4
					c-5.4,2.8-9.4,6.3-11.9,10.3C106.3,251,105.9,251.2,105.6,251.2z M101,226.5l4.7,23.5c2.5-3.9,6.3-7.4,11.5-10.2L101,226.5z"/>
			</g>
		</g>
		<g>
			<path class="st5" d="M172.8,173.8c3.2,1,4.9,6.4,4.4,11c-0.4,4.1-2.4,7.8-5.6,10.4c-3.3,2.7-8.5,3.9-10.6,0.5
				c-0.8-1.8-1.1-3.8-0.9-5.7c0.3-3.1,1.4-6.2,3.2-8.8C165.2,178.4,168.9,172.6,172.8,173.8z"/>
			<g>
				<path class="st6" d="M172.8,180.1c-0.6-1-1.5-1.3-2.5-1.2c0.6,0.1,1.1,0.5,1.5,1.1c1,1.6,0.7,4.1,0,6.3
					c-0.8,2.4-2.6,4.4-4.8,5.3c0.1,0.1,0.1,0.2,0.2,0.4c2.6-0.8,4.8-2.9,5.6-5.6C173.5,184.2,173.8,181.7,172.8,180.1z"/>
				<path class="st6" d="M173.1,184.6c-0.1,0.4-2.2,3.9-2,3.5c0.9-2.2,0.8-6.6-2.2-6.4c-0.7,0-0.8-1.4-0.2-2.1
					c0.5-0.5,1.8-0.8,2.5-0.6s1,0.6,1.3,1c0.2,0.2-0.1,0.6,0,0.8C173.2,181.9,173.4,183.3,173.1,184.6z"/>
				<path class="st13" d="M167.9,184.3c1.2,0.4-0.2,1.7,0.7,2.6c0.2,0.2,0.7,0.3,1.3-0.8c0.6-1,0.8-1.9-0.2-2.7
					c-0.3-0.3-1.1-0.4-1.5-0.2C167.8,183.4,167.5,184.2,167.9,184.3z"/>
			</g>
			<g>
				<path class="st13" d="M164.5,194.6L164.5,194.6c0.1,0,0.2,0,0.3,0c0.2,0,0.4,0,0.6,0c0.4,0,0.8-0.1,1.2-0.1
					c0.8-0.1,1.5-0.4,2.3-0.7c0.7-0.3,1.4-0.7,2.1-1.1c0.6-0.5,1.2-1.1,1.7-1.7c-0.4,0.7-0.9,1.4-1.5,2s-1.3,1.1-2,1.5
					s-1.5,0.8-2.3,1.1c-0.4,0.1-0.8,0.3-1.3,0.4c-0.2,0-0.4,0.1-0.7,0.1c-0.1,0-0.2,0-0.4,0c-0.1,0-0.3,0-0.5-0.1L164.5,194.6z"/>
			</g>
			<g>
				<g id="Path_349_23_">
					<path class="st5" d="M68.2,173.8c-3.2,1-4.9,6.4-4.4,11c0.4,4.1,2.4,7.8,5.6,10.4c3.3,2.7,8.5,3.9,10.6,0.5
						c0.8-1.8,1.1-3.8,0.9-5.7c-0.3-3.1-1.4-6.2-3.2-8.8C75.8,178.4,72,172.6,68.2,173.8z"/>
					<path class="st6" d="M75.9,198.5c-2.3,0-4.9-1-7.1-2.7c-3.4-2.6-5.5-6.6-5.9-10.9c-0.5-4.7,1.3-10.6,4.9-11.7l0,0
						c4.4-1.4,8.4,4.7,10.3,7.6c1.8,2.7,3,5.9,3.3,9.2c0.3,2.1,0,4.2-0.9,6.1v0.1c-0.8,1.3-2,2.1-3.5,2.3
						C76.7,198.4,76.3,198.5,75.9,198.5z M68.4,174.5c-2.8,0.9-4.3,6-3.9,10.2c0.3,3.9,2.3,7.4,5.3,9.8c2.2,1.8,5,2.7,7,2.3
						c1.1-0.2,1.9-0.7,2.4-1.6c0.8-1.6,1-3.5,0.8-5.3c-0.3-3-1.4-6-3.1-8.5C75.2,178.9,71.7,173.5,68.4,174.5z"/>
				</g>
				<g>
					<path class="st6" d="M74.5,191.8c-2.5-0.9-4.5-2.9-5.4-5.6c-0.6-2.1-0.9-4.6,0-6.3c0.4-0.7,0.9-1,1.5-1.1
						c-1-0.1-1.9,0.2-2.5,1.2c-1,1.6-0.7,4.1,0,6.3c1,3,3.5,5.3,6.5,5.9C74.6,192.1,74.5,192,74.5,191.8z"/>
					<path class="st6" d="M67.9,184.6c0.1,0.4,2.2,3.9,2,3.5c-0.9-2.2-0.8-6.6,2.2-6.4c0.7,0,0.8-1.4,0.2-2.1
						c-0.5-0.5-1.8-0.8-2.5-0.6s-1,0.6-1.3,1c-0.2,0.2,0.1,0.6,0,0.8C67.8,181.9,67.6,183.3,67.9,184.6z"/>
					<path class="st13" d="M72.8,184.3c-1.1,0.4,0.2,1.7-0.6,2.6c-0.2,0.2-0.7,0.3-1.3-0.8c-0.6-0.9-0.8-1.9,0.2-2.7
						c0.3-0.3,1.1-0.4,1.4-0.2C72.9,183.4,73.2,184.2,72.8,184.3z"/>
				</g>
				<path class="st13" d="M77,196c-0.1,0-0.2,0-0.3,0.1c-0.1,0-0.1,0-0.2,0s-0.3,0-0.4,0c-0.2,0-0.5-0.1-0.7-0.1
					c-0.4-0.1-0.8-0.2-1.3-0.4c-0.8-0.3-1.6-0.6-2.3-1.1c-0.7-0.4-1.4-1-2-1.5c-0.6-0.6-1.1-1.3-1.5-2c0.5,0.7,1.1,1.2,1.7,1.7
					c0.7,0.5,1.4,0.8,2.1,1.1s1.5,0.5,2.3,0.7c0.4,0.1,0.8,0.1,1.2,0.1c0.2,0,0.4,0,0.6,0c0.1,0,0.2,0,0.2,0h0.1l0,0L77,196z"/>
			</g>
			<path class="st6" d="M165,198.5c-0.4,0-0.8,0-1.1-0.1c-1.5-0.3-2.7-1.1-3.5-2.3V196c-0.9-1.9-1.2-4.1-0.9-6.2
				c0.3-3.2,1.5-6.4,3.3-9.1c1.9-2.9,5.9-9,10.3-7.6l0,0c3.6,1.2,5.4,7,4.9,11.8c-0.4,4.3-2.5,8.2-5.9,10.9
				C169.9,197.5,167.3,198.5,165,198.5z M161.7,195.3c0.5,0.9,1.4,1.4,2.4,1.6c2,0.4,4.8-0.6,7-2.3c3.1-2.4,5-6,5.3-9.8
				c0.4-4.2-1.1-9.3-3.9-10.2c-3.3-1-6.9,4.4-8.6,7c-1.7,2.6-2.8,5.5-3.1,8.5C160.6,191.8,160.9,193.7,161.7,195.3z"/>
		</g>
		<g>
			<path class="st14" d="M177.4,167.5c0,0-2.8,4.2-12.3,3.9s-4.2-11.1-4.2-11.1l15.8-3.3L177.4,167.5z"/>
			<path class="st6" d="M176,165.5c0,0-2.8,4.2-12.3,3.9c-9.4-0.2-4.2-11.1-4.2-11.1l15.8-3.3L176,165.5z"/>
			<path class="st6" d="M166,172.2c-0.3,0-0.5,0-0.8,0c-2.7-0.1-4.5-1-5.6-2.6c-2.2-3.5,0.6-9.3,0.7-9.5l0.2-0.3l17.1-3.6l0.7,11.6
				l-0.1,0.2C177.9,168.1,175.1,172.2,166,172.2z M161.5,161c-0.5,1.2-2.1,5.3-0.6,7.8c0.7,1.2,2.2,1.8,4.3,1.9
				c7.7,0.2,10.8-2.7,11.5-3.4l-0.6-9.3L161.5,161z"/>
		</g>
		<g>
			<path class="st14" d="M63.6,167.5c0,0,2.8,4.2,12.3,3.9s4.2-11.1,4.2-11.1L64.2,157L63.6,167.5z"/>
			<path class="st6" d="M65.1,165.5c0,0,2.8,4.2,12.3,3.9c9.4-0.2,4.2-11.1,4.2-11.1L65.8,155L65.1,165.5z"/>
			<path class="st6" d="M75.1,172.2c-9.1,0-12-4.1-12.2-4.3l-0.1-0.2l0.8-11.6l17.1,3.6l0.2,0.3c0.1,0.2,2.8,6,0.7,9.5
				c-1,1.7-2.9,2.5-5.6,2.6C75.6,172.2,75.3,172.2,75.1,172.2z M64.4,167.2c0.7,0.8,3.8,3.6,11.5,3.4c2.1-0.1,3.6-0.7,4.3-1.9
				c1.3-2.2,0.1-6.1-0.6-7.8l-14.6-3L64.4,167.2z"/>
		</g>
		<path class="st15" d="M73.9,150.8l3.4,50l26.3,39.5l16.9,2.6l16.9-2.6l26.3-39.5l3.4-50l-30.2-7.1c-10.3-2.4-20.9-2.5-31.2-0.1
			L73.9,150.8z"/>
		<path class="st16" d="M166.9,149.5l-0.2,6.5l-0.7,9.9c0,0-48.9-30.8-91.7-2.1c-0.2-2.3-0.4-9.7-0.4-9.7s28.6-13.8,43.6-14.1
			s38.1,2.1,38.1,2.1L166.9,149.5z"/>
		<g>
			<path class="st17" d="M85.4,154.5c0,0,1.4,13-4.9,20.3l-3.4,9.8l-1.4-25.1C75.7,159.4,81.8,156.5,85.4,154.5z"/>
			<path class="st6" d="M76.5,188.4L74.9,159l0.4-0.2c0.1,0,6.2-3,9.8-4.9l1-0.5l0.1,1.1c0.1,0.6,1.3,13.3-5,20.7L76.5,188.4z
				 M76.4,159.8l1.2,20.9l2.2-6.3l0.1-0.1c5-5.7,5-15.1,4.8-18.5C81.7,157.5,77.7,159,76.4,159.8z"/>
		</g>
		<g>
			<path class="st17" d="M156.1,155.1c0,0-1.4,13,4.9,20.3l3.4,9.8l1.4-25.1C165.9,160,159.7,157.1,156.1,155.1z"/>
			<path class="st6" d="M160.4,175.7c-6.4-7.5-5.1-20.1-5-20.7l0.1-1.1l1,0.5c3.6,2,9.7,4.9,9.8,4.9l0.4,0.2L165,189L160.4,175.7z
				 M156.8,156.3c-0.2,3.5-0.2,12.8,4.8,18.5l0.1,0.1l2.2,6.3l1.2-20.9C163.8,159.6,159.8,158,156.8,156.3z"/>
		</g>
		<path class="st6" d="M120.5,243.7l-17.4-2.7l-26.6-40v-0.2l-3.4-50.6l32.5-7.4c10.5-2.4,21.1-2.3,31.5,0.1l30.8,7.3l-3.4,50.8
			l-0.1,0.2L137.8,241L120.5,243.7z M104,239.6l16.5,2.5l16.5-2.5l26-39.1l3.3-49.1l-29.6-7c-10.2-2.4-20.6-2.5-30.8-0.1l-31.2,7.1
			l3.3,49.1L104,239.6z"/>
		<path class="st16" d="M154.7,192.7c0,0-7.7-1.9-13.8,10.8C149.4,196.2,154.7,192.7,154.7,192.7z"/>
		<path class="st16" d="M88.2,193.4c0,0,7.7-1.9,13.8,10.8C93.5,196.8,88.2,193.4,88.2,193.4z"/>
		<g>
			<path class="st16" d="M100.6,157.8c3.1-0.5,27.3-1.8,39.3-0.1c0,0-10.7-3.3-19.7-2.8s-19,2.7-19,2.7L100.6,157.8z"/>
			<polygon class="st16" points="130.7,156.3 136.7,162.9 133.2,156.3 			"/>
			<path class="st18" d="M100.4,157.5c0.7-0.2,3-1.3,3.7-1.5l2.2-0.6l2.3-0.5l2.3-0.4c3.1-0.5,6.2-0.8,9.4-0.8
				c3.1,0,6.3,0.4,9.3,0.9l2.3,0.4c0.8,0.1,1.5,0.3,2.3,0.5l2.3,0.6c0.7,0.2,3,1.2,3.8,1.5l-1.7-0.4l-2.2-0.5l-2.3-0.4l-2.3-0.4
				l-2.3-0.3c-3.1-0.4-6.1-0.6-9.2-0.6s-6.2,0.1-9.2,0.5l-2.3,0.3l-2.3,0.4l-2.3,0.5l-2.2,0.6L100.4,157.5z"/>
			<path class="st6" d="M100.4,157.5c0.8-0.2,1.6-0.5,2.4-0.7l2.4-0.6l2.5-0.5l2.5-0.4c3.4-0.5,6.8-0.6,10.1-0.6
				c3.4,0,6.8,0.3,10.1,0.7l2.5,0.4c0.8,0.1,1.7,0.3,2.5,0.5l2.4,0.6c0.8,0.2,1.6,0.4,2.4,0.7l-0.1,0.4l-2.4-0.5l-2.5-0.4l-2.5-0.4
				l-2.5-0.3c-3.3-0.4-6.6-0.6-10-0.6c-3.3,0-6.7,0.1-10,0.5l-2.5,0.3l-2.5,0.4l-2.4,0.5l-2.4,0.6L100.4,157.5z"/>
		</g>
		<g>
			<g>
				<path class="st16" d="M128.9,179.5c0,0,1,5.8,11.4,6.2C132.8,182.1,128.9,179.5,128.9,179.5z"/>
				<path class="st16" d="M112,179.5c0,0-1,5.8-11.4,6.2C108.1,182.1,112,179.5,112,179.5z"/>
			</g>
			<g>
				<g>
					<g>
						<path class="st6" d="M112,179.5c0,0-3.5-9.8-17.9-0.7C107.8,173.9,112,179.5,112,179.5z"/>
						<path class="st6" d="M109,176.7c-0.2,2.2-2,3.9-4.2,3.9c-2.2,0.1-4.1-1.6-4.4-3.7L109,176.7z"/>
						
							<ellipse transform="matrix(0.1137 -0.9935 0.9935 0.1137 -85.6125 260.3172)" class="st7" cx="103.1" cy="178.1" rx="0.6" ry="0.6"/>
					</g>
				</g>
				<g>
					<g>
						<path class="st6" d="M128.9,179.5c0,0,3.5-9.8,17.9-0.7C133.1,173.9,128.9,179.5,128.9,179.5z"/>
						<path class="st6" d="M132,176.7c0.2,2.2,2,3.9,4.2,3.9c2.2,0.1,4.1-1.6,4.4-3.7L132,176.7z"/>
						
							<ellipse transform="matrix(0.9935 -0.1137 0.1137 0.9935 -19.3807 16.4014)" class="st7" cx="134.1" cy="178.1" rx="0.6" ry="0.6"/>
					</g>
				</g>
			</g>
		</g>
		<g>
			<g>
				<path class="st16" d="M92.8,171.5c1.4-0.2,13-0.7,20.1,3.4c3,1.7,4.8,0.8,4.8,0.8s-6.2-5.8-11.9-6c-5.8-0.3-12.5,1.6-12.5,1.6
					L92.8,171.5z"/>
				<path class="st6" d="M92.8,171.1c0.6-0.2,1.1-0.5,1.7-0.7l1.7-0.6l1.7-0.4l1.7-0.3c2.2-0.3,4.4-0.2,6.5,0.2s4.2,1.1,6.2,2
					l1.5,0.8c0.5,0.3,1,0.6,1.5,0.9l1.4,1c0.5,0.4,0.9,0.7,1.4,1.1l-0.2,0.5l-1.4-0.9l-1.4-0.9l-1.5-0.8l-1.5-0.7
					c-2-0.9-4-1.5-6.1-1.9s-4.2-0.5-6.4-0.3l-1.6,0.2l-1.6,0.3l-1.6,0.4l-1.6,0.5L92.8,171.1z"/>
			</g>
			<g>
				<path class="st16" d="M149.3,172.5c-1.4-0.3-13.8-1.6-21,2.4c-2.3,1.3-4.1,0.3-4.1,0.3s6.5-5.4,12.2-5.4
					c5.8,0,12.4,2.3,12.4,2.3L149.3,172.5z"/>
				<path class="st6" d="M149.3,172c-0.5-0.3-1.1-0.5-1.6-0.8l-1.6-0.7l-1.6-0.5l-1.6-0.4c-2.2-0.4-4.4-0.4-6.5-0.2
					c-2.1,0.3-4.3,0.8-6.3,1.7l-1.5,0.7c-0.5,0.3-1,0.5-1.5,0.8l-1.5,0.9c-0.5,0.3-1,0.7-1.4,1.1l0.1,0.5l1.5-0.9l1.5-0.8l1.5-0.7
					l1.5-0.6c2-0.7,4.1-1.3,6.2-1.5c2.1-0.3,4.3-0.3,6.4,0l1.6,0.3l1.6,0.4l1.6,0.5l1.6,0.6L149.3,172z"/>
			</g>
		</g>
		<g>
			<path class="st9" d="M172.6,141.8l-49.9-2.9l-2.3,0.6l-2.3-0.6l-49.9,3l31.1-84.4c1.1-3.2,4.5-4.8,7.5-3.7c0.1,0,0.1,0.1,0.2,0.1
				l10.9,4.8h0.1c0.4,0.1,0.8,0.2,1.2,0.4c0.6,0.1,1.3,0.1,1.9,0l1.4-0.4h0.1l10.9-4.8c3-1.3,6.4,0.2,7.6,3.3c0,0.1,0.1,0.2,0.1,0.2
				L172.6,141.8z"/>
			<path class="st7" d="M111.1,113.5c-0.2-0.7-13.7,2.6-21.7,2.8c-2.5,0-7.8,0-8.8,2.6c-1.1,3.1-0.9,1.2-2.1,4.3
				C89.3,118.7,111.3,114.3,111.1,113.5z"/>
			<path class="st19" d="M138.8,58.4c0,0-1.1,1.6-3.6,3.2c-4.4,2.9-6.3,1.9-8.2,2.8c4.3,6.6,6.7,33.8,2.4,49c-1.1,3.9-3-0.1-4.9,2.5
				c-0.9,1.3-3.2,6.9-4.1,7.3c-1,0.4-3.7-9.4-4.8-9.3c-2.7,0.4-2.2,8.3-4.6,9.8c-4.7,2.9-5.2,8.9-7.6,12.1l53.1-7.8
				c-0.1,0.2,0.2,0.4,0.4,0.3l8.8-4.1c0.1-0.1,0.2-0.2,0.1-0.3l-25.2-68.1c0,0,0-0.1-0.1-0.1c-0.4-0.3-2.6-2-4.8-2.2
				c-1.6-0.2-7,2.5-5.3,2.2C134.7,54.8,138.1,55.8,138.8,58.4z"/>
			<path class="st10" d="M120.7,59.8c0,0,11.4-1.7,8.9,3.6c4.5-1.1,4.6-3.3,4.6-3.3s2.5-4.1,2.6-4.1s0.5-2.3,0.5-2.3l-2.3-0.3
				l-10,4.3L120.7,59.8z"/>
			<path class="st7" d="M102.8,57.2l3.1,10c-7.5,1.1-12,13.3-18.4,31.2c-0.1,0.2,0.1,0.4,0.3,0.4h7.7c0.2,0,0.3,0.3,0.1,0.4
				l-9.4,2.8c-0.1,0-0.1,0.1-0.1,0.1l-1.4,3.8c-2.6,7.1-2.7,14.9-0.5,22.1l0,0c0.1,0.2-0.2,0.4-0.4,0.3l-8.8-4.1
				c-0.1,0-0.1-0.2-0.1-0.3l25.2-68.2c0,0,0-0.1,0.1-0.1c0.3-0.3,2.5-2,4.8-2.2c1.6-0.2,5.3,2.3,3.7,1.9
				C104.6,54.4,103.3,56.1,102.8,57.2z"/>
			<path class="st10" d="M130.1,113.5c0.2-0.7,13.7,2.6,21.7,2.8c2.5,0,7.8,0,8.8,2.6c1.1,3.1,0.9,1.2,2.1,4.3
				C151.9,118.7,129.9,114.3,130.1,113.5z"/>
			<path class="st10" d="M138.8,58.4c3.7,9.4,9.3,37.2,15,54.4c3.2,9.8-13.4,15.2-15.3,15.5L157,128c-0.1,0.2,0.2,0.4,0.4,0.3
				l8.8-4.1c0.1-0.1,0.2-0.2,0.1-0.3l-25.2-68.1c0,0,0-0.1-0.1-0.1c-0.4-0.3-2.6-2-4.8-2.2c-1.6-0.2-2.1,1-0.5,0.5
				c1-0.3-0.6,0.8,0.4,1.5C137.5,56.3,138.5,57.8,138.8,58.4z"/>
			<path class="st6" d="M67.2,142.6l31.5-85.5c0.6-1.7,1.8-3.1,3.5-3.9c1.6-0.7,3.4-0.8,5-0.2c0.1,0,0.2,0.1,0.2,0.1l11,4.8
				c0.2,0.1,0.4,0.1,0.6,0.2c0.2,0.1,0.4,0.1,0.6,0.2c0.5,0.1,1,0.1,1.6,0l1.5-0.4l10.8-4.7c1.6-0.7,3.4-0.7,5,0
				c1.7,0.7,3,2,3.6,3.8c0,0.1,0.1,0.2,0.1,0.3l31.5,85.5l-50.9-3l-2.3,0.6l-2.3-0.6L67.2,142.6z M105,54.1c-0.7,0-1.4,0.2-2.1,0.5
				c-1.3,0.6-2.2,1.7-2.7,3L69.4,141l48.9-2.9l2.2,0.6l2.2-0.6h0.1l48.8,2.9l-30.7-83.3c0-0.1-0.1-0.1-0.1-0.2
				c-0.5-1.3-1.5-2.4-2.8-2.9c-1.2-0.5-2.6-0.5-3.8,0l-10.9,4.8c-0.1,0.1-0.3,0.1-0.4,0.1l-1.3,0.3c-1.6,0.3-3.6-0.3-3.6-0.3
				l-11.3-4.9C106.1,54.2,105.5,54.1,105,54.1z"/>
			<path class="st20" d="M177.6,167.2c-0.3,0.7-1.3,1-1.8,0.4l0,0c-7.6-8.3-19.9-13.9-33.7-16.8c-27.7-5.7-61.7-0.4-77,16.8l0,0
				c-0.5,0.6-1.5,0.4-1.8-0.4c-2-4.2-7.8-18.2-8.5-27c-0.3-3,0.1-5.4,1.4-6.5c14-9.9,54.7-19.3,56.7-19.9c1.2-0.4,2.2,0,2.5,1.4
				l4.1,13.6c0.3,1.1,1.7,1.1,2.1,0l4.1-13.6c0.2-1.4,1.3-1.8,2.5-1.4c2,0.6,42.7,9.9,56.7,19.9
				C189.8,138.1,180.3,161.6,177.6,167.2z"/>
			<polygon class="st21" points="73.3,125.3 112.7,116.6 118.8,128.3 115.1,113.9 113.5,113.7 109.8,114.4 			"/>
			<polygon class="st21" points="153.1,120.8 127.6,115.8 123.9,122.7 126.2,113.9 128.5,113.6 			"/>
			<path class="st22" d="M150.9,148c-2.9,1-5.8,1.9-8.8,2.8c-27.7-5.7-61.7-0.4-77,16.8l0,0c-0.5,0.6-1.5,0.4-1.8-0.4
				c-2-4.2-7.8-18.2-8.5-27c0.9,0.8,1.5,1.5,1.9,1.8c3.3,3.3,6.1,7.1,8,11.4c21.8-8.5,45.5-12.1,68.8-10.5
				C139.7,143.3,146.1,144.2,150.9,148z"/>
			<path class="st21" d="M70,127.2l-12.4,8.7l2.8,2.4l-3.4-0.6c-0.5,0.8-0.8,2.3-1.1,5.1c0,0-2-2.9-1-6c0,0.1,0.4-2,1.8-3.2
				c1.9-1.6,4.7-3,6.1-3.7L70,127.2z"/>
			<path class="st22" d="M154.5,121c0,0,34.8,14,27.5,22.8c3.4-6.1,3.9-7.6,3.9-7.6l-1-2.3l-5.4-3.4l-7.8-3.8l-14-5.1L154.5,121z"/>
			<path class="st22" d="M89.8,148c2.9,1,5.8,1.9,8.8,2.8c27.7-5.7,61.7-0.4,77,16.8l0,0c0.5,0.6,1.5,0.4,1.8-0.4
				c1.3-2.7,5.2-10.8,7.1-18.9c1.1-4.6,2-9.7,0.9-12.6c-0.9,0.8-1.5,1.5-1.9,1.8c-3.3,3.3-8.2,8.9-10.2,13.2
				c-21.8-8.5-42.9-9.4-66.2-7.8C101.1,143.3,94.7,144.2,89.8,148z"/>
			<path class="st6" d="M176.6,168.7c-0.4,0-0.7-0.1-1-0.3h-0.1l-0.2-0.2c-7-7.7-18.9-13.6-33.3-16.6c-25.8-5.3-60.3-1.4-76.3,16.6
				l-0.3,0.3c-0.4,0.3-0.8,0.4-1.3,0.3c-0.6-0.1-1.2-0.5-1.5-1.1c-2-4.2-7.8-18.3-8.5-27.3c-0.3-3.6,0.2-5.9,1.6-7.2
				c8.3-5.9,26.7-12.4,54.7-19.5c1.2-0.3,2.1-0.5,2.3-0.6c0.8-0.3,1.7-0.2,2.3,0.2c0.4,0.3,0.9,0.8,1.1,1.8l4,13.5
				c0.1,0.2,0.2,0.3,0.3,0.3c0.1,0,0.2,0,0.3-0.3l4-13.5c0.2-1,0.7-1.5,1.1-1.8c0.6-0.4,1.5-0.4,2.3-0.2c0.2,0.1,1.1,0.3,2.3,0.6
				c28,7,46.4,13.6,54.6,19.4h0.1c6.3,5.5-6.7,33.9-6.9,34.4c-0.3,0.6-0.8,1-1.5,1.1C176.8,168.6,176.7,168.7,176.6,168.7z
				 M176.1,166.8L176.1,166.8l0.2,0.2c0.1,0.1,0.2,0.1,0.3,0.1s0.3-0.1,0.3-0.3l0,0c3.5-7.4,11.6-29,7.3-32.9
				c-8.1-5.8-26.3-12.3-54.1-19.3c-1.3-0.3-2.1-0.5-2.4-0.6c-0.4-0.1-0.8-0.1-1.1,0c-0.2,0.1-0.4,0.4-0.4,0.8v0.1l-4.1,13.7
				c-0.2,0.8-0.9,1.4-1.8,1.4c-0.8,0-1.5-0.5-1.8-1.4l-4.1-13.8c-0.1-0.4-0.2-0.6-0.4-0.8c-0.3-0.2-0.6-0.2-1.1,0
				c-0.3,0.1-1.1,0.3-2.4,0.6c-27.8,7-46,13.6-54.1,19.4c-0.9,0.8-1.3,2.9-1.1,5.9c0.7,9,6.8,23.6,8.4,27c0.1,0.1,0.2,0.2,0.3,0.3
				c0.1,0,0.2,0,0.3-0.1l0.2-0.2c16.5-18.3,51.4-22.4,77.5-17C157.1,153,168.8,158.8,176.1,166.8z"/>
			<path class="st7" d="M103,55.5c0,0,0.5,7.9,11.8,8.8c0.1,0-0.5,0.8-0.6,0.9c-5.1,3-17.1,5.7-17.2,3.3c0-1.8,3-9.4,3-9.4
				S101.2,55,103,55.5z"/>
			<path class="st6" d="M115.3,63.6C103.1,61,104.6,54,104.6,54s0.3-0.1-1.8,0.5c0.4,6,7.6,8.9,12.5,9.5
				C115.3,63.8,115.3,63.7,115.3,63.6z"/>
			<path class="st19" d="M117.9,62.3c-0.6,0.1-1.2,0.4-1.8,0.8c-1.4,1.2-2.4,2.7-3.3,4.2c-1.8,3.1-3.2,6.4-4.5,9.8
				c-1.2,3.4-2.2,6.9-3,10.4c-0.4,1.8-0.7,3.5-1,5.3s-0.5,3.6-0.5,5.5h1.6c0-1.7,0.1-3.5,0.3-5.3c0.2-1.8,0.5-3.5,0.8-5.3
				c0.6-3.5,1.5-7,2.6-10.4s2.4-6.7,4.1-9.8c0.8-1.6,1.7-3.1,3-4.3c0.5-0.4,1.1-0.8,1.7-1C118,62.3,117.9,62.3,117.9,62.3z"/>
			<path class="st6" d="M118.6,62.2c-0.1,0-0.2,0-0.3,0c-0.9,0-1.8,0.4-2.5,0.9c-1.4,1.2-2.4,2.7-3.4,4.2c-1.8,3.1-3.4,6.4-4.7,9.8
				c-1.3,3.4-2.3,6.9-3.1,10.4c-0.4,1.8-0.8,3.5-1,5.3c-0.3,1.8-0.5,3.6-0.5,5.5h1.7c0-1.7,0.1-3.5,0.3-5.3c0.2-1.8,0.5-3.5,0.8-5.3
				c0.7-3.5,1.6-7,2.7-10.4s2.5-6.7,4.2-9.8c0.9-1.6,1.8-3.1,3.1-4.3c0.7-0.6,1.5-0.9,2.4-1C118.5,62.3,118.6,62.3,118.6,62.2
				C118.6,62.3,118.6,62.2,118.6,62.2z"/>
			<g>
				<path class="st20" d="M102.1,102.4l0.1-2.3l-1.2,1.6l-1.9-1.5l2.5-4.5c-0.2-0.5-0.3-1-0.3-1.5c0.1-1.4,1.3-2.6,2.8-2.6
					c0.1,0,0.2,0,0.2,0c0.7,0.1,1.4,0.4,1.9,1s0.7,1.3,0.7,2c0,0.5-0.2,1-0.5,1.4l2.5,5.7l-2.6,0.6l-0.9-1.8l-0.5,2L102.1,102.4z"/>
				<g>
					<path class="st6" d="M104.2,92.1c0.1,0,0.1,0,0.2,0c1.3,0.1,2.3,1.3,2.2,2.6c0,0.5-0.3,1-0.6,1.4l2.4,5.5l-1.9,0.4l-1.2-2.4
						l-0.7,2.7l-2.2-0.2l0.2-3.2l-1.7,2.4l-1.3-1l2.5-4.4c-0.3-0.4-0.4-0.9-0.3-1.4C101.9,93,103,92.1,104.2,92.1 M104.2,91.3
						c-1.6,0-3,1.3-3.1,2.9c0,0.5,0,1,0.2,1.5L99,99.8l-0.3,0.6l0.5,0.4l1.3,1l0.6,0.5l0.5-0.7l0.2-0.2v0.6v0.7l0.7,0.1l2.2,0.2
						l0.6,0.1l0.2-0.6l0.2-0.7l0.3,0.6l0.3,0.5l0.6-0.1l1.9-0.4l0.9-0.2l-0.4-0.8l-2.3-5.1c0.3-0.4,0.4-0.9,0.5-1.4
						c0.1-0.8-0.2-1.7-0.7-2.3c-0.5-0.6-1.3-1-2.1-1.1C104.4,91.3,104.3,91.3,104.2,91.3L104.2,91.3z"/>
				</g>
			</g>
			<path class="st6" d="M106,94.7c0,1-0.8,1.8-1.8,1.7c-0.9,0-1.6-0.7-1.7-1.6c0.3,0.3,0.8,0.6,1.3,0.6c1,0,1.9-0.7,2-1.7
				C105.9,94,106,94.3,106,94.7z"/>
			<polyline class="st6" points="179.3,163.9 173.1,160.8 177.6,166.8 179.3,163.9 			"/>
			<polyline class="st6" points="185.9,144.6 181.5,143.8 185.5,146 185.9,144.6 			"/>
			<polyline class="st6" points="61,161.5 65.3,160.1 61.8,163.3 61,161.5 			"/>
			<path class="st6" d="M135.6,53.7c0,0,2.2,8.1-9.6,10.6c-1,0.2-3.5,0.5-3.5,0.7c11-0.5,14.7-4.6,15.1-10.7
				C135.3,53.6,135.6,53.7,135.6,53.7z"/>
			<path class="st6" d="M120.7,70.5C120.7,70.5,120.6,70.5,120.7,70.5l-1.1,21.6l0.6,21.6h0.1l1-21.6L120.7,70.5z"/>
		</g>
		<g>
			<g>
				<path class="st17" d="M164.7,211.9c-1,17.7-9.7,42.7-44.2,51.4c-34.5-8.7-43.2-33.7-44.2-51.4c-0.6-10.5,0.2-23.5,0.2-23.5
					s12.2,4.8,14.9,19.2c2.7,14.4,10.3,19.8,16.2,20.4c5.9,0.6,8.2-8.9,13-8.9s7,9.6,13,8.9c5.9-0.6,13.5-6,16.2-20.4
					s14.9-19.2,14.9-19.2S165.3,201.4,164.7,211.9z"/>
				<path class="st6" d="M120.5,264.1h-0.2c-36.9-9.3-43.9-36.6-44.8-52.1c-0.6-10.5,0.2-23.5,0.2-23.6l0.1-1l1,0.4
					c0.1,0,12.6,5.2,15.4,19.8c2.5,13.7,9.7,19.2,15.5,19.8c2.8,0.3,4.7-2,6.7-4.5c1.8-2.2,3.7-4.5,6.2-4.5c2.6,0,4.4,2.3,6.2,4.5
					c2,2.5,3.9,4.8,6.7,4.5c5.9-0.6,13-6.1,15.5-19.8c2.7-14.6,15.2-19.7,15.4-19.8l1-0.4l0.1,1c0,0.1,0.8,13.1,0.2,23.6l0,0
					c-0.9,15.5-7.9,42.8-44.8,52.1H120.5z M77.1,189.6c-0.2,3.4-0.6,13.7-0.1,22.3c0.9,15,7.6,41.5,43.5,50.7
					c35.8-9.1,42.6-35.6,43.5-50.7l0,0c0.5-8.6,0.1-18.9-0.1-22.3c-2.9,1.5-11.3,6.8-13.5,18.2c-2.7,14.5-10.5,20.3-16.9,21
					c-3.6,0.4-5.9-2.5-8-5c-1.6-2-3.2-3.9-5.1-3.9s-3.4,1.9-5.1,3.9c-2.1,2.5-4.4,5.4-8,5c-6.4-0.7-14.2-6.6-16.9-21
					C88.4,196.3,80,191,77.1,189.6z"/>
			</g>
			<g>
				<path class="st23" d="M159.1,229.6c-3,5.6-6.6,10.4-9.7,14.4c-4,5.1-12.3,10.6-18.3,13l-10.9,4.4l-10.9-4.4
					c-6-2.4-13.8-8.9-18.1-13.7c-4.3-4.9-8-12.9-8-12.9c8.8,10.2,16.7,15.3,25.1,20.6l-3.5-6.3l8.3,6.6l-0.2-6.6l6.8,8.9l6.3-9.6
					l0.9,7.4l7.1-7.8l0.3,6.5C134.3,250.2,146.2,244.3,159.1,229.6z"/>
			</g>
		</g>
		<g>
			<g>
				<path class="st17" d="M124.7,214l-0.3,1.3h-8.8l-0.1-1.6l-1,1.6h-0.4c-0.1,0-1.9,0-15.2-0.6H98l0.3-0.9
					c3.6-10.7,11.4-11.9,11.8-12l0,0l0,0c0,0,4.5-0.1,10.2-0.1c3.8,0,7.3,0.1,10.3,0.2c7.4,0.2,13,11.2,13.2,11.7l0.5,1l-14,0.6
					l-0.5-0.7l-0.1,0.8l-4.6,0.1L124.7,214z"/>
				<path class="st6" d="M120.3,202.4c3.2,0,6.8,0,10.3,0.2c7.1,0.2,12.6,11.3,12.6,11.3l-12.5,0.5l-1.4-1.9l-0.2,2l-3.5,0.1
					l-1.2-2.7l-0.7,2.7h-7.6l-0.2-3.1l-1.9,3.1c0,0-1.7,0-15.2-0.6c3.5-10.4,11.2-11.5,11.2-11.5S114.6,202.4,120.3,202.4
					 M120.3,201.1c-5.7,0-10.1,0.1-10.2,0.1H110h-0.1c-0.3,0-8.6,1.3-12.3,12.4l-0.6,1.7l1.8,0.1c17.7,1.5,44.4-0.2,44.4-0.2
					l2.1-0.1l-1-1.9c-0.2-0.5-6-11.8-13.8-12.1C127.6,201.1,124.1,201.1,120.3,201.1L120.3,201.1z"/>
			</g>
			<path class="st23" d="M141.1,212.9c0,0-4.1-6.3-8.3-8.2c-4.5,1.5-9.2,1.8-12.5,1.9c-6.7,0.1-10.8-2.4-10.8-2.4s-6.1,2.6-8,8.2
				l-0.3,0.5l5.5,0.2l2.3-2.7l-0.9,2.8l5.7,0.3l2.5-3.7l0.4,3.7l6.5,0.1l1.1-2.7l1.4,2.5l2.8,0.1l0.7-2.1l1.4,2.1l5.3-0.2l-1.1-2.7
				l2.6,2.6L141.1,212.9z"/>
		</g>
		<g>
			<g>
				<g>
					<g>
						<path class="st15" d="M114.5,192.7c0,0-4.1,2.8-2.9,6.1c1.1,3.3,4.5,4.6,10.2,4.5c6-0.1,9-3.1,8.8-6c-0.3-2.9-3.2-5-3.2-5"/>
					</g>
					<path class="st16" d="M112,197.4c0,0,2.4,3,8.6,3.2s9.5-2.9,9.5-2.9s0.5,5.5-9.5,5.2C110.5,202.6,112,197.4,112,197.4z"/>
				</g>
				<path class="st6" d="M114.6,192.8c-1.1,1-2.1,2.3-2.5,3.7c-0.2,0.7-0.2,1.4,0.1,2c0.3,0.6,0.6,1.2,1.1,1.7
					c0.9,0.9,2.2,1.5,3.6,1.8s2.9,0.4,4.3,0.4c1.5,0,2.9-0.1,4.3-0.5s2.6-1,3.5-2s1.2-2.4,0.7-3.8c-0.4-1.4-1.4-2.7-2.5-3.7l0,0
					c-0.1-0.1-0.1-0.1,0-0.2c0,0,0.1-0.1,0.2,0c0.7,0.4,1.3,0.9,1.9,1.5c0.6,0.6,1.1,1.3,1.4,2.1c0.4,0.8,0.6,1.7,0.5,2.7
					s-0.5,1.8-1.1,2.5c-1.1,1.4-2.7,2.2-4.2,2.7c-1.6,0.5-3.2,0.6-4.7,0.6c-1.6,0-3.1-0.1-4.7-0.5c-1.5-0.4-3.2-1.1-4.3-2.5
					c-0.6-0.7-1-1.5-1.2-2.4c-0.3-0.9-0.2-1.9,0.2-2.8c0.3-0.8,0.8-1.5,1.4-2.1s1.2-1.1,1.9-1.5c0.1,0,0.1,0,0.2,0.1
					C114.7,192.7,114.7,192.7,114.6,192.8L114.6,192.8z"/>
			</g>
		</g>
	</g>
	<g>
		<g>
			<path class="st24" d="M193.2,453.5H47.8c-4,0-7.3-3.3-7.3-7.3l0,0c0-4,3.3-7.3,7.3-7.3h145.4c4,0,7.3,3.3,7.3,7.3l0,0
				C200.5,450.3,197.2,453.5,193.2,453.5z"/>
			<g>
				<g>
					<path class="st25" d="M190.7,409.2H50.2c-4.1,0-7.5,3.4-7.5,7.5v27.6c0,4.1,3.4,7.5,7.5,7.5h140.5c4.1,0,7.5-3.4,7.5-7.5v-27.6
						C198.2,412.5,194.9,409.2,190.7,409.2z M196.2,444.2c0,3-2.4,5.5-5.5,5.5H50.2c-3,0-5.5-2.5-5.5-5.5v-27.6c0-3,2.5-5.5,5.5-5.5
						h140.5c3,0,5.5,2.5,5.5,5.5V444.2z"/>
					<path class="st26" d="M196.2,416.6v27.6c0,3-2.4,5.5-5.5,5.5H50.2c-3,0-5.5-2.5-5.5-5.5v-27.6c0-3,2.5-5.5,5.5-5.5h140.5
						C193.8,411.2,196.2,413.6,196.2,416.6z"/>
				</g>
			</g>
		</g>
		<g>
			<path class="st25" d="M113.8,433.8h-4.9l-0.9,3.6h-1.5l4-15.4h1.5l4,15.4h-1.5L113.8,433.8z M113.5,432.5l-1.6-6.4
				c-0.2-0.9-0.5-2-0.5-2.4l0,0c-0.1,0.4-0.3,1.5-0.5,2.4l-1.6,6.4H113.5z"/>
			<path class="st25" d="M123.2,427h-2.9v10.3H119V427h-2.9v-1.2h7L123.2,427L123.2,427z"/>
			<path class="st25" d="M131.8,429.4v8h-1.1l-0.1-1.1c-0.5,0.8-1.4,1.3-2.7,1.3c-2.1,0-3.7-1.3-3.7-3.5s1.4-3.5,4-3.5h2.3v-1.2
				c0-1.7-0.8-2.6-2.3-2.6c-1.3,0-2.2,0.7-2.3,2h-1.3c0.1-2,1.5-3.3,3.7-3.3C130.5,425.5,131.8,427,131.8,429.4z M130.5,434.1v-2.3
				h-2.3c-1.7,0-2.6,0.8-2.6,2.3s1,2.2,2.5,2.2C129.6,436.3,130.5,435.4,130.5,434.1z"/>
		</g>
	</g>
</g>
</svg>
