<?xml version="1.0" encoding="utf-8"?>
<!-- Generator: Adobe Illustrator 21.0.0, SVG Export Plug-In . SVG Version: 6.00 Build 0)  -->
<svg version="1.1" id="Layer_1" xmlns="http://www.w3.org/2000/svg" xmlns:xlink="http://www.w3.org/1999/xlink" x="0px" y="0px"
	 viewBox="0 0 100 100" style="enable-background:new 0 0 100 100;" xml:space="preserve">
<style type="text/css">
	.st0{fill:#BE4E2A;}
	.st1{fill:#CD5F37;}
	.st2{fill:#501338;}
	.st3{fill:#DF7758;}
	.st4{fill:#FFFFFF;}
	.st5{fill:#CECBCA;}
	.st6{fill:#F05B3D;}
</style>
<g>
	<g>
		<path class="st1" d="M71.7,33.1c-0.3,0.8,12.4-2.4,13.8-2.9c1.1-0.4,3.7,0.7,3.8,3.1c0.1,2.4-0.6,2-0.6,2s-6.3,0.2-10.4,0.7
			c-4.1,0.5-7.3,0.6-7.3,0.6L71.7,33.1z"/>
		<path class="st0" d="M14.5,58.6c0,0-2.8,9.1-0.4,12c2.4,2.9,10.5,9.7,12,11c9.1,7.7,9.6,10,13.6,11.6s6.9-0.7,12.6-7.4
			c1.9-2.5,1-3,2.6-4.1c1.6-1.1,1.9-2.1,1.9-3.3c0-1.1,0.4-3.1,1.2-3.6s1.7-5.6,3.6-10.2c1.9-4.7,3.1-14.5,8.6-17.3
			c4.5-2.3,3.4-8.5,3.4-8.5L52.1,48L24.8,60.5L14.5,58.6z"/>
		<g>
			<path class="st4" d="M89.5,36.7c-0.1,0.5-0.7,0.8-1.2,1c-2.3,0.6-4.7-0.4-7.1-0.4c-1.3,0-2.5,0.3-3.7,0.6
				c-1.3,0.3-2.6,0.6-3.9,0.9c-0.9,0.2-1.9,0.4-2.8,0.7c-0.5,0.1-1,0.3-1.5,0.4c-1.5,0.5-3,1.2-4.4,1.9c-1.3,0.6-2.6,1.3-4,1.9
				c-1,0.5-2.1,1-3,1.6c-1.1,0.7-2.1,1.6-3.2,2.3c-1,0.6-2.1,1.2-3.1,1.8c-0.7,0.5-1.2,1.3-1.9,1.7c-0.7,0.4-1.3,0-1.6-0.7
				c-0.4-0.9,0.1-1.7,0.6-2.4c3.9-4.9,9.8-7.8,15.6-10.3c1-0.4,2-0.8,3.1-1.2c2-0.7,4-1.1,6.1-1.6c1-0.2,1.9-0.4,2.9-0.7
				c1.4-0.3,2.8-0.6,4.2-0.9c1.3-0.3,3.1-1,4.8-1.4c1.7-0.4,3.3,1,3.1,2.8c0,0.3,0,0.6,0.1,0.7c0,0,0,0,0,0
				C89.1,35.8,89.5,36.2,89.5,36.7z"/>
			<path class="st5" d="M89.5,36.7c-0.1,0.5-0.7,0.8-1.2,1c-2.3,0.6-4.7-0.4-7.1-0.4c-1.3,0-2.5,0.3-3.7,0.6
				c-1.3,0.3-2.6,0.6-3.9,0.9c-2.2,0.7-1.6-0.2-2.2,0.5c-0.4-0.2,0.4,1.6,0,1.3c-0.2-0.1-0.5-0.3-0.6-0.6c-0.1-0.2-0.1-0.3,0-0.5
				c0-0.1,0-0.2,0.1-0.3c0.1-0.3,0.1-0.7,0.3-0.9c0.2-0.2,0.6-0.3,0.9-0.4c0.2-0.1,0.3-0.1,0.5-0.2c0.6-0.2,1.2-0.4,1.7-0.5
				c1.5-0.4,3.1-0.5,4.7-0.8c0.5-0.1,1-0.1,1.5-0.2c2.3-0.1,4.5,0.6,6.7,0.1c0.3-0.1,0.7-0.2,0.9-0.4c0.2-0.1,0.3-0.3,0.5-0.5
				c0,0,0.1,0,0.1,0C89.1,35.8,89.5,36.2,89.5,36.7z"/>
			<path class="st1" d="M72.7,41.2c-0.3,0.4-0.6,0.7-1,1c-1,0.9-2.2,1.5-3.3,2.2c-4.2,2.6-7.7,6.5-9.9,11c-1.1,2.4-1.9,4.9-2.7,7.4
				c-0.4,1.3-0.8,2.7-1.1,4.1c-0.3,1.6-0.4,3.3-1.2,4.7c-0.5,0.8-1.2,1.5-1.3,2.4c-0.1,0.6,0.1,1.2-0.1,1.8
				c-0.4,1.2-1.9,1.6-2.6,2.7c-0.3,0.5-0.4,1.1-0.7,1.6c-0.3,0.8-0.9,1.4-1.5,1.9c-1.2,1.2-2.3,2.6-3.7,3.7c-1.2,1-2,0.3-3.2-0.5
				c-1.5-0.9-2.8-2-4.1-3.2c-0.3-0.3-3-3.7-3.1-3.7c0.7-0.2,1.4-0.6,2.1-1.1c-0.2-0.7-1.1-0.8-1.9-0.9c-2.3-0.3-4.2-2-5.6-3.9
				c-1.4-1.9-2.5-3.9-4.2-5.6c-2.6-2.6-6.5-3.8-8.6-6.8c-0.6-0.8-0.9-2.2-0.1-2.7c0.5-0.3,1.3-0.2,1.7-0.6c0.3-0.2,0.4-0.6,0.6-0.9
				c0.4-0.6,1.2-0.9,1.9-1.1c1.6-0.6,3.1-1.5,4.4-2.6c1.1-0.9,2-2,3.1-2.9c3.1-2.7,7.1-4,10.1-6.8c1.1-1,2-2.2,3.3-2.9
				c3.7-2.3,8.5-0.6,12.8-1.6c1.6-0.4,3.1-1.2,4.7-1.7c2-0.6,4.2-0.7,6.3-1.1c2.8-0.6,5.4-1.9,7.9-3.4c0.2-0.1,0.5-0.3,0.7-0.2
				c0.4,0.1,0.6,0.4,0.7,0.8c0.3,0.8,0.3,1.6,0.3,2.4c-0.1,0.7-0.3,1.5-0.7,2.1c-0.1,0.2-0.2,0.4-0.3,0.6c-0.2,0.5-0.4,0.9,0,1.3
				c0.3-0.2,0.8-0.3,1.2-0.2C73.6,39.6,73.2,40.5,72.7,41.2z"/>
		</g>
		<path class="st3" d="M29.5,65.7c-0.6,0.8-5.3-2.8-6.3-3.8c-2.2-2.1-3.4-3.8-1.2-6C24.5,53.5,31.9,62.3,29.5,65.7z"/>
		<path class="st3" d="M41.7,76.2c0.5-0.8,1.3-0.8,1.9-0.2c1.6,1.6,2.4,2.9,0.2,5.3C41.4,83.9,40.2,79,41.7,76.2z"/>
		<path class="st0" d="M41.8,66.7c-1.6,0.8,1.5-2.3,4.7-4.3c2-1.3,12.9-10.4,14.6-11.1c0.1-0.1-2.1,5.1-2,5.1c0.5,0.3-2,2.3-2.5,2.7
			c-1.1,0.8-2.2,1.4-3.4,2C49.4,62.9,45.6,64.8,41.8,66.7z"/>
	</g>
	<g>
		<path class="st2" d="M21.1,26.2L20.8,26l-0.2-0.2l-0.2-0.1l-0.2-0.2l-0.3-0.2l-0.2-0.2l-0.2-0.2l-0.2-0.1L19,24.6l-0.2-0.3
			l-0.2-0.2l-0.7-0.5l-0.2-0.2l-0.5-0.4l-0.4-0.4l-0.5-0.3l-0.2-0.2l-0.2-0.2l-0.4-0.1L15.2,22L15,22.2l-0.1,0.4l0,0.4l0.3,0.5
			l1.1,2.1l0.2,0.2l0.1,0.3l0.5,0.8l0.3,0.6l0.2,0.3l0,0.3l-0.2,0.3l-0.3,0.1l-0.3,0l-0.3-0.2l-0.1-0.3L16,27.8l-0.1-0.2l-0.1-0.3
			l-1-1.8l-0.2-0.5l-0.3-0.5l-0.1-0.3l-0.4-0.7l-0.4-0.8l-0.2-0.2L12.9,22l-0.1-0.2l-0.1-0.3l-0.2-0.3L12.4,21l-0.3-0.4l-0.4-0.8
			l-0.4-0.7L11.3,19l-0.2-0.3L11,18.4l-0.2-0.2l-0.1-0.3l-0.1-0.2l0-0.3l0.2-0.2L11,17l0.4,0l0.3,0.1l0.1,0.2l0.1,0.3l0.2,0.2
			l0.1,0.3l0.1,0.2l0.1,0.3l0.4,0.6l0.2,0.4l0.5,1l0.2,0.2l0.1,0.3l0.1,0.2l0.2,0.2l0.3,0l0.5-0.7l0.1-0.3l0.1-0.3l0.1-0.3l0.1-0.8
			l0-0.3l0-0.6l-0.1-0.7l0-0.3L15,16.3l0-0.2l-0.2-0.6l0.1-0.4l0.2-0.3l0.3-0.1l0.3,0l0.2,0.2l0.3,1.2l0,0.3l0.2,0.6l0.1,0.3l0,0.6
			l0,0.3l0,0.9l-0.1,0.3l0,0.3l-0.1,0.6l0,0.4l0.2,0.4l0.2,0.2l0.2,0.2l0.2,0.2l0.9,0.7l0.2,0.2l0.3,0.2l0.2,0.2l0.3,0.2l0.2,0.2
			l0.3,0.2l0.2,0.2l0.2,0.2l0.2,0.3l0.4,0.3l0.3,0.1l0.7,0.7l0.2,0.1l0.2,0.2l0.1,0.3L22,25.9L21.7,26l-0.2,0.1L21.1,26.2z"/>
		<path class="st2" d="M24.8,24.7l-0.3,0.1l-0.3,0l-0.3,0l-0.2,0l-0.2-0.1l-0.2-0.1l-0.4-0.3l-0.2-0.2l-0.3-0.4l-0.1-0.2L22,22.9
			l-0.1-0.3l-0.1-0.2l0-0.3l0-0.2l0-0.3l0.1-0.3l0-0.2l0.1-0.3l0.1-0.2l0.1-0.3l0.2-0.2l0.5-0.6l0.2-0.2l0.4-0.3l0.4-0.1l0.3-0.2
			l0.2-0.1l0.2-0.2l0-0.3l-0.3-0.5l-0.1-0.2l-0.1-0.2l-0.2-0.2L23.8,17l-0.2-0.1l-0.2-0.1l-0.3-0.1l-0.2,0l-0.3,0.2l-0.4,0.1
			l-0.3,0.2l-0.3,0.3L21.2,18L21,18.2l-0.3,0l-0.2-0.1l-0.2-0.3l0-0.3l0.1-0.2l0.2-0.2l0.2-0.2l0.4-0.4l0.2-0.1l0.2-0.2l0.2-0.1
			l0.7-0.3l0.3,0l0.4-0.1l0.4,0l0.2,0l0.3,0.1l0.5,0.3l0.2,0.2l0.2,0.2l0.3,0.4l0.3,0.4l0.2,0.4l0.2,0.3l0.2,0.5l0.1,0.2l0.1,0.2
			l0.3,0.7l0.2,0.5l0.1,0.2l0.3,0.9l0.3,0.6l0.1,0.3l0.1,0.2l0.2,0.4L28,23l-0.3,0.3l-0.5,0.1L27,23.3L26.8,23l-0.1,0l-0.1,0.1
			l-0.2,0.4l-0.2,0.2l-0.3,0.3l-0.4,0.3L24.8,24.7z M25.3,23.4l0.2-0.2l0.3-0.4l0.3-0.4l0.1-0.3l0-0.3l0-0.3L26,21.4l-0.1-0.2
			l-0.5-1.2l-0.1-0.2l-0.2-0.2l-0.2,0l-0.9,0.4l-0.2,0.2l-0.4,0.3l-0.3,0.4L23,21.1l-0.1,0.3l0,0.2l0,0.3l0.1,0.2l0.2,0.6l0.2,0.4
			l0.1,0.2l0.4,0.3l0.2,0.1l0.3,0l0.3,0l0.4-0.1L25.3,23.4z"/>
		<path class="st2" d="M32,26.4l-0.2-0.1l-0.2-0.4l-0.1-0.2l-0.1-0.3l-0.1-0.2l-0.1-0.2l-0.1-0.3l-0.1-0.3l-0.3-0.8l-0.1-0.2
			l-0.8-2.2l-0.1-0.2l-0.1-0.2l-0.1-0.3l-0.3-0.7l-0.1-0.3l-0.1-0.2L29.2,19l-0.1-0.3L29,18.5l-0.1-0.3l-0.4-1.1l-0.1-0.2l-0.1-0.4
			l-0.1-0.2l-0.4-1.2l-0.3-0.7l0-0.3l0.2-0.2l0.3-0.1l0.3,0l0.3,0.1l0.1,0.2l0.2,0.1l0.2-0.1l0.2-0.2l0.1-0.2l0.2-0.2l0.8-0.7
			l0.4-0.2l0.2-0.1l0.4-0.1l0.5-0.1l0.2,0l0.5,0.1l0.2,0.1l0.2,0.2L33,13l0.2,0.2l0.1,0.2l0.2,0.2l0.3,0.5l0.4,0.8l0.2,0.5l0.1,0.2
			l0.3,0.7l0.1,0.3l0.1,0.2l0.2,0.8l0.1,0.5l0,0.8l-0.1,0.5l-0.1,0.3l-0.2,0.4l-0.2,0.3l-0.2,0.2l-0.2,0.2L34,21l-0.3,0.2l-0.9,0.4
			l-0.2,0l-0.9,0l-0.2,0.1l0,0.2l0.2,0.5l0.1,0.3l0.1,0.2l0.2,0.6l0.1,0.4l0.1,0.2l0.3,0.9l0.3,0.7l0,0.3l-0.2,0.1l-0.4,0.2L32,26.4
			z M32.6,20.6l0.3-0.2l0.3-0.2l0.2-0.2l0.1-0.2l0.1-0.2l0.1-0.2l0.1-0.5l0-0.5l-0.1-0.6l-0.3-1l-0.4-1.2l-0.2-0.4l-0.1-0.2
			l-0.1-0.2l-0.1-0.2L32.3,14l-0.4-0.3l-0.2-0.1l-0.2-0.1l-0.6,0.1l-0.4,0.1l-0.2,0.1L30.1,14l-0.4,0.4l-0.1,0.2l-0.3,0.5l-0.1,0.4
			l0.1,0.4l1.1,3.1l0.1,0.3l0.1,0.3l0.1,0.3l0.2,0.4l0.3,0.4l0.3,0.1l0.3,0l0.3,0l0.2,0l0.3-0.1L32.6,20.6z"/>
		<path class="st2" d="M46.3,16.8L46,16.8l-0.2-0.2l0-0.3L45.7,16l-0.1-0.8l0-0.4l-0.1-0.3l0-0.4L45.4,14l0-0.2l-0.1-0.4l0-0.4
			L45,11.9l0-0.3l-0.1-0.2L44.9,11l0-0.4l-0.2-0.7l0-0.3l0-0.2l-0.1-0.2l-0.1-0.2l-0.1-0.3l0.1-0.3l0.2-0.2l0.2-0.1l0.2,0l0.3,0.1
			l0.2,0.2l0.2,1l0,0.3l0.1,0.3l0,0.5l0.1,0.3l0.2,0.3l0.3,0.1l0.3,0L47,11l0.6-0.1l1.2-0.1l0.5,0.1l0.2,0.1l0.2,0.1l0.4,0.3
			l0.2,0.2l0.2,0.2l0.1,0.2l0.1,0.2l0.2,0.5l0.1,0.4l0,0.6l0,0.3l0,0.3l-0.1,0.5L50.8,15l-0.2,0.3l-0.2,0.2l-0.4,0.4l-0.2,0.1
			l-0.2,0.2l-0.2,0.1l-0.2,0.1l-0.3,0.1l-0.3,0.1l-0.4,0.1l-0.9,0.1l-0.5,0.1l-0.3,0L46.3,16.8z M47.8,15.6l0.4,0l0.2-0.1l0.7-0.3
			l0.2-0.2l0.2-0.2l0.1-0.2l0.1-0.2l0.1-0.5l0-0.3l-0.2-0.8l-0.1-0.3l-0.1-0.2l-0.2-0.2L49.1,12l-0.2-0.1l-0.3,0l-0.8,0l-0.4,0
			L46.6,12l-0.2,0.1l-0.1,0.3l0.1,0.9l0.1,0.3l0.1,0.4l0,0.2l0.1,0.3l0,0.2l0.1,0.5l0.2,0.3l0.3,0.1l0.2,0L47.8,15.6z M52.5,15.2
			l-0.3-1.3l0-0.3L52,12.2L51.9,12l0-0.3l0-0.2l-0.1-0.3l0-0.3l-0.1-0.2l-0.1-0.4l-0.1-0.4l0-0.4l-0.1-0.3l0-0.3l-0.1-0.5l0-0.3
			L51.2,8l-0.1-0.5l0-0.3l0.2-0.1l0.4,0l0.4,0l0.2,0.2l0.1,0.5l0.1,0.3l0.1,0.3l0.1,0.3l0,0.2l0.2,0.9l0.1,0.7l0.2,0.9l0,0.3l0.4,2
			l0,0.3l0.1,0.2l0,0.2l0,0.3l0.1,0.5l0,0.3l-0.3,0.1L53,15.7l-0.3-0.1l-0.2-0.2L52.5,15.2z"/>
		<path class="st2" d="M56.3,15.4L56,15.3l-0.2-0.2l-0.1-0.2l0-0.6l0-0.2l0-0.8l-0.1-1.1l0-0.6l0-0.5l0-0.3l0-0.3l0-0.7l0-0.2l0-0.3
			l0-0.3l0-0.2l0-0.7l0-0.5l0-0.8l0.1-0.3l0.2-0.2l0.3,0l0.3,0l0.2,0l0.3,0l0.4-0.1l1.4-0.1l0.4,0l0.3,0l0.4,0.1l0.2,0.3l0,0.2
			l-0.1,0.3l-0.4,0.2l-0.7,0l-0.4,0.1l-0.2,0l-0.7,0l-0.3,0l-0.2,0.1L56.7,8l0.1,1.8l0,0.2l0,0.3l0,0.2l0,0.3l0,0.2l0,0.2l0,0.3
			l0,0.3l0,0.2l0.1,0.8l0,0.2l0,0.5l0,0.2l0,0.3l0,0.3l0.1,0.5L57,15.3l-0.2,0.1l-0.2,0L56.3,15.4z"/>
		<path class="st2" d="M62.5,15.5l-0.3,0L62,15.3l-0.2-0.1l-0.2-0.1l-0.2-0.2l-0.2-0.2l-0.2-0.4l-0.1-0.3l-0.1-0.5l0-0.3l0-0.8
			l0-0.3l0-0.2l0.1-0.3l0.1-0.2l0.1-0.3l0.2-0.2l0.1-0.2l0.2-0.2l0.2-0.1l0.2-0.2l0.2-0.1L63,9.9l0.3,0l0.5-0.1l0.4,0l0.4,0l0.2,0
			L65,9.8l0.2-0.2l0-0.5l0-0.3l0-0.2L65,8.2L64.9,8l-0.1-0.2l-0.2-0.2l-0.2-0.2l-0.2-0.1l-0.4,0l-0.4-0.1L63,7.5l-0.4,0.1l-0.5,0.3
			l-0.3,0l-0.2-0.2l-0.1-0.2l0-0.3L61.7,7l0.2-0.1l0.2-0.1l0.2-0.1l0.5-0.2l0.2,0l0.3-0.1l0.3,0l0.8,0l0.3,0.1L65,6.6l0.3,0.2
			l0.2,0.1l0.2,0.2L66,7.6l0.1,0.2l0.1,0.3l0.1,0.5l0.1,0.5l0,0.4l0,0.4l0,0.5l0,0.2l0,0.3l0,0.8l-0.1,0.5l0,0.2l-0.1,0.9l0,0.6
			l0,0.3l0,0.3l0,0.5l-0.1,0.3l-0.4,0.1l-0.5-0.1l-0.2-0.2l0-0.3l-0.1-0.1l-0.2,0.1l-0.4,0.3l-0.2,0.2l-0.4,0.1l-0.5,0.1L62.5,15.5z
			 M63.5,14.5l0.2-0.1l0.5-0.2l0.4-0.2l0.2-0.2l0.2-0.3l0.1-0.3l0-0.2l0-0.3l0.1-1.3l0-0.2L65,10.9l-0.2-0.1l-1-0.1l-0.3,0.1
			l-0.5,0.1l-0.4,0.3l-0.2,0.2l-0.2,0.2l-0.1,0.2L62,12l0,0.2l-0.1,0.7l0,0.4l0,0.2l0.2,0.5l0.1,0.2l0.2,0.1l0.3,0.1l0.4,0.1
			L63.5,14.5z"/>
		<path class="st2" d="M42.2,17.9l-0.2,0l-0.2-0.3l-0.1-0.2l-0.1-0.2l-0.1-0.3l0-0.2l-0.1-0.4l-0.2-0.6l0-0.3l-0.1-0.2L41,15
			L41,14.8l-0.1-0.2l-0.2,0.1l-0.2,0.2l-0.2,0.2l-0.2,0.2l-0.7,0.4L39,15.8l-0.4,0.1l-0.5,0l-0.3,0l-0.2-0.1l-0.2-0.1L37,15.4
			l-0.1-0.2L36.7,15l-0.2-0.4l-0.6-2.1l0-0.2l-0.3-0.7l-0.1-0.3l0-0.2l0.2-0.2l0.2-0.1l0.2-0.1l0.3,0l0.2,0.2l0.1,0.2l0.1,0.2l0,0.2
			l0.1,0.3l0.5,1.9l0.2,0.5l0.1,0.2l0.2,0.1l0.2,0.2l0.2,0l0.3,0l0.3-0.1l0.6-0.3l0.2-0.1l0.2-0.2l0.2-0.2l0.2-0.2l0.1-0.4l0-0.4
			l-0.4-1.5L40,11.3L40,11.1l-0.1-0.3l-0.2-0.7l0-0.3l0.2-0.2l0.4-0.1l0.3,0l0.2,0.4l0.2,0.6l0.1,0.2l0.2,0.6l0.1,0.6l0.1,0.5
			l0.1,0.4l0.1,0.4l0.1,0.3l0.1,0.4l0.1,0.2l0.1,0.2l0.1,0.3l0.2,0.7l0.1,0.2l0.1,0.2l0,0.2l0.2,0.6l0.1,0.5l0,0.5l-0.2,0.2
			L42.2,17.9z"/>
	</g>
</g>
</svg>
