<?xml version="1.0" encoding="utf-8"?>
<!-- Generator: Adobe Illustrator 21.0.0, SVG Export Plug-In . SVG Version: 6.00 Build 0)  -->
<svg version="1.1" id="Layer_1" xmlns="http://www.w3.org/2000/svg" xmlns:xlink="http://www.w3.org/1999/xlink" x="0px" y="0px"
	 viewBox="0 0 100 100" style="enable-background:new 0 0 100 100;" xml:space="preserve">
<style type="text/css">
	.st0{fill:#BE4E2A;}
	.st1{fill:#CD5F37;}
	.st2{fill:#501338;}
	.st3{fill:#DF7758;}
	.st4{fill:#FFFFFF;}
	.st5{fill:#CECBCA;}
	.st6{fill:#F05B3D;}
</style>
<g>
	<path class="st0" d="M15.2,70.6c0,0,0.3,21.7,11.2,23.4c12.6,1.9,25.9-2.8,36.4-9c4.3-2.6,10.9-9.3,19.1-11c4.9-1.1,5.7-7,6-10.6
		s0-13.9,0-13.9L58.7,64.5c0,0-29.2,8.4-29.9,8.4C28.1,72.9,15.2,70.6,15.2,70.6z"/>
	<path class="st1" d="M15.2,70.6c0.3,1.8,1.5,3.3,2.7,4.7c1.8,2.1,3.7,4.3,6.4,5c1.8,0.5,3.7,0.3,5.6,0.1c4-0.5,8.1-1.3,12.1-2.1
		c5-1,10.1-2,14.7-4.2c3.1-1.5,6-3.5,9.2-4.6C70,68,74.7,68.1,78.6,66c1-0.5,2-1.2,2.5-2.2c0.6-1.1,0.7-2.4,1.2-3.4
		c0.6-1.1,1.6-1.8,2.5-2.6c3.5-3.5,3.9-9.2,1.9-13.7s-5.9-7.9-10.1-10.4c-1.8-1.1-3.6-2-5.6-2.4c-2.6-0.6-5.2-0.3-7.9-0.4
		c-2.7-0.1-5.4-0.5-8.1-0.1c-5.1,0.9-9.2,5-14.3,6.2C35.9,38,30.5,36.4,26,38.4c-3.5,1.5-6,5.1-6.8,8.9c-0.5,2.6-0.3,5.2,0.2,7.7
		c0.4,1.5,1,3,0.6,4.5C19.2,63.4,14.6,66.2,15.2,70.6z"/>
	<g>
		<path class="st2" d="M24,23.8l-0.4-0.1l-0.3-0.1l-0.3-0.1l-0.2-0.1l-0.3-0.1L22.3,23l-0.3-0.2l-0.2-0.1l-0.3-0.1l-0.3-0.2
			l-0.3-0.1L20.3,22l-0.2-0.1l-0.5-0.3l-0.5-0.3l-0.5-0.2l-0.2-0.2L18,20.8l-0.4,0L17.4,21l-0.1,0.3l-0.1,0.4l0,0.4l0.4,0.4l1.5,1.8
			l0.2,0.2l0.1,0.2l0.6,0.7l0.4,0.5l0.2,0.2l0.1,0.3l-0.1,0.3l-0.2,0.2L20.1,27l-0.3-0.2l-0.2-0.2l-0.2-0.2l-0.1-0.2L19,26l-1.4-1.5
			L17.3,24L17,23.6l-0.2-0.2l-0.5-0.5l-0.5-0.7l-0.2-0.2l-0.3-0.4l-0.2-0.2l-0.2-0.3l-0.2-0.2l-0.1-0.2l-0.3-0.4l-0.5-0.6l-0.5-0.5
			L13,18.9l-0.2-0.2l-0.2-0.3l-0.2-0.1l-0.2-0.2l-0.2-0.2L12,17.6l0.2-0.3l0.2-0.2l0.4-0.1l0.3,0l0.2,0.1l0.2,0.2l0.2,0.2l0.2,0.3
			l0.2,0.1l0.2,0.3l0.5,0.5l0.2,0.4l0.7,0.8l0.2,0.2l0.1,0.2l0.2,0.2l0.2,0.1l0.3-0.1l0.3-0.8l0-0.3l0-0.3L17,19l0-0.8l-0.1-0.3
			l-0.1-0.5l-0.3-0.6l0-0.3l-0.4-0.8L16,15.4l-0.3-0.5l0-0.4l0.1-0.3L16,14l0.3-0.1l0.2,0.1l0.5,1.1l0.1,0.2l0.3,0.5l0.1,0.3
			l0.1,0.6l0.1,0.3l0.2,0.8l0,0.3l0,0.2l0,0.6l0.1,0.4l0.3,0.3l0.3,0.2l0.3,0.1l0.3,0.2l1,0.5l0.2,0.2l0.3,0.1l0.2,0.1l0.3,0.1
			l0.2,0.1l0.3,0.1l0.2,0.1l0.2,0.1l0.3,0.2L23,22l0.3,0.1l0.8,0.5l0.3,0.1l0.2,0.1l0.2,0.3l-0.1,0.2l-0.2,0.2l-0.2,0.2L24,23.8z"/>
		<path class="st2" d="M28.2,26.6l-0.3,0l-0.3-0.1l-0.2-0.3l0-0.3l0.1-0.3l0.1-0.7l0-0.3l0-0.2l-0.2-1l-0.1-0.3l0-0.2l-0.1-0.3
			l0-0.2L27.1,22l-0.5-0.6l-0.6-0.6l-0.2-0.2l-0.2-0.2l-0.4-0.3L25,20l-0.3-0.4l-0.2-0.2l-0.2-0.2l-0.2-0.2l-0.4-0.3l-0.2-0.1
			l-0.3-0.4l-0.2-0.2L22.8,18l-0.2-0.2l-0.2-0.2l-0.2-0.2l-0.2-0.2l-0.2-0.1l-0.7-0.7l-0.2-0.2l-0.2-0.2l-0.1-0.2l0.1-0.2l0.3-0.2
			l0.4-0.1l0.3,0.1l0.6,0.5l0.2,0.2l0.2,0.2l0.5,0.5l0.2,0.1l0.2,0.2l0.3,0.3l0.3,0.3l0.2,0.2l0.2,0.2l0.2,0.2l0.2,0.2l0.2,0.2
			l0.2,0.2l0.3,0.2l0.7,0.6l0.2,0.2l0.2,0.2l0.1-0.1l-0.1-0.3l-0.8-2.4L25.8,17l-0.1-0.5l-0.1-0.2l-0.3-1.2l-0.1-0.2l-0.1-0.5
			L25,14.1l-0.1-0.3l-0.1-0.2l0-0.3l0.1-0.2l0.3-0.2l0.3-0.1l0.2,0.2l0.1,0.5l0.1,0.3l0,0.2l0.1,0.2l0.1,0.3l0.1,0.3l0.1,0.4
			l0.1,0.3l0.1,0.5l0,0.2l0.2,0.5l0,0.2l0.1,0.5l0.2,0.5l0.1,0.5l0.1,0.2l0.1,0.3l0,0.2l0.1,0.2l0,0.2l0.1,0.2l0.1,0.3l0.1,0.3
			l0.1,0.6l0.2,0.5l0.1,0.4l0.1,0.2l0,0.2l0.1,0.2l0.1,0.3l0.1,0.2l0,0.2l0.1,0.2l0,0.2l0,0.5l0,0.2l0,0.3l-0.1,1L28.6,26l-0.1,0.2
			l-0.1,0.3L28.2,26.6z"/>
		<path class="st2" d="M31.5,19.4l-0.2-0.2l-0.9-2.1l-0.1-0.2l-0.2-0.4L30,16.2l-0.2-0.6l-0.1-0.2l-0.1-0.2l-0.2-0.4l-0.1-0.3
			L29,13.8l-0.2-0.5l-0.1-0.2l-0.4-0.9l-0.1-0.2l0-0.3l0.1-0.2l0.2,0l0.2-0.1l0.3,0l0.2,0.1l0.1,0.2l0.2,0.4l0.1,0.2l0.1,0.3
			l0.1,0.2l0.7,1.7l0.1,0.2l0.5,1.3l0.1,0.3l0.1,0.2l0.3,0.9l0.1,0l0-0.5l0-0.3l-0.1-0.7l0-0.3l0-0.4l0.1-1l0-0.2l0-0.2l0-0.3l0-0.2
			l0-0.3l0-0.3l0-0.2l0-0.5l0-0.2l0-0.5l0-0.3l0-0.2l0.1-0.4l0.1-0.5l0.2-0.2l0.2-0.1l0.2-0.1l0.3,0l0.2,0.1l0.1,0.2l0.6,1.5
			l0.1,0.2l0.2,0.4l0.2,0.5l0,0.2l0.1,0.3l0.1,0.3l0,0.2l0.1,0.2l0.2,0.5l0.1,0.2l0.3,0.7l0.1,0.2l0.6,1.4l0.1,0.2l0,0.2l-0.2,0.2
			l-0.2,0.1l-0.2,0.1l-0.3,0l-0.2-0.1l-0.1-0.2l-0.2-0.5l-0.1-0.2l-0.1-0.3l-0.1-0.3l-0.1-0.2l-0.1-0.2L34.2,15l-0.1-0.2l-1.2-3.2
			l0,0l0,0.3l0,1.3l-0.1,0.2l0,0.5l-0.1,0.5l0,0.2l0,0.5l0,0.2l-0.1,0.5l0,0.3l0,0.3l0,0.2l-0.1,0.5l0,0.3l0,0.3l0,1L32.4,19
			l-0.3,0.2l-0.4,0.2L31.5,19.4z M30.4,9.6l-0.4,0.1l-0.2,0l-0.2,0.1l-0.3,0l-0.3,0l-0.2-0.2l-0.1-0.3l0.1-0.3L29.2,9l0.2-0.1l0.3,0
			l0.7-0.3l0.2-0.1l0.2-0.2l0.3-0.1l0.3,0.1l0.2,0.3l-0.1,0.3L31.3,9l-0.2,0.1L31,9.3l-0.2,0.2L30.4,9.6z"/>
		<path class="st2" d="M39.1,16.6l-0.2,0.1l-0.2-0.1l-0.2-0.2l0-0.3l-0.2-0.7l-0.1-0.5l0-0.2L38,14.4l-0.1-0.2l0-0.3l-0.1-0.2l0-0.3
			l-0.2-0.6l0-0.3L37.5,12l-0.1-0.2l-0.1-0.4l0-0.3l-0.1-0.3l-0.1-0.4L37,10.3l-0.1-0.6l-0.2-1l0-0.3l0.2-0.2l0.2,0l0.4-0.1l0.3,0
			l0.3,0l0.2,0.2l0.4,0.6l0.6,1.1l0.2,0.2l0.3,0.5l0.1,0.2L40,11l0.1,0.2l0.1,0.2l0.3,0.4l0.1,0.2l0.2,0.3l0.2,0.3l0.1,0.2l0.1,0.2
			l0.1,0.2l0.1,0l0-0.3l0-1l0.1-0.6l0-0.3l0.1-0.8l0-0.5l0.1-1l0-0.2l0-0.8l0.1-0.5L42,7.2L42.2,7l0.5-0.1l0.2,0l0.2-0.1l0.3,0.1
			L43.6,7l0,0.3l0.1,0.2l0.1,0.3l0,0.2l0.3,1.2l0.1,0.3l0.1,0.6l0.1,0.2l0,0.3l0.1,0.3l0.1,0.3l0.1,0.4l0.1,0.4l0.1,0.5l0.1,0.4
			l0.1,0.3l0.1,0.4l0.1,0.2l0.2,1l0,0.3l-0.2,0.1l-0.2,0l-0.2,0.1l-0.3,0L44.4,15l-0.1-0.2l-0.1-0.5l0-0.3l-0.5-1.9l-0.1-0.4
			l-0.1-0.3l0-0.2L43.3,11l0-0.3l-0.1-0.2l-0.2-0.9l0-0.2L43,9.1l0-0.4l-0.1-0.5l0,0l0,0.2l0,0.3l-0.1,1.8l0,0.3l-0.1,0.2l0,0.3
			l0,0.3l0,0.8l0,0.3l-0.1,1l0,0.3l0,0.5l-0.2,0.3l-0.4,0.3l-0.4-0.1l-0.2-0.2L41,14.4l-0.2-0.2L40.7,14l-0.2-0.2l-0.1-0.3L39.5,12
			l-0.3-0.4L39,11.2l-0.6-1.1l-0.1-0.2l-0.1-0.3L38,9.4l-0.1,0l0,0.3l0.1,0.3l0.1,0.2l0.1,0.2l0,0.3l0.1,0.3l0.4,1.4l0.1,0.4
			l0.1,0.5l0.1,0.2l0.2,0.7l0,0.3l0.2,1l0,0.2l0.1,0.2l0.1,0.2l-0.1,0.3l-0.2,0.2L39.1,16.6z"/>
		<path class="st2" d="M48.5,19.3l-0.2-0.1L48.1,19l0-0.3l0.1-0.3l0.2-0.2l0.4-0.6l0.1-0.3l0.1-0.2l0.3-1l0-0.3l0.1-0.2l0-0.3
			l0.1-0.2l0-0.4L49.3,14L49,13.2L48.9,13l-0.1-0.3l-0.2-0.5l-0.1-0.2l-0.2-0.5l-0.1-0.2l-0.1-0.2L48,10.9l-0.2-0.5l-0.1-0.2
			l-0.2-0.5l-0.1-0.3l-0.1-0.2L47.3,9l-0.1-0.3l-0.1-0.2L47,8.3L46.9,8l-0.3-0.9l-0.1-0.2l-0.1-0.3l0-0.3l0.2-0.1l0.4-0.1l0.4,0.1
			l0.2,0.2l0.3,0.7l0.1,0.2L48,7.7l0.2,0.7l0.1,0.2l0.1,0.2l0.2,0.4l0.1,0.4l0.1,0.2l0.1,0.2l0.1,0.2l0.1,0.3l0.1,0.2l0.1,0.2
			l0.2,0.3l0.3,0.9l0.1,0.3l0.1,0.3l0.1,0l0.1-0.3l0.3-2.5l0-0.3l0.1-0.5l0-0.3l0.2-1.2l0-0.3L51,7l0-0.3l0-0.3l0-0.2l0.2-0.3
			l0.2-0.1l0.4,0l0.3,0.1l0.1,0.2l-0.1,0.5l0,0.3l-0.1,0.2l0,0.2L52,7.6l0,0.3l-0.1,0.4l-0.1,0.3l-0.1,0.5l-0.1,0.2l-0.1,0.6
			l-0.1,0.2l-0.1,0.5l0,0.5l-0.1,0.5l0,0.3l0,0.3l-0.1,0.2l0,0.3l-0.1,0.2l0,0.2l0,0.3l0,0.3l-0.1,0.6l-0.1,0.5L50.7,15l0,0.2
			l-0.1,0.2l0,0.3L50.5,16l0,0.3l-0.1,0.2l-0.1,0.2L50.3,17l-0.2,0.5L50,17.7L49.9,18l-0.5,0.8L49.2,19L49,19.1l-0.2,0.2L48.5,19.3z
			"/>
		<path class="st2" d="M53.5,14.1l-0.1-0.2l0-0.3l0.2-0.2l0.3-0.3l0.2-0.2l0.1-0.2l0.1-0.2l0.1-0.3l0.3-1l0-0.3l0-0.3l0-0.3l0.1-0.3
			l0-0.8l0-0.3L55,8.2l0-0.4l0-0.3l0-0.2l0-0.3l0-0.7l0-0.3l0.1-0.2l0.4-0.1l0.3,0l1.6,0l0.2,0l0.3,0l0.3,0l0.3,0.1l0.3,0l0.3,0
			l0.4,0.1l0.1,0.3l0,0.2l0,0.4l0,0.6l0,0.2l0,0.7l0,0.4l-0.1,2.3l0,0.3l0,0.2l0,0.5l0,0.4l0,0.3l0,0.3l0,0.3l0,0.3l0,0.4l-0.1,0.4
			l-0.2,0.1l-0.2,0l-0.2,0l-0.2-0.2l-0.1-0.2l0-0.2l0-0.6l0-0.2l0-0.6l0-0.7l0-0.2l0-1.4l0-0.2l0-0.3l0-0.3l0-1l0-0.3l0-0.8
			l-0.1-0.4l-0.2-0.1l-0.4,0l-0.4,0l-0.2,0l-0.3,0l-0.3,0l-0.2,0.1L56.2,7l0,0.3l0,0.2l0,0.2l0,0.3l0,0.3L56,9.5l0,0.2l0,0.5
			l-0.1,0.3l0,0.3l0,0.3l-0.1,0.2l0,0.3l-0.2,0.7l-0.2,0.5l-0.3,0.5L55,13.5l-0.3,0.4l-0.5,0.3l-0.4,0.1L53.5,14.1z"/>
		<path class="st2" d="M66,15l-0.2-0.1l-0.1-0.3l0-0.2l0-0.3l0-0.3l0-0.2l0-0.4l0-0.6l0.1-0.3l0-0.2l0-0.2l0-0.3L66,11.4l-0.2,0
			l-0.3,0.1l-0.3,0.1L65,11.8l-0.8,0.1l-0.4,0l-0.4-0.1L63,11.6l-0.2-0.1l-0.2-0.2l-0.2-0.2l-0.3-0.4l-0.1-0.2L62,10.2L62,9.7
			l0.2-2.2l0-0.2l0-0.8l0-0.3L62.4,6l0.2-0.1l0.3,0l0.2,0l0.3,0.1l0.1,0.3l0,0.3l0,0.3l0,0.2l0,0.3l-0.2,1.9l0,0.5l0,0.3l0.1,0.2
			l0.1,0.3l0.2,0.1l0.2,0.1l0.3,0.1l0.7,0l0.2,0l0.2-0.1l0.3-0.1l0.2-0.1l0.2-0.3l0.1-0.3l0.2-1.5L66.5,8l0-0.2l0-0.3l0.1-0.7
			l0.1-0.3L67,6.4l0.5,0.1l0.2,0.1L67.7,7l-0.1,0.6l0,0.3l-0.1,0.7l-0.1,0.6l-0.1,0.5l0,0.4l-0.1,0.4l-0.1,0.3l0,0.4l0,0.2l0,0.3
			l0,0.3l-0.1,0.7l0,0.3l0,0.3l-0.1,0.2l0,0.7l-0.1,0.5L66.6,15l-0.2,0.1L66,15z"/>
		<path class="st2" d="M70.4,15.9l-0.2-0.1l-0.2-0.1l-0.2-0.1l-0.2-0.2l-0.2-0.2l-0.1-0.2l-0.2-0.5L69,14.3l0-0.5l0-0.3l0.2-0.8
			l0.1-0.2l0.1-0.2l0.1-0.3l0.1-0.2l0.1-0.2l0.2-0.2l0.2-0.2l0.2-0.2l0.2-0.1l0.3-0.2l0.2-0.1l0.8-0.2l0.3,0l0.5,0l0.4,0.1l0.3,0
			l0.2,0.1l0.3,0l0.2-0.2l0.1-0.5l0-0.3l0-0.2l0-0.3l0-0.2L74,9l-0.2-0.2l-0.2-0.2l-0.2-0.1l-0.4-0.1l-0.4-0.1l-0.4,0l-0.4,0
			l-0.5,0.2l-0.3,0l-0.2-0.2l-0.1-0.2l0-0.3l0.2-0.2l0.2-0.1l0.3-0.1l0.2-0.1l0.5-0.1l0.2,0l0.3,0l0.3,0l0.7,0.2L74,7.7l0.3,0.2
			l0.3,0.2l0.2,0.1l0.2,0.2L75.1,9l0.1,0.3l0,0.3l0,0.5l0,0.5l-0.1,0.4l0,0.4l-0.1,0.5L74.9,12l0,0.3L74.7,13l-0.2,0.5l0,0.2
			l-0.2,0.9l-0.1,0.6l-0.1,0.3l0,0.3L74,16.2l-0.1,0.3l-0.4,0l-0.4-0.2l-0.1-0.3l0-0.3l-0.1-0.1l-0.2,0l-0.4,0.2L72,16l-0.4,0.1
			l-0.5,0L70.4,15.9z M71.5,15.2l0.2,0l0.5-0.1l0.4-0.1l0.2-0.2l0.2-0.3l0.2-0.3l0.1-0.2l0-0.3l0.3-1.2l0-0.2L73.6,12l-0.2-0.1
			l-0.9-0.2l-0.3,0l-0.5,0l-0.5,0.2L71.1,12l-0.2,0.2l-0.1,0.2l-0.2,0.2l-0.1,0.2l-0.2,0.6l-0.1,0.4l0,0.2l0.1,0.5l0.1,0.2l0.2,0.2
			l0.2,0.2l0.3,0.1L71.5,15.2z"/>
		<path class="st2" d="M76.5,17.2l0-0.3l0.1-0.4l0.3-0.7l0.1-0.2l0.1-0.3l0.5-1.3l0.1-0.3l0.4-1.1l0.1-0.2l0.1-0.3l0.2-0.8l0.3-0.7
			l0.3-0.9l0.1-0.3L79,9.2l0.2,0l0.2,0l0.2,0.1l0.2,0.2l0.1,0.2l-0.1,0.4l-0.5,1.5L79.3,12l-0.1,0.3l0,0.3l0.2,0.1l0.3,0l0.5-0.1
			l0.5-0.1l0.4-0.2l0.6-0.5l0.2-0.2l0.2-0.2l0.2-0.2l0.2-0.2l0.1-0.2l0.1-0.2l0.3-0.1l0.3,0l0.2,0.1l0.3,0l0.2,0.2l0,0.2l-0.5,0.6
			l-0.2,0.2L83.1,12l-0.2,0.2l-0.2,0.1l-0.2,0.2l-0.2,0.1l-0.2,0.2l-0.2,0.2l-0.7,0.3L81,13.4l-0.2,0.2l0,0.3l0.1,0.3l0.1,0.3
			l0.1,0.4l0.1,0.2l0,0.3l0.1,0.2l0.1,0.2l0.1,0.5l0.1,0.2l0.2,0.7l0.1,0.2l0.1,0.5l0.2,0.7L81.9,19l-0.2,0l-0.3-0.1l-0.3-0.1
			l-0.3-0.2l-0.2-0.3l-0.1-0.2l-0.1-0.6l-0.1-0.4l0-0.3l-0.1-0.5l-0.1-0.5l-0.2-1l-0.2-0.8l-0.2-0.3l-0.3-0.1l-0.3,0.1L78.6,14
			l-0.2,0.7l-0.1,0.3l-0.1,0.2l-0.1,0.2L78,15.8L77.9,16l-0.1,0.2l-0.2,0.4l-0.2,0.6l-0.2,0.2l-0.3,0l-0.2-0.1l-0.2-0.1L76.5,17.2z"
			/>
	</g>
	<path class="st3" d="M55.5,38.4C54.3,38.1,54,36.5,55,36c2-1,5.7-2.3,9-0.4C67.7,37.8,59.4,39.4,55.5,38.4z"/>
	<path class="st1" d="M22.9,87c0.4-1.9,0.5-3.9,0.8-5.8c0.3-2.1,0.8-4.4-0.2-6.3c0-0.1-0.1-0.2-0.2-0.2c-0.7-0.3-2.3,1.1-2.5,1.6
		c-0.4,1.1,0.1,4,0,5.1C20.7,84.8,22.3,90,22.9,87z"/>
	<path class="st1" d="M80.1,71.6c-0.1,1.1-1.2-1.5-1.4-3.9c-0.1-1.5,0-2.9,0-4.4c0-1.6-0.1-3.3,0.8-4.6c0-0.1,0.1-0.1,0.2-0.2
		c0.5-0.2,2.4-1,2.5-0.6C82.4,58.8,80.4,69,80.1,71.6z"/>
	<path class="st0" d="M40.8,51c0,0,3.6,4.7-0.6,5.3c-4.8,0.7-3.1,3.7-5.5,5.9c-1.7,1.6-5.9,4.6-8.3,1.9c4.7-4,6.6-9.6,6.6-9.6
		L40.8,51z"/>
	<path class="st4" d="M41.8,54.6c-0.7,1.2-2.1,0.9-3.2,0.8c-1.3-0.1-2.2,1.2-2.8,2.3c-0.6,1.1-1,2.4-1.8,3.4
		c-1.2,1.6-3.2,2.5-5.1,3.1c-0.6,0.2-1.2,0.3-1.8,0.2c-0.4-0.1-0.7-0.2-0.9-0.5c0,0,0,0,0,0c-0.2-0.2-0.3-0.4-0.3-0.6
		c-0.1-0.5,0.2-1,0.5-1.5c0.8-1,1.6-2,2.5-2.8c0.6-0.6,1.2-1.1,1.7-1.7c0.2-0.3,0.5-0.7,0.6-1.1c0.2-0.4,0.2-0.8,0.2-1.2
		c-0.1-0.7-0.4-1.2-0.8-1.8c-0.6-0.8-1.3-1.4-2-2c-0.7-0.5-1.6-1-2.2-1.6c-0.1-0.1-0.1-0.2-0.2-0.2c0,0,0,0,0,0
		c-0.8-1-1-2.4-0.6-3.6c0.5-1.3,1.7-2.3,3-2.6c1-0.2,1.9,0,2.9,0.1c1.5,0.1,3.1-0.1,4.6-0.6c1.2-0.4,2.3-1.1,3.5-1.3
		c0.4-0.1,0.9,0,1,0.4c0.1,0.2,0,0.4-0.1,0.6c-0.5,1-1.7,1.5-2.2,2.5c-0.7,1.2-0.2,2.8,0.6,4c0.4,0.5,0.8,1,1.3,1.5
		c0.5,0.6,1,1.1,1.4,1.8C42,52.8,42.3,53.8,41.8,54.6z"/>
	<path class="st0" d="M50.3,47.4c0,0-0.7,3.5-0.5,6.4c-0.4,0.9-1.5,1.4-1.6,2.9c-0.1,1-1.6,2.5-3.3,3.1c-1.7,0.6-4-0.1-4-1
		c2.1-1.9,4.2-3,4.2-3l0.9-1.1l1.3-4.3L50.3,47.4z"/>
	<path class="st4" d="M52.7,44.8c0,0.1-0.1,0.2-0.2,0.2c-0.9,0.7-1.8,1.5-2.4,2.5c-0.1,0.2-0.2,0.5-0.3,0.7
		c-0.1,0.4-0.2,0.8-0.3,1.1c-0.3,1.2-0.6,2.4-0.4,3.5c0,0.1,0,0.2,0,0.3c0,0.1-0.2,0.2-0.3,0.3c-0.7,0.6-1.2,1.4-1.6,2.3
		c-0.1,0.3-0.2,0.6-0.3,0.9c-0.5,1-1.7,1.4-2.7,1.8c-0.6,0.2-1.2,0.4-1.8,0.5c-0.5,0-1.2,0-1.6-0.3c-0.4-0.3-0.2-1,0-1.4
		c0.2-0.4,0.6-0.6,1-0.9c1.2-1,1.5-3,0.7-4.4c-0.4-0.7-1.1-1.2-1.7-1.8c-0.5-0.4-0.9-0.9-1.2-1.4c-0.3-0.5-0.5-1-0.6-1.5
		c-0.1-0.5-0.2-1-0.1-1.4c0.2-1,1-1.7,1.8-2.4c0.3-0.3,0.6-0.5,1-0.7c0.5-0.2,1.1-0.3,1.6-0.3c0.6,0,1.2,0,1.6,0.2
		c0.4,0.2,0.6,0.6,1,0.8c0.8,0.5,1.8,0.2,2.7,0c0.6-0.1,1.2-0.2,1.9-0.3c0.3,0,0.6-0.1,0.9,0c0.6,0.2,0.9,0.8,1.1,1.3
		C52.7,44.6,52.7,44.7,52.7,44.8z"/>
	<path class="st0" d="M50.3,52.6c0,0,0,3.5,2,3.7c2,0.1,3-0.8,3.7-1.3c1-0.6,2.4-0.1,3-0.1c0.6,0.1,2-0.5,1.8-3.2s0.6-3.5,1.3-4.1
		c-2.5-0.6-4.6,1.5-4.6,1.5l-2.8,2.4L50.3,52.6z"/>
	<path class="st4" d="M63.7,46.9c-0.1,0.2-0.3,0.2-0.4,0.3c-0.9,0.2-1.7,0.8-2.3,1.5v0c-0.6,0.8-1,1.8-0.9,2.7
		c0,0.4,0.1,0.7,0.1,1.1c0,0.4-0.2,0.7-0.5,1c-0.4,0.3-1,0.1-1.6,0c-0.7-0.1-1.5-0.1-2.2,0.1c-0.2,0.1-0.4,0.1-0.6,0.2
		c-0.3,0.1-0.4,0.4-0.7,0.6c-0.8,0.7-2.9,1.5-3.7,0.4c-0.8-1.1-0.7-3.1-0.4-4.3c0.1-0.6,0.3-1.2,0.6-1.7c0,0,0,0,0,0
		c0.1-0.2,0.2-0.3,0.2-0.5c0.4-0.6,0.8-1.1,1.3-1.5c0.5-0.5,1.1-1,1.8-1.3c0.7-0.3,1.5-0.5,2.2-0.3c0.7,0.2,1.3,0.7,1.8,1.2
		c0.2,0.1,0.4,0.3,0.6,0.3c0.3,0.1,0.6,0,0.9-0.1c0.8-0.2,1.7-0.5,2.5-0.7c0.2-0.1,0.4-0.1,0.6,0c0.4,0.1,0.5,0.5,0.6,0.9
		C63.7,46.7,63.7,46.8,63.7,46.9z"/>
	<path class="st0" d="M61.1,53.6c0,0-0.1,1,0.4,0.9c0.6,0,1.9-0.5,2.6-0.3s1.7,0.6,2.3,0.5s1-0.1,1-1.6c0-1.5,0.4-2.3,0.4-2.3
		l-1.9,0.7l-2.3,0.9L61.1,53.6z"/>
	<path class="st4" d="M68.9,49.9c-0.2,0.2-0.4,0.3-0.6,0.4c-0.3,0.2-0.6,0.5-0.8,0.9c0,0.1-0.1,0.2-0.2,0.3c-0.2,0.5-0.3,1-0.3,1.6
		c0,0.3-0.1,0.5-0.2,0.7c-0.2,0.2-0.6,0.2-0.9,0.2c-0.5-0.1-0.9-0.3-1.3-0.4c-1.1-0.2-2.1,0.4-3.2,0.2c-0.1,0-0.2-0.1-0.3-0.2
		c0,0,0-0.1,0-0.2c0.1-0.4,0.1-0.9,0.1-1.3c0.1-1.1,0.3-2.1,0.9-3c0,0,0.1-0.1,0.1-0.1c0,0,0,0,0,0c0.6-0.8,1.5-1.5,2.4-1.7
		c0.8-0.2,1.3,0.1,1.8,0.8c0.3,0.4,1,1.2,1.6,1.2c0.3,0,0.8-0.2,1,0.1C69.2,49.4,69.1,49.7,68.9,49.9z"/>
	<path class="st0" d="M67.9,52.4c0,0-0.3,1.8,1,2.1c1.2,0.3,2.4-0.2,3.3,0c0.9,0.2,1.8-0.6,1.5-1.7c-1.4-0.1-3.8,0.5-3.8,0.5
		L67.9,52.4z"/>
	<path class="st4" d="M73.7,52.8L73.7,52.8c0,0.3,0,0.5-0.2,0.7c-0.2,0.3-0.6,0.4-1,0.4c-0.4,0-0.7-0.1-1.1-0.1
		c-0.5,0-1.1,0.2-1.6,0.2c-0.3,0-0.7,0-1-0.1c-0.2,0-0.4-0.1-0.6-0.3c-0.3-0.3-0.4-0.7-0.3-1.1c0-0.5,0.2-0.9,0.5-1.3
		c0.4-0.5,0.9-1,1.5-1.1c0.3-0.1,0.5-0.1,0.8,0c0.2,0.1,0.4,0.2,0.6,0.4c0.5,0.3,1.2,0.2,1.6,0.6C73.4,51.4,73.6,52.2,73.7,52.8z"/>
	<path class="st5" d="M31.3,56.3L31.3,56.3c0.1-0.4,0.2-0.8,0.2-1.2c-0.1-0.7-0.4-1.2-0.8-1.8c-0.6-0.8-1.3-1.4-2-2
		c-0.7-0.5-1.6-1-2.2-1.6c-0.1-0.1-0.1-0.2-0.2-0.2C26.6,49.6,33.6,52,31.3,56.3z"/>
	<path class="st5" d="M41.8,54.6c-0.7,1.2-2.1,0.9-3.2,0.8c-1.3-0.1-2.2,1.2-2.8,2.3c-0.6,1.1-1,2.4-1.8,3.4
		c-1.2,1.6-3.2,2.5-5.1,3.1c-0.6,0.2-1.2,0.3-1.8,0.2c-0.4-0.1-0.7-0.2-0.9-0.5c1.6,0.8,3.6-0.5,5.2-1.8c3.2-2.7,3.9-7.4,7.3-7.5
		c3.5-0.1,0.5-4.8,1.4-4.3c0.5,0.6,1,1.1,1.4,1.8C42,52.8,42.3,53.8,41.8,54.6z"/>
	<path class="st5" d="M49.5,49.4c-0.3,1.2-0.6,2.4-0.4,3.5c0,0.1,0,0.2,0,0.3c0,0.1-0.2,0.2-0.3,0.3c-0.7,0.6-1.2,1.4-1.6,2.3
		c-0.1,0.3-0.2,0.6-0.3,0.9c-0.5,1-1.7,1.4-2.7,1.8c-0.6,0.2-1.2,0.4-1.8,0.5c-0.5,0-1.2,0-1.6-0.3c-0.4-0.3-0.2-1,0-1.4
		c0.2-0.4,0.6-0.6,1-0.9c1.2-1,1.5-3,0.7-4.4c-0.4-0.7-1.1-1.2-1.7-1.8c0,0,3.3,0.5,2.4,4c-0.7,2.7-2.1,3.3-1.4,4
		c0.8,0.9,4.3-0.9,4.8-2.8c0.3-1.3,1.6-1.9,1.7-2.7c0.1-0.7,0.8-3.9,1.4-4.4C49.7,48.6,49.6,49,49.5,49.4z"/>
	<path class="st5" d="M60.9,48.7c-0.6,0.8-1,1.8-0.9,2.7c0,0.4,0.1,0.7,0.1,1.1c0,0.4-0.2,0.7-0.5,1c-0.4,0.3-1,0.1-1.6,0
		c-0.7-0.1-1.5-0.1-2.2,0.1c-0.2,0.1-0.4,0.1-0.6,0.2c-0.3,0.1-0.4,0.4-0.7,0.6c-0.8,0.7-2.9,1.5-3.7,0.4c-0.8-1.1-0.7-3.1-0.4-4.3
		c0.1-0.6,0.3-1.2,0.6-1.7c-0.1,0.3-1.4,4.6,0.6,5.5c2,1,2.4-1.5,4.5-1.6c2.2,0,3.3,0.4,3.5-0.9C59.8,50.5,60.1,49,60.9,48.7
		L60.9,48.7z"/>
	<path class="st5" d="M67.4,51.5c-0.2,0.5-0.3,1-0.3,1.6c0,0.3-0.1,0.5-0.2,0.7c-0.2,0.2-0.6,0.2-0.9,0.2c-0.5-0.1-0.9-0.3-1.3-0.4
		c-1.1-0.2-2.1,0.4-3.2,0.2c-0.1,0-0.2-0.1-0.3-0.2c0,0,0-0.1,0-0.2c0.1-0.4,0.1-0.9,0.1-1.3c0.1-1.1,0.3-2.1,0.9-3
		c0,0,0.1-0.1,0.1-0.1c-0.1,0.2-1,2.8-0.5,4c0.1,0.3,0.7,0,1.5,0c0.8,0,1.6-0.2,2.2,0.1C65.8,53.4,66.8,52.7,67.4,51.5z"/>
	<path class="st5" d="M73.7,52.8L73.7,52.8c0,0.3,0,0.5-0.2,0.7c-0.2,0.3-0.6,0.4-1,0.4c-0.4,0-0.7-0.1-1.1-0.1
		c-0.5,0-1.1,0.2-1.6,0.2c-0.3,0-0.7,0-1-0.1c-0.2,0-0.4-0.1-0.6-0.3c-0.3-0.3-0.4-0.7-0.3-1.1c0-0.5,0.2-0.9,0.5-1.3
		c0,0,0,0.1,0,0.2c0,0.3,0,0.5,0.1,0.8c0.1,0.3,0.2,0.7,0.5,0.9c0.3,0.1,0.6,0,0.8,0c0.5-0.1,1-0.1,1.6-0.1c0.7,0,1.4,0.2,2.1-0.2
		C73.5,52.8,73.6,52.8,73.7,52.8z"/>
	<path class="st3" d="M27.2,76c0.3,0.2,0.6,0.2,1,0.3c9.2,1.2,18.5-1.4,27-5.2c0.6-0.3,1.2-0.5,1.7-1s0.7-1.2,0.4-1.8
		c-0.6-1.3-9.8,2.3-14.8,2.8c-3,0.3-6.1-0.1-9.2,0c-2,0.1-4.1,0.3-6,1.1c-0.7,0.3-2,0.7-2,1.6C25.3,74.4,26.7,75.7,27.2,76z"/>
</g>
</svg>
