<?xml version="1.0" encoding="utf-8"?>
<!-- Generator: Adobe Illustrator 21.0.0, SVG Export Plug-In . SVG Version: 6.00 Build 0)  -->
<svg version="1.1" id="Layer_1" xmlns="http://www.w3.org/2000/svg" xmlns:xlink="http://www.w3.org/1999/xlink" x="0px" y="0px"
	 viewBox="0 0 240.9 453.5" style="enable-background:new 0 0 240.9 453.5;" xml:space="preserve">
<style type="text/css">
	.st0{fill:#794552;}
	.st1{fill:#C7B89E;}
	.st2{fill:#F9A960;}
	.st3{fill:#D17C32;}
	.st4{fill:#956070;}
	.st5{fill:#FDDCC0;}
	.st6{fill:#501338;}
	.st7{fill:#FFFFFF;}
	.st8{fill:#B38091;}
	.st9{fill:#D1D5DB;}
	.st10{fill:#989A9C;}
	.st11{fill:#937B70;}
	.st12{fill:#E6DEC9;}
	.st13{fill:#F0B39C;}
	.st14{fill:#8E183F;}
	.st15{fill:#F5F5F5;}
	.st16{fill:none;stroke:#462062;stroke-width:0.7554;stroke-linecap:round;stroke-miterlimit:10;}
	.st17{fill:#B5BAC0;}
	.st18{fill:#C71F41;}
	.st19{fill:#EF5784;}
	.st20{fill:#A91D41;}
	.st21{opacity:0.5;fill:#C1C1C1;}
	.st22{opacity:0.27;fill:#E78B6F;}
	.st23{fill:#CB8A43;}
	.st24{fill:#754D24;}
	.st25{fill:#FBBA6C;}
	.st26{fill:#837070;}
	.st27{fill:#866A58;}
	.st28{fill:#9A7E67;}
	.st29{fill:#B39885;}
	.st30{fill:#5B4580;}
	.st31{fill:#E1DFDF;}
	.st32{fill:#C0BEBD;}
	.st33{fill:#D53231;}
	.st34{fill:#E94647;}
	.st35{fill:#797083;}
	.st36{fill:#A9A4B4;}
	.st37{fill:#5B5567;}
	.st38{fill:#CE202B;}
	.st39{fill:#EE3734;}
	.st40{fill:#F49294;}
	.st41{fill:#B89AA6;}
	.st42{fill:#D4907B;}
	.st43{fill:#FAB276;}
	.st44{opacity:0.5;fill:#794552;}
	.st45{fill:#B57D90;}
	.st46{opacity:0.7;fill:#794552;}
	.st47{opacity:0.15;fill:#F2E8A5;}
	.st48{fill:#D67E3A;}
	.st49{fill:#735A99;}
	.st50{fill:#644C88;}
	.st51{fill:#9480B4;}
	.st52{fill:#E4D2A4;}
	.st53{fill:#FAEDD0;}
	.st54{fill:#C4B18B;}
	.st55{fill:#735A99;stroke:#501338;stroke-width:1.571;stroke-miterlimit:10;}
	.st56{fill:#C8BFBF;}
	.st57{fill:#B2ABAB;}
	.st58{fill:#FFE098;}
	.st59{fill:#ECC77E;}
	.st60{fill:#FFEBC7;}
	.st61{fill:#A1675E;}
	.st62{fill:#90564F;}
	.st63{fill:#C07F78;}
	.st64{fill:#68485A;}
	.st65{fill:#FFDD81;}
	.st66{fill:#814945;}
	.st67{fill:#945B58;}
	.st68{fill:#B17977;}
	.st69{fill:#884C4A;}
	.st70{fill-rule:evenodd;clip-rule:evenodd;fill:#989A9C;}
	.st71{fill:#D89E98;}
	.st72{fill:#64445C;}
	.st73{fill:#816474;}
	.st74{fill:#A48390;}
	.st75{fill:#DDAD41;}
	.st76{fill:#F48657;}
	.st77{fill:#D77151;}
	.st78{fill:#F8AB89;}
	.st79{fill:#E9C05B;}
	.st80{fill:#9A8691;}
	.st81{fill:#A28F99;}
	.st82{fill:#8780BC;}
	.st83{fill:#6966AD;}
	.st84{fill:#B2ADD5;}
	.st85{fill:#F48C8C;}
	.st86{fill:#E86363;}
	.st87{fill:#F4876E;}
	.st88{fill:#E56A51;}
	.st89{fill:#80655C;}
	.st90{fill:#C3AC6F;}
	.st91{fill:#9F874A;}
	.st92{fill:#DBC68E;}
	.st93{opacity:0.11;fill:#FFFFFF;}
	.st94{fill:#F7A799;}
	.st95{fill:#FCE5A5;}
	.st96{fill:#DEBB6C;}
	.st97{fill:#B67C76;}
	.st98{fill:none;stroke:#462062;stroke-width:0.843;stroke-linecap:round;stroke-miterlimit:10;}
	.st99{fill:#9D9B86;}
	.st100{fill:#8780BC;stroke:#501338;stroke-width:1.6795;stroke-miterlimit:10;}
	.st101{fill:#C5C4B4;}
	.st102{fill:#E9E9D9;}
	.st103{fill:#E9C15D;}
	.st104{opacity:0.3;}
	.st105{fill:#A27388;}
	.st106{opacity:0.5;fill:#FFFFFF;}
	.st107{fill:#91667A;}
	.st108{opacity:0.4;}
	.st109{opacity:0.5;}
	.st110{opacity:0.5;fill:#A7A7A6;}
	.st111{fill:#C16D34;}
	.st112{opacity:0.4;fill:#FFFFFF;}
	.st113{fill:none;stroke:#501338;stroke-width:1.5687;stroke-linecap:round;stroke-linejoin:round;stroke-miterlimit:10;}
	.st114{opacity:0.27;}
	.st115{fill:#E78B6F;}
	.st116{opacity:0.2;fill:#F48E8E;}
	.st117{fill:#99744B;}
	.st118{fill:#825D38;}
	.st119{fill:#C9CAA6;}
	.st120{fill:#BCBC96;}
	.st121{fill:none;stroke:#462062;stroke-width:0.7845;stroke-linecap:round;stroke-miterlimit:10;}
	.st122{fill:#66402A;}
	.st123{fill:#935C35;}
	.st124{opacity:0.6;fill:#7A4928;}
	.st125{opacity:0.4;fill:#F48E8E;}
	.st126{fill:#E1E1E1;}
	.st127{fill:#C1C1C1;}
	.st128{fill:#52363A;}
	.st129{fill:#C6C5C4;}
	.st130{opacity:0.6;}
	.st131{fill:#888888;}
	.st132{fill:#515252;}
	.st133{opacity:0.6;fill:#888888;}
	.st134{fill:#616160;}
	.st135{fill:#515150;}
	.st136{fill:#957B66;}
	.st137{fill:#B89984;}
	.st138{fill:#787878;}
	.st139{fill:#775F4F;}
	.st140{fill:#D7B9A8;}
	.st141{fill:#99999A;}
	.st142{opacity:0.4;fill:#E6DEC9;}
	.st143{fill:none;stroke:#462062;stroke-width:0.7586;stroke-linecap:round;stroke-miterlimit:10;}
	.st144{fill:#3F4242;}
	.st145{opacity:0.5;fill:#F0B39C;}
	.st146{opacity:0.57;fill:#B89AA6;}
	.st147{fill:#619F7F;}
	.st148{fill:#548E6E;}
	.st149{fill:#C16A2F;}
	.st150{fill:#CE413A;}
	.st151{fill:#B23330;}
	.st152{opacity:0.62;fill:#E48C7D;}
	.st153{fill:#5E3827;}
	.st154{fill:#F48E8E;}
	.st155{fill:#444445;}
	.st156{fill:#353435;}
	.st157{opacity:0.5;fill:#B89AA6;}
	.st158{fill:#4D4C4D;}
	.st159{fill:#444344;}
	.st160{opacity:0.6;fill:#A1A1A1;}
	.st161{fill:#282827;}
	.st162{fill:#636464;}
	.st163{fill:#575959;}
	.st164{fill:#3A3A3A;}
	.st165{opacity:0.5;fill:#787878;}
	.st166{fill:none;stroke:#462062;stroke-width:0.8198;stroke-linecap:round;stroke-miterlimit:10;}
	.st167{fill:#5B5B5C;}
	.st168{fill:#E4E4E4;}
	.st169{fill:#FFF1EA;}
	.st170{fill:#E1CDC5;}
	.st171{opacity:0.4;fill:#F0B39C;}
	.st172{opacity:0.5;fill:#ADADAD;}
	.st173{fill:#B58F5B;}
	.st174{fill:#606060;}
	.st175{fill:#4F5150;}
	.st176{opacity:0.6;fill:#989A9C;}
	.st177{fill:#5D7A6D;}
	.st178{fill:#4C685B;}
	.st179{fill:none;stroke:#462062;stroke-width:0.8057;stroke-linecap:round;stroke-miterlimit:10;}
	.st180{fill:#F7B975;}
	.st181{fill:#8D7449;}
	.st182{opacity:0.35;fill:#F7B975;}
	.st183{fill:#686868;}
	.st184{fill:#959595;}
	.st185{opacity:0.3;fill:#FFFFFF;}
	.st186{fill:#4C4B4C;}
	.st187{fill:#A27F67;}
	.st188{fill:#C6A691;}
	.st189{opacity:0.2;fill:#684D39;}
	.st190{fill:#926E56;}
	.st191{opacity:0.8;fill:#3A3A3A;}
	.st192{fill:#ED3E2B;}
	.st193{fill:#DB2C1F;}
	.st194{opacity:0.7;fill:#989A9C;}
	.st195{fill:#6B4845;}
	.st196{fill:#846363;}
	.st197{fill:#5E3E3C;}
	.st198{fill:none;stroke:#501338;stroke-width:1.6206;stroke-miterlimit:10;}
	.st199{opacity:0.5;fill:#E29780;}
	.st200{opacity:0.6;fill:#FFFFFF;}
	.st201{fill:#ECD8BB;}
	.st202{opacity:0.3;fill:#937B70;}
	.st203{fill:#FCF9F4;}
	.st204{opacity:0.6;fill:#F0B39C;}
	.st205{fill:none;stroke:#462062;stroke-width:0.7828;stroke-linecap:round;stroke-miterlimit:10;}
	.st206{fill:#CDCDCD;}
	.st207{opacity:0.5;fill:#A8A7A7;}
	.st208{fill:#868686;}
	.st209{opacity:0.3;fill:#F0B39C;}
	.st210{opacity:0.7;fill:#F0B39C;}
	.st211{fill:#735A99;stroke:#501338;stroke-width:1.5656;stroke-miterlimit:10;}
	.st212{opacity:0.5;fill:#FCF9F4;}
	.st213{opacity:0.5;fill:#FDDCC0;}
	.st214{fill:#6B3A37;}
	.st215{fill:#92A3D3;}
	.st216{fill:#B0C2E4;}
	.st217{fill:#7790BC;}
	.st218{fill:#7F95C6;}
	.st219{fill:#D0A7C2;}
	.st220{fill:#B7BE79;}
	.st221{fill:#725F82;}
	.st222{fill:#635175;}
	.st223{fill:none;stroke:#501338;stroke-width:1.5843;stroke-miterlimit:10;}
	.st224{fill:#C5B8DA;}
	.st225{fill:#A999C9;}
	.st226{fill:#8B6445;}
	.st227{fill:#7A5439;}
	.st228{fill:none;stroke:#501338;stroke-width:1.5751;stroke-linecap:round;stroke-linejoin:round;stroke-miterlimit:10;}
	.st229{fill:#D9CEB7;}
	.st230{fill:#CCBDA2;}
	.st231{opacity:0.2;fill:#FFFFFF;}
	.st232{fill:#B61F30;}
	.st233{fill:#595B5B;}
</style>
<g>
	<g>
		<path class="st49" d="M178.3,369.5c-0.1,0.3-0.1,0.6-0.2,1c0,0.1,0,0.1-0.1,0.2c-0.1,0.3-0.2,0.6-0.3,1c-0.3,0.8-0.5,1.6-0.9,2.3
			c-0.1,0.2-0.2,0.4-0.3,0.5c-0.1,0.2-0.2,0.3-0.3,0.5c-0.1,0.2-0.2,0.3-0.3,0.5c-0.1,0.2-0.2,0.3-0.3,0.5c-0.2,0.3-0.4,0.6-0.7,0.9
			c-0.2,0.3-0.5,0.6-0.7,0.9c-0.5,0.6-1.1,1.1-1.7,1.6c-0.7,0.6-1.6,1.2-2.4,1.7c0,0,0,0,0,0c-0.3,0.2-0.7,0.4-1.1,0.6
			c-1,0.5-2,0.9-3.1,1.3c-0.2,0.1-0.4,0.2-0.7,0.2c-0.7,0.3-1.5,0.5-2.3,0.7c-0.3,0.1-0.6,0.1-0.8,0.2c-0.1,0-0.3,0.1-0.4,0.1
			c-0.3,0.1-0.6,0.2-1,0.2c-0.4,0.1-0.9,0.2-1.3,0.3c-0.4,0.1-0.9,0.2-1.3,0.2c-0.7,0.1-1.3,0.2-2,0.3c-0.8,0.1-1.6,0.2-2.5,0.3
			c0,0-0.1,0-0.1,0c-0.9,0.1-1.8,0.2-2.8,0.3c-1.9,0.2-3.9,0.3-5.9,0.4c-0.3,0-0.7,0-1,0c-0.7,0-1.4,0.1-2.1,0.1
			c-1.8,0.1-3.7,0.1-5.6,0.1c-4.6,0.1-7.3-0.5-14-2.5c-1.9-0.5-3.9-0.5-5.8,0c-6.7,1.9-9.4,2.6-14,2.5c-1.9,0-3.8-0.1-5.6-0.1
			c-0.7,0-1.4,0-2.1-0.1c-0.4,0-0.7,0-1,0c-2.1-0.1-4.1-0.2-5.9-0.4c-1-0.1-1.9-0.2-2.8-0.3c-0.1,0-0.1,0-0.1,0
			c-0.8-0.1-1.7-0.2-2.5-0.3c-0.7-0.1-1.4-0.2-2-0.3c-0.4-0.1-0.9-0.2-1.3-0.2c-0.5-0.1-0.9-0.2-1.3-0.3c-0.3-0.1-0.6-0.1-1-0.2
			c-0.1,0-0.3-0.1-0.4-0.1c-0.3-0.1-0.6-0.1-0.8-0.2c-0.8-0.2-1.6-0.5-2.3-0.7c-0.2-0.1-0.4-0.2-0.7-0.2c-1.1-0.4-2.1-0.8-3.1-1.3
			c-0.4-0.2-0.7-0.4-1.1-0.6c0,0,0,0,0,0c-0.9-0.5-1.7-1.1-2.4-1.7c-0.6-0.5-1.2-1-1.7-1.6c-0.3-0.3-0.5-0.6-0.7-0.9
			c-0.3-0.3-0.5-0.6-0.7-0.9c-0.1-0.2-0.2-0.3-0.3-0.5c-0.1-0.2-0.2-0.3-0.3-0.5c-0.1-0.2-0.2-0.3-0.3-0.5c-0.1-0.2-0.2-0.4-0.3-0.5
			c-0.4-0.7-0.7-1.5-0.9-2.3c-0.1-0.3-0.2-0.6-0.3-1c0-0.1,0-0.1-0.1-0.2c-0.1-0.3-0.2-0.6-0.2-1c-0.3-1.6-0.5-3.4-0.4-5.3
			c0.3-11,6.5-25.7,11.7-36.2c1.2-2.5,2.4-4.8,3.4-6.7c0.2-0.4,0.5-0.8,0.8-1.2c2.3-3.1,6.2-4.7,10.1-4.1l31.9,5.4
			c1.1,0.2,2.3,0.2,3.5,0l31.9-5.4c4-0.7,8,1.1,10.3,4.4c0.2,0.3,0.4,0.6,0.6,0.9c5.2,9.7,14.4,28.4,15.1,41.9c0,0.3,0,0.6,0,0.9
			C178.8,366.1,178.6,367.8,178.3,369.5z"/>
		<g>
			<path class="st50" d="M116.7,341c-27.2-1.3-48.7-19.9-47.5-22c0.3-0.5,0.6-1,0.9-1.4h4l19.7,4.7c0,0,26.5,3.6,27.8,9.7
				C122.8,338.1,120,341,116.7,341z"/>
			<path class="st50" d="M121.5,341c27.2-1.3,48.7-19.9,47.5-22c-0.3-0.5-0.6-1-0.9-1.4h-4l-19.7,4.7c0,0-26.5,3.6-27.8,9.7
				C115.5,338.1,118.2,341,121.5,341z"/>
		</g>
		<path class="st50" d="M178.1,370.4c-1.7,0.8-10.9-4.9-12.3-5.5c2.5-24.1-3.9-36.2-5.4-37.1c-0.1-0.1-0.2-0.1-0.2-0.1l0.4-6
			l2.5-1.3c0.2,0.3,0.4,0.6,0.6,0.9C168.8,331,185.2,344.3,178.1,370.4z"/>
		<path class="st50" d="M60.2,370.4c1.7,0.8,10.9-5,12.3-5.6c-2.5-24.1,4-36.1,5.4-37.1c0.1-0.1,0.2-0.1,0.2-0.1l-0.4-6l-2.5-1.3
			c-0.2,0.3-0.4,0.6-0.6,0.9C69.4,331,53,344.3,60.2,370.4z"/>
		<path class="st50" d="M178.7,364.2c-3.9-2.9-11.6-5.7-13.2,1.8c-3.4,16.5-22.8,19-44.7,9.6c-1.1-0.5-2.2-0.5-3.3,0
			c-21.9,9.4-41.2,6.9-44.7-9.6c-1.6-7.6-9.4-4.7-13.2-1.8c-0.1,1.9,0.1,3.7,0.4,5.3c0.1,0.3,0.1,0.6,0.2,1c0,0.1,0,0.1,0.1,0.2
			c0.1,0.3,0.2,0.6,0.3,1c0.3,0.8,0.6,1.6,0.9,2.3c0.1,0.2,0.2,0.4,0.3,0.5l0.3,0.5c0.1,0.1,0.1,0.2,0.2,0.4
			c0.1,0.2,0.3,0.4,0.4,0.6c0.2,0.3,0.4,0.6,0.7,0.9c0.2,0.3,0.5,0.6,0.7,0.9c0.5,0.6,1.1,1.1,1.7,1.6c0.7,0.6,1.6,1.2,2.4,1.7
			c0,0,0,0,0,0c0.3,0.2,0.7,0.4,1.1,0.6c1,0.5,2,0.9,3.1,1.3c0.2,0.1,0.4,0.2,0.7,0.2c0.7,0.3,1.5,0.5,2.3,0.7
			c0.3,0.1,0.6,0.1,0.8,0.2c0.1,0,0.3,0.1,0.4,0.1c0.3,0.1,0.6,0.2,1,0.2c0.4,0.1,0.9,0.2,1.3,0.3c0.4,0.1,0.9,0.2,1.3,0.2
			c0.7,0.1,1.3,0.2,2,0.3c0.8,0.1,1.6,0.2,2.5,0.3c0,0,0.1,0,0.1,0c0.9,0.1,1.8,0.2,2.8,0.3c1.9,0.2,3.9,0.3,5.9,0.4
			c0.3,0,0.7,0,1,0c0.7,0,1.4,0.1,2.1,0.1c1.8,0.1,3.7,0.1,5.6,0.1c4.6,0.1,7.3-0.5,14-2.5c0.9-0.3,1.9-0.4,2.9-0.4s1.9,0.1,2.9,0.4
			c6.7,1.9,9.4,2.6,14,2.5c1.9,0,3.8-0.1,5.6-0.1c0.7,0,1.4,0,2.1-0.1c0.4,0,0.7,0,1,0c2.1-0.1,4.1-0.2,5.9-0.4
			c1-0.1,1.9-0.2,2.8-0.3c0.1,0,0.1,0,0.1,0c0.8-0.1,1.7-0.2,2.5-0.3c0.7-0.1,1.4-0.2,2-0.3c0.4-0.1,0.9-0.2,1.3-0.2
			c0.5-0.1,0.9-0.2,1.3-0.3c0.3-0.1,0.6-0.1,1-0.2c0.1,0,0.3-0.1,0.4-0.1c0.3-0.1,0.6-0.1,0.8-0.2c0.8-0.2,1.6-0.5,2.3-0.7
			c0.2-0.1,0.4-0.2,0.7-0.2c1.1-0.4,2.1-0.8,3.1-1.3c0.4-0.2,0.7-0.4,1.1-0.6c0,0,0,0,0,0c0.9-0.5,1.7-1.1,2.4-1.7
			c0.6-0.5,1.2-1,1.7-1.6c0.3-0.3,0.5-0.6,0.7-0.9c0.2-0.3,0.5-0.6,0.7-0.9c0.1-0.2,0.3-0.4,0.4-0.6c0.1-0.1,0.1-0.2,0.2-0.4
			l0.3-0.5c0.1-0.2,0.2-0.4,0.3-0.5c0.3-0.7,0.6-1.5,0.9-2.3c0.1-0.3,0.2-0.6,0.3-1c0-0.1,0-0.1,0.1-0.2c0.1-0.3,0.2-0.6,0.2-1
			C178.6,367.8,178.8,366.1,178.7,364.2z"/>
		<path class="st51" d="M69.7,329.3l0.2,0.4c0,0-12.6,21.3-9,40.5c-2.4-7.8-3.9-13.7-1.4-21.7c2.5-8,8.4-17.1,8.4-17.1l1.4-1.9
			L69.7,329.3z"/>
		<path class="st50" d="M111.2,378.1c1.4-0.8,2.7-1.7,3.9-2.6c1.2-1,2.3-2,3.3-3.2c1-1.1,1.9-2.4,2.7-3.7c0.8-1.3,1.6-2.6,2.4-3.9
			c0.1-0.1,0.2-0.1,0.3,0c0.1,0.1,0.2,0.2,0.1,0.3c-0.4,1.6-1,3-1.7,4.4c-0.7,1.4-1.6,2.7-2.6,3.9c-1,1.2-2.2,2.3-3.6,3.1
			c-1.4,0.9-3,1.5-4.7,1.8c-0.1,0-0.1,0-0.2-0.1C111.1,378.2,111.1,378.2,111.2,378.1z"/>
		<path class="st50" d="M106,346.8c2.4,0,4.8-0.1,7-0.4c2.3-0.3,4.5-0.9,6.6-1.6c2.2-0.7,4.2-1.7,6.3-2.7c2.1-1,4.1-2.1,6.1-3.2
			c0.2-0.1,0.4,0,0.5,0.2c0.1,0.2,0.1,0.4,0,0.5c-1.7,1.7-3.6,3.2-5.6,4.5c-2,1.3-4.1,2.3-6.4,3.1c-2.3,0.8-4.6,1.2-7.1,1.3
			c-2.5,0.1-5-0.3-7.4-1.2c-0.1,0-0.2-0.1-0.1-0.2C105.9,346.8,106,346.8,106,346.8z"/>
		<path class="st50" d="M130.5,379.1c-1.2-0.3-2.4-0.6-3.4-1.1c-1.1-0.5-2-1.1-2.9-1.7c-0.9-0.7-1.7-1.5-2.4-2.3
			c-0.8-0.8-1.4-1.7-2.2-2.6c-0.1-0.1-0.2,0-0.3,0.1c-0.1,0.1-0.1,0.2-0.1,0.3c0.4,1.2,0.9,2.3,1.5,3.2c0.6,1,1.4,1.8,2.4,2.6
			c0.9,0.7,2,1.3,3.2,1.6c1.2,0.3,2.6,0.4,4.1,0.2C130.5,379.3,130.5,379.3,130.5,379.1C130.6,379.2,130.6,379.1,130.5,379.1z"/>
		<path class="st50" d="M154.8,365.5c-1.9,1.1-4.9,2.7-10.4,3.3c-5.1,0.7-10-0.3-12.8-1.7c-0.1,0.2-0.1,0.3-0.1,0.5
			c0.1,2.7,5.5,8.6,12.7,7.7c10.3-1.4,10.9-8.4,10.7-9.6C154.8,365.7,154.8,365.6,154.8,365.5z"/>
		<path class="st50" d="M83.5,365.5c1.9,1.1,4.9,2.7,10.4,3.3c5.1,0.7,10-0.3,12.8-1.7c0.1,0.2,0.1,0.3,0.1,0.5
			c-0.1,2.7-5.5,8.6-12.7,7.7c-10.3-1.4-10.9-8.4-10.7-9.6C83.4,365.7,83.4,365.6,83.5,365.5z"/>
		<path class="st6" d="M135.2,387.4c-4.1,0-6.9-0.6-13.5-2.5c-1.7-0.5-3.6-0.5-5.3,0c-6.9,2-9.6,2.6-14.2,2.5
			c-1.9,0-3.8-0.1-5.6-0.1c-0.7,0-1.4,0-2.1-0.1l-1,0c-2.2-0.1-4.2-0.2-6-0.4c-0.9-0.1-1.9-0.2-2.8-0.3c-0.1,0-0.2,0-0.2,0
			c-0.8-0.1-1.7-0.2-2.5-0.3c-0.7-0.1-1.4-0.2-2-0.3c-0.5-0.1-0.9-0.2-1.3-0.2c-0.5-0.1-0.9-0.2-1.4-0.3c-0.3-0.1-0.7-0.2-1-0.2
			l-0.4-0.1c-0.3-0.1-0.6-0.1-0.9-0.2c-0.8-0.2-1.6-0.5-2.3-0.7l-0.7-0.2c-1.1-0.4-2.2-0.9-3.2-1.4c-0.3-0.2-0.7-0.3-1-0.5h0
			l-0.2-0.1c-0.9-0.5-1.8-1.1-2.5-1.8c-0.6-0.5-1.2-1.1-1.8-1.7c-0.3-0.3-0.5-0.6-0.8-0.9c-0.2-0.3-0.5-0.6-0.7-1
			c-0.1-0.2-0.2-0.3-0.3-0.5c-0.1-0.2-0.2-0.3-0.3-0.5l-0.3-0.5c-0.1-0.2-0.2-0.4-0.3-0.6c-0.4-0.7-0.7-1.5-0.9-2.4
			c-0.1-0.3-0.2-0.5-0.2-0.8l0,0l-0.1-0.4c-5.8-21.1,3.5-33.9,10.2-43.2c1.8-2.4,3.3-4.5,4.4-6.5c0.1-0.1,0.1-0.2,0.2-0.3l0.1-0.1
			c0.1-0.1,0.2-0.3,0.2-0.4c0.1-0.1,0.1-0.1,0.1-0.2l0.4-0.6l0,0c2.5-3.2,6.6-4.8,10.7-4.1l31.9,5.4c1.1,0.2,2.1,0.2,3.2,0l31.9-5.4
			c4.3-0.7,8.6,1.1,11.1,4.7c0.2,0.3,0.4,0.6,0.6,1l0,0c1.1,2,2.6,4.1,4.4,6.5c6.7,9.3,16,22.1,10.2,43.2c0,0.1,0,0.1-0.1,0.2
			c-0.1,0.3-0.2,0.6-0.3,1c-0.3,0.9-0.6,1.7-0.9,2.4c-0.1,0.2-0.2,0.4-0.3,0.6l-0.3,0.5c-0.1,0.2-0.2,0.4-0.3,0.5
			c-0.1,0.2-0.2,0.4-0.3,0.5c-0.3,0.4-0.5,0.7-0.7,1c-0.2,0.3-0.5,0.6-0.8,0.9c-0.5,0.6-1.1,1.2-1.8,1.7c-0.8,0.6-1.6,1.2-2.5,1.8
			l-0.2,0.1c-0.3,0.2-0.6,0.3-0.9,0.5c-1,0.5-2,1-3.2,1.4l-0.7,0.2c-0.8,0.3-1.6,0.5-2.3,0.7c-0.3,0.1-0.6,0.2-0.9,0.2l-0.4,0.1
			c-0.3,0.1-0.7,0.2-1,0.2c-0.4,0.1-0.9,0.2-1.4,0.3c-0.4,0.1-0.9,0.2-1.3,0.2c-0.7,0.1-1.3,0.2-2,0.3c-0.8,0.1-1.6,0.2-2.5,0.3
			c0,0-0.1,0-0.2,0c-0.9,0.1-1.8,0.2-2.8,0.3c-1.8,0.2-3.7,0.3-6,0.4l-1,0c-0.7,0-1.4,0.1-2.1,0.1c-1.8,0.1-3.7,0.1-5.6,0.1
			C135.8,387.4,135.5,387.4,135.2,387.4z M119.1,382.9c1,0,2.1,0.1,3.1,0.4c6.8,2,9.4,2.5,13.8,2.4c1.9,0,3.8-0.1,5.6-0.1
			c0.7,0,1.4,0,2.1-0.1l1.1,0c2.2-0.1,4.1-0.2,5.9-0.4c0.9-0.1,1.9-0.2,2.8-0.3l0.1,0c0.9-0.1,1.7-0.2,2.5-0.3
			c0.7-0.1,1.3-0.2,2-0.3c0.4-0.1,0.9-0.2,1.3-0.2c0.5-0.1,0.9-0.2,1.3-0.3c0.3-0.1,0.6-0.1,0.9-0.2l0.4-0.1
			c0.3-0.1,0.5-0.1,0.8-0.2c0.8-0.2,1.5-0.4,2.3-0.7l0.6-0.2c1.1-0.4,2.1-0.8,3-1.3c0.3-0.2,0.6-0.3,1-0.5l0.3-0.2
			c0.8-0.5,1.5-1,2.2-1.5c0.6-0.5,1.1-1,1.6-1.5c0.2-0.3,0.5-0.6,0.7-0.8c0.2-0.3,0.4-0.5,0.6-0.9c0.1-0.2,0.2-0.3,0.3-0.5
			c0.1-0.2,0.2-0.3,0.3-0.5l0.3-0.5c0.1-0.2,0.2-0.3,0.2-0.5c0.3-0.7,0.6-1.4,0.9-2.2c0.1-0.3,0.2-0.6,0.3-0.9l0-0.1
			c0,0,0-0.1,0-0.1c5.6-20.4-3.4-32.8-10-41.9c-1.7-2.4-3.3-4.6-4.5-6.7c-0.2-0.3-0.3-0.6-0.5-0.8c-2.1-3.1-5.8-4.7-9.5-4.1
			l-31.9,5.4c-1.2,0.2-2.5,0.2-3.7,0l-31.9-5.4c-3.6-0.6-7.1,0.8-9.3,3.7c-0.1,0.1-0.1,0.1-0.1,0.2l-0.2,0.3
			c-0.1,0.1-0.1,0.2-0.2,0.3l-0.1,0.2c0,0.1-0.1,0.1-0.1,0.2c-1.1,2.1-2.7,4.3-4.5,6.7c-6.5,9-15.5,21.4-10.1,41.5l0.1,0.4
			c0,0,0,0.1,0,0.1l0,0.1c0.1,0.3,0.2,0.6,0.3,0.9c0.2,0.8,0.5,1.5,0.9,2.2c0.1,0.2,0.2,0.4,0.3,0.5l0.3,0.5
			c0.1,0.1,0.2,0.3,0.3,0.5c0.1,0.2,0.2,0.3,0.3,0.4c0.3,0.4,0.4,0.7,0.6,0.9c0.2,0.3,0.5,0.6,0.7,0.9c0.5,0.5,1,1,1.6,1.5
			c0.7,0.5,1.4,1.1,2.2,1.5l0.3,0.2c0.3,0.2,0.6,0.4,1,0.5c0.9,0.5,1.9,0.9,3,1.3l0.7,0.2c0.7,0.2,1.5,0.5,2.2,0.7
			c0.3,0.1,0.5,0.1,0.8,0.2l0.4,0.1c0.3,0.1,0.6,0.2,1,0.2c0.4,0.1,0.9,0.2,1.3,0.3c0.4,0.1,0.9,0.2,1.3,0.2c0.6,0.1,1.3,0.2,2,0.3
			c0.8,0.1,1.6,0.2,2.5,0.3l0.1,0c0.9,0.1,1.8,0.2,2.8,0.3c1.8,0.2,3.7,0.3,5.9,0.4l1,0c0.7,0,1.4,0.1,2.1,0.1
			c1.8,0.1,3.7,0.1,5.6,0.1c4.4,0.1,7-0.5,13.8-2.4C117,383.1,118.1,382.9,119.1,382.9z"/>
		<path class="st50" d="M134.6,337.3c-7.6,0.4-9,0.2-15.1-0.6c-0.1,0-0.2,0-0.3,0c0,0,0,0,0,0c0,0,0,0,0,0c-0.1,0-0.2,0-0.3,0
			c-6.1,0.9-7.6,1.1-15.1,0.6c-0.4,0-0.6,0.1-0.5,0.3c5.8,4.8,11.5,7.6,13.7,8.6c0.6,0.2,1.3,0.4,2.1,0.4l0,0c0.1,0,0.2,0,0.2,0l0,0
			c0.8,0,1.6-0.1,2.1-0.4c2.2-1,7.9-3.7,13.7-8.6C135.2,337.4,134.9,337.2,134.6,337.3z"/>
		<path class="st50" d="M113.4,380c2.8-0.3,3.4-0.2,5.7,0.5c0,0,0.1,0,0.1,0c0,0,0,0,0,0c0,0,0,0,0,0c0,0,0.1,0,0.1,0
			c2.3-0.6,2.8-0.8,5.7-0.5c0.1,0,0.2-0.1,0.2-0.2c-2.2-3.6-4.3-5.7-5.1-6.4c-0.2-0.2-0.5-0.3-0.8-0.3h0c0,0-0.1,0-0.1,0l0,0
			c-0.3,0-0.6,0.1-0.8,0.3c-0.8,0.7-2.9,2.8-5.1,6.4C113.1,379.9,113.2,380,113.4,380z"/>
		<path class="st6" d="M177.2,371.6c0.3,0.2-2.9,2.8-7.4,4.7c-0.1,0.1,0,0.3,0.1,0.2c5-1.2,7.8-2.9,7.6-3.1L177.2,371.6z"/>
		<path class="st51" d="M64.6,341.3c-0.4,0.1,0.4,3.1,2.4,6.2c0.1,0.1-0.1,0.3-0.2,0.2c-3.1-2.7-4.1-5-3.8-5.1L64.6,341.3z"/>
		<path class="st6" d="M62.6,374.6c-0.3,0.3,3.7,2.6,9,4c0.1,0,0.1,0.3-0.1,0.3c-5.8-0.5-9.2-1.9-9-2.1L62.6,374.6z"/>
		<rect x="107.6" y="203.5" class="st26" width="19.4" height="19.4"/>
		<polygon class="st50" points="119.1,292.4 85,292.4 85.5,310.8 119.1,319.9 152.7,310.8 153.2,292.4 		"/>
		<path class="st50" d="M119.1,297.9c-25.3,0-32-5.7-32-5.7l6.2,13.5l25.8,6.8l25.8-6.8l6.2-13.5c0,0-4.9,3.7-19.7,5.1
			C127.9,297.7,123.8,297.9,119.1,297.9z"/>
		<g>
			<path class="st52" d="M100.4,305.8c0.6,0.3,2.1,1,2.1,1c-4.5,6.6-6.1,15.2-6.4,24.8c-1.6-0.4-3.1-0.8-4.6-1.2
				c-61.3-17.3-61.1-81.2-25.7-110.4c7.8-6.4,17.3-11.2,28.2-13.4c1.8-0.4,3.6-0.7,5.5-0.9c0,0,1.9,6.1,7.5,10.3
				c2.9,2.2,6.9,3.9,12.2,3.9v74.2H85l-2.3-54.3C62.2,250.2,52.7,286.7,100.4,305.8z"/>
			<path class="st53" d="M68.8,303.2c-10.2,6.1-9.3,7.7-9.3,7.7l1.7,0.7C61.3,311.6,61.9,309.7,68.8,303.2
				C68.8,303.2,68.8,303.2,68.8,303.2z"/>
			<path class="st54" d="M55.9,282c11.7-2,11.4-3.9,11.4-3.9l-1.4-1.3C65.9,276.8,64.7,278.4,55.9,282
				C55.9,281.9,55.9,281.9,55.9,282z"/>
			<path class="st54" d="M95.2,309.6c-3.6,12.3-3.8,20.8-3.8,20.8c2.6,0.8,1.7,0.6,4.6,1.3l6.4-24.8c-0.7-0.1-1.5-0.7-2.1-1
				c-47.6-19.1-38.2-55.6-17.6-66v0l0.8-1.3C70.1,241.3,38.1,281.8,95.2,309.6z"/>
			<path class="st53" d="M91.7,326.4l-0.3,3.9l0,0.1c-61.3-17.3-61.1-81.2-25.7-110.4C44.4,243.5,22.7,302.4,91.7,326.4z"/>
			<path class="st6" d="M119.1,219.1c-14.6,0-18.7-13.1-18.9-13.6l-0.2-0.6l-0.7,0.1c-36.3,4.3-56.8,34.6-58.4,62.4
				c-1.4,25,12.3,55.2,54.9,65l0.9,0.2l0-1c0.3-10.8,2.3-18.5,6.3-24.4l0.5-0.8l-0.8-0.4c-0.1,0-1.5-0.7-2.1-1h0
				c-28.7-11.5-33.6-27.9-33.9-36.6c-0.5-11.1,5.6-21.9,15.3-27.4l2.2,53.8l0.1,1.7l1.6,1.3l-0.2-4.6l-2.3-54.7l-1.1,0.6
				c-10.9,5.5-17.8,17.3-17.3,29.4c0.4,9.1,5.5,26.2,34.9,38c0.3,0.1,0.8,0.4,1.2,0.6c-3.7,5.8-5.6,13.3-6,23.5
				c-40.9-9.9-54.1-39.1-52.7-63.2c1.5-27,21.3-56.4,56.4-60.9c1.1,2.8,6.1,13.7,19.4,14.1v20.3h1.6v-21.8H119.1z"/>
			<g>
				<g>
					<path class="st5" d="M100.6,305.9c0.9,0.3,1.5,0.5,1.8,0.6c2.6,0.9,7.3-2.4,9.3-3.3c1.5-0.7,3.3,2.9,4,4.8
						c0.3,0.7,0.9,1.1,1.6,1.3l5.8,1c1,0.2,1.7,1,1.8,1.9c0,0,0.3,24.7-8.7,23.5c-7.5-1-14.3-2.5-20.6-4.3
						C97.1,319.6,99.3,310.7,100.6,305.9z"/>
					<path class="st13" d="M119,309.1c0,0,6.4,0.1,6.3,4.1c-0.1,4-1,12.4-2,16c-1.1,3.6-3.2,6-3.7,6.5s-3.7,0.5-6.5,0
						s-17-3.6-17-3.6s-0.9,0.2-0.8-1c0.2-1.2,3-19.1,4.2-22.3c1-2.9,1.2-3.2,1.2-3.2l2.7,0.9c0,0-4.4,13.1-3.3,17.3
						c5.8,1.2,14.5,3.4,14.5,3.4S119.4,320,119,309.1z"/>
					<path class="st7" d="M115.5,325.4c0,0,2.6-7,2.6-16.2l1.8,0.2C119.9,309.4,120.1,317.2,115.5,325.4z"/>
					<path class="st6" d="M116.2,324C116.2,324,116.2,324,116.2,324c3-4.8,4.2-14.9,4.2-14.9L119,309
						C119.3,310.2,118.4,318.6,116.2,324z"/>
					<path class="st6" d="M124.9,317c-1.3,0.5-2.7,0.8-4,0.8c1.3,0.4,2.6,0.6,3.8,0.4L124.9,317z"/>
					<path class="st6" d="M124,324.2c-1.4,0.6-2.7,0.9-4,0.8c1.3,0.4,2.6,0.6,3.8,0.4L124,324.2z"/>
					<path class="st6" d="M122.4,330.1c-0.6,0.4-1.4,0.5-2.3,0.5c0.8,0.3,1.6,0.4,2.2,0.3L122.4,330.1z"/>
					<path class="st7" d="M110.8,306.8c-0.5,0-1,0.1-1.5,0.2c-0.5,0.1-0.9,0.3-1.3,0.5c-0.4,0.2-0.8,0.5-1.2,0.7
						c-0.4,0.3-0.7,0.6-1.1,1l0,0c0.5,0,1-0.2,1.4-0.3c0.5-0.1,0.9-0.3,1.3-0.5c0.4-0.2,0.8-0.4,1.2-0.7
						C110.1,307.5,110.5,307.2,110.8,306.8z"/>
				</g>
				<path class="st6" d="M116.2,336.6c-7.2-1-14.2-2.4-20.7-4.3l-0.6-0.2l0.1-0.7c1.4-11.6,3.4-20.4,4.9-25.7l0.2-0.8l1.8,0.6
					c0.4,0.1,0.7,0.2,0.8,0.3c1.6,0.6,4.8-1.2,6.9-2.3c0.7-0.4,1.3-0.7,1.8-0.9c0.4-0.2,0.9-0.2,1.4,0c1.2,0.5,2.4,2.2,3.7,5.2
					c0.2,0.4,0.6,0.7,1,0.8l5.8,1.1c1.3,0.2,2.3,1.3,2.4,2.7c0,0.7,0.1,18.1-5.4,23c-1,0.9-2.2,1.3-3.4,1.3
					C116.6,336.6,116.4,336.6,116.2,336.6z M112,304c-0.4,0.2-1,0.5-1.7,0.9c-2.5,1.4-5.9,3.2-8.2,2.4c-0.1-0.1-0.4-0.1-0.8-0.3
					l-0.2-0.1c-1.2,4.5-3.2,12.9-4.6,24c6.2,1.8,12.9,3.2,19.8,4.1c1.1,0.1,2-0.2,2.9-0.9c5-4.4,4.9-21.6,4.9-21.7
					c-0.1-0.6-0.5-1.1-1.1-1.2l-5.8-1.1c-1-0.2-1.8-0.8-2.2-1.7c-1.2-2.9-2.3-4.1-2.8-4.3C112.1,304,112.1,304,112,304
					C112,304,112,304,112,304z"/>
			</g>
			<path class="st19" d="M47.6,246.6c0,0,6.4,1.6,8.8,4.7c0.2,0.2-0.1,0.5-0.3,0.4c-4.7-2.6-9.4-3.1-9.4-3.2L47.6,246.6z"/>
			<path class="st6" d="M90.2,329.7c0.6-5.6,1.4-9.8,4.3-17.6c-1.9,7.9-2.3,12.5-2.7,18L90.2,329.7z"/>
			<path class="st54" d="M48.3,255c0.3,0.2,15.8,10.9,15.8,10.9l1.1-5.5L48.3,255z"/>
		</g>
		<g>
			<path class="st52" d="M146.8,330.4c-1.5,0.4-3,0.8-4.6,1.2c-0.3-9.6-2-18.2-6.4-24.8c0,0,1.5-0.7,2.1-1
				c44-17.7,39.3-50.2,22-63.3c-1.4-1.1-2.9-2-4.4-2.8l0,0.5l-1.1,27.2l-0.8,20.3l-0.3,6.3h-34.1v-74.2c1.7,0,3.3-0.2,4.7-0.5
				c7.3-1.6,11.4-6.7,13.4-10.2c1.1-2,1.6-3.6,1.6-3.6c0.8,0.1,1.5,0.2,2.3,0.3c7.2,1.1,13.8,3.3,19.8,6.3c2.1,1,4,2.2,5.9,3.5
				c0.3,0.2,0.6,0.4,1,0.6c1.6,1.1,3.2,2.3,4.7,3.6C207.9,249.2,208.2,313.1,146.8,330.4z"/>
			<path class="st53" d="M174.2,298.4c10.6,5.4,9.8,7.1,9.8,7.1l-1.7,0.8C182.3,306.4,181.5,304.5,174.2,298.4
				C174.2,298.5,174.2,298.5,174.2,298.4z"/>
			<path class="st54" d="M162.3,309c-9.4-7.3-8.3-8.8-8.3-8.8l1.8-0.5C155.9,299.7,156.2,301.7,162.3,309
				C162.3,309,162.3,309,162.3,309z"/>
			<path class="st54" d="M143,309.6c3.6,12.3,3.8,20.8,3.8,20.8c-2.6,0.8-1.7,0.6-4.6,1.3l-6.4-24.8c0.7-0.1,1.5-0.7,2.1-1
				c47.6-19.1,38.2-55.6,17.6-66v0l-0.8-1.3C168.1,241.3,200.2,281.8,143,309.6z"/>
			<path class="st53" d="M146.5,326.4l0.3,3.9l0,0.1c61.3-17.3,61.1-81.2,25.7-110.4C193.9,243.5,215.5,302.4,146.5,326.4z"/>
			<path class="st6" d="M197.3,267.3c-1.5-27.8-22.1-58.2-58.4-62.4l-0.7-0.1l-0.2,0.6c-0.2,0.6-4.3,13.6-18.9,13.6h-0.8v90h1.6
				v-88.5c13.3-0.4,18.3-11.4,19.4-14.1c35,4.4,54.9,33.9,56.4,60.9c1.4,24.1-11.8,53.3-52.7,63.2c-0.4-10.1-2.3-17.6-6-23.5
				c0.4-0.2,0.9-0.4,1.2-0.6c29.5-11.8,34.5-28.9,34.9-38c0.5-12.1-6.4-23.9-17.3-29.4l-1.1-0.6l-2.3,54.7l-0.2,4.3
				c0.6-0.3,1.1-0.7,1.6-1.1l0-1.6l2.2-53.8c9.7,5.4,15.8,16.3,15.3,27.4c-0.3,7.5-4,20.7-23.3,31.6c-0.3,0.2-0.7,0.4-1.1,0.6
				c-2.9,1.5-6,3-9.6,4.5h0c-0.7,0.3-2.1,1-2.1,1l-0.8,0.4l0.5,0.8c4,5.8,5.9,13.6,6.3,24.4l0,1l0.9-0.2
				C185,322.5,198.6,292.3,197.3,267.3z"/>
			<g>
				<g>
					<path class="st5" d="M137.6,305.9c-0.9,0.3-1.5,0.5-1.8,0.6c-2.6,0.9-7.3-2.4-9.3-3.3c-1.5-0.7-3.3,2.9-4,4.8
						c-0.3,0.7-0.9,1.1-1.6,1.3l-5.8,1c-1,0.2-1.7,1-1.8,1.9c0,0-0.3,24.7,8.7,23.5c7.5-1,14.3-2.5,20.6-4.3
						C141.1,319.6,139,310.7,137.6,305.9z"/>
					<path class="st13" d="M119.3,309.1c0,0-6.4,0.1-6.3,4.1c0.1,4,1,12.4,2,16c1.1,3.6,3.2,6,3.7,6.5s3.7,0.5,6.5,0s17-3.6,17-3.6
						s0.9,0.2,0.8-1c-0.2-1.2-3-19.1-4.2-22.3c-1-2.9-1.2-3.2-1.2-3.2l-2.7,0.9c0,0,4.4,13.1,3.3,17.3c-5.8,1.2-14.5,3.4-14.5,3.4
						S118.8,320,119.3,309.1z"/>
					<path class="st7" d="M122.8,325.4c0,0-2.6-7-2.6-16.2l-1.8,0.2C118.3,309.4,118.1,317.2,122.8,325.4z"/>
					<path class="st6" d="M122.1,324C122,324,122.1,324,122.1,324c-3-4.8-4.2-14.9-4.2-14.9l1.4-0.1
						C118.9,310.2,119.8,318.6,122.1,324z"/>
					<path class="st6" d="M113.3,317c1.3,0.5,2.7,0.8,4,0.8c-1.3,0.4-2.6,0.6-3.8,0.4L113.3,317z"/>
					<path class="st6" d="M114.2,324.2c1.4,0.6,2.7,0.9,4,0.8c-1.3,0.4-2.6,0.6-3.8,0.4L114.2,324.2z"/>
					<path class="st6" d="M115.8,330.1c0.6,0.4,1.4,0.5,2.3,0.5c-0.8,0.3-1.6,0.4-2.2,0.3L115.8,330.1z"/>
					<path class="st7" d="M127.4,306.8c0.5,0,1,0.1,1.5,0.2c0.5,0.1,0.9,0.3,1.3,0.5c0.4,0.2,0.8,0.5,1.2,0.7c0.4,0.3,0.7,0.6,1.1,1
						l0,0c-0.5,0-1-0.2-1.4-0.3c-0.5-0.1-0.9-0.3-1.3-0.5c-0.4-0.2-0.8-0.4-1.2-0.7C128.1,307.5,127.8,307.2,127.4,306.8z"/>
				</g>
				<path class="st6" d="M121.3,336.6c-1.3,0-2.4-0.5-3.4-1.3c-5.5-4.9-5.4-22.2-5.4-23c0.1-1.4,1.1-2.5,2.4-2.7l5.8-1.1
					c0.5-0.1,0.8-0.4,1-0.8c1.3-3,2.5-4.7,3.7-5.2c0.5-0.2,0.9-0.2,1.4,0c0.5,0.2,1.1,0.5,1.8,0.9c2.1,1.2,5.3,2.9,6.9,2.3
					c0.2-0.1,0.4-0.1,0.8-0.3l1.8-0.6l0.2,0.8c1.5,5.3,3.6,14,4.9,25.7l0.1,0.7l-0.6,0.2c-6.5,1.9-13.4,3.4-20.7,4.3
					C121.8,336.6,121.6,336.6,121.3,336.6z M126.2,304c0,0-0.1,0-0.1,0c-0.6,0.2-1.6,1.5-2.8,4.3c-0.4,0.9-1.2,1.6-2.2,1.7l-5.8,1.1
					c-0.6,0.1-1.1,0.6-1.1,1.2c0,0.1-0.1,17.3,4.9,21.7c0.9,0.8,1.8,1.1,2.9,0.9c6.9-0.9,13.6-2.3,19.8-4.1
					c-1.4-11.1-3.4-19.5-4.6-24l-0.2,0.1c-0.4,0.1-0.6,0.2-0.8,0.3c-2.3,0.8-5.7-1-8.2-2.4C127.2,304.5,126.6,304.2,126.2,304
					C126.2,304,126.2,304,126.2,304z"/>
			</g>
			<path class="st6" d="M171.7,275.2c0.9,0.2,6.5,1.6,8.9,4c0.1,0.1,0,0.3-0.2,0.3c-4.3-2-8.4-2.6-9.3-2.8c-0.1,0-0.2-0.1-0.1-0.2
				l0.5-1.2C171.5,275.2,171.6,275.2,171.7,275.2z"/>
			<path class="st6" d="M148,329.7c-0.6-5.6-1.4-9.8-4.3-17.6c1.9,7.9,2.3,12.5,2.7,18L148,329.7z"/>
			<path class="st54" d="M190,255c-0.3,0.2-15.8,10.9-15.8,10.9l-1.1-5.5L190,255z"/>
		</g>
		<path class="st49" d="M119.1,301.3l0-83.9c-4-0.7-19.3-3.8-26-14.5c-28.5,0.3-50.9,36.6-51.9,48.1c0,0.1,0.1,0.2,0.1,0.2
			l27.2,11.1c0.1,0.1,0.3,0,0.3-0.2c0.6-2.1,4.8-16.4,13.9-22.5l2.3,55.1"/>
		<path class="st30" d="M47.5,253l18.8,4.3c0,0,6.5-14.2,17.1-18.9c-7.6,8.2-11.5,13.4-14.8,23.3c-4.7-1.2-13.1-4.1-13.1-4.1
			L47.5,253z"/>
		<path class="st51" d="M44.8,252.4c0,0,13.9-44.8,47.3-48.2c0.5-2.2-3.4-1.4-7.4,0.1c-4,1.5-19.3,5.8-29.9,21.4s-13.3,23-13.5,24.9
			C41,252.4,44.8,252.4,44.8,252.4z"/>
		<path class="st6" d="M119.9,301.3h-1.6l0-83.3c-6.1-1.1-19.3-4.6-25.6-14.3c-16,0.4-28.9,12.4-35.3,19.5
			c-8.8,10-14.7,21.7-15.4,27.5l26.3,10.7c1.1-3.8,5.4-16.5,14-22.3l1.2-0.8l2.4,56.9l-1.6-0.3L82,241.3c-8.1,6.4-12,19.6-12.4,21.2
			c-0.1,0.3-0.3,0.5-0.5,0.6c-0.3,0.1-0.6,0.1-0.8,0L41.1,252c-0.4-0.2-0.7-0.6-0.6-1c1-12.1,23.8-48.6,52.7-48.9l0.4,0l0.2,0.4
			c6.1,9.8,19.8,13.1,25.4,14.1l0.7,0.1L119.9,301.3z"/>
		<g>
			<g>
				<path class="st30" d="M113.6,202l0,17.5c0,0.2-0.2,0.4-0.4,0.3c-19-7.1-23.6-15.1-20-23.5c0.1-0.1,0.2-0.2,0.4-0.2l19.9,5.6
					C113.5,201.8,113.6,201.9,113.6,202z"/>
				<path class="st6" d="M113.3,220.6c-0.1,0-0.3,0-0.4-0.1c-11.6-4.3-18.3-9.1-20.7-14.7c-1.3-3.1-1.2-6.4,0.2-9.9
					c0.2-0.5,0.8-0.8,1.3-0.6l19.9,5.6c0.5,0.1,0.8,0.6,0.8,1v17.5c0,0.4-0.2,0.7-0.5,0.9C113.7,220.5,113.5,220.6,113.3,220.6z
					 M93.7,197c-1.2,3-1.2,5.7-0.1,8.3c2.1,4.9,8.6,9.5,19.2,13.6v-16.4L93.7,197z"/>
			</g>
		</g>
		<path class="st49" d="M119.1,301.3l0-83.9c4-0.7,19.3-3.8,26-14.5c28.5,0.3,50.9,36.6,51.9,48.1c0,0.1-0.1,0.2-0.1,0.2l-27.2,11.1
			c-0.1,0.1-0.3,0-0.3-0.2c-0.6-2.1-4.8-16.4-13.9-22.5l-2.2,53.6"/>
		<path class="st30" d="M190.7,253l-18.8,4.3c0,0-6.5-14.2-17.1-18.9c7.6,8.2,11.5,13.4,14.8,23.3c4.7-1.2,13.1-4.1,13.1-4.1
			L190.7,253z"/>
		<path class="st30" d="M168.1,209.9c-0.2,0.2-0.3,0.5-0.5,0.7c-0.4,0.6-0.8,1.1-1.2,1.6c-14,16.8-39.6,7-39.6,7
			c3.3,0.1,17.9-12.1,19.4-15.8c1.1-0.5,2.9-0.4,5,0C155.6,204.4,161.9,206.9,168.1,209.9z"/>
		<path class="st51" d="M197,250.5c0.2,1.9-3.6,1.9-3.6,1.9s-8.2-26.4-27.1-40.2c0.4-0.5,0.8-1,1.2-1.6c5.2,3.2,11,7.9,15.9,15
			C194.1,241.1,196.8,248.6,197,250.5z"/>
		<path class="st49" d="M167.6,210.6c-0.4,0.6-0.8,1.1-1.2,1.6c-5.7-4.2-12.5-7.2-20.2-8c-0.1-0.3,0-0.6,0-0.8c0.4-1,2.5-0.7,5,0
			c0.7,0.2,1.5,0.5,2.3,0.8C155.7,205.1,161.3,206.7,167.6,210.6z"/>
		<path class="st6" d="M118.3,301.3l0-84.6l0.7-0.1c5.6-1,19.3-4.3,25.4-14.1l0.2-0.4l0.4,0c28.9,0.3,51.7,36.8,52.7,48.8
			c0,0.4-0.2,0.9-0.6,1l-27.2,11.1c-0.3,0.1-0.6,0.1-0.8,0c-0.3-0.1-0.5-0.4-0.5-0.6c-0.4-1.6-4.3-14.8-12.4-21.2l-2.2,52.1
			l-1.6,0.7l2.3-55.7l1.2,0.8c8.6,5.8,12.9,18.5,14,22.3l26.3-10.7c-0.7-5.8-6.6-17.4-15.4-27.5c-6.3-7.2-19.3-19.2-35.3-19.5
			c-6.3,9.7-19.5,13.2-25.6,14.3l0,83.3H118.3z M170.1,262.1C170.1,262.1,170.1,262.1,170.1,262.1
			C170.1,262.1,170.1,262.1,170.1,262.1z"/>
		<g>
			<g>
				<path class="st30" d="M124.6,202l0,17.5c0,0.2,0.2,0.4,0.4,0.3c19-7.1,23.6-15.1,20-23.5c-0.1-0.1-0.2-0.2-0.4-0.2l-19.9,5.6
					C124.7,201.8,124.6,201.9,124.6,202z"/>
				<path class="st6" d="M124.9,220.6c-0.2,0-0.4-0.1-0.6-0.2c-0.3-0.2-0.5-0.5-0.5-0.9V202c0-0.5,0.3-0.9,0.8-1l19.9-5.6
					c0.5-0.2,1.1,0.1,1.3,0.6c1.5,3.5,1.6,6.8,0.2,9.9c-2.4,5.5-9.1,10.3-20.7,14.7C125.2,220.6,125.1,220.6,124.9,220.6z
					 M125.4,202.4v16.4c10.6-4.1,17-8.6,19.2-13.6c1.1-2.6,1.1-5.3-0.1-8.3L125.4,202.4z M144.4,196.6
					C144.4,196.6,144.4,196.6,144.4,196.6C144.4,196.6,144.4,196.6,144.4,196.6z"/>
			</g>
		</g>
		<polygon class="st50" points="154.7,238.4 152.3,297.6 146,297.2 148.4,280.7 138.3,279.9 148.6,277.2 		"/>
		<polygon class="st50" points="84,249.6 85.9,297.6 92.3,297.4 89,270 93.7,269.4 88.8,267.4 		"/>
		<path class="st51" d="M179.1,242.1c8.1-8.7,9.5-7.4,9.5-7.4l0.3,1.9C188.9,236.5,186.9,236.7,179.1,242.1
			C179.1,242.1,179.1,242.1,179.1,242.1z"/>
		<path class="st51" d="M69.2,228.9c-8.1-8.7-9.5-7.4-9.5-7.4l-0.3,1.9C59.4,223.4,61.4,223.5,69.2,228.9
			C69.2,228.9,69.2,228.9,69.2,228.9z"/>
		<path class="st30" d="M57.1,253.2c11.8-1.6,12.1,0.3,12.1,0.3l-0.9,1.6C68.2,255.1,66.6,253.9,57.1,253.2
			C57.1,253.2,57.1,253.2,57.1,253.2z"/>
		<g>
			<circle class="st50" cx="114" cy="289" r="2.5"/>
			<circle class="st50" cx="114" cy="272.9" r="2.5"/>
			<circle class="st50" cx="114" cy="256.8" r="2.5"/>
			<circle class="st50" cx="114" cy="240.7" r="2.5"/>
			<path class="st55" d="M114.2,240.4c3.1-0.7,6.5-0.7,10.2,0"/>
			<path class="st55" d="M114.2,256.8c3.3-0.6,6.7-0.6,10.2,0"/>
			<path class="st55" d="M114.2,272.9c3.4-0.6,6.8-0.6,10.2,0"/>
			<path class="st55" d="M114.2,289c3.3-1,6.7-1,10.2,0"/>
			<circle class="st50" cx="124.6" cy="240.7" r="2.5"/>
			<circle class="st6" cx="124.2" cy="240.2" r="2.5"/>
			<path class="st49" d="M124.2,239.1c0.8,0,1.4,0.6,1.5,1.3c0-0.1,0-0.1,0-0.2c0-0.8-0.7-1.5-1.5-1.5s-1.5,0.7-1.5,1.5
				c0,0.1,0,0.1,0,0.2C122.8,239.7,123.5,239.1,124.2,239.1z"/>
			<g>
				<circle class="st50" cx="124.6" cy="256.8" r="2.5"/>
				<circle class="st6" cx="124.2" cy="256.4" r="2.5"/>
				<path class="st49" d="M124.2,255.2c0.8,0,1.4,0.6,1.5,1.3c0-0.1,0-0.1,0-0.2c0-0.8-0.7-1.5-1.5-1.5s-1.5,0.7-1.5,1.5
					c0,0.1,0,0.1,0,0.2C122.8,255.8,123.5,255.2,124.2,255.2z"/>
			</g>
			<g>
				<circle class="st50" cx="124.6" cy="272.9" r="2.5"/>
				<circle class="st6" cx="124.2" cy="272.5" r="2.5"/>
				<path class="st49" d="M124.2,271.3c0.8,0,1.4,0.6,1.5,1.3c0-0.1,0-0.1,0-0.2c0-0.8-0.7-1.5-1.5-1.5s-1.5,0.7-1.5,1.5
					c0,0.1,0,0.1,0,0.2C122.8,271.9,123.5,271.3,124.2,271.3z"/>
			</g>
			<g>
				<circle class="st50" cx="124.6" cy="289" r="2.5"/>
				<circle class="st6" cx="124.2" cy="288.6" r="2.5"/>
				<path class="st49" d="M124.2,287.3c0.8,0,1.4,0.4,1.5,1c0,0,0-0.1,0-0.1c0-0.6-0.7-1.1-1.5-1.1s-1.5,0.5-1.5,1.1
					c0,0,0,0.1,0,0.1C122.8,287.7,123.5,287.3,124.2,287.3z"/>
			</g>
			<circle class="st6" cx="113.6" cy="240.2" r="2.5"/>
			<path class="st49" d="M113.6,239.1c0.8,0,1.4,0.6,1.5,1.3c0-0.1,0-0.1,0-0.2c0-0.8-0.7-1.5-1.5-1.5s-1.5,0.7-1.5,1.5
				c0,0.1,0,0.1,0,0.2C112.2,239.7,112.9,239.1,113.6,239.1z"/>
			<circle class="st6" cx="113.6" cy="256.4" r="2.5"/>
			<path class="st49" d="M113.6,255.2c0.8,0,1.4,0.6,1.5,1.3c0-0.1,0-0.1,0-0.2c0-0.8-0.7-1.5-1.5-1.5s-1.5,0.7-1.5,1.5
				c0,0.1,0,0.1,0,0.2C112.2,255.8,112.9,255.2,113.6,255.2z"/>
			<circle class="st6" cx="113.6" cy="272.5" r="2.5"/>
			<path class="st49" d="M113.6,271.3c0.8,0,1.4,0.6,1.5,1.3c0-0.1,0-0.1,0-0.2c0-0.8-0.7-1.5-1.5-1.5s-1.5,0.7-1.5,1.5
				c0,0.1,0,0.1,0,0.2C112.2,271.9,112.9,271.3,113.6,271.3z"/>
			<circle class="st6" cx="113.6" cy="288.6" r="2.5"/>
			<path class="st49" d="M113.6,287.3c0.8,0,1.4,0.4,1.5,1c0,0,0-0.1,0-0.1c0-0.6-0.7-1.1-1.5-1.1s-1.5,0.5-1.5,1.1c0,0,0,0.1,0,0.1
				C112.2,287.7,112.9,287.3,113.6,287.3z"/>
		</g>
		<path class="st38" d="M119.1,89.6L71.7,105c0,77.5,14.7,96.6,47.5,96.6s47.5-19,47.5-96.6L119.1,89.6z"/>
		<path class="st39" d="M79.7,130c0,0-0.1,67,37.7,66.5c40.9-0.5,40-66.2,40-66.2s-8.8-15.2-39.2-15.2S79.7,130,79.7,130z"/>
		<path class="st13" d="M77.9,165.8c0,0,8.8,32.8,40,33.5c23.7,0.5,41.8-15.6,43.9-66.2c1.6,2.5,2.7,4.3,3.4,6
			c0.6,1.3-0.2,2.9-0.2,2.9s-0.8,7.7-1.4,13.2c-1,9.4-7.6,28.9-14.2,35.3c-6.6,6.4-12.4,8.9-21.3,10s-21.8,1.8-29.6-3
			c-7.1-4.4-7.4-3.5-11.5-9.8s-7.3-14.4-7.7-16.4C78.9,169.2,77.9,165.8,77.9,165.8z"/>
		<path class="st6" d="M119.1,202.4c-18.1,0-29.4-6-36.7-19.6c-7.9-14.6-11.5-39.3-11.5-77.7v-0.6l48.2-15.7l48.2,15.7v0.6
			c0,38.4-3.7,63.1-11.5,77.7C148.5,196.3,137.2,202.4,119.1,202.4z M72.4,105.6c0.1,80,16.5,95.2,46.7,95.2
			c30.2,0,46.6-15.2,46.7-95.2l-46.7-15.2L72.4,105.6z"/>
		<g>
			<path class="st38" d="M119,146.3c-1.9,3.9-3.3,9.3-3.5,13.1c0,0-7.1,6.9-0.8,12.6c-1.2-3.8-0.8-6.7,0.5-8.2
				c1.3-1.5,2.4-2.3,2.5-2.6c0.1-0.3,0.1-5.6,0.1-5.6l1.4-8.7L119,146.3z"/>
			<path class="st40" d="M118.6,163.9c0.4,0.4,0.5,0.9,0,1.5c-0.7,0.8-1.3,1.3-1.7,0.9s-0.3-1.4,0.4-2.2
				C117.7,163.5,118.1,163.4,118.6,163.9z"/>
			<path class="st40" d="M120.1,159.7c-1.6-3.3-1.9-7.5-0.5-13.6c-2.2,6.2-2.4,9.8-0.6,14.3l3.9,1.9
				C122.9,162.1,120.1,159.7,120.1,159.7z"/>
			<path class="st6" d="M116.9,171.7c-3.4-2.2-2.3-7.3,0.2-9.2c-0.2-0.1,0.8-1.2,0.8-1.5c0-0.5-1-0.1-0.8-0.5
				c-4.5,2.3-4.8,8.3-2.9,10.9C116.1,174.1,117.5,172.2,116.9,171.7z"/>
			<path class="st6" d="M116.9,162.7l0.1-1.1c-0.5-5-0.3-8.6,2.1-15.2l0.6-0.3c-2.1,7-1.7,10.3-0.5,14.3l3.7,1.9
				C122.9,162.3,119,160.9,116.9,162.7z"/>
			<path class="st38" d="M119,172.8c1.9,0.9,4.6-0.5,4.8-3c0-0.5-0.6-0.8-0.8-0.4c-0.9,1.8-2.4,2.7-3.9,2.5
				C118.6,172,118.6,172.7,119,172.8z"/>
		</g>
		<g>
			<path class="st38" d="M125.3,143.4c0,0,1.6,0.9,2.8-0.2c1.2-1,7.8-6.7,20.1-8.7c0.8-0.1,1.2-1,0.6-1.3c-0.6-0.3-13.1-0.1-15.3,2
				s-7.1,5.8-7.1,5.9C126.4,141.3,125.3,143.4,125.3,143.4z"/>
			<path class="st38" d="M113.1,143.3c0,0-1.6,0.8-2.8-0.2c-1.2-1.1-7.7-6.9-19.9-9c-0.8-0.1-1.2-1-0.5-1.3s13.1,0.1,15.2,2.3
				c2.2,2.2,6.9,5.9,7,6C112.1,141.1,113.1,143.3,113.1,143.3z"/>
			<g>
				<path class="st6" d="M148.4,133.9c-2,0-4.2,0.2-6.2,0.6c-2,0.4-4,1-5.8,1.9c-0.5,0.2-0.9,0.4-1.4,0.7l-0.7,0.3
					c-0.2,0.1-0.4,0.3-0.7,0.4l-1.3,0.8c-0.4,0.3-0.8,0.6-1.3,0.9l-0.6,0.4c-0.2,0.2-0.4,0.3-0.6,0.5l-1.2,1c-0.8,0.7-1.6,1.4-2.5,2
					l-0.1,0c-0.3,0.2-0.7,0.1-0.9-0.1c-0.2-0.2-0.2-0.5,0-0.7c0.6-0.9,1.2-1.9,1.9-2.8c0.8-0.8,1.5-1.7,2.4-2.4
					c1.7-1.6,3.7-2.7,5.8-3.7c2.1-0.9,4.4-1.5,6.7-1.7c2.3-0.2,4.6-0.1,6.8,0.7c0.3,0.1,0.5,0.5,0.4,0.8
					C149,133.7,148.8,133.9,148.4,133.9L148.4,133.9z"/>
			</g>
			<g>
				<path class="st6" d="M90.1,134c2,0,4.2,0.2,6.2,0.6c2,0.4,4,1,5.9,1.8c0.5,0.2,0.9,0.4,1.4,0.6l0.7,0.3c0.2,0.1,0.4,0.3,0.7,0.4
					l1.3,0.7c0.4,0.3,0.9,0.6,1.3,0.9l0.7,0.4c0.2,0.1,0.4,0.3,0.6,0.5l1.3,0.9c0.8,0.6,1.6,1.4,2.5,2l0.1,0
					c0.3,0.2,0.7,0.1,0.9-0.1c0.2-0.2,0.2-0.5,0-0.7c-0.6-0.9-1.3-1.9-2-2.7c-0.8-0.8-1.5-1.7-2.4-2.4c-1.7-1.5-3.7-2.7-5.8-3.6
					c-2.1-0.9-4.4-1.5-6.7-1.6c-2.3-0.2-4.6,0-6.8,0.8c-0.3,0.1-0.5,0.5-0.4,0.8C89.5,133.9,89.8,134,90.1,134L90.1,134z"/>
			</g>
		</g>
		<path class="st38" d="M124,190.8c-1.5,0.3-2.9,0.5-4.9,0.5c-2,0-3.4-0.2-4.9-0.5c-0.4-0.1-0.7,0.5-0.3,0.7
			c1.5,1.2,3.2,1.8,5.2,1.8s3.7-0.5,5.2-1.8C124.7,191.3,124.4,190.7,124,190.8z"/>
		<path class="st38" d="M108.7,124.1c3.2-0.2,6.2-0.3,10.5-0.3c4.3,0,7.2,0.1,10.5,0.3c0.9,0,1.4-0.3,0.7-0.5
			c-3.1-0.8-6.8-1.1-11.2-1.1c-4.4,0-8,0.4-11.2,1.2C107.2,123.8,107.7,124.2,108.7,124.1z"/>
		<path class="st56" d="M182.3,92.2c0-22-39.9-32.7-63.2-32.7c-21.9,0-63.2,10.7-63.2,32.7c0,9.5-1.7,53.1,12.5,54.3
			c-0.2,4.1-0.3,8.5-0.3,13.5c0,39.9,36.1,51.2,50.9,51.2c14.7,0,50.9-11.3,50.9-51.2c0-4.9-0.1-9.4-0.3-13.5
			C184,145.3,182.3,101.8,182.3,92.2z M105.5,195.8c-24.7-10.7-28.7-45.3-28.5-67.9c6.1-9,18.2-17.9,42.1-17.9
			c24,0,36.1,8.9,42.1,17.9c0.2,22.6-3.9,57.2-28.5,67.9C124.1,199.6,114.2,199.6,105.5,195.8z"/>
		<path class="st57" d="M65.4,134.3c0,0,15.8-39.1,68.3-24.4c-13.3-0.1-40.5-1.1-53.9,14.1c-7.4,8.5-10.2,14.8-12.2,23l-6.1-4.9
			c0,0-3.9-11.7-4.1-16.9s-1.6-12.4-1.6-12.5c0-0.1-0.4-15.8-0.1-22.3c0.1-2.1,1.2-0.8,1.2-0.8C56.8,104.5,61.3,129.2,65.4,134.3z"
			/>
		<path class="st57" d="M179.9,84.4c0.9,23.9-7.5,47-7.5,47s-13.8-33.7-72.4-23.7c-5.3,0.9,11,0.4,4.6,2.2
			c13.3-0.1,41.2-1.7,53.9,14.1c7.3,9.1,11.5,16.3,10.4,21.9h3.5l4.1-4.1c0,0,4.1-11.3,4.3-16.5s0.9-12.3,1-12.4s0.5-24,0.5-24
			L179.9,84.4z"/>
		<path class="st31" d="M70.6,82.6c14.2-7.7,43.7-18.6,80-5.5c0.7,0.2,1.2-0.6,0.7-1c-6-4.3-13.6-8.9-34.6-9.3
			c-20.1-0.4-37,8.2-46.7,14.9C69.3,82.1,69.9,82.9,70.6,82.6z"/>
		<path class="st57" d="M73.6,109.9c10.2-7.7,32-19.4,62.6-11.5c0.6,0.1,0.9-0.6,0.4-0.9c-5.3-3.1-12-6.3-28.7-4.9
			c-15.9,1.4-28.2,10.1-34.9,16.5C72.5,109.5,73.1,110.2,73.6,109.9z"/>
		<path class="st57" d="M142.9,90.1c9.1,0.6,26.4,4.3,39,22.6c0.2,0.3,0.8,0.1,0.6-0.3c-1.4-4.1-1.1-7.9-13-15.8
			c-9.5-6.2-19.9-7.6-26.6-7.3C142.4,89.4,142.4,90.1,142.9,90.1z"/>
		<path class="st57" d="M63.5,107.5c3.1-6.1,11-16.8,28.3-20.1c0.3-0.1,0.3-0.5,0-0.5c-3.4-0.3-7.6-0.3-15.6,4.3
			c-7.6,4.4-11.5,11.4-13.2,16.1C62.9,107.6,63.4,107.8,63.5,107.5z"/>
		<path class="st57" d="M148,102.9c8.1,2,23,7.8,31.3,24.9c0.2,0.3,0.7,0.2,0.6-0.1c-0.6-3.6-1.6-7.9-9.1-15.1
			c-7.2-6.9-16.6-9.4-22.6-10.2C147.7,102.2,147.6,102.8,148,102.9z"/>
		<path class="st6" d="M175.6,142.7c0.3-1.6-0.6-6.9-4.1-13.3c-0.2-0.3,0.3-0.7,0.6-0.4c2.7,3.3,5.8,9.6,5.7,11.3
			c-0.1,1.2-1,1-1.5,1.7C176.1,142.3,175.5,143,175.6,142.7z"/>
		<path class="st6" d="M63.3,143.4c-0.2-1.8,1.6-6.9,4.5-12.6c0.2-0.3-0.3-0.7-0.5-0.4c-2.9,3-6.2,8.9-6.1,10.5
			c0.1,1.1,1.1,1.3,1.6,2C62.9,143.1,63.3,143.7,63.3,143.4z"/>
		<path class="st57" d="M161,128.9l0,12c5.6,26.3,2.4,45.6-12.3,60.7c6.7-5.2,13.9-11.6,16.7-19.1c2.8-7.4,5.2-12.3,4.8-24.5
			c-0.4-12.2-1-17.9-1.1-18.1c-0.1-0.3-2.1-6.2-2.1-6.2L161,128.9z"/>
		<path class="st6" d="M56.1,98.5c0.9-1.3,3.5-5.1,7.4-8.9c0.2-0.2,0.1-0.6-0.2-0.5c-3,1.6-7.1,5.3-7.6,6.7
			c-0.4,0.9,0.2,1.4,0.3,2.1C55.9,98.1,55.9,98.7,56.1,98.5z"/>
		<path class="st31" d="M75.5,130.3c0,0-7.3,41.2,19.6,59.6c-9.2-12.2-12-18.6-13.5-24.6s-4.9-22.2-4.7-26.8c0.3-4.6,0-9.7,0-9.7
			L75.5,130.3z"/>
		<path class="st31" d="M159.9,154c0,0-0.6,30.5-21.5,39.3c8-7,10.7-11,12.6-14.8c1.8-3.8,6.5-14.4,6.9-17.6
			c0.5-3.2,1.3-6.6,1.3-6.6L159.9,154z"/>
		<path class="st6" d="M69.2,147.9c0-1.4,0.2-5.2,1.3-9.7c0.1-0.3-0.2-0.5-0.4-0.2c-1.4,2.5-2.7,7.1-2.5,8.3
			c0.2,0.8,0.8,0.9,1.1,1.4C68.9,147.7,69.2,148.1,69.2,147.9z"/>
		<path class="st6" d="M77.3,126.5C77.3,126.5,77.3,126.5,77.3,126.5c-1.1,0.6-3.6,4.7-4.5,7.4c-0.1,0.2,0.3,0.3,0.4,0.1
			c1.4-2.1,2.8-3.8,4-5.1C77.2,128.1,77.2,127.3,77.3,126.5z"/>
		<path class="st6" d="M169,147.9c0-1.4-0.2-5.2-1.3-9.7c-0.1-0.3,0.2-0.5,0.4-0.2c1.4,2.5,2.7,7.1,2.5,8.3
			c-0.2,0.8-0.8,0.9-1.1,1.4C169.3,147.7,169.1,148.1,169,147.9z"/>
		<path class="st6" d="M161,126.5C161,126.5,161,126.5,161,126.5c1.1,0.6,3.6,4.7,4.5,7.4c0.1,0.2-0.3,0.3-0.4,0.1
			c-1.4-2.1-2.8-3.8-4-5.1C161,128.1,161,127.3,161,126.5z"/>
		<path class="st6" d="M182,95.4c-0.7-1.3-3-4.8-6.6-8.4c-0.2-0.2,0-0.6,0.3-0.4c3,1.5,6.9,5.1,7.3,6.3c0.2,0.9-0.5,1.3-0.7,1.9
			C182.2,95,182.1,95.6,182,95.4z"/>
		<path class="st31" d="M103.6,200.5c2.5,0.9,5.1,1.6,7.6,2c2.6,0.4,5.2,0.7,7.8,0.7c2.6,0,5.2-0.2,7.8-0.7c2.6-0.4,5.1-1.2,7.7-2
			l0,0c0.1,0,0.3,0,0.3,0.2c0,0.1,0,0.2-0.1,0.3c-0.6,0.3-1.2,0.6-1.8,0.9c-0.6,0.3-1.2,0.6-1.9,0.8c-1.3,0.4-2.6,0.9-3.9,1.2
			c-1.3,0.4-2.7,0.5-4,0.7c-0.7,0.1-1.4,0.1-2,0.2c-0.7,0-1.4,0.1-2,0.1c-2.7,0-5.5-0.3-8.1-0.9c-2.7-0.6-5.2-1.6-7.6-2.9
			c-0.1-0.1-0.2-0.2-0.1-0.3C103.4,200.5,103.5,200.4,103.6,200.5L103.6,200.5z"/>
		<path class="st57" d="M139.6,199.9c-8.1,5.1-20.3,6.7-20.5,6.3c-0.1,0.3-12.2-1.1-20.5-6.3c-1.1-1-1.9-1.2-1.9-1.2
			s3.7,9.9,22.3,9.9c18.6,0,22.3-9.9,22.3-9.9S140.7,198.9,139.6,199.9z"/>
		<path class="st6" d="M97.1,198.3c1.6,1.1,3.3,2.1,5.1,3c1.8,0.9,3.6,1.6,5.4,2.2c3.7,1.2,7.6,1.9,11.5,1.9c1.9,0,3.9-0.2,5.8-0.5
			c1.9-0.3,3.8-0.8,5.7-1.4c0.9-0.3,1.9-0.6,2.7-1c0.9-0.4,1.8-0.8,2.7-1.2c0.9-0.4,1.7-0.9,2.6-1.4c0.9-0.5,1.7-1,2.5-1.5l0,0
			c0.1-0.1,0.3,0,0.3,0.1c0.1,0.1,0,0.2-0.1,0.3c-0.8,0.6-1.6,1.2-2.4,1.8c-0.8,0.5-1.6,1.2-2.5,1.6c-0.9,0.5-1.8,1-2.7,1.4
			c-0.9,0.5-1.8,0.8-2.8,1.2c-3.8,1.5-7.9,2.2-11.9,2.2c-4.1,0-8.1-0.8-11.9-2.2c-3.8-1.4-7.3-3.4-10.4-6.1c-0.1-0.1-0.1-0.2,0-0.3
			C96.9,198.3,97,198.3,97.1,198.3L97.1,198.3z"/>
		<path class="st6" d="M163.2,150.6c0.5,2.2,0.7,4.4,0.9,6.6c0.2,2.2,0.3,4.4,0.3,6.6c0,4.4-0.4,8.9-1.3,13.3
			c-0.4,2.2-1,4.3-1.8,6.5c-0.7,2.1-1.6,4.2-2.6,6.2c-2,4-4.7,7.7-8.1,10.6c-0.1,0.1-0.3,0.1-0.4,0c-0.1-0.1-0.1-0.3,0-0.4l0,0
			c2.7-3.5,5.2-7,7.1-10.9c1-1.9,1.8-3.9,2.5-6c0.7-2,1.3-4.1,1.8-6.3c0.9-4.3,1.5-8.6,1.6-13c0.1-4.4,0-8.8-0.7-13.1l0,0
			c0-0.2,0.1-0.3,0.2-0.3C163,150.3,163.1,150.4,163.2,150.6z"/>
		<path class="st57" d="M71.8,153.3c0,0-2.6,18.9,3.1,33.3c7.5,9.3,9,11,9,11l-0.4-2.2c0,0-7.2-7.7-8.7-17.5
			c-0.8-3.1-2.4-9.9-2.4-12.5s-0.4-11-0.4-11L71.8,153.3z"/>
		<path class="st57" d="M71.8,153.3c-0.3,2.2-0.3,4.4-0.3,6.6c0,2.2,0.1,4.4,0.4,6.6c0.5,4.4,1.2,8.8,2.6,13.1
			c0.7,2.1,1.4,4.2,2.4,6.3c0.9,2,2,4,3.1,5.9c2.3,3.8,5.4,7.2,9.1,9.8c0.1,0.1,0.3,0.1,0.4-0.1c0.1-0.1,0.1-0.3,0-0.4l0,0
			c-3-3.2-5.8-6.5-8.1-10.2c-1.2-1.8-2.2-3.7-3.1-5.7c-0.9-2-1.7-4-2.4-6.1c-1.3-4.1-2.3-8.4-2.8-12.8c-0.5-4.3-0.8-8.7-0.6-13.1
			l0,0c0-0.2-0.1-0.3-0.3-0.3C71.9,153,71.8,153.1,71.8,153.3z"/>
		<g>
			<path class="st38" d="M131.6,166.9c0.2,0,0.4,0.1,0.6,0.1c-0.2,2.3,0.9,6.3,6.3,11.3c-0.1,0.1-0.2,0.3-0.3,0.4
				C130.9,174.2,130.7,169.6,131.6,166.9z"/>
			<path class="st38" d="M106.7,166.9c-0.2,0-0.4,0.1-0.6,0.1c0.2,2.3-0.9,6.3-6.3,11.3c0.1,0.1,0.2,0.3,0.3,0.4
				C107.3,174.2,107.5,169.6,106.7,166.9z"/>
		</g>
		<path class="st38" d="M126,179.7c-1.4-0.6-4.2-2-6.3-1c-0.4,0.2-0.9,0.2-1.3,0c-2.1-1-4.8,0.4-6.3,1c-0.3,0.2-0.4,0.7,0,0.8
			c2.7,1.2,11.1,1.2,13.9,0C126.4,180.3,126.4,179.8,126,179.7z"/>
		<g>
			<path class="st38" d="M131.3,153.8c0.1-0.1,0.2-0.3,0.3-0.4c1.8,1.3,5.7,2.4,12.7,0.5c0.1,0.2,0.1,0.3,0.2,0.5
				C137.1,158,133.2,155.9,131.3,153.8z"/>
			<path class="st38" d="M106.9,153.8c-0.1-0.1-0.2-0.3-0.3-0.4c-1.8,1.3-5.7,2.4-12.7,0.5c-0.1,0.2-0.1,0.3-0.2,0.5
				C101.1,158,105,155.9,106.9,153.8z"/>
		</g>
		<path class="st7" d="M69.3,145.8c0,0-0.6,23,3.5,34.5c-2.3-1.5-2.6-4.9-2.6-4.9s-2-8.1-2-12.3c0-4.2,0-12.7,0-12.7L69.3,145.8z"/>
		<path class="st7" d="M77.3,69.4c0,0-20.6,11-20.5,24.9c-0.4-7,0.5-10.2,2.7-12.5s11.3-10.1,11.5-10.2
			C71.1,71.6,77.3,69.4,77.3,69.4z"/>
		<path class="st6" d="M119.1,212c-16.9,0-51.7-12.7-51.7-52c0-4.5,0.1-8.8,0.3-12.8c-13.1-2.4-12.7-38.4-12.5-52.1
			c0-1.1,0-2.1,0-2.8c0-22.3,41-33.5,64-33.5c21.6,0,64,10.1,64,33.5c0,0.7,0,1.7,0,2.8c0.1,13.7,0.5,49.7-12.5,52.1
			c0.2,4,0.3,8.3,0.3,12.8C170.8,199.3,136,212,119.1,212z M119.1,60.3c-9.3,0-25.2,2.1-39.5,8.1c-10.4,4.3-22.9,12-22.9,23.9
			c0,0.8,0,1.7,0,2.9c-0.1,12.3-0.5,49.6,11.8,50.7l0.8,0.1l0,0.8c-0.2,4.2-0.3,8.7-0.3,13.4c0,38.1,33.8,50.4,50.2,50.4
			c16.4,0,50.2-12.3,50.2-50.4c0-4.7-0.1-9.2-0.3-13.4l0-0.8l0.8-0.1c12.4-1,12-38.4,11.8-50.7c0-1.1,0-2.1,0-2.9
			C181.5,69.9,140.2,60.3,119.1,60.3z M119.1,199.4c-4.7,0-9.5-1-13.9-2.9l0,0c-25.6-11.1-29.1-47.7-29-68.6l0-0.2l0.1-0.2
			c5.6-8.3,17.6-18.2,42.8-18.2c25.2,0,37.2,9.9,42.8,18.2l0.1,0.2l0,0.2c0.1,20.9-3.4,57.5-29,68.6
			C128.6,198.5,123.9,199.4,119.1,199.4z M105.8,195.1c8.5,3.7,18.1,3.7,26.6,0c24.7-10.7,28.2-46.4,28.1-66.9
			c-7.9-11.5-21.8-17.3-41.4-17.3s-33.5,5.8-41.4,17.3C77.6,148.7,81.2,184.4,105.8,195.1L105.8,195.1z"/>
		<g>
			<g>
				<g>
					<ellipse class="st6" cx="134.9" cy="145.9" rx="3.5" ry="3.1"/>
					
						<ellipse transform="matrix(0.9799 -0.1996 0.1996 0.9799 -26.3436 29.5696)" class="st7" cx="133.5" cy="145.4" rx="0.7" ry="0.7"/>
				</g>
				<path class="st6" d="M128.7,146.5c0.9-1.4,2.2-2.6,3.9-3.3c0.8-0.3,1.8-0.4,2.7-0.4c0.9,0.1,1.8,0.3,2.6,0.7
					c1.6,0.8,2.7,2.2,3.9,2.9c1.3,0.7,2.9,0.9,4.5,0.8l0,0c0.1,0,0.2,0.1,0.2,0.2c0,0.1-0.1,0.2-0.2,0.2c-0.8,0.2-1.7,0.3-2.5,0.2
					c-0.8,0-1.7-0.2-2.5-0.6c-1.6-0.8-2.7-2-4.1-2.6c-0.7-0.3-1.4-0.5-2.1-0.5c-0.8,0-1.4,0-2.1,0.3c-1.4,0.5-2.7,1.4-3.8,2.4l0,0
					c-0.1,0.1-0.4,0.1-0.5,0C128.6,146.8,128.6,146.6,128.7,146.5z"/>
			</g>
			<g>
				<g>
					<ellipse class="st6" cx="102.5" cy="145.9" rx="3.5" ry="3.1"/>
					
						<ellipse transform="matrix(0.1996 -0.9799 0.9799 0.1996 -61.955 215.0353)" class="st7" cx="100.6" cy="145.4" rx="0.7" ry="0.7"/>
				</g>
				<path class="st6" d="M108.7,146.5c-0.9-1.4-2.2-2.6-3.9-3.3c-0.8-0.3-1.8-0.4-2.7-0.4c-0.9,0.1-1.8,0.3-2.6,0.7
					c-1.6,0.8-2.7,2.2-3.9,2.9c-1.3,0.7-2.9,0.9-4.5,0.8l0,0c-0.1,0-0.2,0.1-0.2,0.2c0,0.1,0.1,0.2,0.2,0.2c0.8,0.2,1.7,0.3,2.5,0.2
					c0.8,0,1.7-0.2,2.5-0.6c1.6-0.8,2.7-2,4.1-2.6c0.7-0.3,1.4-0.5,2.1-0.5c0.8,0,1.4,0,2.1,0.3c1.4,0.5,2.7,1.4,3.8,2.4l0,0
					c0.1,0.1,0.4,0.1,0.5,0C108.8,146.8,108.8,146.6,108.7,146.5z"/>
			</g>
		</g>
	</g>
	<g>
		<g>
			<path class="st23" d="M193.2,453.5H47.8c-4,0-7.3-3.3-7.3-7.3v0c0-4,3.3-7.3,7.3-7.3h145.4c4,0,7.3,3.3,7.3,7.3v0
				C200.5,450.3,197.2,453.5,193.2,453.5z"/>
			<g>
				<g>
					<path class="st24" d="M190.7,409.2H50.2c-4.1,0-7.5,3.4-7.5,7.5v27.6c0,4.1,3.4,7.5,7.5,7.5h140.5c4.1,0,7.5-3.4,7.5-7.5v-27.6
						C198.2,412.5,194.9,409.2,190.7,409.2z M196.2,444.2c0,3-2.4,5.5-5.5,5.5H50.2c-3,0-5.5-2.5-5.5-5.5v-27.6c0-3,2.5-5.5,5.5-5.5
						h140.5c3,0,5.5,2.5,5.5,5.5V444.2z"/>
					<path class="st25" d="M196.2,416.6v27.6c0,3-2.4,5.5-5.5,5.5H50.2c-3,0-5.5-2.5-5.5-5.5v-27.6c0-3,2.5-5.5,5.5-5.5h140.5
						C193.8,411.2,196.2,413.6,196.2,416.6z"/>
				</g>
			</g>
		</g>
		<g>
			<path class="st24" d="M105.2,422h1.6v7.2l0.7-0.3l3.4-6.9h1.8l-3.5,6.7l-0.7,0.7l0.9,0.9l3.8,7.1h-2l-3.7-7.1h-0.8v7.1h-1.6v-7.4
				l-0.7,0.3l-3.7,7.1h-1.9l3.8-6.9l0.9-0.8l-0.8-0.8l-3.6-6.9h1.9l3.4,6.9h0.8V422z"/>
			<path class="st24" d="M120.6,436.6c-0.4,0.3-0.8,0.6-1.3,0.7c-0.5,0.2-1.1,0.3-1.7,0.3c-0.7,0-1.3-0.1-1.8-0.4
				c-0.5-0.3-0.9-0.7-1.3-1.2c-0.3-0.5-0.6-1.1-0.7-1.8s-0.2-1.5-0.2-2.4c0-1.9,0.3-3.3,1-4.3c0.7-1,1.7-1.5,2.9-1.5
				c0.4,0,0.8,0.1,1.2,0.2s0.8,0.3,1.1,0.6c0.3,0.3,0.6,0.7,0.8,1.3c0.2,0.6,0.3,1.3,0.3,2.2c0,0.2,0,0.5,0,0.8c0,0.3,0,0.6-0.1,0.9
				h-5.6c0,0.6,0.1,1.2,0.2,1.7s0.3,0.9,0.5,1.3c0.2,0.4,0.5,0.6,0.8,0.8c0.3,0.2,0.8,0.3,1.3,0.3c0.4,0,0.8-0.1,1.2-0.2
				s0.7-0.3,0.9-0.5L120.6,436.6z M119.4,430.7c0-1.1-0.1-1.9-0.5-2.4c-0.3-0.5-0.8-0.8-1.4-0.8c-0.7,0-1.2,0.3-1.6,0.8
				c-0.4,0.5-0.6,1.3-0.7,2.4H119.4z"/>
			<path class="st24" d="M128.5,432.5h-3.8v4.9h-1.6v-11h1.6v4.7h3.8v-4.7h1.6v9.6h1.3v4.2h-1.1l-0.3-2.8h-1.5V432.5z"/>
			<path class="st24" d="M139.4,436.6c-0.4,0.3-0.8,0.6-1.3,0.7c-0.5,0.2-1.1,0.3-1.7,0.3c-0.7,0-1.3-0.1-1.8-0.4
				c-0.5-0.3-0.9-0.7-1.3-1.2c-0.3-0.5-0.6-1.1-0.7-1.8s-0.2-1.5-0.2-2.4c0-1.9,0.3-3.3,1-4.3c0.7-1,1.7-1.5,2.9-1.5
				c0.4,0,0.8,0.1,1.2,0.2s0.8,0.3,1.1,0.6c0.3,0.3,0.6,0.7,0.8,1.3c0.2,0.6,0.3,1.3,0.3,2.2c0,0.2,0,0.5,0,0.8c0,0.3,0,0.6-0.1,0.9
				H134c0,0.6,0.1,1.2,0.2,1.7s0.3,0.9,0.5,1.3c0.2,0.4,0.5,0.6,0.8,0.8c0.3,0.2,0.8,0.3,1.3,0.3c0.4,0,0.8-0.1,1.2-0.2
				s0.7-0.3,0.9-0.5L139.4,436.6z M138.2,430.7c0-1.1-0.1-1.9-0.5-2.4c-0.3-0.5-0.8-0.8-1.4-0.8c-0.7,0-1.2,0.3-1.6,0.8
				c-0.4,0.5-0.6,1.3-0.7,2.4H138.2z"/>
		</g>
	</g>
</g>
</svg>
