<?xml version="1.0" encoding="utf-8"?>
<!-- Generator: Adobe Illustrator 21.0.0, SVG Export Plug-In . SVG Version: 6.00 Build 0)  -->
<svg version="1.1" id="Layer_1" xmlns="http://www.w3.org/2000/svg" xmlns:xlink="http://www.w3.org/1999/xlink" x="0px" y="0px"
	 viewBox="0 0 240.9 453.5" style="enable-background:new 0 0 240.9 453.5;" xml:space="preserve">
<style type="text/css">
	.st0{fill:#794552;}
	.st1{fill:#C7B89E;}
	.st2{fill:#F9A960;}
	.st3{fill:#D17C32;}
	.st4{fill:#956070;}
	.st5{fill:#FDDCC0;}
	.st6{fill:#501338;}
	.st7{fill:#FFFFFF;}
	.st8{fill:#B38091;}
	.st9{fill:#D1D5DB;}
	.st10{fill:#989A9C;}
	.st11{fill:#937B70;}
	.st12{fill:#E6DEC9;}
	.st13{fill:#F0B39C;}
	.st14{fill:#8E183F;}
	.st15{fill:#F5F5F5;}
	.st16{fill:none;stroke:#462062;stroke-width:0.7554;stroke-linecap:round;stroke-miterlimit:10;}
	.st17{fill:#B5BAC0;}
	.st18{fill:#C71F41;}
	.st19{fill:#EF5784;}
	.st20{fill:#A91D41;}
	.st21{opacity:0.5;fill:#C1C1C1;}
	.st22{opacity:0.27;fill:#E78B6F;}
	.st23{fill:#CB8A43;}
	.st24{fill:#754D24;}
	.st25{fill:#FBBA6C;}
	.st26{fill:#837070;}
	.st27{fill:#866A58;}
	.st28{fill:#9A7E67;}
	.st29{fill:#B39885;}
	.st30{fill:#5B4580;}
	.st31{fill:#E1DFDF;}
	.st32{fill:#C0BEBD;}
	.st33{fill:#D53231;}
	.st34{fill:#E94647;}
	.st35{fill:#797083;}
	.st36{fill:#A9A4B4;}
	.st37{fill:#5B5567;}
	.st38{fill:#CE202B;}
	.st39{fill:#EE3734;}
	.st40{fill:#F49294;}
	.st41{fill:#B89AA6;}
	.st42{fill:#D4907B;}
	.st43{fill:#FAB276;}
	.st44{opacity:0.5;fill:#794552;}
	.st45{fill:#B57D90;}
	.st46{opacity:0.7;fill:#794552;}
	.st47{opacity:0.15;fill:#F2E8A5;}
	.st48{fill:#D67E3A;}
	.st49{fill:#735A99;}
	.st50{fill:#644C88;}
	.st51{fill:#9480B4;}
	.st52{fill:#E4D2A4;}
	.st53{fill:#FAEDD0;}
	.st54{fill:#C4B18B;}
	.st55{fill:#735A99;stroke:#501338;stroke-width:1.571;stroke-miterlimit:10;}
	.st56{fill:#C8BFBF;}
	.st57{fill:#B2ABAB;}
	.st58{fill:#FFE098;}
	.st59{fill:#ECC77E;}
	.st60{fill:#FFEBC7;}
	.st61{fill:#A1675E;}
	.st62{fill:#90564F;}
	.st63{fill:#C07F78;}
	.st64{fill:#68485A;}
	.st65{fill:#FFDD81;}
	.st66{fill:#814945;}
	.st67{fill:#945B58;}
	.st68{fill:#B17977;}
	.st69{fill:#884C4A;}
	.st70{fill-rule:evenodd;clip-rule:evenodd;fill:#989A9C;}
	.st71{fill:#D89E98;}
	.st72{fill:#64445C;}
	.st73{fill:#816474;}
	.st74{fill:#A48390;}
	.st75{fill:#DDAD41;}
	.st76{fill:#F48657;}
	.st77{fill:#D77151;}
	.st78{fill:#F8AB89;}
	.st79{fill:#E9C05B;}
	.st80{fill:#9A8691;}
	.st81{fill:#A28F99;}
	.st82{fill:#8780BC;}
	.st83{fill:#6966AD;}
	.st84{fill:#B2ADD5;}
	.st85{fill:#F48C8C;}
	.st86{fill:#E86363;}
	.st87{fill:#F4876E;}
	.st88{fill:#E56A51;}
	.st89{fill:#80655C;}
	.st90{fill:#C3AC6F;}
	.st91{fill:#9F874A;}
	.st92{fill:#DBC68E;}
	.st93{opacity:0.11;fill:#FFFFFF;}
	.st94{fill:#F7A799;}
	.st95{fill:#FCE5A5;}
	.st96{fill:#DEBB6C;}
	.st97{fill:#B67C76;}
	.st98{fill:none;stroke:#462062;stroke-width:0.843;stroke-linecap:round;stroke-miterlimit:10;}
	.st99{fill:#9D9B86;}
	.st100{fill:#8780BC;stroke:#501338;stroke-width:1.6795;stroke-miterlimit:10;}
	.st101{fill:#C5C4B4;}
	.st102{fill:#E9E9D9;}
	.st103{fill:#E9C15D;}
	.st104{opacity:0.3;}
	.st105{fill:#A27388;}
	.st106{opacity:0.5;fill:#FFFFFF;}
	.st107{fill:#91667A;}
	.st108{opacity:0.4;}
	.st109{opacity:0.5;}
	.st110{opacity:0.5;fill:#A7A7A6;}
	.st111{fill:#C16D34;}
	.st112{opacity:0.4;fill:#FFFFFF;}
	.st113{fill:none;stroke:#501338;stroke-width:1.5687;stroke-linecap:round;stroke-linejoin:round;stroke-miterlimit:10;}
	.st114{opacity:0.27;}
	.st115{fill:#E78B6F;}
	.st116{opacity:0.2;fill:#F48E8E;}
	.st117{fill:#99744B;}
	.st118{fill:#825D38;}
	.st119{fill:#C9CAA6;}
	.st120{fill:#BCBC96;}
	.st121{fill:none;stroke:#462062;stroke-width:0.7845;stroke-linecap:round;stroke-miterlimit:10;}
	.st122{fill:#66402A;}
	.st123{fill:#935C35;}
	.st124{opacity:0.6;fill:#7A4928;}
	.st125{opacity:0.4;fill:#F48E8E;}
	.st126{fill:#E1E1E1;}
	.st127{fill:#C1C1C1;}
	.st128{fill:#52363A;}
	.st129{fill:#C6C5C4;}
	.st130{opacity:0.6;}
	.st131{fill:#888888;}
	.st132{fill:#515252;}
	.st133{opacity:0.6;fill:#888888;}
	.st134{fill:#616160;}
	.st135{fill:#515150;}
	.st136{fill:#957B66;}
	.st137{fill:#B89984;}
	.st138{fill:#787878;}
	.st139{fill:#775F4F;}
	.st140{fill:#D7B9A8;}
	.st141{fill:#99999A;}
	.st142{opacity:0.4;fill:#E6DEC9;}
	.st143{fill:none;stroke:#462062;stroke-width:0.7586;stroke-linecap:round;stroke-miterlimit:10;}
	.st144{fill:#3F4242;}
	.st145{opacity:0.5;fill:#F0B39C;}
	.st146{opacity:0.57;fill:#B89AA6;}
	.st147{fill:#619F7F;}
	.st148{fill:#548E6E;}
	.st149{fill:#C16A2F;}
	.st150{fill:#CE413A;}
	.st151{fill:#B23330;}
	.st152{opacity:0.62;fill:#E48C7D;}
	.st153{fill:#5E3827;}
	.st154{fill:#F48E8E;}
	.st155{fill:#444445;}
	.st156{fill:#353435;}
	.st157{opacity:0.5;fill:#B89AA6;}
	.st158{fill:#4D4C4D;}
	.st159{fill:#444344;}
	.st160{opacity:0.6;fill:#A1A1A1;}
	.st161{fill:#282827;}
	.st162{fill:#636464;}
	.st163{fill:#575959;}
	.st164{fill:#3A3A3A;}
	.st165{opacity:0.5;fill:#787878;}
	.st166{fill:none;stroke:#462062;stroke-width:0.8198;stroke-linecap:round;stroke-miterlimit:10;}
	.st167{fill:#5B5B5C;}
	.st168{fill:#E4E4E4;}
	.st169{fill:#FFF1EA;}
	.st170{fill:#E1CDC5;}
	.st171{opacity:0.4;fill:#F0B39C;}
	.st172{opacity:0.5;fill:#ADADAD;}
	.st173{fill:#B58F5B;}
	.st174{fill:#606060;}
	.st175{fill:#4F5150;}
	.st176{opacity:0.6;fill:#989A9C;}
	.st177{fill:#5D7A6D;}
	.st178{fill:#4C685B;}
	.st179{fill:none;stroke:#462062;stroke-width:0.8057;stroke-linecap:round;stroke-miterlimit:10;}
	.st180{fill:#F7B975;}
	.st181{fill:#8D7449;}
	.st182{opacity:0.35;fill:#F7B975;}
	.st183{fill:#686868;}
	.st184{fill:#959595;}
	.st185{opacity:0.3;fill:#FFFFFF;}
	.st186{fill:#4C4B4C;}
	.st187{fill:#A27F67;}
	.st188{fill:#C6A691;}
	.st189{opacity:0.2;fill:#684D39;}
	.st190{fill:#926E56;}
	.st191{opacity:0.8;fill:#3A3A3A;}
	.st192{fill:#ED3E2B;}
	.st193{fill:#DB2C1F;}
	.st194{opacity:0.7;fill:#989A9C;}
	.st195{fill:#6B4845;}
	.st196{fill:#846363;}
	.st197{fill:#5E3E3C;}
	.st198{fill:none;stroke:#501338;stroke-width:1.6206;stroke-miterlimit:10;}
	.st199{opacity:0.5;fill:#E29780;}
	.st200{opacity:0.6;fill:#FFFFFF;}
	.st201{fill:#ECD8BB;}
	.st202{opacity:0.3;fill:#937B70;}
	.st203{fill:#FCF9F4;}
	.st204{opacity:0.6;fill:#F0B39C;}
	.st205{fill:none;stroke:#462062;stroke-width:0.7828;stroke-linecap:round;stroke-miterlimit:10;}
	.st206{fill:#CDCDCD;}
	.st207{opacity:0.5;fill:#A8A7A7;}
	.st208{fill:#868686;}
	.st209{opacity:0.3;fill:#F0B39C;}
	.st210{opacity:0.7;fill:#F0B39C;}
	.st211{fill:#735A99;stroke:#501338;stroke-width:1.5656;stroke-miterlimit:10;}
	.st212{opacity:0.5;fill:#FCF9F4;}
	.st213{opacity:0.5;fill:#FDDCC0;}
	.st214{fill:#6B3A37;}
	.st215{fill:#92A3D3;}
	.st216{fill:#B0C2E4;}
	.st217{fill:#7790BC;}
	.st218{fill:#7F95C6;}
	.st219{fill:#D0A7C2;}
	.st220{fill:#B7BE79;}
	.st221{fill:#725F82;}
	.st222{fill:#635175;}
	.st223{fill:none;stroke:#501338;stroke-width:1.5843;stroke-miterlimit:10;}
	.st224{fill:#C5B8DA;}
	.st225{fill:#A999C9;}
	.st226{fill:#8B6445;}
	.st227{fill:#7A5439;}
	.st228{fill:none;stroke:#501338;stroke-width:1.5751;stroke-linecap:round;stroke-linejoin:round;stroke-miterlimit:10;}
	.st229{fill:#D9CEB7;}
	.st230{fill:#CCBDA2;}
	.st231{opacity:0.2;fill:#FFFFFF;}
	.st232{fill:#B61F30;}
	.st233{fill:#595B5B;}
</style>
<g>
	<g>
		<path class="st18" d="M181,368.8c-0.1,0.3-0.1,0.6-0.2,1c0,0.1,0,0.1-0.1,0.2c-0.1,0.3-0.2,0.6-0.3,1c-0.3,0.8-0.5,1.6-0.9,2.3
			c-0.1,0.2-0.2,0.4-0.3,0.5c-0.1,0.2-0.2,0.3-0.3,0.5c-0.1,0.2-0.2,0.3-0.3,0.5c-0.1,0.2-0.2,0.3-0.3,0.5c-0.2,0.3-0.4,0.6-0.7,0.9
			c-0.2,0.3-0.5,0.6-0.7,0.9c-0.5,0.6-1.1,1.1-1.7,1.6c-0.7,0.6-1.6,1.2-2.4,1.7c0,0,0,0,0,0c-0.3,0.2-0.7,0.4-1.1,0.6
			c-1,0.5-2,0.9-3.1,1.3c-0.2,0.1-0.4,0.2-0.7,0.2c-0.7,0.3-1.5,0.5-2.3,0.7c-0.3,0.1-0.6,0.1-0.8,0.2c-0.1,0-0.3,0.1-0.4,0.1
			c-0.3,0.1-0.6,0.2-1,0.2c-0.4,0.1-0.9,0.2-1.3,0.3c-0.4,0.1-0.9,0.2-1.3,0.2c-0.7,0.1-1.3,0.2-2,0.3c-0.8,0.1-1.6,0.2-2.5,0.3
			c0,0-0.1,0-0.1,0c-0.9,0.1-1.8,0.2-2.8,0.3c-1.9,0.2-3.9,0.3-5.9,0.4c-0.3,0-0.7,0-1,0c-0.7,0-1.4,0.1-2.1,0.1
			c-1.8,0.1-3.7,0.1-5.6,0.1c-4.6,0.1-7.3-0.5-14-2.5c-1.9-0.5-3.9-0.5-5.8,0c-6.7,1.9-9.4,2.6-14,2.5c-1.9,0-3.8-0.1-5.6-0.1
			c-0.7,0-1.4,0-2.1-0.1c-0.4,0-0.7,0-1,0c-2.1-0.1-4.1-0.2-5.9-0.4c-1-0.1-1.9-0.2-2.8-0.3c-0.1,0-0.1,0-0.1,0
			c-0.8-0.1-1.7-0.2-2.5-0.3c-0.7-0.1-1.4-0.2-2-0.3c-0.4-0.1-0.9-0.2-1.3-0.2c-0.5-0.1-0.9-0.2-1.3-0.3c-0.3-0.1-0.6-0.1-1-0.2
			c-0.1,0-0.3-0.1-0.4-0.1c-0.3-0.1-0.6-0.1-0.8-0.2c-0.8-0.2-1.6-0.5-2.3-0.7c-0.2-0.1-0.4-0.2-0.7-0.2c-1.1-0.4-2.1-0.8-3.1-1.3
			c-0.4-0.2-0.7-0.4-1.1-0.6c0,0,0,0,0,0c-0.9-0.5-1.7-1.1-2.4-1.7c-0.6-0.5-1.2-1-1.7-1.6c-0.3-0.3-0.5-0.6-0.7-0.9
			c-0.3-0.3-0.5-0.6-0.7-0.9c-0.1-0.2-0.2-0.3-0.3-0.5s-0.2-0.3-0.3-0.5c-0.1-0.2-0.2-0.3-0.3-0.5c-0.1-0.2-0.2-0.4-0.3-0.5
			c-0.4-0.7-0.7-1.5-0.9-2.3c-0.1-0.3-0.2-0.6-0.3-1c0-0.1,0-0.1-0.1-0.2c-0.1-0.3-0.2-0.6-0.2-1c-0.3-1.6-0.5-3.4-0.4-5.3
			c0.3-11,6.5-25.7,11.7-36.2c1.2-2.5,2.4-4.8,3.4-6.7c0.2-0.4,0.5-0.8,0.8-1.2c2.3-3.1,6.2-4.7,10.1-4.1l31.9,5.4
			c1.1,0.2,2.3,0.2,3.5,0l31.9-5.4c4-0.7,8,1.1,10.3,4.4c0.2,0.3,0.4,0.6,0.6,0.9c5.2,9.7,14.4,28.4,15.1,41.9c0,0.3,0,0.6,0,0.9
			C181.5,365.4,181.3,367.2,181,368.8z"/>
		<g>
			<path class="st20" d="M119.4,340.4c-27.2-1.3-48.7-19.9-47.5-22c0.3-0.5,0.6-1,0.9-1.4h4l19.7,4.7c0,0,26.5,3.6,27.8,9.7
				C125.5,337.5,122.7,340.4,119.4,340.4z"/>
			<path class="st20" d="M124.2,340.4c27.2-1.3,48.7-19.9,47.5-22c-0.3-0.5-0.6-1-0.9-1.4h-4l-19.7,4.7c0,0-26.5,3.6-27.8,9.7
				C118.2,337.5,120.9,340.4,124.2,340.4z"/>
		</g>
		<path class="st20" d="M180.8,369.7c-1.7,0.8-10.9-4.9-12.3-5.5c2.5-24.1-3.9-36.2-5.4-37.1c-0.1-0.1-0.2-0.1-0.2-0.1l0.4-6
			l2.5-1.3c0.2,0.3,0.4,0.6,0.6,0.9C171.5,330.3,187.9,343.6,180.8,369.7z"/>
		<path class="st20" d="M62.9,369.7c1.7,0.8,10.9-5,12.3-5.6c-2.5-24.1,4-36.1,5.4-37.1c0.1-0.1,0.2-0.1,0.2-0.1l-0.4-6l-2.5-1.3
			c-0.2,0.3-0.4,0.6-0.6,0.9C72.1,330.3,55.7,343.6,62.9,369.7z"/>
		<path class="st20" d="M181.4,363.5c-3.9-2.9-11.6-5.7-13.2,1.8c-3.4,16.5-22.8,19-44.7,9.6c-1.1-0.5-2.2-0.5-3.3,0
			c-21.9,9.4-41.2,6.9-44.7-9.6c-1.6-7.6-9.4-4.7-13.2-1.8c-0.1,1.9,0.1,3.7,0.4,5.3c0.1,0.3,0.1,0.6,0.2,1c0,0.1,0,0.1,0.1,0.2
			c0.1,0.3,0.2,0.6,0.3,1c0.3,0.8,0.6,1.6,0.9,2.3c0.1,0.2,0.2,0.4,0.3,0.5l0.3,0.5c0.1,0.1,0.1,0.2,0.2,0.4
			c0.1,0.2,0.3,0.4,0.4,0.6c0.2,0.3,0.4,0.6,0.7,0.9c0.2,0.3,0.5,0.6,0.7,0.9c0.5,0.6,1.1,1.1,1.7,1.6c0.7,0.6,1.6,1.2,2.4,1.7
			c0,0,0,0,0,0c0.3,0.2,0.7,0.4,1.1,0.6c1,0.5,2,0.9,3.1,1.3c0.2,0.1,0.4,0.2,0.7,0.2c0.7,0.3,1.5,0.5,2.3,0.7
			c0.3,0.1,0.6,0.1,0.8,0.2c0.1,0,0.3,0.1,0.4,0.1c0.3,0.1,0.6,0.2,1,0.2c0.4,0.1,0.9,0.2,1.3,0.3c0.4,0.1,0.9,0.2,1.3,0.2
			c0.7,0.1,1.3,0.2,2,0.3c0.8,0.1,1.6,0.2,2.5,0.3c0,0,0.1,0,0.1,0c0.9,0.1,1.8,0.2,2.8,0.3c1.9,0.2,3.9,0.3,5.9,0.4
			c0.3,0,0.7,0,1,0c0.7,0,1.4,0.1,2.1,0.1c1.8,0.1,3.7,0.1,5.6,0.1c4.6,0.1,7.3-0.5,14-2.5c0.9-0.3,1.9-0.4,2.9-0.4
			c1,0,1.9,0.1,2.9,0.4c6.7,1.9,9.4,2.6,14,2.5c1.9,0,3.8-0.1,5.6-0.1c0.7,0,1.4,0,2.1-0.1c0.4,0,0.7,0,1,0c2.1-0.1,4.1-0.2,5.9-0.4
			c1-0.1,1.9-0.2,2.8-0.3c0.1,0,0.1,0,0.1,0c0.8-0.1,1.7-0.2,2.5-0.3c0.7-0.1,1.4-0.2,2-0.3c0.4-0.1,0.9-0.2,1.3-0.2
			c0.5-0.1,0.9-0.2,1.3-0.3c0.3-0.1,0.6-0.1,1-0.2c0.1,0,0.3-0.1,0.4-0.1c0.3-0.1,0.6-0.1,0.8-0.2c0.8-0.2,1.6-0.5,2.3-0.7
			c0.2-0.1,0.4-0.2,0.7-0.2c1.1-0.4,2.1-0.8,3.1-1.3c0.4-0.2,0.7-0.4,1.1-0.6c0,0,0,0,0,0c0.9-0.5,1.7-1.1,2.4-1.7
			c0.6-0.5,1.2-1,1.7-1.6c0.3-0.3,0.5-0.6,0.7-0.9c0.2-0.3,0.5-0.6,0.7-0.9c0.1-0.2,0.3-0.4,0.4-0.6c0.1-0.1,0.1-0.2,0.2-0.4
			l0.3-0.5c0.1-0.2,0.2-0.4,0.3-0.5c0.3-0.7,0.6-1.5,0.9-2.3c0.1-0.3,0.2-0.6,0.3-1c0-0.1,0-0.1,0.1-0.2c0.1-0.3,0.2-0.6,0.2-1
			C181.3,367.2,181.5,365.4,181.4,363.5z"/>
		<path class="st19" d="M72.4,328.7l0.2,0.4c0,0-12.6,21.3-9,40.5c-2.4-7.8-3.9-13.7-1.4-21.7c2.5-8,8.4-17.1,8.4-17.1l1.4-1.9
			L72.4,328.7z"/>
		<path class="st20" d="M113.9,377.5c1.4-0.8,2.7-1.7,3.9-2.6c1.2-1,2.3-2,3.3-3.2c1-1.1,1.9-2.4,2.7-3.7c0.8-1.3,1.6-2.6,2.4-3.9
			c0.1-0.1,0.2-0.1,0.3,0c0.1,0.1,0.2,0.2,0.1,0.3c-0.4,1.6-1,3-1.7,4.4c-0.7,1.4-1.6,2.7-2.6,3.9c-1,1.2-2.2,2.3-3.6,3.1
			c-1.4,0.9-3,1.5-4.7,1.8c-0.1,0-0.1,0-0.2-0.1C113.8,377.5,113.8,377.5,113.9,377.5z"/>
		<path class="st20" d="M108.7,346.1c2.4,0,4.8-0.1,7-0.4c2.3-0.3,4.5-0.9,6.6-1.6c2.2-0.7,4.2-1.7,6.3-2.7c2.1-1,4.1-2.1,6.1-3.2
			c0.2-0.1,0.4,0,0.5,0.2c0.1,0.2,0.1,0.4,0,0.5c-1.7,1.7-3.6,3.2-5.6,4.5c-2,1.3-4.1,2.3-6.4,3.1c-2.3,0.8-4.6,1.2-7.1,1.3
			c-2.5,0.1-5-0.3-7.4-1.2c-0.1,0-0.2-0.1-0.1-0.2C108.6,346.2,108.7,346.1,108.7,346.1z"/>
		<path class="st20" d="M133.2,378.5c-1.2-0.3-2.4-0.6-3.4-1.1c-1.1-0.5-2-1.1-2.9-1.7c-0.9-0.7-1.7-1.5-2.4-2.3
			c-0.8-0.8-1.4-1.7-2.2-2.6c-0.1-0.1-0.2,0-0.3,0.1c-0.1,0.1-0.1,0.2-0.1,0.3c0.4,1.2,0.9,2.3,1.5,3.2c0.6,1,1.4,1.8,2.4,2.6
			c0.9,0.7,2,1.3,3.2,1.6c1.2,0.3,2.6,0.4,4.1,0.2C133.2,378.7,133.2,378.6,133.2,378.5C133.3,378.5,133.3,378.5,133.2,378.5z"/>
		<path class="st20" d="M157.5,364.9c-1.9,1.1-4.9,2.7-10.4,3.3c-5.1,0.7-10-0.3-12.8-1.7c-0.1,0.2-0.1,0.3-0.1,0.5
			c0.1,2.7,5.5,8.6,12.7,7.7c10.3-1.4,10.9-8.4,10.7-9.6C157.5,365,157.5,364.9,157.5,364.9z"/>
		<path class="st20" d="M86.2,364.9c1.9,1.1,4.9,2.7,10.4,3.3c5.1,0.7,10-0.3,12.8-1.7c0.1,0.2,0.1,0.3,0.1,0.5
			c-0.1,2.7-5.5,8.6-12.7,7.7c-10.3-1.4-10.9-8.4-10.7-9.6C86.1,365,86.1,364.9,86.2,364.9z"/>
		<path class="st6" d="M137.9,386.7c-4.1,0-6.9-0.6-13.5-2.5c-1.7-0.5-3.6-0.5-5.3,0c-6.9,2-9.6,2.6-14.2,2.5
			c-1.9,0-3.8-0.1-5.6-0.1c-0.7,0-1.4,0-2.1-0.1l-1,0c-2.2-0.1-4.2-0.2-6-0.4c-0.9-0.1-1.9-0.2-2.8-0.3c-0.1,0-0.2,0-0.2,0
			c-0.8-0.1-1.7-0.2-2.5-0.3c-0.7-0.1-1.4-0.2-2-0.3c-0.5-0.1-0.9-0.2-1.3-0.2c-0.5-0.1-0.9-0.2-1.4-0.3c-0.3-0.1-0.7-0.2-1-0.2
			l-0.4-0.1c-0.3-0.1-0.6-0.1-0.9-0.2c-0.8-0.2-1.6-0.5-2.3-0.7l-0.7-0.2c-1.1-0.4-2.2-0.9-3.2-1.4c-0.3-0.2-0.7-0.3-1-0.5h0
			l-0.2-0.1c-0.9-0.5-1.8-1.1-2.5-1.8c-0.6-0.5-1.2-1.1-1.8-1.7c-0.3-0.3-0.5-0.6-0.8-0.9c-0.2-0.3-0.5-0.6-0.7-1
			c-0.1-0.2-0.2-0.3-0.3-0.5c-0.1-0.2-0.2-0.3-0.3-0.5l-0.3-0.5c-0.1-0.2-0.2-0.4-0.3-0.6c-0.4-0.7-0.7-1.5-0.9-2.4
			c-0.1-0.3-0.2-0.5-0.2-0.8l0,0l-0.1-0.4c-5.8-21.1,3.5-33.9,10.2-43.2c1.8-2.4,3.3-4.5,4.4-6.5c0.1-0.1,0.1-0.2,0.2-0.3l0.1-0.1
			c0.1-0.1,0.2-0.3,0.2-0.4c0.1-0.1,0.1-0.1,0.1-0.2l0.4-0.6l0,0c2.5-3.2,6.6-4.8,10.7-4.1l31.9,5.4c1.1,0.2,2.1,0.2,3.2,0l31.9-5.4
			c4.3-0.7,8.6,1.1,11.1,4.7c0.2,0.3,0.4,0.6,0.6,1l0,0c1.1,2,2.6,4.1,4.4,6.5c6.7,9.3,16,22.1,10.2,43.2c0,0.1,0,0.1-0.1,0.2
			c-0.1,0.3-0.2,0.6-0.3,1c-0.3,0.9-0.6,1.7-0.9,2.4c-0.1,0.2-0.2,0.4-0.3,0.6l-0.3,0.5c-0.1,0.2-0.2,0.4-0.3,0.5
			c-0.1,0.2-0.2,0.4-0.3,0.5c-0.3,0.4-0.5,0.7-0.7,1c-0.2,0.3-0.5,0.6-0.8,0.9c-0.5,0.6-1.1,1.2-1.8,1.7c-0.8,0.6-1.6,1.2-2.5,1.8
			l-0.2,0.1c-0.3,0.2-0.6,0.3-0.9,0.5c-1,0.5-2,1-3.2,1.4l-0.7,0.2c-0.8,0.3-1.6,0.5-2.3,0.7c-0.3,0.1-0.6,0.2-0.9,0.2l-0.4,0.1
			c-0.3,0.1-0.7,0.2-1,0.2c-0.4,0.1-0.9,0.2-1.4,0.3c-0.4,0.1-0.9,0.2-1.3,0.2c-0.7,0.1-1.3,0.2-2,0.3c-0.8,0.1-1.6,0.2-2.5,0.3
			c0,0-0.1,0-0.2,0c-0.9,0.1-1.8,0.2-2.8,0.3c-1.8,0.2-3.7,0.3-6,0.4l-1,0c-0.7,0-1.4,0.1-2.1,0.1c-1.8,0.1-3.7,0.1-5.6,0.1
			C138.5,386.7,138.2,386.7,137.9,386.7z M121.8,382.2c1,0,2.1,0.1,3.1,0.4c6.8,2,9.4,2.5,13.8,2.4c1.9,0,3.8-0.1,5.6-0.1
			c0.7,0,1.4,0,2.1-0.1l1.1,0c2.2-0.1,4.1-0.2,5.9-0.4c0.9-0.1,1.9-0.2,2.8-0.3l0.1,0c0.9-0.1,1.7-0.2,2.5-0.3
			c0.7-0.1,1.3-0.2,2-0.3c0.4-0.1,0.9-0.2,1.3-0.2c0.5-0.1,0.9-0.2,1.3-0.3c0.3-0.1,0.6-0.1,0.9-0.2l0.4-0.1
			c0.3-0.1,0.5-0.1,0.8-0.2c0.8-0.2,1.5-0.4,2.3-0.7l0.6-0.2c1.1-0.4,2.1-0.8,3-1.3c0.3-0.2,0.6-0.3,1-0.5l0.3-0.2
			c0.8-0.5,1.5-1,2.2-1.5c0.6-0.5,1.1-1,1.6-1.5c0.2-0.3,0.5-0.6,0.7-0.8c0.2-0.3,0.4-0.5,0.6-0.9c0.1-0.2,0.2-0.3,0.3-0.5
			c0.1-0.2,0.2-0.3,0.3-0.5l0.3-0.5c0.1-0.2,0.2-0.3,0.2-0.5c0.3-0.7,0.6-1.4,0.9-2.2c0.1-0.3,0.2-0.6,0.3-0.9l0-0.1
			c0,0,0-0.1,0-0.1c5.6-20.4-3.4-32.8-10-41.9c-1.7-2.4-3.3-4.6-4.5-6.7c-0.2-0.3-0.3-0.6-0.5-0.8c-2.1-3.1-5.8-4.7-9.5-4.1
			l-31.9,5.4c-1.2,0.2-2.5,0.2-3.7,0l-31.9-5.4c-3.6-0.6-7.1,0.8-9.3,3.7c-0.1,0.1-0.1,0.1-0.1,0.2l-0.2,0.3
			c-0.1,0.1-0.1,0.2-0.2,0.3l-0.1,0.2c0,0.1-0.1,0.1-0.1,0.2c-1.1,2.1-2.7,4.3-4.5,6.7c-6.5,9-15.5,21.4-10.1,41.5l0.1,0.4
			c0,0,0,0.1,0,0.1l0,0.1c0.1,0.3,0.2,0.6,0.3,0.9c0.2,0.8,0.5,1.5,0.9,2.2c0.1,0.2,0.2,0.4,0.3,0.5l0.3,0.5
			c0.1,0.1,0.2,0.3,0.3,0.5c0.1,0.2,0.2,0.3,0.3,0.4c0.3,0.4,0.4,0.7,0.6,0.9c0.2,0.3,0.5,0.6,0.7,0.9c0.5,0.5,1,1,1.6,1.5
			c0.7,0.5,1.4,1.1,2.2,1.5l0.3,0.2c0.3,0.2,0.6,0.4,1,0.5c0.9,0.5,1.9,0.9,3,1.3l0.7,0.2c0.7,0.2,1.5,0.5,2.2,0.7
			c0.3,0.1,0.5,0.1,0.8,0.2l0.4,0.1c0.3,0.1,0.6,0.2,1,0.2c0.4,0.1,0.9,0.2,1.3,0.3c0.4,0.1,0.9,0.2,1.3,0.2c0.6,0.1,1.3,0.2,2,0.3
			c0.8,0.1,1.6,0.2,2.5,0.3l0.1,0c0.9,0.1,1.8,0.2,2.8,0.3c1.8,0.2,3.7,0.3,5.9,0.4l1,0c0.7,0,1.4,0.1,2.1,0.1
			c1.8,0.1,3.7,0.1,5.6,0.1c4.4,0.1,7-0.5,13.8-2.4C119.7,382.4,120.8,382.2,121.8,382.2z"/>
		<path class="st20" d="M137.3,336.6c-7.6,0.4-9,0.2-15.1-0.6c-0.1,0-0.2,0-0.3,0c0,0,0,0,0,0c0,0,0,0,0,0c-0.1,0-0.2,0-0.3,0
			c-6.1,0.9-7.6,1.1-15.1,0.6c-0.4,0-0.6,0.1-0.5,0.3c5.8,4.8,11.5,7.6,13.7,8.6c0.6,0.2,1.3,0.4,2.1,0.4l0,0c0.1,0,0.2,0,0.2,0l0,0
			c0.8,0,1.6-0.1,2.1-0.4c2.2-1,7.9-3.7,13.7-8.6C137.9,336.7,137.6,336.6,137.3,336.6z"/>
		<path class="st20" d="M116.1,379.3c2.8-0.3,3.4-0.2,5.7,0.5c0,0,0.1,0,0.1,0c0,0,0,0,0,0c0,0,0,0,0,0c0,0,0.1,0,0.1,0
			c2.3-0.6,2.8-0.8,5.7-0.5c0.1,0,0.2-0.1,0.2-0.2c-2.2-3.6-4.3-5.7-5.1-6.4c-0.2-0.2-0.5-0.3-0.8-0.3l0,0c0,0-0.1,0-0.1,0l0,0
			c-0.3,0-0.6,0.1-0.8,0.3c-0.8,0.7-2.9,2.8-5.1,6.4C115.8,379.2,115.9,379.3,116.1,379.3z"/>
		<path class="st6" d="M179.9,370.9c0.3,0.2-2.9,2.8-7.4,4.7c-0.1,0.1,0,0.3,0.1,0.2c5-1.2,7.8-2.9,7.6-3.1L179.9,370.9z"/>
		<path class="st19" d="M67.3,340.6c-0.4,0.1,0.4,3.1,2.4,6.2c0.1,0.1-0.1,0.3-0.2,0.2c-3.1-2.7-4.1-5-3.8-5.1L67.3,340.6z"/>
		<path class="st6" d="M65.3,374c-0.3,0.3,3.7,2.6,9,4c0.1,0,0.1,0.3-0.1,0.3c-5.8-0.5-9.2-1.9-9-2.1L65.3,374z"/>
		<rect x="110.3" y="202.9" class="st26" width="19.4" height="19.4"/>
		<polygon class="st27" points="121.8,291.7 87.7,291.7 88.2,310.1 121.8,319.2 155.4,310.1 155.9,291.7 		"/>
		<path class="st27" d="M121.8,297.2c-25.3,0-32-5.7-32-5.7l6.2,13.5l25.8,6.8l25.8-6.8l6.2-13.5c0,0-4.9,3.7-19.7,5.1
			C130.6,297,126.5,297.2,121.8,297.2z"/>
		<g>
			<path class="st18" d="M103.1,305.2c0.6,0.3,2.1,1,2.1,1c-4.5,6.6-6.1,15.2-6.4,24.8c-1.6-0.4-3.1-0.8-4.6-1.2
				c-61.3-17.3-61.1-81.2-25.7-110.4c7.8-6.4,17.3-11.2,28.2-13.4c1.8-0.4,3.6-0.7,5.5-0.9c0,0,1.9,6.1,7.5,10.3
				c2.9,2.2,6.9,3.9,12.2,3.9v74.2H87.7l-2.3-54.3C64.9,249.5,55.4,286.1,103.1,305.2z"/>
			<path class="st19" d="M71.5,302.5c-10.2,6.1-9.3,7.7-9.3,7.7L64,311C64,311,64.6,309,71.5,302.5
				C71.5,302.6,71.5,302.5,71.5,302.5z"/>
			<path class="st20" d="M58.6,281.3c11.7-2,11.4-3.9,11.4-3.9l-1.4-1.3C68.6,276.1,67.4,277.7,58.6,281.3
				C58.6,281.3,58.6,281.3,58.6,281.3z"/>
			<path class="st20" d="M97.9,308.9c-3.6,12.3-3.8,20.8-3.8,20.8c2.6,0.8,1.7,0.6,4.6,1.3l6.4-24.8c-0.7-0.1-1.5-0.7-2.1-1
				c-47.6-19.1-38.2-55.6-17.6-66v0l0.8-1.3C72.8,240.6,40.8,281.1,97.9,308.9z"/>
			<path class="st19" d="M94.4,325.7l-0.3,3.9l0,0.1c-61.3-17.3-61.1-81.2-25.7-110.4C47.1,242.8,25.4,301.7,94.4,325.7z"/>
			<path class="st6" d="M121.8,218.4c-14.6,0-18.7-13.1-18.9-13.6l-0.2-0.6l-0.7,0.1c-36.3,4.3-56.8,34.6-58.4,62.4
				c-1.4,25,12.3,55.2,54.9,65l0.9,0.2l0-1c0.3-10.8,2.3-18.5,6.3-24.4l0.5-0.8l-0.8-0.4c-0.1,0-1.5-0.7-2.1-1h0
				c-28.7-11.5-33.6-27.9-33.9-36.6c-0.5-11.1,5.6-21.9,15.3-27.4l2.2,53.8l0.1,1.7l1.6,1.3l-0.2-4.6l-2.3-54.7l-1.1,0.6
				c-10.9,5.5-17.8,17.3-17.3,29.4c0.4,9.1,5.5,26.2,34.9,38c0.3,0.1,0.8,0.4,1.2,0.6c-3.7,5.8-5.6,13.3-6,23.5
				c-40.9-9.9-54.1-39.1-52.7-63.2c1.5-27,21.3-56.4,56.4-60.9c1.1,2.8,6.1,13.7,19.4,14.1v20.3h1.6v-21.8H121.8z"/>
			<g>
				<g>
					<path class="st5" d="M103.3,305.3c0.9,0.3,1.5,0.5,1.8,0.6c2.6,0.9,7.3-2.4,9.3-3.3c1.5-0.7,3.3,2.9,4,4.8
						c0.3,0.7,0.9,1.1,1.6,1.3l5.8,1c1,0.2,1.7,1,1.8,1.9c0,0,0.3,24.7-8.7,23.5c-7.5-1-14.3-2.5-20.6-4.3
						C99.8,318.9,102,310,103.3,305.3z"/>
					<path class="st13" d="M121.7,308.4c0,0,6.4,0.1,6.3,4.1c-0.1,4-1,12.4-2,16s-3.2,6-3.7,6.5c-0.5,0.4-3.7,0.5-6.5,0
						c-2.8-0.5-17-3.6-17-3.6s-0.9,0.2-0.8-1c0.2-1.2,3-19.1,4.2-22.3c1-2.9,1.2-3.2,1.2-3.2l2.7,0.9c0,0-4.4,13.1-3.3,17.3
						c5.8,1.2,14.5,3.4,14.5,3.4S122.1,319.3,121.7,308.4z"/>
					<path class="st7" d="M118.2,324.7c0,0,2.6-7,2.6-16.2l1.8,0.2C122.6,308.7,122.8,316.6,118.2,324.7z"/>
					<path class="st6" d="M118.9,323.4C118.9,323.4,118.9,323.4,118.9,323.4c3-4.8,4.2-14.9,4.2-14.9l-1.4-0.1
						C122,309.5,121.1,317.9,118.9,323.4z"/>
					<path class="st6" d="M127.6,316.3c-1.3,0.5-2.7,0.8-4,0.8c1.3,0.4,2.6,0.6,3.8,0.4L127.6,316.3z"/>
					<path class="st6" d="M126.7,323.5c-1.4,0.6-2.7,0.9-4,0.8c1.3,0.4,2.6,0.6,3.8,0.4L126.7,323.5z"/>
					<path class="st6" d="M125.1,329.4c-0.6,0.4-1.4,0.5-2.3,0.5c0.8,0.3,1.6,0.4,2.2,0.3L125.1,329.4z"/>
					<path class="st7" d="M113.5,306.1c-0.5,0-1,0.1-1.5,0.2c-0.5,0.1-0.9,0.3-1.3,0.5c-0.4,0.2-0.8,0.5-1.2,0.7
						c-0.4,0.3-0.7,0.6-1.1,1l0,0c0.5,0,1-0.2,1.4-0.3c0.5-0.1,0.9-0.3,1.3-0.5c0.4-0.2,0.8-0.4,1.2-0.7
						C112.8,306.8,113.2,306.5,113.5,306.1z"/>
				</g>
				<path class="st6" d="M118.9,335.9c-7.2-1-14.2-2.4-20.7-4.3l-0.6-0.2l0.1-0.7c1.4-11.6,3.4-20.4,4.9-25.7l0.2-0.8l1.8,0.6
					c0.4,0.1,0.7,0.2,0.8,0.3c1.6,0.6,4.8-1.2,6.9-2.3c0.7-0.4,1.3-0.7,1.8-0.9c0.4-0.2,0.9-0.2,1.4,0c1.2,0.5,2.4,2.2,3.7,5.2
					c0.2,0.4,0.6,0.7,1,0.8l5.8,1.1c1.3,0.2,2.3,1.3,2.4,2.7c0,0.7,0.1,18.1-5.4,23c-1,0.9-2.2,1.3-3.4,1.3
					C119.4,335.9,119.1,335.9,118.9,335.9z M114.7,303.3c-0.4,0.2-1,0.5-1.7,0.9c-2.5,1.4-5.9,3.2-8.2,2.4c-0.1-0.1-0.4-0.1-0.8-0.3
					l-0.2-0.1c-1.2,4.5-3.2,12.9-4.6,24c6.2,1.8,12.9,3.2,19.8,4.1c1.1,0.1,2-0.2,2.9-0.9c5-4.4,4.9-21.6,4.9-21.7
					c-0.1-0.6-0.5-1.1-1.1-1.2l-5.8-1.1c-1-0.2-1.8-0.8-2.2-1.7c-1.2-2.9-2.3-4.1-2.8-4.3C114.8,303.3,114.8,303.3,114.7,303.3
					C114.8,303.3,114.7,303.3,114.7,303.3z"/>
			</g>
			<path class="st19" d="M50.3,245.9c0,0,6.4,1.6,8.8,4.7c0.2,0.2-0.1,0.5-0.3,0.4c-4.7-2.6-9.4-3.1-9.4-3.2L50.3,245.9z"/>
			<path class="st6" d="M92.9,329.1c0.6-5.6,1.4-9.8,4.3-17.6c-1.9,7.9-2.3,12.5-2.7,18L92.9,329.1z"/>
			<path class="st20" d="M51,254.3c0.3,0.2,15.8,10.9,15.8,10.9l1.1-5.5L51,254.3z"/>
		</g>
		<g>
			<path class="st18" d="M149.5,329.7c-1.5,0.4-3,0.8-4.6,1.2c-0.3-9.6-2-18.2-6.4-24.8c0,0,1.5-0.7,2.1-1
				c44-17.7,39.3-50.2,22-63.3c-1.4-1.1-2.9-2-4.4-2.8l0,0.5l-1.1,27.2l-0.8,20.3l-4.2,0l-30.1,6.4v-74.2c1.7,0,3.3-0.2,4.7-0.5
				c7.3-1.6,11.4-6.7,13.4-10.2c1.1-2,1.6-3.6,1.6-3.6c0.8,0.1,1.5,0.2,2.3,0.3c7.2,1.1,13.8,3.3,19.8,6.3c2.1,1,4,2.2,5.9,3.5
				c0.3,0.2,0.6,0.4,1,0.6c1.6,1.1,3.2,2.3,4.7,3.6C210.6,248.5,210.9,312.4,149.5,329.7z"/>
			<path class="st19" d="M176.9,297.8c10.6,5.4,9.8,7.1,9.8,7.1l-1.7,0.8C185,305.7,184.2,303.8,176.9,297.8
				C176.9,297.8,176.9,297.8,176.9,297.8z"/>
			<path class="st20" d="M165,308.4c-9.4-7.3-8.3-8.8-8.3-8.8l1.8-0.5C158.6,299.1,158.9,301,165,308.4
				C165,308.3,165,308.3,165,308.4z"/>
			<path class="st20" d="M145.7,308.9c3.6,12.3,3.8,20.8,3.8,20.8c-2.6,0.8-1.7,0.6-4.6,1.3l-6.4-24.8c0.7-0.1,1.5-0.7,2.1-1
				c47.6-19.1,38.2-55.6,17.6-66v0l-0.8-1.3C170.8,240.6,202.9,281.1,145.7,308.9z"/>
			<path class="st19" d="M149.2,325.7l0.3,3.9l0,0.1c61.3-17.3,61.1-81.2,25.7-110.4C196.6,242.8,218.2,301.7,149.2,325.7z"/>
			<path class="st6" d="M200,266.6c-1.5-27.8-22.1-58.2-58.4-62.4l-0.7-0.1l-0.2,0.6c-0.2,0.6-4.3,13.6-18.9,13.6H121v90h1.6V220
				c13.3-0.4,18.3-11.4,19.4-14.1c35,4.4,54.9,33.9,56.4,60.9c1.4,24.1-11.8,53.3-52.7,63.2c-0.4-10.1-2.3-17.7-6-23.5
				c0.4-0.2,0.9-0.4,1.2-0.6c29.5-11.8,34.5-28.9,34.9-38c0.5-12.1-6.4-23.9-17.3-29.4l-1.1-0.6l-0.3,38.2l-0.5,0.8
				c0.6-0.3,0.2,1.9,0.7,1.5l1.3-0.7l0.2-37.3c9.7,5.4,15.8,16.3,15.3,27.4c-0.3,7.5-4,20.7-23.3,31.6c-0.3,0.2-0.7,0.4-1.1,0.6
				c-2.9,1.5-6,3-9.6,4.5h0c-0.7,0.3-2.1,1-2.1,1l-0.8,0.4l0.5,0.8c4,5.8,5.9,13.6,6.3,24.4l0,1l0.9-0.2
				C187.7,321.8,201.3,291.6,200,266.6z"/>
			<g>
				<g>
					<path class="st5" d="M140.3,305.3c-0.9,0.3-1.5,0.5-1.8,0.6c-2.6,0.9-7.3-2.4-9.3-3.3c-1.5-0.7-3.3,2.9-4,4.8
						c-0.3,0.7-0.9,1.1-1.6,1.3l-5.8,1c-1,0.2-1.7,1-1.8,1.9c0,0-0.3,24.7,8.7,23.5c7.5-1,14.3-2.5,20.6-4.3
						C143.8,318.9,141.7,310,140.3,305.3z"/>
					<path class="st13" d="M122,308.4c0,0-6.4,0.1-6.3,4.1c0.1,4,1,12.4,2,16s3.2,6,3.7,6.5c0.5,0.4,3.7,0.5,6.5,0s17-3.6,17-3.6
						s0.9,0.2,0.8-1c-0.2-1.2-3-19.1-4.2-22.3c-1-2.9-1.2-3.2-1.2-3.2l-2.7,0.9c0,0,4.4,13.1,3.3,17.3c-5.8,1.2-14.5,3.4-14.5,3.4
						S121.5,319.3,122,308.4z"/>
					<path class="st7" d="M125.5,324.7c0,0-2.6-7-2.6-16.2l-1.8,0.2C121,308.7,120.9,316.6,125.5,324.7z"/>
					<path class="st6" d="M124.8,323.4C124.7,323.4,124.8,323.4,124.8,323.4c-3-4.8-4.2-14.9-4.2-14.9l1.4-0.1
						C121.7,309.5,122.5,317.9,124.8,323.4z"/>
					<path class="st6" d="M116.1,316.3c1.3,0.5,2.7,0.8,4,0.8c-1.3,0.4-2.6,0.6-3.8,0.4L116.1,316.3z"/>
					<path class="st6" d="M116.9,323.5c1.4,0.6,2.7,0.9,4,0.8c-1.3,0.4-2.6,0.6-3.8,0.4L116.9,323.5z"/>
					<path class="st6" d="M118.5,329.4c0.6,0.4,1.4,0.5,2.3,0.5c-0.8,0.3-1.6,0.4-2.2,0.3L118.5,329.4z"/>
					<path class="st7" d="M130.1,306.1c0.5,0,1,0.1,1.5,0.2c0.5,0.1,0.9,0.3,1.3,0.5c0.4,0.2,0.8,0.5,1.2,0.7c0.4,0.3,0.7,0.6,1.1,1
						l0,0c-0.5,0-1-0.2-1.4-0.3c-0.5-0.1-0.9-0.3-1.3-0.5c-0.4-0.2-0.8-0.4-1.2-0.7C130.8,306.8,130.5,306.5,130.1,306.1z"/>
				</g>
				<path class="st6" d="M124.1,335.9c-1.3,0-2.4-0.5-3.4-1.3c-5.5-4.9-5.4-22.2-5.4-23c0.1-1.4,1.1-2.5,2.4-2.7l5.8-1.1
					c0.5-0.1,0.8-0.4,1-0.8c1.3-3,2.5-4.7,3.7-5.2c0.5-0.2,0.9-0.2,1.4,0c0.5,0.2,1.1,0.5,1.8,0.9c2.1,1.2,5.3,2.9,6.9,2.3
					c0.2-0.1,0.4-0.1,0.8-0.3l1.8-0.6l0.2,0.8c1.5,5.3,3.6,14,4.9,25.7l0.1,0.7l-0.6,0.2c-6.5,1.9-13.4,3.4-20.7,4.3
					C124.5,335.9,124.3,335.9,124.1,335.9z M128.9,303.3c0,0-0.1,0-0.1,0c-0.6,0.2-1.6,1.5-2.8,4.3c-0.4,0.9-1.2,1.6-2.2,1.7
					l-5.8,1.1c-0.6,0.1-1.1,0.6-1.1,1.2c0,0.1-0.1,17.3,4.9,21.7c0.9,0.8,1.8,1.1,2.9,0.9c6.9-0.9,13.6-2.3,19.8-4.1
					c-1.4-11.1-3.4-19.5-4.6-24l-0.2,0.1c-0.4,0.1-0.6,0.2-0.8,0.3c-2.3,0.8-5.7-1-8.2-2.4C129.9,303.8,129.3,303.5,128.9,303.3
					C128.9,303.3,128.9,303.3,128.9,303.3z"/>
			</g>
			<path class="st6" d="M174.4,274.5c0.9,0.2,6.5,1.6,8.9,4c0.1,0.1,0,0.3-0.2,0.3c-4.3-2-8.4-2.6-9.3-2.8c-0.1,0-0.2-0.1-0.1-0.2
				l0.5-1.2C174.2,274.5,174.3,274.5,174.4,274.5z"/>
			<path class="st6" d="M150.7,329.1c-0.6-5.6-1.4-9.8-4.3-17.6c1.9,7.9,2.3,12.5,2.7,18L150.7,329.1z"/>
			<path class="st20" d="M192.8,254.3c-0.3,0.2-15.8,10.9-15.8,10.9l-1.1-5.5L192.8,254.3z"/>
		</g>
		<path class="st28" d="M121.8,299.6l0-82.8c-4-0.7-19.3-3.8-26-14.5c-28.5,0.3-50.9,36.6-51.9,48.1c0,0.1,0.1,0.2,0.1,0.2
			l27.2,11.1c0.1,0.1,0.3,0,0.3-0.2c0.6-2.1,4.8-16.4,13.9-22.5l-2.4,53.7c1.1,0.9,2.4,2,3.9,3l1.1-0.7L121.8,299.6z"/>
		<path class="st28" d="M121.8,299.6l0-82.8c4-0.7,19.3-3.8,26-14.5c28.5,0.3,50.9,36.6,51.9,48.1c0,0.1-0.1,0.2-0.1,0.2l-27.2,11.1
			c-0.1,0.1-0.3,0-0.3-0.2c-0.6-2.1-4.8-16.4-13.9-22.5l2.4,53.7c-1.1,0.9-2.4,2-3.9,3l-1.6,1.1L121.8,299.6z"/>
		<path class="st27" d="M50.2,252.3l18.8,4.3c0,0,6.5-14.2,17.1-18.9c-7.6,8.2-11.5,13.4-14.8,23.3c-4.7-1.2-13.1-4.1-13.1-4.1
			L50.2,252.3z"/>
		<path class="st29" d="M47.5,251.7c0,0,13.9-44.8,47.3-48.2c0.5-2.2-3.4-1.4-7.4,0.1c-4,1.5-19.3,5.8-29.9,21.4s-13.3,23-13.5,24.9
			C43.7,251.7,47.5,251.7,47.5,251.7z"/>
		<g>
			<g>
				<path class="st30" d="M116.3,201.3l0,17.5c0,0.2-0.2,0.4-0.4,0.3c-19-7.1-23.6-15.1-20-23.5c0.1-0.1,0.2-0.2,0.4-0.2l19.9,5.6
					C116.2,201.1,116.3,201.2,116.3,201.3z"/>
				<path class="st6" d="M116,219.9c-0.1,0-0.3,0-0.4-0.1c-11.6-4.3-18.3-9.1-20.7-14.7c-1.3-3.1-1.2-6.4,0.2-9.9
					c0.2-0.5,0.8-0.8,1.3-0.6l19.9,5.6c0.5,0.1,0.8,0.6,0.8,1v17.5c0,0.4-0.2,0.7-0.5,0.9C116.4,219.9,116.2,219.9,116,219.9z
					 M96.4,196.3c-1.2,3-1.2,5.7-0.1,8.3c2.1,4.9,8.6,9.5,19.2,13.6v-16.4L96.4,196.3z"/>
			</g>
		</g>
		<path class="st27" d="M193.4,252.3l-18.8,4.3c0,0-6.5-14.2-17.1-18.9c7.6,8.2,11.5,13.4,14.8,23.3c4.7-1.2,13.1-4.1,13.1-4.1
			L193.4,252.3z"/>
		<path class="st27" d="M170.8,209.2c-0.2,0.2-0.3,0.5-0.5,0.7c-0.4,0.6-0.7,1.2-1.2,1.6c-33.1,25.8-46.4,28.7-46.4,28.7
			c2.1-7.5,24.7-33.9,26.3-37.5c1.1-0.5,2.9-0.4,5,0C158.3,203.7,164.6,206.3,170.8,209.2z"/>
		<path class="st29" d="M199.7,249.8c0.2,1.9-3.6,1.9-3.6,1.9s-8.2-26.4-27.1-40.2c0.4-0.5,0.8-1,1.2-1.6c5.2,3.2,11,7.9,15.9,15
			C196.8,240.5,199.5,247.9,199.7,249.8z"/>
		<path class="st28" d="M170.3,209.9c-0.4,0.6-0.8,1.1-1.2,1.6c-5.7-4.2-12.5-7.2-20.2-8c-0.1-0.3,0-0.6,0-0.8c0.4-1,2.5-0.7,5,0
			c0.7,0.2,1.5,0.5,2.3,0.8C158.4,204.4,164,206,170.3,209.9z"/>
		<g>
			<g>
				<path class="st30" d="M127.3,201.3l0,17.5c0,0.2,0.2,0.4,0.4,0.3c19-7.1,23.6-15.1,20-23.5c-0.1-0.1-0.2-0.2-0.4-0.2l-19.9,5.6
					C127.4,201.1,127.3,201.2,127.3,201.3z"/>
				<path class="st6" d="M127.6,219.9c-0.2,0-0.4-0.1-0.6-0.2c-0.3-0.2-0.5-0.5-0.5-0.9v-17.5c0-0.5,0.3-0.9,0.8-1l19.9-5.6
					c0.5-0.2,1.1,0.1,1.3,0.6c1.5,3.5,1.6,6.8,0.2,9.9c-2.4,5.5-9.1,10.3-20.7,14.7C127.9,219.9,127.8,219.9,127.6,219.9z
					 M128.1,201.7v16.4c10.6-4.1,17-8.6,19.2-13.6c1.1-2.6,1.1-5.3-0.1-8.3L128.1,201.7z M147.1,195.9L147.1,195.9L147.1,195.9z"/>
			</g>
		</g>
		<path class="st27" d="M157.4,237.7l2.5,55.6c-1.9,1.6-4.1,3.1-6.4,4.5l1.1-12.9l-7.2,0.7l7.4-4.3L157.4,237.7z"/>
		<path class="st27" d="M85.9,246.6l-2.2,46.7c1.6,1.3,3.2,2.5,5,3.6l-0.3-12.5h6.5l-6.7-3.8L85.9,246.6z"/>
		<path class="st29" d="M181.8,241.4c8.1-8.7,9.5-7.4,9.5-7.4l0.3,1.9C191.6,235.9,189.6,236,181.8,241.4
			C181.8,241.4,181.8,241.4,181.8,241.4z"/>
		<path class="st29" d="M71.9,228.2c-8.1-8.7-9.5-7.4-9.5-7.4l-0.3,1.9C62.1,222.7,64.1,222.8,71.9,228.2
			C71.9,228.3,71.9,228.2,71.9,228.2z"/>
		<path class="st27" d="M59.8,252.5c11.8-1.6,12.1,0.3,12.1,0.3l-0.9,1.6C70.9,254.4,69.3,253.3,59.8,252.5
			C59.8,252.5,59.8,252.5,59.8,252.5z"/>
		<path class="st6" d="M122.6,300.7H121l0-83.3c-6.1-1.1-19.3-4.6-25.6-14.3c-16,0.4-28.9,12.4-35.3,19.5
			c-8.8,10-14.7,21.7-15.4,27.5L71,260.8c1.1-3.8,5.4-16.5,14-22.3l1.3-0.9l-2.7,56.1l-1.6-0.1l2.5-52.9c-8,6.4-11.8,19.5-12.2,21.1
			c-0.1,0.3-0.3,0.5-0.5,0.6c-0.3,0.1-0.6,0.1-0.8,0l-27.2-11.1c-0.4-0.2-0.7-0.6-0.6-1c1-12.1,23.8-48.6,52.7-48.9l0.4,0l0.2,0.4
			c6.1,9.8,19.8,13.1,25.4,14.1l0.7,0.1L122.6,300.7z M44.4,249.9L44.4,249.9L44.4,249.9z"/>
		<path class="st6" d="M121,216.1l0.7-0.1c5.6-1,19.3-4.3,25.4-14.1l0.2-0.4l0.4,0c28.9,0.3,51.7,36.8,52.7,48.9
			c0,0.4-0.2,0.9-0.6,1l-27.2,11.1c-0.3,0.1-0.6,0.1-0.8,0c-0.3-0.1-0.5-0.4-0.5-0.6c-0.4-1.5-4.3-14.7-12.2-21.1l2.5,52.9l-1.6,0.1
			l-2.7-56.1l1.3,0.9c8.6,5.8,12.9,18.5,14,22.3l26.3-10.7c-0.7-5.8-6.6-17.4-15.4-27.5c-6.3-7.2-19.3-19.2-35.3-19.5
			c-6.3,9.7-19.5,13.2-25.6,14.3l0,83.3H121L121,216.1z M199.3,249.9L199.3,249.9L199.3,249.9z"/>
		<g>
			<circle class="st27" cx="116.7" cy="285.5" r="2.5"/>
			<circle class="st27" cx="116.7" cy="269.4" r="2.5"/>
			<circle class="st27" cx="116.7" cy="253.3" r="2.5"/>
			<path class="st27" d="M127.2,253.4c-3.6-0.6-7.1-0.6-10.4,0l0.1,0.8c3.2-0.6,6.6-0.6,10.1,0L127.2,253.4z M127.2,269.5
				c-3.4-0.6-6.9-0.6-10.4,0l0.1,0.8c3.4-0.6,6.8-0.6,10.1,0L127.2,269.5z M127.3,285.6c-3.7-1-7.2-1-10.5,0l0.2,0.8
				c3.1-1,6.5-1,10,0L127.3,285.6z"/>
			<g>
				<path class="st6" d="M127.1,253.7c-3.6-0.6-7-0.6-10.1,0l-0.1-0.8c3.2-0.6,6.7-0.6,10.4,0L127.1,253.7z"/>
			</g>
			<g>
				<path class="st6" d="M127.1,269.8c-3.4-0.6-6.8-0.6-10.1,0l-0.1-0.8c3.4-0.6,6.9-0.6,10.4,0L127.1,269.8z"/>
			</g>
			<g>
				<path class="st6" d="M127.1,285.9c-3.5-1-6.9-1-10,0l-0.2-0.8c3.3-1,6.8-1,10.5,0L127.1,285.9z"/>
			</g>
			<g>
				<circle class="st27" cx="127.3" cy="253.3" r="2.5"/>
				<circle class="st6" cx="126.9" cy="252.9" r="2.5"/>
				<path class="st27" d="M126.9,251.7c0.8,0,1.4,0.6,1.5,1.3c0-0.1,0-0.1,0-0.2c0-0.8-0.7-1.5-1.5-1.5s-1.5,0.7-1.5,1.5
					c0,0.1,0,0.1,0,0.2C125.6,252.3,126.2,251.7,126.9,251.7z"/>
			</g>
			<g>
				<circle class="st27" cx="127.3" cy="269.4" r="2.5"/>
				<circle class="st6" cx="126.9" cy="269" r="2.5"/>
				<path class="st27" d="M126.9,267.8c0.8,0,1.4,0.6,1.5,1.3c0-0.1,0-0.1,0-0.2c0-0.8-0.7-1.5-1.5-1.5s-1.5,0.7-1.5,1.5
					c0,0.1,0,0.1,0,0.2C125.6,268.4,126.2,267.8,126.9,267.8z"/>
			</g>
			<g>
				<circle class="st27" cx="127.3" cy="285.5" r="2.5"/>
				<circle class="st6" cx="126.9" cy="285.1" r="2.5"/>
				<path class="st27" d="M126.9,283.8c0.8,0,1.4,0.4,1.5,1c0,0,0-0.1,0-0.1c0-0.6-0.7-1.1-1.5-1.1c-0.8,0-1.5,0.5-1.5,1.1
					c0,0,0,0.1,0,0.1C125.6,284.2,126.2,283.8,126.9,283.8z"/>
			</g>
			<circle class="st6" cx="116.3" cy="252.9" r="2.5"/>
			<path class="st27" d="M116.3,251.7c0.8,0,1.4,0.6,1.5,1.3c0-0.1,0-0.1,0-0.2c0-0.8-0.7-1.5-1.5-1.5c-0.8,0-1.5,0.7-1.5,1.5
				c0,0.1,0,0.1,0,0.2C114.9,252.3,115.6,251.7,116.3,251.7z"/>
			<circle class="st6" cx="116.3" cy="269" r="2.5"/>
			<path class="st27" d="M116.3,267.8c0.8,0,1.4,0.6,1.5,1.3c0-0.1,0-0.1,0-0.2c0-0.8-0.7-1.5-1.5-1.5c-0.8,0-1.5,0.7-1.5,1.5
				c0,0.1,0,0.1,0,0.2C114.9,268.4,115.6,267.8,116.3,267.8z"/>
			<circle class="st6" cx="116.3" cy="285.1" r="2.5"/>
			<path class="st27" d="M116.3,283.8c0.8,0,1.4,0.4,1.5,1c0,0,0-0.1,0-0.1c0-0.6-0.7-1.1-1.5-1.1s-1.5,0.5-1.5,1.1c0,0,0,0.1,0,0.1
				C114.9,284.2,115.6,283.8,116.3,283.8z"/>
		</g>
		<path class="st38" d="M121.8,89l-47.5,15.4c0,77.5,14.7,96.6,47.5,96.6s47.5-19,47.5-96.6L121.8,89z"/>
		<path class="st39" d="M82.4,129.4c0,0-0.1,67,37.7,66.5c40.9-0.5,40-66.2,40-66.2s-8.8-15.2-39.2-15.2S82.4,129.4,82.4,129.4z"/>
		<g>
			<g>
				<path class="st6" d="M132.7,148.2c0.1,1.6,1.4,2.9,3.1,3c1.6,0.1,3-1.2,3.3-2.8l-3.2-1.7L132.7,148.2z"/>
				<g>
					<path class="st6" d="M129.3,149.5c0.3-0.8,0.8-1.6,1.5-2c0.7-0.5,1.4-0.8,2.2-1c1.5-0.3,3-0.3,4.4,0c1.4,0.3,2.7,0.7,4,1.3
						c1.3,0.6,2.4,1.4,3.5,2.2c0.1,0.1,0.1,0.3,0,0.4c-0.1,0.1-0.2,0.1-0.3,0.1c-1.2-0.6-2.4-1.2-3.6-1.6c-1.2-0.4-2.5-0.7-3.8-0.9
						c-1.3-0.1-2.5-0.1-3.7,0.2c-1.1,0.3-2,0.9-2.4,1.8l0,0c-0.2,0.5-0.7,0.7-1.2,0.5C129.4,150.5,129.2,150,129.3,149.5z"/>
				</g>
				
					<ellipse transform="matrix(0.9944 -0.1055 0.1055 0.9944 -14.9678 15.0776)" class="st7" cx="135.1" cy="149.1" rx="0.6" ry="0.6"/>
				<path class="st38" d="M129.7,153.3c0.1-0.1,0.2-0.2,0.3-0.3c1.4,1,4.5,1.9,10,0.4c0.1,0.1,0.1,0.2,0.2,0.4
					C134.2,156.6,131.1,154.9,129.7,153.3z"/>
			</g>
			<g>
				<path class="st6" d="M111,148.2c-0.1,1.6-1.4,2.9-3.1,3c-1.6,0.1-3-1.2-3.3-2.8l3.2-1.7L111,148.2z"/>
				<g>
					<path class="st6" d="M112.7,150.1c-0.4-0.9-1.3-1.5-2.4-1.8c-1.1-0.3-2.4-0.3-3.7-0.2c-1.3,0.1-2.5,0.4-3.8,0.9
						c-1.2,0.4-2.4,1-3.6,1.6c-0.1,0.1-0.3,0-0.4-0.1c-0.1-0.1,0-0.3,0.1-0.3c1.1-0.9,2.2-1.6,3.5-2.2c1.2-0.6,2.6-1.1,4-1.3
						c1.4-0.3,2.9-0.4,4.4,0c0.7,0.2,1.5,0.5,2.2,1c0.7,0.5,1.2,1.2,1.5,2c0.1,0.5-0.1,1-0.6,1.1
						C113.3,150.8,112.8,150.6,112.7,150.1L112.7,150.1z"/>
				</g>
				
					<ellipse transform="matrix(0.1055 -0.9944 0.9944 0.1055 -52.6509 239.6318)" class="st7" cx="106.9" cy="149.1" rx="0.6" ry="0.6"/>
				<path class="st38" d="M114,153.3c-0.1-0.1-0.2-0.2-0.3-0.3c-1.4,1-4.5,1.9-10,0.4c-0.1,0.1-0.1,0.2-0.2,0.4
					C109.4,156.6,112.5,154.9,114,153.3z"/>
			</g>
		</g>
		<path class="st13" d="M80.6,165.1c0,0,8.8,32.8,40,33.5c23.7,0.5,41.8-15.6,43.9-66.2c1.6,2.5,2.7,4.3,3.4,6
			c0.6,1.3-0.2,2.9-0.2,2.9s-0.8,7.7-1.4,13.2c-1,9.4-7.6,28.9-14.2,35.3c-6.6,6.4-12.4,8.9-21.3,10s-21.8,1.8-29.6-3
			c-7.1-4.4-7.4-3.5-11.5-9.8c-4.1-6.3-7.3-14.4-7.7-16.4C81.6,168.6,80.6,165.1,80.6,165.1z"/>
		<path class="st6" d="M121.8,201.7c-18.1,0-29.4-6-36.7-19.6c-7.9-14.6-11.5-39.3-11.5-77.7v-0.6l48.2-15.7l48.2,15.7v0.6
			c0,38.4-3.7,63.1-11.5,77.7C151.2,195.7,139.9,201.7,121.8,201.7z M75.2,104.9c0.1,80,16.5,95.2,46.7,95.2
			c30.2,0,46.6-15.2,46.7-95.2l-46.7-15.2L75.2,104.9z"/>
		<path class="st31" d="M121.8,201.9c0,0-23.7-4.3-41.4-12.9c0,0,5.5,25,39.6,50.3c1,0.8,2.4,0.8,3.5,0
			c34.1-25.2,39.6-50.3,39.6-50.3C145.5,197.6,121.8,201.9,121.8,201.9z"/>
		<path class="st32" d="M83.1,193.6c0,0,16.9,15.5,35.5,17.6c-20.8,0.3-34.2-11.4-35.2-14C82.4,194.6,83.1,193.6,83.1,193.6z"/>
		<path class="st32" d="M160.8,193.6c0,0-16.9,15.5-35.5,17.6c20.8,0.3,34.2-11.4,35.2-14C161.5,194.6,160.8,193.6,160.8,193.6z"/>
		<path class="st32" d="M94,214.2c0,0,21.4,22,27.2,21.9c7.5-0.1,34.7-30.8,36.3-34.6c-2.1,4.6-6.4,14.4-26.1,31.7l-7,5.6
			c0,0-2,2.6-5.9-0.3s-16.8-15-16.8-15L94,214.2z"/>
		<path class="st6" d="M121.8,240.7c-0.8,0-1.5-0.2-2.2-0.7c-34-25.1-39.9-50.5-39.9-50.7l-0.3-1.6l1.5,0.7
			c16.7,8.1,39,12.4,41,12.8c2-0.4,24.4-4.7,41-12.8l1.5-0.7l-0.3,1.6c-0.1,0.3-6,25.6-39.9,50.7
			C123.4,240.4,122.6,240.7,121.8,240.7z M81.7,190.5c1.9,5.9,10.3,27.1,38.9,48.2c0.7,0.5,1.8,0.5,2.5,0
			c28.6-21.1,37-42.3,38.9-48.2c-17.4,8-39.8,12.1-40,12.2l-0.1,0l-0.1,0C121.5,202.7,99.1,198.5,81.7,190.5z"/>
		<path class="st31" d="M185,91.6c0-22-39.9-32.7-63.2-32.7c-21.9,0-63.2,10.7-63.2,32.7c0,9.5-1.7,53.1,12.5,54.3
			c-0.2,4.1-0.3,8.5-0.3,13.5c0,39.9,36.1,51.2,50.9,51.2c14.7,0,50.9-11.3,50.9-51.2c0-4.9-0.1-9.4-0.3-13.5
			C186.7,144.7,185,101.1,185,91.6z M108.2,195.1c-24.7-10.7-28.7-45.3-28.5-67.9c6.1-9,18.2-17.9,42.1-17.9
			c24,0,36.1,8.9,42.1,17.9c0.2,22.6-3.9,57.2-28.5,67.9C126.8,198.9,116.9,198.9,108.2,195.1z"/>
		<path class="st32" d="M59.7,88.9c-0.1,8.2,1.3,19.4,3.2,28.6c-1.2,2.5-2,5.1-2.5,7.9c0-0.3-0.1-0.6-0.1-0.9
			c-0.2-5.2-1.6-12.4-1.6-12.5c0-0.1-0.4-15.8-0.1-22.3C58.6,87.7,59.7,88.9,59.7,88.9z"/>
		<path class="st32" d="M136.4,109.2c-13.3-0.1-40.5-1.1-53.9,14.1c-7.4,8.5-10.2,14.8-12.2,23l-6.1-4.9c0,0-0.7-2.1-1.5-4.8
			c0.1-3.3,1-6.5,2.4-9.5c1,3,1.9,5.3,2.9,6.5C68.1,133.6,83.9,94.5,136.4,109.2z"/>
		<path class="st32" d="M177.1,124.6c2.2,3.6,3.5,7.6,3.7,11.8c-0.8,2.7-1.5,4.6-1.5,4.6l-4.1,4.1h-3.5c1.1-5.6-3.1-12.8-10.4-21.9
			c-12.7-15.8-40.5-14.2-53.9-14.1c6.4-1.8-9.9-1.3-4.6-2.2c58.7-10,72.4,23.7,72.4,23.7S176,128.4,177.1,124.6z"/>
		<path class="st32" d="M185.1,88.1c0,0-0.5,23.8-0.5,24c0,0.1-0.7,7.3-1,12.4c0,0.4-0.1,0.8-0.1,1.3c-0.7-4-2.1-7.6-4-10.9
			c1.9-8.6,3.6-19.9,3.1-31.3L185.1,88.1z"/>
		<path class="st7" d="M74.2,81.9c14.2-7.7,43.7-18.6,80-5.5c0.7,0.2,1.2-0.6,0.7-1c-6-4.3-13.6-8.9-34.6-9.3
			c-20.1-0.4-37,8.2-46.7,14.9C72.9,81.4,73.5,82.3,74.2,81.9z"/>
		<path class="st32" d="M141.6,82.7c10.4,1.9,29.8,8,41.5,27.8c0.2,0.4,0.9,0.2,0.8-0.2c-1-4.2,0-8-12.6-17.4
			c-10-7.5-21.8-10.3-29.5-10.9C141.2,81.9,141.1,82.6,141.6,82.7z"/>
		<path class="st32" d="M66.9,104.4c4.4-6.6,14.8-17.9,35.5-19.6c0.4,0,0.4-0.5,0-0.6c-4-0.7-8.9-1.2-18.8,3.1
			c-9.4,4.1-14.8,11.7-17.3,16.8C66.1,104.4,66.6,104.7,66.9,104.4z"/>
		<path class="st6" d="M178.3,142.1c0.3-1.6-0.6-6.9-4.1-13.3c-0.2-0.3,0.3-0.7,0.6-0.4c2.7,3.3,5.8,9.6,5.7,11.3
			c-0.1,1.2-1,1-1.5,1.7C178.8,141.6,178.2,142.4,178.3,142.1z"/>
		<path class="st6" d="M66,142.7c-0.2-1.8,1.6-6.9,4.5-12.6c0.2-0.3-0.3-0.7-0.5-0.4c-2.9,3-6.2,8.9-6.1,10.5c0.1,1.1,1.1,1.3,1.6,2
			C65.6,142.4,66,143,66,142.7z"/>
		<path class="st32" d="M163.7,128.2l0,12c5.6,26.3,2.4,45.6-12.3,60.7c6.7-5.2,13.9-11.6,16.7-19.1s5.2-12.3,4.8-24.5
			c-0.4-12.2-1-17.9-1.1-18.1s-2.1-6.2-2.1-6.2L163.7,128.2z"/>
		<path class="st6" d="M58.8,97.8c0.9-1.3,3.5-5.1,7.4-8.9c0.2-0.2,0.1-0.6-0.2-0.5c-3,1.6-7.1,5.3-7.6,6.7
			c-0.4,0.9,0.2,1.4,0.3,2.1C58.6,97.4,58.6,98,58.8,97.8z"/>
		<path class="st31" d="M78.2,129.7c0,0-7.3,41.2,19.6,59.6c-9.2-12.2-12-18.6-13.5-24.6c-1.5-5.9-4.9-22.2-4.7-26.8
			c0.3-4.6,0-9.7,0-9.7L78.2,129.7z"/>
		<path class="st31" d="M162.6,153.4c0,0-0.6,30.5-21.5,39.3c8-7,10.7-11,12.6-14.8s6.5-14.4,6.9-17.6c0.5-3.2,1.3-6.6,1.3-6.6
			L162.6,153.4z"/>
		<path class="st6" d="M71.9,147.2c0-1.4,0.2-5.2,1.3-9.7c0.1-0.3-0.2-0.5-0.4-0.2c-1.4,2.5-2.7,7.1-2.5,8.3
			c0.2,0.8,0.8,0.9,1.1,1.4C71.6,147,71.9,147.4,71.9,147.2z"/>
		<path class="st6" d="M80,125.8C80,125.9,80,125.9,80,125.8c-1.1,0.6-3.6,4.7-4.5,7.4c-0.1,0.2,0.3,0.3,0.4,0.1
			c1.4-2.1,2.8-3.8,4-5.1C79.9,127.4,79.9,126.6,80,125.8z"/>
		<path class="st6" d="M171.8,147.2c0-1.4-0.2-5.2-1.3-9.7c-0.1-0.3,0.2-0.5,0.4-0.2c1.4,2.5,2.7,7.1,2.5,8.3
			c-0.2,0.8-0.8,0.9-1.1,1.4C172,147,171.8,147.4,171.8,147.2z"/>
		<path class="st6" d="M163.7,125.8C163.7,125.9,163.7,125.9,163.7,125.8c1.1,0.6,3.6,4.7,4.5,7.4c0.1,0.2-0.3,0.3-0.4,0.1
			c-1.4-2.1-2.8-3.8-4-5.1C163.7,127.4,163.7,126.6,163.7,125.8z"/>
		<path class="st6" d="M184.7,94.7c-0.7-1.3-3-4.8-6.6-8.4c-0.2-0.2,0-0.6,0.3-0.4c3,1.5,6.9,5.1,7.3,6.3c0.2,0.9-0.5,1.3-0.7,1.9
			C184.9,94.4,184.8,94.9,184.7,94.7z"/>
		<path class="st31" d="M106.3,199.8c2.5,0.9,5.1,1.6,7.6,2c2.6,0.4,5.2,0.7,7.8,0.7c2.6,0,5.2-0.2,7.8-0.7c2.6-0.4,5.1-1.2,7.7-2
			l0,0c0.1,0,0.3,0,0.3,0.2c0,0.1,0,0.2-0.1,0.3c-0.6,0.3-1.2,0.6-1.8,0.9c-0.6,0.3-1.2,0.6-1.9,0.8c-1.3,0.4-2.6,0.9-3.9,1.2
			c-1.3,0.4-2.7,0.5-4,0.7c-0.7,0.1-1.4,0.1-2,0.2c-0.7,0-1.4,0.1-2,0.1c-2.7,0-5.5-0.3-8.1-0.9c-2.7-0.6-5.2-1.6-7.6-2.9
			c-0.1-0.1-0.2-0.2-0.1-0.3C106.1,199.8,106.2,199.8,106.3,199.8L106.3,199.8z"/>
		<path class="st32" d="M140.2,198.7c-7.3,4.3-18.2,5.7-18.4,5.4c-0.1,0.3-11-1-18.4-5.4c-1-0.8-1.7-1-1.7-1s3.3,8.5,20,8.5
			c16.7,0,20-8.5,20-8.5S141.2,197.9,140.2,198.7z"/>
		<path class="st6" d="M102.1,197.4c1.4,1,3,1.8,4.6,2.5c1.6,0.7,3.2,1.4,4.9,1.9c3.3,1,6.8,1.6,10.3,1.6c1.7,0,3.5-0.1,5.2-0.4
			c1.7-0.2,3.4-0.7,5.1-1.2c0.8-0.3,1.7-0.5,2.5-0.9c0.8-0.3,1.6-0.7,2.4-1.1c0.8-0.3,1.6-0.8,2.3-1.2c0.8-0.4,1.5-0.9,2.3-1.3l0,0
			c0.1-0.1,0.2,0,0.3,0.1c0.1,0.1,0,0.2-0.1,0.3c-0.7,0.5-1.4,1.1-2.2,1.6c-0.8,0.5-1.5,1-2.3,1.4c-0.8,0.4-1.6,0.9-2.4,1.2
			c-0.8,0.4-1.7,0.7-2.5,1c-3.4,1.2-7,1.9-10.7,1.9c-3.7,0-7.3-0.7-10.7-1.9c-3.4-1.2-6.6-2.9-9.3-5.2c-0.1-0.1-0.1-0.2,0-0.3
			C101.9,197.3,102,197.3,102.1,197.4L102.1,197.4z"/>
		<path class="st32" d="M140.8,216.4c-7.6,5.1-18.9,6.7-19,6.3c-0.1,0.3-11.4-1.1-19-6.3c-1-1-1.7-1.2-1.7-1.2s3.5,9.9,20.7,9.9
			c17.3,0,20.7-9.9,20.7-9.9S141.8,215.4,140.8,216.4z"/>
		<path class="st6" d="M101.4,214.8c1.5,1.1,3.1,2.1,4.7,3c1.6,0.9,3.3,1.6,5.1,2.2c3.5,1.2,7.1,1.9,10.7,1.9c1.8,0,3.6-0.2,5.4-0.5
			c1.8-0.3,3.5-0.8,5.3-1.4c0.9-0.3,1.7-0.6,2.5-1c0.8-0.4,1.7-0.8,2.5-1.2c0.8-0.4,1.6-0.9,2.4-1.4c0.8-0.5,1.6-1,2.4-1.5l0,0
			c0.1-0.1,0.2,0,0.3,0.1c0.1,0.1,0,0.2-0.1,0.3c-0.7,0.6-1.5,1.2-2.2,1.8c-0.8,0.5-1.5,1.2-2.4,1.6c-0.8,0.5-1.6,1-2.5,1.4
			c-0.8,0.5-1.7,0.8-2.6,1.2c-3.5,1.5-7.3,2.2-11.1,2.2c-3.8,0-7.6-0.8-11.1-2.2c-3.5-1.4-6.8-3.4-9.7-6.1c-0.1-0.1-0.1-0.2,0-0.3
			C101.1,214.7,101.3,214.7,101.4,214.8L101.4,214.8z"/>
		<path class="st6" d="M165.9,149.9c0.5,2.2,0.7,4.4,0.9,6.6c0.2,2.2,0.3,4.4,0.3,6.6c0,4.4-0.4,8.9-1.3,13.3
			c-0.4,2.2-1,4.3-1.8,6.5c-0.7,2.1-1.6,4.2-2.6,6.2c-2,4-4.7,7.7-8.1,10.6c-0.1,0.1-0.3,0.1-0.4,0c-0.1-0.1-0.1-0.3,0-0.4l0,0
			c2.7-3.5,5.2-7,7.1-10.9c1-1.9,1.8-3.9,2.5-6c0.7-2,1.3-4.1,1.8-6.3c0.9-4.3,1.5-8.6,1.6-13c0.1-4.4,0-8.8-0.7-13.1l0,0
			c0-0.2,0.1-0.3,0.2-0.3C165.7,149.7,165.8,149.8,165.9,149.9z"/>
		<path class="st32" d="M74.5,152.6c0,0-2.6,18.9,3.1,33.3c7.5,9.3,9,11,9,11l-0.4-2.2c0,0-7.2-7.7-8.7-17.5
			c-0.8-3.1-2.4-9.9-2.4-12.5c0-2.6-0.4-11-0.4-11L74.5,152.6z"/>
		<path class="st32" d="M74.5,152.6c-0.3,2.2-0.3,4.4-0.3,6.6c0,2.2,0.1,4.4,0.4,6.6c0.5,4.4,1.2,8.8,2.6,13.1
			c0.7,2.1,1.4,4.2,2.4,6.3c0.9,2,2,4,3.1,5.9c2.3,3.8,5.4,7.2,9.1,9.8c0.1,0.1,0.3,0.1,0.4-0.1c0.1-0.1,0.1-0.3,0-0.4l0,0
			c-3-3.2-5.8-6.5-8.1-10.2c-1.2-1.8-2.2-3.7-3.1-5.7c-0.9-2-1.7-4-2.4-6.1c-1.3-4.1-2.3-8.4-2.8-12.8c-0.5-4.3-0.8-8.7-0.6-13.1
			l0,0c0-0.2-0.1-0.3-0.3-0.3C74.6,152.3,74.5,152.5,74.5,152.6z"/>
		<g>
			<path class="st38" d="M134.3,166.2c0.2,0,0.4,0.1,0.6,0.1c-0.2,2.3,0.9,6.3,6.3,11.3c-0.1,0.1-0.2,0.3-0.3,0.4
				C133.6,173.5,133.4,168.9,134.3,166.2z"/>
			<path class="st38" d="M109.4,166.2c-0.2,0-0.4,0.1-0.6,0.1c0.2,2.3-0.9,6.3-6.3,11.3c0.1,0.1,0.2,0.3,0.3,0.4
				C110,173.5,110.2,168.9,109.4,166.2z"/>
		</g>
		<path class="st7" d="M72,145.2c0,0-1.5,22.1,5,37.7c-2.3-1.5-4-8.1-4-8.1s-2-8.1-2-12.3c0-4.2,0-12.7,0-12.7L72,145.2z"/>
		<path class="st7" d="M87.3,65.8c0,0-27.9,13.9-27.9,27.9c-0.4-7,0.5-10.2,2.7-12.5s11.3-10,11.5-10.2
			C78.9,66.1,87.3,65.8,87.3,65.8z"/>
		<path class="st33" d="M183.5,125.8c-0.4,3.1-1.6,7.3-2.6,10.5c-0.2-4.2-1.5-8.2-3.7-11.8c0.7-2.6,1.6-5.8,2.4-9.6
			C181.4,118.3,182.8,121.9,183.5,125.8z"/>
		<path class="st33" d="M65.2,127.1c-1.4,3-2.3,6.1-2.4,9.5c-1-3.5-2.2-8-2.6-11.1c0.5-2.8,1.4-5.5,2.5-7.9
			C63.5,121.1,64.3,124.4,65.2,127.1z"/>
		<path class="st34" d="M60.3,125.5c0.3,3.1,1.5,7.6,2.6,11.1c0,0.2,0,0.4,0,0.6c-1.8-6.5-3.1-8.5-2.6-11.3
			C60.2,125.7,60.2,125.6,60.3,125.5z"/>
		<path class="st34" d="M179.5,115c-0.8,3.7-1.7,7-2.4,9.6c-9-14.7-32.5-24.1-55.3-24.1c-24,0-48.9,10.5-56.6,26.6
			c-0.8-2.7-1.7-6-2.4-9.5c9.8-20.9,40.4-29.4,59-29.4C139.6,88.2,168.5,96,179.5,115z"/>
		<path class="st34" d="M180.9,137.1c0-0.3,0-0.5,0-0.7c1-3.2,2.2-7.5,2.6-10.5C183.9,128.6,182.7,130.6,180.9,137.1z"/>
		<path class="st32" d="M140.7,61.9c11,1.9,31.4,8.3,44,30c0.2,0.4,0.9,0.2,0.8-0.2c-1.1-4.7-0.9-8.6-11.6-17.4
			c-10.2-8.4-24.9-12.6-33.1-13.1C140.2,61.1,140.1,61.8,140.7,61.9z"/>
		<path class="st33" d="M73.9,110.8c10.7-7.9,33.6-20.2,66.5-13c0.6,0.1,0.9-0.6,0.4-0.9c-5.8-3-13-6.1-30.8-4.2
			c-17,1.8-29.8,10.7-36.8,17.3C72.7,110.5,73.4,111.1,73.9,110.8z"/>
		<g>
			<polygon class="st40" points="121.7,147.4 123.2,158.9 127.4,161 122.5,160.7 117.4,164.8 121.4,159.9 			"/>
			<path class="st38" d="M117.4,166c1.2,2.1,4.3,3.1,11.3,2.7C121.4,167.6,120.1,167,117.4,166z"/>
			<path class="st38" d="M114.7,167.4c0,0,3,8.8,14.7,2.3c-5,0.6-7.9,0.2-7.9,0.2l-5.9-2L114.7,167.4z"/>
			<polygon class="st38" points="121.3,147.4 120.7,148.1 119.1,157.3 114.3,165.2 114.3,166.4 120.6,159.7 121.5,155.4 			"/>
			<path class="st6" d="M129.3,169.5c-10.9,0.4-12.1-1.5-13.1-3.2l5.9-6.9l-0.4-12h-0.4l-0.8,10.8l-6.2,8.2c0,0.4,1.5,6.2,15.1,3.4
				C129.4,169.7,129.3,169.6,129.3,169.5z"/>
		</g>
		<g>
			<path class="st38" d="M117.5,186.9c1.3-0.2,2.5-0.4,4.3-0.4c1.8,0,3,0.2,4.3,0.4c0.4,0.1,0.6-0.4,0.3-0.7
				c-1.3-1.1-2.8-1.6-4.6-1.6c-1.8,0-3.3,0.5-4.6,1.6C116.9,186.5,117.2,187,117.5,186.9z"/>
			<path class="st6" d="M125.6,185.7c-1.1-0.7-2.3-1-3.7-1c-1.4,0-2.6,0.3-3.7,1l1.3-0.2c1.6-0.2,3.3-0.2,4.9,0L125.6,185.7z"/>
			<g>
				<path class="st38" d="M115.6,180.4c0,0-0.8-0.7-0.8-0.8c0,0.1-0.7,0-0.7,0.1c0,0,0,0,0,0.1c0,0.3-0.4-0.1-0.8-0.1
					c-0.1,0.1-0.2,0.3-0.4,0.3c0,0.4,0.2,1.1,1,1.9c-0.1-0.3,0-0.7,0.3-0.9C114.4,180.7,115.1,180.7,115.6,180.4z"/>
				<path class="st38" d="M127.4,180.2c0,0,1.6-0.6,1.7-0.6c0,0.1,0.7,0,0.7,0.1c0,0,0,0,0,0.1c0,0.3,0.4-0.1,0.8-0.1
					c0.1,0.1,0.2,0.3,0.4,0.3c0,0.4-0.2,1.1-1,1.9c0.1-0.3,0-0.7-0.3-0.9C129.4,180.8,127.9,180.6,127.4,180.2z"/>
				<path class="st6" d="M130.3,179.6c-6.5-1-5.1-2.9-7.6-1.7c-0.3,0.1-0.5,0.2-0.8,0.2c-0.3,0-0.6-0.1-0.8-0.2
					c-2.6-1.3-1.1,0.7-7.6,1.7c-0.5,0.1-0.5,0.5,0,0.7c1.7,0.8,5.1-1,8.5-1c3.4,0,6.8,1.8,8.5,1
					C130.7,180.1,130.7,179.7,130.3,179.6z"/>
				<path class="st6" d="M113.9,178.2c-0.4,0.1-0.7,0.3-1,0.6c-0.3,0.3-0.4,0.7-0.5,1.2c0,0.5,0.1,0.9,0.3,1.3
					c0.2,0.4,0.5,0.7,0.8,0.9c0.1,0.1,0.2,0,0.3-0.1c0,0,0-0.1,0-0.1l0,0c-0.2-0.5-0.5-0.8-0.4-1.7c0.1-0.9,0.5-1,0.7-1.7l0,0
					c0-0.1,0-0.2-0.1-0.3C114,178.2,113.9,178.1,113.9,178.2z"/>
				<path class="st6" d="M129.6,178.2c0.4,0,0.8,0.2,1.1,0.5c0.3,0.3,0.5,0.7,0.6,1.2c0.1,0.4,0,0.9-0.1,1.3
					c-0.2,0.4-0.4,0.7-0.7,0.9c-0.1,0.1-0.2,0-0.3-0.1c0,0,0-0.1,0-0.1l0,0c0.1-0.5,0.4-0.8,0.3-1.7c-0.2-0.9-0.6-1-0.9-1.6l0,0
					C129.3,178.4,129.4,178.3,129.6,178.2C129.5,178.2,129.5,178.2,129.6,178.2z"/>
			</g>
		</g>
		<g>
			<path class="st38" d="M117.5,141.6c-0.8-1-5.2-6-14.3-8.1c-2.9-0.7-6-0.9-9.2-0.9c-0.6,0-1.1,0.4-1.5,0.9
				c-0.3,0.6-0.4,1.2-0.2,1.8l2,4.9c0.2,0.5,0.6,0.9,1.1,1c0.2,0.1,0.5,0,0.8,0c0.4-0.1,3.9-1.1,8.5,0c3.3,0.8,6.4,2.4,9.2,4.8
				c0.2,0.2,0.4,0.3,0.7,0.3c0.7,0.2,1.4-0.2,1.8-0.8l1-1.6C118,143.2,118,142.2,117.5,141.6z"/>
			<path class="st38" d="M128.2,140.2c0.8-0.9,5.3-5.4,14.2-6.6c2.8-0.4,5.8-0.3,9,0c0.6,0.1,1.1,0.5,1.4,1c0.3,0.6,0.3,1.2,0.1,1.8
				l-2.2,4.7c-0.2,0.5-0.6,0.8-1.1,0.8c-0.2,0-0.5,0-0.7-0.1c-0.4-0.1-3.8-1.4-8.2-0.9c-3.3,0.4-6.3,1.7-9.1,3.9
				c-0.2,0.2-0.4,0.2-0.7,0.3c-0.7,0.1-1.4-0.3-1.7-1l-0.9-1.7C127.6,141.8,127.7,140.8,128.2,140.2z"/>
			<g>
				<path class="st35" d="M129.7,144.1l0.2-0.1c3-2.4,6.2-4.1,9.8-4.9c4.7-1.1,8.3-0.5,8.9-0.3l0.2,0l0.2,0c0.3-0.1,0.5-0.2,0.6-0.5
					l2.2-4.6c0.1-0.3,0.1-0.6-0.1-0.9c-0.2-0.3-0.5-0.4-0.8-0.4c-3.2,0.1-6.3,0.4-9.2,1.1c-9,2.2-13.5,6.8-14.3,7.7
					c-0.3,0.3-0.3,0.8-0.1,1.2l1,1.4c0.2,0.3,0.6,0.5,1,0.4L129.7,144.1z"/>
				<path class="st36" d="M151.1,134.8c0,0-7-0.9-12.9,0.5c3.8-1.7,10.2-3.3,10.2-3.3l3.5,0.8l-0.1,1.5L151.1,134.8z"/>
				<path class="st37" d="M142.2,138.2c0,0-5.5-2.7-14.1,4.3c0.8,1.5,1.8,1.5,1.8,1.5l4.5-2.5l2.8-2.1L142.2,138.2z"/>
				<path class="st6" d="M142,134.3c2.6-0.6,5.6-1.1,9-1.1c0.1,0,0.1,0.1,0.1,0.1l-2.2,4.6c0,0-0.1,0.1-0.1,0.1c0,0,0,0-0.1,0
					c-0.7-0.1-4.4-0.9-9.3,0.3c-3.1,0.7-6.6,2.2-10.1,5.1c0,0,0,0-0.1,0c-0.1,0-0.1,0-0.2-0.1l-1-1.4c0-0.1,0-0.1,0-0.2
					C128.8,141,133.1,136.4,142,134.3 M141.7,132.8c-9.3,2.2-13.8,7-14.7,7.9c-0.5,0.6-0.6,1.5-0.1,2.1l1,1.4
					c0.4,0.6,1.1,0.9,1.8,0.7c0.3-0.1,0.5-0.2,0.7-0.3c2.9-2.3,6-4,9.4-4.8c4.6-1.1,8.2-0.4,8.6-0.3c0.3,0.1,0.5,0.1,0.8,0
					c0.5-0.1,0.9-0.5,1.1-0.9l2.2-4.6c0.3-0.5,0.2-1.1-0.1-1.6c-0.3-0.5-0.9-0.8-1.4-0.8C147.7,131.7,144.6,132,141.7,132.8
					L141.7,132.8z"/>
			</g>
			<g>
				<path class="st35" d="M114.3,143.9l-0.2-0.1c-3-2.3-6.4-3.9-9.9-4.6c-4.7-1-8.3-0.2-8.9,0l-0.2,0l-0.2,0
					c-0.3-0.1-0.5-0.2-0.6-0.5l-2.3-4.5c-0.1-0.3-0.1-0.6,0-0.9c0.2-0.3,0.4-0.4,0.8-0.4c3.2,0,6.3,0.2,9.2,0.9
					c9.1,1.9,13.7,6.4,14.5,7.3c0.3,0.3,0.3,0.8,0.1,1.2l-1,1.5c-0.2,0.3-0.6,0.5-1,0.4L114.3,143.9z"/>
				<path class="st36" d="M98.6,133.1l3.6-0.1c0,0,0.4,0.2,1,0.4c0,0.7,0.1,1.3,0.1,2c-5.5-0.9-10.7-0.9-10.6-0.8l-0.5-1.5
					L98.6,133.1z"/>
				<path class="st37" d="M105.2,138C105.2,138,105.2,138.1,105.2,138c-0.2,0.5-0.2,0.9-0.2,1.3l-2.1-0.6l-3.4,0.7l-5.1,0.3
					c0,0-0.9-0.3-1-2.1C98.4,136.3,102.4,137,105.2,138z"/>
				<path class="st6" d="M101.7,134.5c9,1.9,13.4,6.3,14.1,7c0.1,0.1,0.1,0.1,0,0.2l-1,1.4c0,0.1-0.1,0.1-0.2,0.1c0,0,0,0-0.1,0
					c-3.6-2.8-7.1-4.1-10.2-4.8c-4.9-1-8.6-0.2-9.3,0c0,0,0,0-0.1,0c0,0-0.1,0-0.1-0.1l-2.3-4.5c0-0.1,0-0.2,0.1-0.2
					C96.1,133.6,99.1,133.9,101.7,134.5 M102,132.9c-3-0.6-6.1-0.9-9.4-0.9c-0.6,0-1.1,0.3-1.4,0.8c-0.3,0.5-0.3,1.1-0.1,1.6
					l2.3,4.5c0.2,0.5,0.7,0.8,1.2,0.9c0.3,0.1,0.5,0,0.8,0c0.4-0.1,3.9-0.9,8.6,0c3.4,0.7,6.6,2.2,9.6,4.5c0.2,0.2,0.4,0.3,0.7,0.3
					c0.7,0.1,1.4-0.1,1.8-0.7l1-1.4c0.4-0.7,0.4-1.6-0.2-2.1C116,139.5,111.3,134.9,102,132.9L102,132.9z"/>
			</g>
		</g>
		<polygon class="st38" points="125.1,124.2 127,129.2 126.5,124.1 		"/>
		<polygon class="st40" points="127,129.2 126.9,124.2 126.5,124.2 		"/>
		<path class="st38" d="M110,122.9c3.7,0.1,7,2.3,11.8,2.3c4.9,0,8.2-2.4,11.8-2.3c1.6,0,1.9-0.5,0.8-0.5c-3.6,0.1-7.7,1.5-12.7,1.5
			c-5,0-9-1.6-12.6-1.4C108.3,122.5,109,122.9,110,122.9z"/>
		<path class="st40" d="M80.5,130.6l1.9,17.2l1.1,0.6l-0.8,1.1c0,0,3.2,21.4,8,28.7c-6.3-12.5-7.8-17.9-7.8-17.9l-2.4-14.8l-0.9-11
			L80.5,130.6z"/>
		<path class="st6" d="M121.8,211.3c-16.9,0-51.7-12.7-51.7-52c0-4.5,0.1-8.8,0.3-12.8c-13.1-2.4-12.7-38.4-12.5-52.1
			c0-1.1,0-2.1,0-2.8c0-22.3,41-33.5,64-33.5c21.6,0,64,10.1,64,33.5c0,0.7,0,1.7,0,2.8c0.1,13.7,0.5,49.7-12.5,52.1
			c0.2,4,0.3,8.3,0.3,12.8C173.6,198.6,138.7,211.3,121.8,211.3z M121.8,59.6c-9.3,0-25.2,2.1-39.5,8.1c-10.4,4.3-22.9,12-22.9,23.9
			c0,0.8,0,1.7,0,2.9c-0.1,12.3-0.5,49.6,11.8,50.7l0.8,0.1l0,0.8c-0.2,4.2-0.3,8.7-0.3,13.4c0,38.1,33.8,50.4,50.2,50.4
			c16.4,0,50.2-12.3,50.2-50.4c0-4.7-0.1-9.2-0.3-13.4l0-0.8l0.8-0.1c12.4-1,12-38.4,11.8-50.7c0-1.1,0-2.1,0-2.9
			C184.2,69.3,142.9,59.6,121.8,59.6z M121.8,198.7c-4.7,0-9.5-1-13.9-2.9l0,0c-25.6-11.1-29.1-47.7-29-68.6l0-0.2l0.1-0.2
			c5.6-8.3,17.6-18.2,42.8-18.2c25.2,0,37.2,9.9,42.8,18.2l0.1,0.2l0,0.2c0.1,20.9-3.4,57.5-29,68.6
			C131.3,197.8,126.6,198.7,121.8,198.7z M108.5,194.4c8.5,3.7,18.1,3.7,26.6,0c24.7-10.7,28.2-46.4,28.1-66.9
			c-7.9-11.5-21.8-17.3-41.4-17.3s-33.5,5.8-41.4,17.3C80.4,148,83.9,183.7,108.5,194.4L108.5,194.4z"/>
	</g>
	<g>
		<g>
			<path class="st23" d="M193.2,453.5H47.8c-4,0-7.3-3.3-7.3-7.3v0c0-4,3.3-7.3,7.3-7.3h145.4c4,0,7.3,3.3,7.3,7.3v0
				C200.5,450.3,197.2,453.5,193.2,453.5z"/>
			<g>
				<g>
					<path class="st24" d="M190.7,409.2H50.2c-4.1,0-7.5,3.4-7.5,7.5v27.6c0,4.1,3.4,7.5,7.5,7.5h140.5c4.1,0,7.5-3.4,7.5-7.5v-27.6
						C198.2,412.5,194.9,409.2,190.7,409.2z M196.2,444.2c0,3-2.4,5.5-5.5,5.5H50.2c-3,0-5.5-2.5-5.5-5.5v-27.6c0-3,2.5-5.5,5.5-5.5
						h140.5c3,0,5.5,2.5,5.5,5.5V444.2z"/>
					<path class="st25" d="M196.2,416.6v27.6c0,3-2.4,5.5-5.5,5.5H50.2c-3,0-5.5-2.5-5.5-5.5v-27.6c0-3,2.5-5.5,5.5-5.5h140.5
						C193.8,411.2,196.2,413.6,196.2,416.6z"/>
				</g>
			</g>
		</g>
		<g>
			<path class="st24" d="M112.4,433.8h-4.9l-0.9,3.6h-1.5l4-15.4h1.5l4,15.4h-1.5L112.4,433.8z M112.1,432.5l-1.6-6.4
				c-0.2-0.9-0.5-2-0.5-2.4h0c-0.1,0.4-0.3,1.5-0.5,2.4l-1.6,6.4H112.1z"/>
			<path class="st24" d="M123.4,437.4h-1.3V427h-4.4v10.3h-1.3v-11.6h7V437.4z"/>
			<path class="st24" d="M133.2,429.4v8h-1.1l-0.1-1.1c-0.5,0.8-1.4,1.3-2.7,1.3c-2.1,0-3.7-1.3-3.7-3.5c0-2.2,1.4-3.5,4-3.5h2.3
				v-1.2c0-1.7-0.8-2.6-2.3-2.6c-1.3,0-2.2,0.7-2.3,2H126c0.1-2,1.5-3.3,3.7-3.3C131.9,425.5,133.2,427,133.2,429.4z M131.9,434.1
				v-2.3h-2.3c-1.7,0-2.6,0.8-2.6,2.3c0,1.5,1,2.2,2.5,2.2C131,436.3,131.9,435.4,131.9,434.1z"/>
		</g>
	</g>
</g>
</svg>
