<?xml version="1.0" encoding="utf-8"?>
<!-- Generator: Adobe Illustrator 21.0.0, SVG Export Plug-In . SVG Version: 6.00 Build 0)  -->
<svg version="1.1" id="Layer_1" xmlns="http://www.w3.org/2000/svg" xmlns:xlink="http://www.w3.org/1999/xlink" x="0px" y="0px"
	 viewBox="0 0 240.9 453.5" style="enable-background:new 0 0 240.9 453.5;" xml:space="preserve">
<style type="text/css">
	.st0{fill:#794552;}
	.st1{fill:#C7B89E;}
	.st2{fill:#F9A960;}
	.st3{fill:#D17C32;}
	.st4{fill:#956070;}
	.st5{fill:#FDDCC0;}
	.st6{fill:#501338;}
	.st7{fill:#FFFFFF;}
	.st8{fill:#B38091;}
	.st9{fill:#D1D5DB;}
	.st10{fill:#989A9C;}
	.st11{fill:#937B70;}
	.st12{fill:#E6DEC9;}
	.st13{fill:#F0B39C;}
	.st14{fill:#8E183F;}
	.st15{fill:#F5F5F5;}
	.st16{fill:none;stroke:#462062;stroke-width:0.7554;stroke-linecap:round;stroke-miterlimit:10;}
	.st17{fill:#B5BAC0;}
	.st18{fill:#C71F41;}
	.st19{fill:#EF5784;}
	.st20{fill:#A91D41;}
	.st21{opacity:0.5;fill:#C1C1C1;}
	.st22{opacity:0.27;fill:#E78B6F;}
	.st23{fill:#CB8A43;}
	.st24{fill:#754D24;}
	.st25{fill:#FBBA6C;}
	.st26{fill:#837070;}
	.st27{fill:#866A58;}
	.st28{fill:#9A7E67;}
	.st29{fill:#B39885;}
	.st30{fill:#5B4580;}
	.st31{fill:#E1DFDF;}
	.st32{fill:#C0BEBD;}
	.st33{fill:#D53231;}
	.st34{fill:#E94647;}
	.st35{fill:#797083;}
	.st36{fill:#A9A4B4;}
	.st37{fill:#5B5567;}
	.st38{fill:#CE202B;}
	.st39{fill:#EE3734;}
	.st40{fill:#F49294;}
	.st41{fill:#B89AA6;}
	.st42{fill:#D4907B;}
	.st43{fill:#FAB276;}
	.st44{opacity:0.5;fill:#794552;}
	.st45{fill:#B57D90;}
	.st46{opacity:0.7;fill:#794552;}
	.st47{opacity:0.15;fill:#F2E8A5;}
	.st48{fill:#D67E3A;}
	.st49{fill:#735A99;}
	.st50{fill:#644C88;}
	.st51{fill:#9480B4;}
	.st52{fill:#E4D2A4;}
	.st53{fill:#FAEDD0;}
	.st54{fill:#C4B18B;}
	.st55{fill:#735A99;stroke:#501338;stroke-width:1.571;stroke-miterlimit:10;}
	.st56{fill:#C8BFBF;}
	.st57{fill:#B2ABAB;}
	.st58{fill:#FFE098;}
	.st59{fill:#ECC77E;}
	.st60{fill:#FFEBC7;}
	.st61{fill:#A1675E;}
	.st62{fill:#90564F;}
	.st63{fill:#C07F78;}
	.st64{fill:#68485A;}
	.st65{fill:#FFDD81;}
	.st66{fill:#814945;}
	.st67{fill:#945B58;}
	.st68{fill:#B17977;}
	.st69{fill:#884C4A;}
	.st70{fill-rule:evenodd;clip-rule:evenodd;fill:#989A9C;}
	.st71{fill:#D89E98;}
	.st72{fill:#64445C;}
	.st73{fill:#816474;}
	.st74{fill:#A48390;}
	.st75{fill:#DDAD41;}
	.st76{fill:#F48657;}
	.st77{fill:#D77151;}
	.st78{fill:#F8AB89;}
	.st79{fill:#E9C05B;}
	.st80{fill:#9A8691;}
	.st81{fill:#A28F99;}
	.st82{fill:#8780BC;}
	.st83{fill:#6966AD;}
	.st84{fill:#B2ADD5;}
	.st85{fill:#F48C8C;}
	.st86{fill:#E86363;}
	.st87{fill:#F4876E;}
	.st88{fill:#E56A51;}
	.st89{fill:#80655C;}
	.st90{fill:#C3AC6F;}
	.st91{fill:#9F874A;}
	.st92{fill:#DBC68E;}
	.st93{opacity:0.11;fill:#FFFFFF;}
	.st94{fill:#F7A799;}
	.st95{fill:#FCE5A5;}
	.st96{fill:#DEBB6C;}
	.st97{fill:#B67C76;}
	.st98{fill:none;stroke:#462062;stroke-width:0.843;stroke-linecap:round;stroke-miterlimit:10;}
	.st99{fill:#9D9B86;}
	.st100{fill:#8780BC;stroke:#501338;stroke-width:1.6795;stroke-miterlimit:10;}
	.st101{fill:#C5C4B4;}
	.st102{fill:#E9E9D9;}
	.st103{fill:#E9C15D;}
	.st104{opacity:0.3;}
	.st105{fill:#A27388;}
	.st106{opacity:0.5;fill:#FFFFFF;}
	.st107{fill:#91667A;}
	.st108{opacity:0.4;}
	.st109{opacity:0.5;}
	.st110{opacity:0.5;fill:#A7A7A6;}
	.st111{fill:#C16D34;}
	.st112{opacity:0.4;fill:#FFFFFF;}
	.st113{fill:none;stroke:#501338;stroke-width:1.5687;stroke-linecap:round;stroke-linejoin:round;stroke-miterlimit:10;}
	.st114{opacity:0.27;}
	.st115{fill:#E78B6F;}
	.st116{opacity:0.2;fill:#F48E8E;}
	.st117{fill:#99744B;}
	.st118{fill:#825D38;}
	.st119{fill:#C9CAA6;}
	.st120{fill:#BCBC96;}
	.st121{fill:none;stroke:#462062;stroke-width:0.7845;stroke-linecap:round;stroke-miterlimit:10;}
	.st122{fill:#66402A;}
	.st123{fill:#935C35;}
	.st124{opacity:0.6;fill:#7A4928;}
	.st125{opacity:0.4;fill:#F48E8E;}
	.st126{fill:#E1E1E1;}
	.st127{fill:#C1C1C1;}
	.st128{fill:#52363A;}
	.st129{fill:#C6C5C4;}
	.st130{opacity:0.6;}
	.st131{fill:#888888;}
	.st132{fill:#515252;}
	.st133{opacity:0.6;fill:#888888;}
	.st134{fill:#616160;}
	.st135{fill:#515150;}
	.st136{fill:#957B66;}
	.st137{fill:#B89984;}
	.st138{fill:#787878;}
	.st139{fill:#775F4F;}
	.st140{fill:#D7B9A8;}
	.st141{fill:#99999A;}
	.st142{opacity:0.4;fill:#E6DEC9;}
	.st143{fill:none;stroke:#462062;stroke-width:0.7586;stroke-linecap:round;stroke-miterlimit:10;}
	.st144{fill:#3F4242;}
	.st145{opacity:0.5;fill:#F0B39C;}
	.st146{opacity:0.57;fill:#B89AA6;}
	.st147{fill:#619F7F;}
	.st148{fill:#548E6E;}
	.st149{fill:#C16A2F;}
	.st150{fill:#CE413A;}
	.st151{fill:#B23330;}
	.st152{opacity:0.62;fill:#E48C7D;}
	.st153{fill:#5E3827;}
	.st154{fill:#F48E8E;}
	.st155{fill:#444445;}
	.st156{fill:#353435;}
	.st157{opacity:0.5;fill:#B89AA6;}
	.st158{fill:#4D4C4D;}
	.st159{fill:#444344;}
	.st160{opacity:0.6;fill:#A1A1A1;}
	.st161{fill:#282827;}
	.st162{fill:#636464;}
	.st163{fill:#575959;}
	.st164{fill:#3A3A3A;}
	.st165{opacity:0.5;fill:#787878;}
	.st166{fill:none;stroke:#462062;stroke-width:0.8198;stroke-linecap:round;stroke-miterlimit:10;}
	.st167{fill:#5B5B5C;}
	.st168{fill:#E4E4E4;}
	.st169{fill:#FFF1EA;}
	.st170{fill:#E1CDC5;}
	.st171{opacity:0.4;fill:#F0B39C;}
	.st172{opacity:0.5;fill:#ADADAD;}
	.st173{fill:#B58F5B;}
	.st174{fill:#606060;}
	.st175{fill:#4F5150;}
	.st176{opacity:0.6;fill:#989A9C;}
	.st177{fill:#5D7A6D;}
	.st178{fill:#4C685B;}
	.st179{fill:none;stroke:#462062;stroke-width:0.8057;stroke-linecap:round;stroke-miterlimit:10;}
	.st180{fill:#F7B975;}
	.st181{fill:#8D7449;}
	.st182{opacity:0.35;fill:#F7B975;}
	.st183{fill:#686868;}
	.st184{fill:#959595;}
	.st185{opacity:0.3;fill:#FFFFFF;}
	.st186{fill:#4C4B4C;}
	.st187{fill:#A27F67;}
	.st188{fill:#C6A691;}
	.st189{opacity:0.2;fill:#684D39;}
	.st190{fill:#926E56;}
	.st191{opacity:0.8;fill:#3A3A3A;}
	.st192{fill:#ED3E2B;}
	.st193{fill:#DB2C1F;}
	.st194{opacity:0.7;fill:#989A9C;}
	.st195{fill:#6B4845;}
	.st196{fill:#846363;}
	.st197{fill:#5E3E3C;}
	.st198{fill:none;stroke:#501338;stroke-width:1.6206;stroke-miterlimit:10;}
	.st199{opacity:0.5;fill:#E29780;}
	.st200{opacity:0.6;fill:#FFFFFF;}
	.st201{fill:#ECD8BB;}
	.st202{opacity:0.3;fill:#937B70;}
	.st203{fill:#FCF9F4;}
	.st204{opacity:0.6;fill:#F0B39C;}
	.st205{fill:none;stroke:#462062;stroke-width:0.7828;stroke-linecap:round;stroke-miterlimit:10;}
	.st206{fill:#CDCDCD;}
	.st207{opacity:0.5;fill:#A8A7A7;}
	.st208{fill:#868686;}
	.st209{opacity:0.3;fill:#F0B39C;}
	.st210{opacity:0.7;fill:#F0B39C;}
	.st211{fill:#735A99;stroke:#501338;stroke-width:1.5656;stroke-miterlimit:10;}
	.st212{opacity:0.5;fill:#FCF9F4;}
	.st213{opacity:0.5;fill:#FDDCC0;}
	.st214{fill:#6B3A37;}
	.st215{fill:#92A3D3;}
	.st216{fill:#B0C2E4;}
	.st217{fill:#7790BC;}
	.st218{fill:#7F95C6;}
	.st219{fill:#D0A7C2;}
	.st220{fill:#B7BE79;}
	.st221{fill:#725F82;}
	.st222{fill:#635175;}
	.st223{fill:none;stroke:#501338;stroke-width:1.5843;stroke-miterlimit:10;}
	.st224{fill:#C5B8DA;}
	.st225{fill:#A999C9;}
	.st226{fill:#8B6445;}
	.st227{fill:#7A5439;}
	.st228{fill:none;stroke:#501338;stroke-width:1.5751;stroke-linecap:round;stroke-linejoin:round;stroke-miterlimit:10;}
	.st229{fill:#D9CEB7;}
	.st230{fill:#CCBDA2;}
	.st231{opacity:0.2;fill:#FFFFFF;}
	.st232{fill:#B61F30;}
	.st233{fill:#595B5B;}
</style>
<g>
	<g>
		<g>
			<path class="st23" d="M193.2,453.5H47.8c-4,0-7.3-3.3-7.3-7.3v0c0-4,3.3-7.3,7.3-7.3h145.4c4,0,7.3,3.3,7.3,7.3v0
				C200.5,450.3,197.2,453.5,193.2,453.5z"/>
			<g>
				<g>
					<path class="st24" d="M190.7,409.2H50.2c-4.1,0-7.5,3.4-7.5,7.5v27.6c0,4.1,3.4,7.5,7.5,7.5h140.5c4.1,0,7.5-3.4,7.5-7.5v-27.6
						C198.2,412.5,194.9,409.2,190.7,409.2z M196.2,444.2c0,3-2.4,5.5-5.5,5.5H50.2c-3,0-5.5-2.5-5.5-5.5v-27.6c0-3,2.5-5.5,5.5-5.5
						h140.5c3,0,5.5,2.5,5.5,5.5V444.2z"/>
					<path class="st25" d="M196.2,416.6v27.6c0,3-2.4,5.5-5.5,5.5H50.2c-3,0-5.5-2.5-5.5-5.5v-27.6c0-3,2.5-5.5,5.5-5.5h140.5
						C193.8,411.2,196.2,413.6,196.2,416.6z"/>
				</g>
			</g>
		</g>
		<g>
			<path class="st24" d="M98.4,422h6.9v1.5H100v4.7c0.2,0,0.5-0.1,0.8-0.1c0.3,0,0.6-0.1,0.9-0.1c0.6,0,1.2,0.1,1.7,0.2
				c0.5,0.1,1,0.4,1.4,0.7c0.4,0.3,0.7,0.8,1,1.4c0.2,0.6,0.4,1.3,0.4,2.2s-0.1,1.6-0.3,2.3c-0.2,0.6-0.5,1.2-0.9,1.6
				s-0.9,0.7-1.4,0.9s-1.2,0.3-1.8,0.3c-0.2,0-0.4,0-0.7,0c-0.3,0-0.6,0-0.8,0c-0.3,0-0.6-0.1-0.9-0.1s-0.5-0.1-0.8-0.2V422z
				 M100,435.9c0.2,0.1,0.4,0.1,0.7,0.1s0.6,0,0.9,0c0.8,0,1.4-0.3,1.9-0.8c0.5-0.5,0.7-1.3,0.7-2.4c0-0.7-0.1-1.3-0.2-1.7
				c-0.2-0.4-0.4-0.8-0.6-1c-0.3-0.2-0.6-0.4-0.9-0.5c-0.4-0.1-0.7-0.1-1.2-0.1c-0.1,0-0.2,0-0.4,0c-0.1,0-0.3,0-0.4,0
				c-0.1,0-0.3,0-0.4,0.1c-0.1,0-0.2,0.1-0.3,0.1V435.9z"/>
			<path class="st24" d="M107.9,427c0.4-0.3,0.9-0.5,1.6-0.6c0.6-0.1,1.3-0.2,1.9-0.2c0.6,0,1.1,0.1,1.5,0.3
				c0.4,0.2,0.7,0.4,0.9,0.7c0.2,0.3,0.4,0.7,0.4,1.1c0.1,0.4,0.1,0.8,0.1,1.3c0,0.9,0,1.7-0.1,2.6s-0.1,1.6-0.1,2.4
				c0,0.6,0,1.1,0.1,1.6c0,0.5,0.1,0.9,0.2,1.4h-1.2l-0.4-1.3h-0.1c-0.2,0.4-0.5,0.7-1,1c-0.4,0.3-1,0.4-1.7,0.4
				c-0.8,0-1.4-0.3-1.9-0.8c-0.5-0.6-0.8-1.3-0.8-2.3c0-0.6,0.1-1.2,0.3-1.6c0.2-0.4,0.5-0.8,0.9-1c0.4-0.3,0.8-0.5,1.4-0.6
				c0.5-0.1,1.1-0.2,1.8-0.2c0.1,0,0.3,0,0.4,0s0.3,0,0.5,0c0-0.5,0.1-0.9,0.1-1.2c0-0.8-0.1-1.4-0.4-1.8c-0.2-0.3-0.7-0.5-1.4-0.5
				c-0.4,0-0.9,0.1-1.3,0.2c-0.5,0.1-0.9,0.3-1.2,0.5L107.9,427z M112.7,432.3c-0.1,0-0.3,0-0.4,0c-0.1,0-0.3,0-0.4,0
				c-0.3,0-0.7,0-1,0.1c-0.3,0.1-0.6,0.2-0.9,0.3s-0.5,0.3-0.6,0.6c-0.2,0.3-0.2,0.6-0.2,0.9c0,0.6,0.1,1,0.4,1.4
				c0.3,0.3,0.6,0.5,1.1,0.5c0.6,0,1.1-0.1,1.4-0.4c0.3-0.3,0.6-0.6,0.7-1V432.3z"/>
			<path class="st24" d="M122.3,431l0.1-1.7h-0.1l-0.8,1.8l-3.7,6.2h-1v-11h1.6v6.5l-0.1,1.6h0.1l0.7-1.8l3.8-6.3h1v11h-1.6V431z
				 M119,421.9c0.1,0.7,0.3,1.2,0.5,1.4s0.6,0.4,1,0.4c0.4,0,0.7-0.2,1-0.5c0.3-0.3,0.5-0.8,0.5-1.4l1.2,0.4c-0.1,0.9-0.4,1.6-1,2
				s-1.1,0.7-1.8,0.7c-0.3,0-0.7,0-1-0.1c-0.3-0.1-0.6-0.3-0.9-0.5c-0.3-0.2-0.5-0.5-0.6-0.8c-0.2-0.3-0.3-0.7-0.4-1.2L119,421.9z"
				/>
			<path class="st24" d="M128.9,432.4h-0.8v5h-1.6v-11h1.6v5l0.7-0.3l2.7-4.7h1.7l-2.6,4.4l-0.8,0.7l0.9,0.9l2.8,5h-1.9L128.9,432.4
				z"/>
			<path class="st24" d="M141.4,436.6c-0.4,0.3-0.8,0.6-1.3,0.7c-0.5,0.2-1.1,0.3-1.7,0.3c-0.7,0-1.3-0.1-1.8-0.4
				c-0.5-0.3-0.9-0.7-1.3-1.2c-0.3-0.5-0.6-1.1-0.7-1.8s-0.2-1.5-0.2-2.4c0-1.9,0.3-3.3,1-4.3s1.7-1.5,2.9-1.5
				c0.4,0,0.8,0.1,1.2,0.2s0.8,0.3,1.1,0.6c0.3,0.3,0.6,0.7,0.8,1.3s0.3,1.3,0.3,2.2c0,0.3,0,0.5,0,0.8c0,0.3,0,0.6-0.1,0.9H136
				c0,0.6,0.1,1.2,0.2,1.7c0.1,0.5,0.3,1,0.5,1.3c0.2,0.4,0.5,0.6,0.8,0.8c0.3,0.2,0.8,0.3,1.3,0.3c0.4,0,0.8-0.1,1.2-0.2
				c0.4-0.1,0.7-0.3,0.9-0.5L141.4,436.6z M140.2,430.7c0-1.1-0.1-1.9-0.5-2.4c-0.3-0.5-0.8-0.8-1.4-0.8c-0.7,0-1.2,0.3-1.6,0.8
				c-0.4,0.5-0.6,1.3-0.7,2.4H140.2z"/>
		</g>
	</g>
	<g>
		<g>
			<g>
				<path class="st9" d="M168.1,147.7l-7.2-47.5c-4-18.5-19.8-32.3-38.7-32.9c-0.6,0-1.2,0-1.8,0c-0.6,0-1.2,0-1.8,0
					c-18.9,0.7-34.7,14.5-38.7,32.9l-7.2,47.5H168.1z"/>
				<g class="st130">
					<g class="st130">
						<g>
							<g>
								<path class="st131" d="M113,83.6c-0.4,0-0.7-0.3-0.7-0.7v-4.2c0-0.4,0.3-0.7,0.7-0.7s0.7,0.3,0.7,0.7v4.2
									C113.7,83.2,113.4,83.6,113,83.6z"/>
							</g>
							<g>
								<path class="st131" d="M113,96.6c-0.4,0-0.7-0.3-0.7-0.7v-6.5c0-0.4,0.3-0.7,0.7-0.7s0.7,0.3,0.7,0.7v6.5
									C113.7,96.3,113.4,96.6,113,96.6z"/>
							</g>
							<g>
								<path class="st131" d="M113,107.4c-0.4,0-0.7-0.3-0.7-0.7v-4.2c0-0.4,0.3-0.7,0.7-0.7s0.7,0.3,0.7,0.7v4.2
									C113.7,107,113.4,107.4,113,107.4z"/>
							</g>
						</g>
						<g>
							<g>
								<path class="st131" d="M103.5,86.4C103.5,86.4,103.5,86.4,103.5,86.4c-0.4,0-0.7-0.3-0.7-0.7l0.2-4.2c0-0.4,0.4-0.7,0.7-0.7
									c0.4,0,0.7,0.3,0.7,0.7l-0.2,4.2C104.2,86.1,103.9,86.4,103.5,86.4z"/>
							</g>
							<g>
								<path class="st131" d="M103,98.3C103,98.3,103,98.3,103,98.3c-0.4,0-0.7-0.3-0.7-0.7l0.2-6c0-0.4,0.4-0.7,0.7-0.7
									c0.4,0,0.7,0.3,0.7,0.7l-0.2,6C103.7,98,103.4,98.3,103,98.3z"/>
							</g>
							<g>
								<path class="st131" d="M102.6,108.5C102.6,108.5,102.6,108.5,102.6,108.5c-0.4,0-0.7-0.3-0.7-0.7l0.2-4.2
									c0-0.4,0.4-0.7,0.7-0.7c0.4,0,0.7,0.3,0.7,0.7l-0.2,4.2C103.3,108.2,103,108.5,102.6,108.5z"/>
							</g>
						</g>
						<g>
							<g>
								<path class="st131" d="M94.3,93.7C94.3,93.7,94.3,93.7,94.3,93.7c-0.5,0-0.7-0.4-0.7-0.8l0.4-4.2c0-0.4,0.4-0.7,0.8-0.6
									c0.4,0,0.7,0.4,0.6,0.8L95,93C95,93.4,94.7,93.7,94.3,93.7z"/>
							</g>
							<g>
								<path class="st131" d="M93.6,102.5C93.5,102.5,93.5,102.5,93.6,102.5c-0.5,0-0.7-0.4-0.7-0.8l0.4-4.4c0-0.4,0.4-0.7,0.8-0.6
									c0.4,0,0.7,0.4,0.6,0.8l-0.4,4.4C94.2,102.2,93.9,102.5,93.6,102.5z"/>
							</g>
							<g>
								<path class="st131" d="M92.8,111.1C92.8,111.1,92.8,111.1,92.8,111.1c-0.5,0-0.7-0.4-0.7-0.8l0.4-4.2c0-0.4,0.4-0.7,0.8-0.6
									c0.4,0,0.7,0.4,0.6,0.8l-0.4,4.2C93.5,110.8,93.2,111.1,92.8,111.1z"/>
							</g>
						</g>
					</g>
					<g class="st130">
						<g>
							<g>
								<path class="st131" d="M127.8,83.6c0.4,0,0.7-0.3,0.7-0.7v-4.2c0-0.4-0.3-0.7-0.7-0.7c-0.4,0-0.7,0.3-0.7,0.7v4.2
									C127.1,83.2,127.4,83.6,127.8,83.6z"/>
							</g>
							<g>
								<path class="st131" d="M127.8,96.6c0.4,0,0.7-0.3,0.7-0.7v-6.5c0-0.4-0.3-0.7-0.7-0.7c-0.4,0-0.7,0.3-0.7,0.7v6.5
									C127.1,96.3,127.4,96.6,127.8,96.6z"/>
							</g>
							<g>
								<path class="st131" d="M127.8,107.4c0.4,0,0.7-0.3,0.7-0.7v-4.2c0-0.4-0.3-0.7-0.7-0.7c-0.4,0-0.7,0.3-0.7,0.7v4.2
									C127.1,107,127.4,107.4,127.8,107.4z"/>
							</g>
						</g>
						<g>
							<g>
								<path class="st131" d="M137.3,86.4C137.3,86.4,137.3,86.4,137.3,86.4c0.4,0,0.7-0.3,0.7-0.7l-0.2-4.2c0-0.4-0.4-0.7-0.7-0.7
									c-0.4,0-0.7,0.3-0.7,0.7l0.2,4.2C136.6,86.1,136.9,86.4,137.3,86.4z"/>
							</g>
							<g>
								<path class="st131" d="M137.8,98.3C137.8,98.3,137.8,98.3,137.8,98.3c0.4,0,0.7-0.3,0.7-0.7l-0.2-6c0-0.4-0.4-0.7-0.7-0.7
									c-0.4,0-0.7,0.3-0.7,0.7l0.2,6C137.1,98,137.4,98.3,137.8,98.3z"/>
							</g>
							<g>
								<path class="st131" d="M138.2,108.5C138.2,108.5,138.2,108.5,138.2,108.5c0.4,0,0.7-0.3,0.7-0.7l-0.2-4.2
									c0-0.4-0.4-0.7-0.7-0.7c-0.4,0-0.7,0.3-0.7,0.7l0.2,4.2C137.5,108.2,137.8,108.5,138.2,108.5z"/>
							</g>
						</g>
						<g>
							<g>
								<path class="st131" d="M146.5,93.7C146.5,93.7,146.5,93.7,146.5,93.7c0.5,0,0.7-0.4,0.7-0.8l-0.4-4.2c0-0.4-0.4-0.7-0.8-0.6
									c-0.4,0-0.7,0.4-0.6,0.8l0.4,4.2C145.8,93.4,146.1,93.7,146.5,93.7z"/>
							</g>
							<g>
								<path class="st131" d="M147.3,102.5C147.3,102.5,147.3,102.5,147.3,102.5c0.5,0,0.7-0.4,0.7-0.8l-0.4-4.4
									c0-0.4-0.4-0.7-0.8-0.6c-0.4,0-0.7,0.4-0.6,0.8l0.4,4.4C146.6,102.2,146.9,102.5,147.3,102.5z"/>
							</g>
							<g>
								<path class="st131" d="M148,111.1C148,111.1,148.1,111.1,148,111.1c0.5,0,0.7-0.4,0.7-0.8l-0.4-4.2c0-0.4-0.4-0.7-0.8-0.6
									c-0.4,0-0.7,0.4-0.6,0.8l0.4,4.2C147.4,110.8,147.7,111.1,148,111.1z"/>
							</g>
						</g>
					</g>
				</g>
				<path class="st6" d="M169.4,148.8H71.2l7.4-48.8c4.2-19.3,20.5-33.2,39.8-33.9c1.2,0,2.5,0,3.7,0c19.3,0.7,35.6,14.6,39.8,33.8
					L169.4,148.8z M73.4,146.9h93.8l-7.1-46.7c-4-18.4-19.6-31.7-38-32.3c-1.2,0-2.4,0-3.5,0c-18.4,0.6-34,13.9-38,32.3L73.4,146.9z
					"/>
			</g>
			<path class="st112" d="M142.5,80.3c-4.8-3.7-10.5-6.2-16.5-7c-3-0.4-6-0.5-9-0.2c-3,0.3-6,0.9-8.8,1.9c-5.7,2-10.7,5.6-14.8,10.1
				c-2,2.3-3.7,4.8-5.1,7.5c-1.4,2.7-2.4,5.6-3.2,8.5l0,0c-0.1,0.3-0.4,0.5-0.7,0.4c-0.3-0.1-0.5-0.4-0.4-0.7c0.7-3.1,1.6-6.1,3-8.9
				c1.4-2.8,3.1-5.5,5.1-7.9c4.1-4.8,9.4-8.6,15.4-10.8c0.8-0.3,1.5-0.6,2.2-0.8l2.3-0.6c0.8-0.2,1.6-0.3,2.3-0.4
				c0.4-0.1,0.8-0.1,1.2-0.2l1.2-0.1c3.2-0.3,6.3-0.2,9.5,0.3c6.3,1,12.2,3.8,17,7.8c0.3,0.2,0.3,0.6,0.1,0.9
				C143.1,80.5,142.8,80.5,142.5,80.3z"/>
			<path class="st6" d="M120.7,67.5l0.6,48.2c0,0.5-0.4,0.9-0.9,0.9c-0.5,0-0.9-0.4-1-0.9c0,0,0,0,0,0l0.6-48.2
				c0-0.2,0.2-0.4,0.4-0.4C120.5,67.2,120.7,67.3,120.7,67.5z"/>
		</g>
		<g>
			<path class="st132" d="M120.7,200.2c-1.4,0-33.5-0.4-57.5-15.3c-14.4-8.9-26.9-21.1-30.4-24.7c-1-1-1.4-2.5-1-3.8l0.2-0.9
				c0.3-1.2,1.4-2.1,2.7-2.1c0.5,0,1.1,0.2,1.5,0.5l8.2,5.4c0.1,0.1,0.2,0.1,0.3,0.1c0.2,0,0.4-0.1,0.5-0.3c0.1-0.2,0.1-0.3,0-0.5
				l-6.8-10.4c-1.2-1.9-0.8-4.4,0.9-5.8c8.1-6.6,38.2-28.3,83.5-28.3c43.5,0,72.4,22.1,80.2,28.8c1.3,1.1,1.6,3.1,0.8,4.6l-6.5,11.7
				c-0.1,0.2-0.1,0.3,0,0.5c0.1,0.2,0.3,0.3,0.5,0.3c0.1,0,0.2,0,0.3-0.1l7.7-6.9c0.4-0.4,0.9-0.6,1.5-0.6c1.1,0,2,0.8,2.2,1.9
				l0.1,0.5c0.2,1-0.1,2-0.8,2.8c-3.4,4.1-15.6,18.2-30.4,27.4C154.1,199.8,122,200.2,120.7,200.2L120.7,200.2L120.7,200.2z"/>
			<path class="st6" d="M122.7,114.9c43.5,0,72.5,22.4,79.7,28.6c1,0.9,1.3,2.4,0.6,3.6l-6.5,11.7c-0.5,0.9,0.2,1.9,1.1,1.9
				c0.3,0,0.6-0.1,0.8-0.3l7.7-6.9c0.3-0.3,0.6-0.4,1-0.4c0.7,0,1.3,0.5,1.4,1.2l0.1,0.5c0.1,0.8-0.1,1.6-0.6,2.2
				c-3.2,3.9-15.4,18.1-30.2,27.2c-24.1,14.9-56.8,15.2-57.1,15.2v0h0h0v0c-0.4,0-33-0.3-57.1-15.2c-14.1-8.7-26.4-20.6-30.3-24.6
				c-0.8-0.8-1.1-2-0.8-3.1l0.2-0.9c0.2-1,1.1-1.5,2-1.5c0.4,0,0.8,0.1,1.1,0.3l8.2,5.4c0.2,0.2,0.5,0.2,0.7,0.2
				c0.9,0,1.7-1.1,1.1-2l-6.8-10.4c-1-1.6-0.7-3.6,0.7-4.8C48.1,136.1,77.8,114.9,122.7,114.9 M122.7,113.3
				c-45.5,0-75.8,21.8-84,28.4c-2,1.7-2.5,4.6-1.1,6.8l6.1,9.4l-7.2-4.7c-0.6-0.4-1.3-0.6-2-0.6c-1.6,0-3.1,1.1-3.5,2.7l-0.2,0.9
				c-0.4,1.6,0,3.4,1.2,4.5c3.5,3.6,16.1,15.9,30.6,24.8c21.6,13.4,49.6,15.1,56.4,15.4v0l1.5,0c1.4,0,33.7-0.4,57.9-15.4
				c14.9-9.2,27.1-23.4,30.6-27.5c0.8-1,1.1-2.2,0.9-3.4l-0.1-0.5c-0.2-1.4-1.5-2.5-2.9-2.5c-0.7,0-1.4,0.3-2,0.8l-6.6,5.9l5.8-10.4
				c1-1.8,0.6-4.1-1-5.5C195.5,135.5,166.4,113.3,122.7,113.3L122.7,113.3z"/>
		</g>
		<path class="st133" d="M197.2,143.7c-2.7-2-5.6-3.8-8.5-5.6c-1.5-0.9-2.9-1.7-4.4-2.5l-2.2-1.2l-2.3-1.1c-6-3.1-12.3-5.6-18.8-7.7
			c-6.4-2-13-3.6-19.7-4.7c-6.7-1-13.4-1.4-20.2-1.4l-5.1,0.1c-1.7,0.1-3.4,0.2-5.1,0.3l-2.5,0.2l-2.5,0.3l-2.5,0.3l-1.3,0.2
			L101,121l-5,0.8l-5,1.1c-1.7,0.3-3.3,0.8-4.9,1.2c-1.6,0.4-3.3,0.9-4.9,1.4c-6.5,2-12.8,4.4-18.9,7.4c-3.1,1.4-6.1,3-9,4.7
			c-2.9,1.7-5.8,3.5-8.6,5.4c-0.2,0.2-0.6,0.1-0.7-0.1c-0.2-0.2-0.1-0.5,0.1-0.7c11-8.1,23.5-14.2,36.6-18.4
			c13.1-4.3,26.8-6.3,40.5-6.5c6.9,0,13.7,0.4,20.5,1.5c6.8,1.1,13.5,2.7,20,4.9c13,4.4,25.3,10.8,36.2,19.2
			c0.3,0.2,0.3,0.6,0.1,0.8C197.8,143.8,197.4,143.9,197.2,143.7z"/>
		<ellipse class="st0" cx="120.7" cy="369.8" rx="48.7" ry="16.9"/>
		<polygon class="st1" points="120.7,321.9 80.9,318.8 72.3,328 120.7,345.8 169,328 160.4,318.8 		"/>
		<g>
			<path class="st134" d="M45.7,330c0,0,6.5-27.5,50.8-5.7s62.4,31.1,62.4,31.1s41.6,1.5,37.8,8.8c-3.8,7.3-9.6,20.5-16.2,21
				c-6.7,0.6-81.3-18.4-81.3-18.4S39,352.8,45.7,330z"/>
			<path class="st3" d="M173.1,384.1c-2-0.3-12.4-2.6-20.3-4.3c8.4,2.4,13.5,4.2,20.2,4.7c1.3,0.1,2.4,0.2,3.3,0.2
				C175.1,384.5,174,384.2,173.1,384.1z"/>
			<path class="st3" d="M121.6,372.5c-6.2-1.5-12.2-2.9-15.8-3.8C110.4,370,115.6,371.2,121.6,372.5z"/>
			<path class="st135" d="M98.7,358c-4-1.3-7.8-2.5-11.4-3.7c0.4-1.5,1.2-4.3,2.7-8.5c-0.1,0-0.1,0-0.2-0.1c-1.1,1.7-3.1,5.9-4.1,8
				c-6.1-2-11.1-3.8-14.5-5c3.5-1.6,8.3-4,8.8-5.8c0.7-2.9-2.7-8.9-2.7-8.9s2.3-2.5,3-3.9c0.7-1.4-1.8-3.4-1.8-3.4l-7.2,3.7
				l-7.9,8.3l0.2,6.6c-14.9-7-16.2-11.1-14.6-21.9c-0.5,0.7-4.8,11.1-3.7,13.9c1.8,4.9,13,16.2,27.6,20.7c8.6,2.7,16.5,5.7,27.2,8.9
				c-1.9-0.8-3.6-1.7-3.6-1.7L98.7,358z"/>
			<path class="st0" d="M158.9,355.4c1.5,0,2.9,0.1,4.3,0.1c-1.7-0.1-2.8-0.2-3-0.2c-0.6,0-4.7-1.9-9.2-4.1
				C154.1,352.9,156.7,354.4,158.9,355.4z"/>
			<path class="st0" d="M127.2,373.6c-2-0.4-3.9-0.8-5.7-1.1c10.6,2.5,21.6,5.1,21.6,5.1s4.3,0.9,9.6,2.1
				C146.7,378,138.8,375.9,127.2,373.6z"/>
			<path class="st0" d="M105.7,368.7c-2-0.6-4-1.1-5.8-1.7c0.9,0.4,1.7,0.7,2.5,0.9C102.8,368,104,368.3,105.7,368.7z"/>
			<path class="st136" d="M170.1,383.4c9.3,1.7,11.2,3.4,16-1.8c5.1-5.5,10.9-17.2,10.8-18.4c-0.1-1.2-0.8-0.4-0.8-0.4
				c-2.5-1-5.1-2.6-8.8-3.2c-8.1-1.4-19.1-1.1-28.2-0.4L154,367l2-8.6c-15.4-8.2-33.2-17.4-49.2-24.6l-2.6,12.6L98.7,358
				C100.2,366.9,156.9,380.9,170.1,383.4z"/>
			<path class="st137" d="M156,358.4l-3.5,11.1l7-9.8c13.2-0.9,36.3,3.9,33.5,10.1c0,0,5.3-6.4,2.7-8.4c-1.8-1.4-7.7-2.9-13-3.7
				c-6.3-0.8-14.7-1.9-19.6-2.2h0c-1.4,0-2.8-0.1-4.3-0.1c-2.1-1.1-4.8-2.5-7.9-4.2c-0.1,0-0.1-0.1-0.2-0.1
				c-5.4-2.6-11.1-5.6-11.1-5.6l-28.9-14.2l-3-0.6l-1,3C122.8,341,140.6,350.2,156,358.4z"/>
			<path class="st138" d="M55.8,318.3c11.8-0.4,30.6,6.3,51,15.5l1-3l3,0.6l28.9,14.2c0,0,6.7,4.1,12.1,6.8
				C126.1,338.5,70.7,307,55.8,318.3z"/>
			<path class="st139" d="M96.3,365.3c0,0,1.7,0.9,3.6,1.7c0,0,0,0,0,0c1.9,0.6,3.8,1.1,5.8,1.7c3.6,0.9,9.6,2.3,15.8,3.8
				c1.8,0.4,3.7,0.8,5.7,1.1c11.6,2.2,19.4,4.3,25.5,6.1c8,1.8,18.3,4,20.3,4.3c0.9,0.1,3.7,1,4.9,1.2c8.1,0.4,11.7-7.5,13.4-11.3
				c0,0-3.8,4.8-12.3,5.8c-6.1,0.7-16.8-3.2-27.8-8.1c0,0-41.4-2.9-51.4-13.6L96.3,365.3z"/>
			<path class="st6" d="M98.3,354.9c0.1,0,0.1,0.1,0.2,0.1c-2.7,7.2-3.5,10.6-3.5,10.6l-1.8-0.8C93.1,364.9,96.5,357.8,98.3,354.9z"
				/>
			<path class="st6" d="M102.9,340.1c-0.1,0-0.2-0.1-0.2-0.1c1.5-7.6,1.7-11.1,1.7-11.1l1.9,0.4C106.4,329.4,104.2,337,102.9,340.1z
				"/>
			<polygon class="st6" points="152.5,369.5 157.2,354.7 158.7,356.2 			"/>
			
				<ellipse transform="matrix(0.3854 -0.9228 0.9228 0.3854 -222.5089 396.6291)" class="st140" cx="186.5" cy="365.3" rx="0.4" ry="4.2"/>
			
				<ellipse transform="matrix(0.4045 -0.9145 0.9145 0.4045 -240.767 337.7855)" class="st7" cx="139" cy="353.8" rx="0.5" ry="12.6"/>
			<path class="st140" d="M192.7,370.4c0.8-2.4,2.4-5.6,2.4-6.7l-1.4,0.1l1.2-0.8c-0.3-1.4-7.9-4.1-12.4-4.8c0,0,9.9,1,12.1,2.8
				c2.2,1.8,2.8,1.3,2,3.4C195.8,366.4,192.7,370.4,192.7,370.4z"/>
			<path class="st140" d="M106.4,342.5l2.2-11.3l16.9,8.4c-4.8-1.6-16.1-6.5-16.1-6.5L106.4,342.5z"/>
			<path class="st139" d="M179.3,356.3c-0.1,0.4-0.3,0.8-0.6,1.3c-4.6,7.4-27.4,14-27.4,14l-12.5-1.3l-22.2-4.3l10.5-5.7l28.1-5.9
				l2.4-0.5c0.7,0.4,1.2,0.6,1.4,0.7C161.3,354.7,170.5,355.1,179.3,356.3z"/>
			<path class="st6" d="M197.3,362c-1.6-2.7-9.7-4.6-18.1-5.7c-8.8-1.2-17.9-1.7-20.2-1.7c-0.2-0.1-0.7-0.4-1.4-0.7
				c-5.3-2.7-24.3-12.3-60.8-30.3c-17.6-8.6-31.4-10.7-41.1-6.1c-8.6,4-10.6,11.8-10.7,12.3c-1.1,3.7-0.5,7.3,1.6,10.9
				c9.8,16.7,50.7,26.4,52.5,26.8c3,0.8,72.6,18.4,81.2,18.4c0.1,0,0.3,0,0.4,0c6.3-0.5,11.2-10.3,15.3-18.5c0.5-1.1,1-2.1,1.5-3
				C197.8,363.7,197.8,362.8,197.3,362z M47.8,340c-1.9-3.2-2.3-6.5-1.4-9.7l0,0c0-0.1,1.9-7.6,9.9-11.3c3.2-1.5,6.8-2.2,10.9-2.2
				c7.9,0,17.6,2.8,28.9,8.3c3.9,1.9,7.6,3.7,11.1,5.4c-1.5,12.8-4.8,20.8-12.1,34.5C84.1,362,55.4,353,47.8,340z M196,363.8
				c-0.5,0.9-1,1.9-1.5,3c-3.7,7.4-8.7,17.2-14.1,17.7c-5.2,0.5-55.3-11.8-81.1-18.4c-0.1,0-1.1-0.3-2.8-0.7
				c7-13.3,10.5-21.7,12.1-34.3c25.7,12.7,40.5,20.2,46.6,23.3c2.2,1.1,3.2,1.7,3.3,1.7l0.2,0.1h0.2c6,0,13.3,0.6,19.8,1.4
				c8.7,1.2,16,3,17.3,5.2C196.2,363.2,196.2,363.5,196,363.8z"/>
		</g>
		<g>
			<path class="st134" d="M196.4,330c0,0-6.5-27.5-50.8-5.7s-62.4,31.1-62.4,31.1s-41.6,1.5-37.8,8.8c3.8,7.3,9.6,20.5,16.2,21
				c6.7,0.6,81.3-18.4,81.3-18.4S203,352.8,196.4,330z"/>
			<g>
				<path class="st135" d="M193.2,323.6c1.5,10.6,0.3,14.8-13.7,21.5l0.2-5.7l-7.9-8.3l-7.2-3.7c0,0-2.5,2-1.8,3.4
					c0.7,1.4,3,3.9,3,3.9s-3.4,6-2.7,8.9c0.4,1.7,4.5,3.9,7.9,5.4c-3.4,1.3-8.5,3-14.6,5c-1-2.1-3-6.3-4.1-8c-0.1,0-0.1,0-0.2,0.1
					c1.5,4.2,2.3,7,2.7,8.5c-3.5,1.2-7.3,2.4-11.4,3.7l2.4,7.3c0,0-1.7,0.9-3.6,1.7c10.7-3.1,18.5-6.2,27.2-8.9
					c14.6-4.5,25.8-15.9,27.6-20.7C198,334.7,193.7,324.3,193.2,323.6z"/>
			</g>
			<path class="st3" d="M69,384.1c2-0.3,12.4-2.6,20.3-4.3c-8.4,2.4-13.5,4.2-20.2,4.7c-1.3,0.1-2.4,0.2-3.3,0.2
				C67,384.5,68.1,384.2,69,384.1z"/>
			<path class="st3" d="M120.5,372.5c6.2-1.5,12.2-2.9,15.8-3.8C131.7,370,126.5,371.2,120.5,372.5z"/>
			<path class="st0" d="M83.2,355.4c-1.5,0-2.9,0.1-4.3,0.1c1.7-0.1,2.8-0.2,3-0.2c0.6,0,4.7-1.9,9.2-4.1
				C88,352.9,85.3,354.4,83.2,355.4z"/>
			<path class="st0" d="M114.8,373.6c2-0.4,3.9-0.8,5.7-1.1c-10.6,2.5-21.6,5.1-21.6,5.1s-4.3,0.9-9.6,2.1
				C95.4,378,103.3,375.9,114.8,373.6z"/>
			<path class="st0" d="M136.3,368.7c2-0.6,4-1.1,5.8-1.7c-0.9,0.4-1.7,0.7-2.5,0.9C139.2,368,138.1,368.3,136.3,368.7z"/>
			<path class="st136" d="M71.8,382.2c-6.8,0.5-15.1,0.1-15.1,0.1c1.8,1.6,0.9,2.8,9.1,2.3c-3.5,0.6-8,0.8-11-3.9
				c-4.1-6.3-9.6-16.4-9.5-17.6c0.1-1.2,0.8-0.4,0.8-0.4c2.5-1,5.1-2.6,8.8-3.2c8.1-1.4,19.1-1.1,28.2-0.4l5.1,7.8l-2-8.6
				c15.4-8.2,33.2-17.4,49.2-24.6l2.6,12.6l8.5,18.7C126.1,372.2,85.1,381.1,71.8,382.2z"/>
			<path class="st137" d="M86.1,358.4l3.5,11.1l-7-9.8c-13.2-0.9-36.3,3.9-33.5,10.1c0,0-5.3-6.4-2.7-8.4c1.8-1.4,7.7-2.9,13-3.7
				c6.3-0.8,14.7-1.9,19.6-2.2h0c1.4,0,2.8-0.1,4.3-0.1c2.1-1.1,4.8-2.5,7.9-4.2c0.1,0,0.1-0.1,0.2-0.1c5.4-2.6,11.1-5.6,11.1-5.6
				l28.9-14.2l3-0.6l1,3C119.2,341,101.5,350.2,86.1,358.4z"/>
			<path class="st138" d="M186.2,318.3c-11.8-0.4-30.6,6.3-51,15.5l-1-3l-3,0.6l-28.9,14.2c0,0-6.7,4.1-12.1,6.8
				C116,338.5,171.4,307,186.2,318.3z"/>
			<path class="st139" d="M145.8,365.3c0,0-1.7,0.9-3.6,1.7c0,0,0,0,0,0c-1.9,0.6-3.8,1.1-5.8,1.7c-3.6,0.9-9.6,2.3-15.8,3.8
				c-1.8,0.4-3.7,0.8-5.7,1.1c-11.6,2.2-19.4,4.3-25.5,6.1c-8,1.8-18.3,4-20.3,4.3c-0.9,0.1-3.7,1-4.9,1.2
				c-8.1,0.4-11.7-7.5-13.4-11.3c0,0,4.9,6.3,13.3,7.3c6.1,0.7,16.1-2.6,27-7.5c0,0,41-5,51.1-15.7L145.8,365.3z"/>
			<path class="st6" d="M143.8,354.9c-0.1,0-0.1,0.1-0.2,0.1c2.7,7.2,3.5,10.6,3.5,10.6l1.8-0.8C149,364.9,145.6,357.8,143.8,354.9z
				"/>
			<path class="st6" d="M139.2,340.1c0.1,0,0.2-0.1,0.2-0.1c-1.5-7.6-1.7-11.1-1.7-11.1l-1.9,0.4C135.7,329.4,137.9,337,139.2,340.1
				z"/>
			<polygon class="st6" points="89.6,369.5 84.9,354.7 83.4,356.2 			"/>
			
				<ellipse transform="matrix(0.9228 -0.3854 0.3854 0.9228 -136.5092 49.6477)" class="st140" cx="55.6" cy="365.3" rx="4.2" ry="0.4"/>
			
				<ellipse transform="matrix(0.9145 -0.4045 0.4045 0.9145 -134.3063 71.9394)" class="st140" cx="103.1" cy="353.8" rx="12.6" ry="0.5"/>
			<path class="st140" d="M49.4,370.4c-0.8-2.4-2.4-5.6-2.4-6.7l1.4,0.1l-1.2-0.8c0.3-1.4,7.9-4.1,12.4-4.8c0,0-9.9,1-12.1,2.8
				c-2.2,1.8-2.8,1.3-2,3.4S49.4,370.4,49.4,370.4z"/>
			<path class="st141" d="M135.7,342.5l-2.2-11.3l-16.9,8.4c4.8-1.6,16.1-6.5,16.1-6.5L135.7,342.5z"/>
			<path class="st6" d="M197.2,329.8c-0.1-0.5-2.2-8.3-10.7-12.3c-9.7-4.6-23.6-2.5-41.1,6.1c-41.6,20.5-60.4,30.1-62.3,31
				c-4.4,0-34.9,1.7-38.3,7.4c-0.5,0.8-0.5,1.6,0,2.5c0.5,0.9,1,1.9,1.5,3c4.1,8.1,9,17.9,15.3,18.5c0.1,0,0.2,0,0.4,0
				c8.6,0,78.2-17.7,81.2-18.4c1.7-0.4,42.7-10.1,52.5-26.8C197.7,337.2,198.2,333.5,197.2,329.8z M142.8,366.1
				c-25.8,6.6-75.9,18.8-81.1,18.4c-5.4-0.5-10.3-10.3-14.1-17.7c-0.5-1.1-1.1-2.1-1.5-3c-0.2-0.4-0.2-0.7,0-1
				c2.3-3.8,23.2-6.6,37.2-6.6l0.2,0l0.2-0.1c0.2-0.1,15.1-7.8,49.9-25c1.5,12.5,5,21,12.1,34.2
				C143.8,365.8,142.8,366.1,142.8,366.1z M194.3,340c-7.6,13.1-36.4,22-47.3,25c-7.3-13.7-10.6-21.8-12.1-34.6
				c3.5-1.7,7.2-3.5,11.1-5.4c11.3-5.6,21-8.3,28.9-8.3c4.1,0,7.7,0.7,10.9,2.2c8,3.8,9.9,11.3,9.9,11.3l0,0
				C196.6,333.5,196.2,336.8,194.3,340z"/>
		</g>
		<g>
			<g>
				<polygon class="st9" points="132.4,246.5 130.3,241.7 124.9,237.8 124.5,238.1 122.9,239.4 122.5,239.8 120.7,245.2 
					118.8,239.8 118.4,239.4 116.8,238.1 116.5,237.8 111,241.7 108.9,246.5 106.6,252.7 108.9,259.3 120.7,273.4 132.4,259.3 
					134.7,252.7 				"/>
				<path class="st6" d="M120.7,274.4l-12.3-14.8l-2.4-7l2.4-6.4l2.2-5l6-4.3l2.9,2.4l1.3,3.8l1.3-3.8l2.9-2.4l6,4.3l2.2,5l2.4,6.4
					l-2.4,7L120.7,274.4z M109.5,259l11.2,13.4l11.2-13.4l2.2-6.3l-2.2-5.9l-2-4.6l-4.9-3.5l0,0l-1.8,1.5l-2.4,7l-2.4-7l-1.8-1.5
					l-4.9,3.5l-2.1,4.6l-2.2,5.9L109.5,259z"/>
			</g>
			<path class="st10" d="M123.1,240c0,0,5.5,4.9,7.3,11.7c0.3,1,0.4,2,0.5,3c1.2-2.6,2.1-4.8,2.8-6.7c-0.4-0.5-0.8-0.9-1.2-1.4
				c-2.4-2.6-5.5-5-9.5-7.1L123.1,240z"/>
			<path class="st10" d="M118.3,240c0,0-5.5,4.9-7.3,11.7c-0.3,1-0.4,2-0.5,3c-1.2-2.6-2.1-4.8-2.8-6.7c0.4-0.5,0.8-0.9,1.2-1.4
				c2.4-2.6,5.5-5,9.5-7.1L118.3,240z"/>
			<g>
				<circle class="st6" cx="120.7" cy="248.2" r="1.7"/>
				<path class="st9" d="M120.9,247.7c0.1,0,0.2,0,0.3,0.1c-0.1-0.2-0.4-0.4-0.6-0.4c-0.4,0-0.7,0.3-0.7,0.7c0,0.1,0,0.3,0.1,0.4
					C120.1,248,120.5,247.7,120.9,247.7z"/>
			</g>
		</g>
		<g>
			<path class="st136" d="M192.7,346.9c-3.8,9.5-28-4.6-28-4.6c-0.9-0.6-1.3-1.8-0.9-2.8l2.6-7.6c0,0-5.2-6.2-3.2-7.7
				c2-1.5,7.9-4.3,8.4-7.3c0.5-2.9,9-37.9-6.1-66.7c0,0.4-1.4,17.3-2.9,34.2c-1.2,14.5-2.5,28.9-2.8,32.7c-0.1,0.6-0.3,0.7-0.8,0.8
				c-7.8,2.3-38.3,17.4-38.3,17.4v-78.7l17.3-29.2l1.8-19.7l8.8,3.5l8,3.2l2.6,1l4.7,1.8c0,0,1.3,0.9,3.4,2.6
				c3.1,2.5,7.9,6.9,13.1,13C196.4,252.4,215.4,290.1,192.7,346.9z"/>
			<path class="st5" d="M172,314.9c-0.2,1.1-0.4,1.8-0.4,2.1c-0.5,3-6.4,5.9-8.4,7.3c-1.5,1.1,1.1,4.8,2.4,6.6
				c0.5,0.7,0.6,1.5,0.4,2.3l-2.2,6.3c-0.4,1,0,2.2,0.9,2.8c0,0,24.2,14,28,4.6c3.2-7.9,5.5-15.5,7.2-22.7
				C187.4,319,177.4,316.2,172,314.9z"/>
			<path class="st139" d="M164.8,247.4c0,0,19.9,19,14.5,66.4c9.1,3.3,21.5,7.6,21.5,7.6l-0.9,2.9l-27.9-9.4c0,0,5.6-27,1.6-40.8
				C169.6,260.4,164.8,247.4,164.8,247.4z"/>
			<path class="st142" d="M200.8,319.9c0,0-1.8,0.3-4.8-0.9c0.9-4.4,1.6-8.6,2-12.8c-2.1-0.6-5.5-1.4-10.5-2.4
				c5.2,0.1,8.6,0.5,10.6,0.9c4.1-52.7-34-87.1-34-87.1l0.7-0.3c0,0,16.2,12.3,25.9,30.5c9.8,18.2,10.8,31.5,12.1,41.3
				C204.2,299.1,200.8,319.9,200.8,319.9z"/>
			<path class="st6" d="M200.4,320.1c-5-2.1-11.1-3.8-18.6-5.5c6.8,2.6,13.8,5,18.6,7.3V320.1z"/>
			<path class="st6" d="M173.8,300.4c0,0,11.4-1.5,16.1,0.6c-8.7-0.4-16,1.3-16.1,1.2C173.8,300.4,173.8,300.4,173.8,300.4z"/>
			<path class="st6" d="M197.3,261.6c0,0-7.3,0.9-9.6,3.5c5.2-2,10-1.9,10.1-2C197.3,261.6,197.3,261.6,197.3,261.6z"/>
			<path class="st7" d="M172.7,337.5c0,0,12.1,3.3,19.2,4l4.9-15.2l2.3,1l-5.6,17.9C193.5,345.3,185,345.1,172.7,337.5z"/>
			<path class="st13" d="M199.1,327.4c-6.6-3.2-13.7-5.1-20.7-5c-1.1,5-3.1,10-5.7,15c0,0,9.8,6.3,20.5,8c-2.8,4-2.3,6.4-11.1,4.2
				c-8.8-2.2-18.5-8.5-18.5-8.5l1.6-5.9l1.1-3.3l-3-4.5l-0.5-2.8l3.7-2.1l4.1-3.6l1.4-4c9.5,2.9,18.8,6.1,27.8,9.7L199.1,327.4z"/>
			<path class="st5" d="M167.2,325.4c0.3-0.5,0.6-0.9,1-1.3c0.4-0.4,0.8-0.7,1.2-1c0.4-0.3,0.9-0.5,1.4-0.8c0.5-0.2,1-0.4,1.6-0.5
				l0,0c-0.3,0.5-0.7,0.9-1.1,1.2c-0.4,0.4-0.8,0.7-1.2,1c-0.4,0.3-0.9,0.6-1.4,0.8C168.2,325.1,167.7,325.3,167.2,325.4z"/>
			<path class="st6" d="M192.9,345.8c0,0-10.1-1.9-14.6-5.2c8.2,2.9,15.2,3.7,15.2,3.7L192.9,345.8z"/>
			<polygon class="st6" points="169.4,345 172.4,341.5 170.7,345.4 			"/>
			<polygon class="st6" points="176.9,348.2 180,344.6 178.3,348.6 			"/>
			<polygon class="st6" points="183.6,349.8 185.4,347.8 184.4,350.1 			"/>
			<path class="st139" d="M165.1,249.3l-4.7,68.2c-4.7,1.4-9.7,3.4-15.1,6.1c-9.3,4.6-17.5,8.6-24.6,12.2v-5.9l35.7-14.4l8.5-68.1
				L165.1,249.3z"/>
			<path class="st6" d="M192.4,248.9c-4.5-8.6-9.8-15.4-14.4-20.6c-6.4-7-14.4-12.4-23.3-15.7l-15.6-5.8l-1.9,20.5l-17.3,29.3
				l0.8,70.9l0.8-1.7V257l17.3-29.2l1.7-18.9l13.2,4.9c9.2,3.4,17.4,9,23.9,16.4c13.9,15.9,32.2,46.7,21.7,93.1
				c-8.2-3.9-17.1-6.9-26.5-9c2.8-15,5.2-41.7-6.7-64.4l-1.3-2.5l-0.1,2.9c0,1.2-5.2,61.3-5.7,67.8l1.4,0.8l0.1-0.9
				c1.5-17.3,4.7-54.4,5.5-64.8c10.8,22.8,7.8,49,5,62.9c-0.1,0.4-0.1,0.7-0.2,0.9c-0.3,2-3.9,4.2-6.2,5.6c-0.8,0.5-1.4,0.9-1.9,1.2
				c-0.4,0.3-0.7,0.8-0.7,1.3c-0.3,2.1,2.5,5.8,3.6,7.1l-2.5,7.2c-0.5,1.4,0,2.9,1.3,3.7c0.6,0.4,13.8,7.9,22.3,7.9
				c1.2,0,2.3-0.1,3.2-0.5c1.7-0.6,2.9-1.7,3.5-3.3C211.6,301.8,202.9,268.7,192.4,248.9z M192,346.7c-0.5,1.2-1.3,2-2.6,2.4
				c-7.2,2.5-24.1-7.2-24.3-7.3c-0.6-0.4-0.9-1.2-0.6-2l2.4-7c0.3-0.8,1.9-3.9,3.3-5.9c-1.4,1.1-3.1,2.5-3.9,3.7
				c-1.4-1.8-3-4.2-2.8-5.4c0-0.2,0.1-0.3,0.1-0.3c0.4-0.3,1.1-0.7,1.8-1.2c2.7-1.7,6.4-4,6.9-6.7c0-0.2,0.1-0.5,0.2-0.9
				c0-0.1,0.1-0.3,0.1-0.4c9.3,1.8,18.1,4.8,26.4,9C197.3,331.7,195,339,192,346.7z"/>
		</g>
		<g>
			<path class="st136" d="M120.7,256.7l0.1,79c0,0-29.6-15.5-39.2-18c0,0-0.1-1-0.3-3.4c-0.5-5.9-1.5-17.9-2.6-29.9
				c-1.4-16.9-2.9-33.8-2.9-34.2c-15.1,28.8-6.6,63.8-6.1,66.7c0.5,3,6.4,5.9,8.4,7.3c2,1.5-3.2,7.7-3.2,7.7l2.6,7.6
				c0.4,1,0,2.2-0.9,2.8c0,0-24.2,14-28,4.6c-34.9-87.4,28.8-129.5,28.9-129.6l9.1-3.6l14.9-5.9l1.8,19.7L120.7,256.7z"/>
			<path class="st5" d="M69.3,314.9c0.2,1.1,0.4,1.8,0.4,2.1c0.5,3,6.4,5.9,8.4,7.3c1.5,1.1-1.1,4.8-2.4,6.6
				c-0.5,0.7-0.6,1.5-0.4,2.3l2.2,6.3c0.4,1,0,2.2-0.9,2.8c0,0-24.2,14-28,4.6c-3.2-7.9-5.5-15.5-7.2-22.7
				C54,319,63.9,316.2,69.3,314.9z"/>
			<path class="st139" d="M76.5,247.4c0,0-19.9,19-14.5,66.4c-9.1,3.3-21.5,7.6-21.5,7.6l0.9,2.9l27.9-9.4c0,0-5.6-27-1.6-40.8
				C71.7,260.4,76.5,247.4,76.5,247.4z"/>
			<path class="st142" d="M53.3,250.6c2.1,0.2,5,0.8,7.5,2.4c-2.2-0.3-6.3,0-8.7,0.2c-5.6,13.1-9.3,30-8.2,51.4
				c2.1-0.3,5.2-0.7,9.9-0.8c-4.5,0.8-7.7,2-9.8,2.9c0.3,3.9,0.7,8,1.3,12.2c-3,1.2-4.8,0.9-4.8,0.9s-3.4-20.9-2.1-30.7
				c1.3-9.9,2.4-23.1,12.1-41.3c9.8-18.2,26-30.5,26-30.5l10-3.6C85.7,214.2,65.6,224.1,53.3,250.6z"/>
			<path class="st6" d="M40.9,320.1c5-2.1,11.1-3.8,18.6-5.5c-6.8,2.6-13.8,5-18.6,7.3V320.1z"/>
			<path class="st6" d="M67.6,300.4c0,0-11.4-1.5-16.1,0.6c8.7-0.4,16,1.3,16.1,1.2C67.6,300.4,67.6,300.4,67.6,300.4z"/>
			<path class="st7" d="M68.6,337.5c0,0-12.1,3.3-19.2,4l-4.9-15.2l-2.3,1l5.6,17.9C47.8,345.3,56.3,345.1,68.6,337.5z"/>
			<path class="st13" d="M42.2,327.4c6.6-3.2,13.7-5.1,20.7-5c1.1,5,3.1,10,5.7,15c0,0-9.8,6.3-20.5,8c2.8,4,2.3,6.4,11.1,4.2
				c8.8-2.2,18.5-8.5,18.5-8.5l-1.6-5.9l-1.1-3.3l3-4.5l0.5-2.8l-3.7-2.1l-4.1-3.6l-1.4-4c-9.5,2.9-18.8,6.1-27.8,9.7L42.2,327.4z"
				/>
			<path class="st5" d="M74.2,325.4c-0.3-0.5-0.6-0.9-1-1.3c-0.4-0.4-0.8-0.7-1.2-1c-0.4-0.3-0.9-0.5-1.4-0.8
				c-0.5-0.2-1-0.4-1.6-0.5l0,0c0.3,0.5,0.7,0.9,1.1,1.2c0.4,0.4,0.8,0.7,1.2,1c0.4,0.3,0.9,0.6,1.4,0.8
				C73.1,325.1,73.6,325.3,74.2,325.4z"/>
			<path class="st6" d="M48.4,345.8c0,0,10.1-1.9,14.6-5.2c-8.2,2.9-15.2,3.7-15.2,3.7L48.4,345.8z"/>
			<polygon class="st6" points="72,345 68.9,341.5 70.6,345.4 			"/>
			<polygon class="st6" points="62.8,348.2 59.7,344.6 61.4,348.6 			"/>
			<polygon class="st6" points="56.1,349.8 54.3,347.8 55.3,350.1 			"/>
			<path class="st139" d="M76.2,249.3l4.7,68.2c4.7,1.4,9.7,3.4,15.1,6.1c9.3,4.6,17.5,8.6,24.6,12.2v-5.9L85,315.5l-8.5-68.1
				L76.2,249.3z"/>
			<path class="st6" d="M104.1,227.3l-1.9-20.5l-15.6,5.8c-8.9,3.3-16.9,8.7-23.3,15.7c-4.7,5.2-9.9,12-14.4,20.6
				c-10.5,19.8-19.2,53-1,98.4c0.6,1.6,1.8,2.7,3.5,3.3c1,0.3,2,0.5,3.2,0.5c8.5,0,21.7-7.6,22.3-7.9c1.2-0.9,1.7-2.4,1.3-3.7
				l-2.5-7.2c1.1-1.3,3.8-5,3.6-7.1c-0.1-0.6-0.3-1-0.7-1.3c-0.5-0.3-1.1-0.8-1.9-1.2c-2.3-1.4-5.8-3.6-6.2-5.6
				c0-0.2-0.1-0.5-0.2-0.9c-2.8-13.9-5.8-40.1,5-62.9c0.9,10.4,4,47.5,5.5,64.8l0.1,0.9l1.5-0.2c-0.6-6.4-5.8-67.1-5.8-68.3
				l-0.1-2.9l-1.3,2.5c-11.9,22.7-9.6,49.4-6.7,64.4c-9.4,2.1-18.3,5.1-26.5,9c-10.5-46.3,7.8-77.2,21.7-93.1
				c6.5-7.4,14.7-13,23.9-16.4l13.2-4.9l1.7,18.9l17.3,29.2v78.8l1.1,1.5l0.5-0.3v-80.4L104.1,227.3z M68.8,315.8
				c0,0.1,0.1,0.3,0.1,0.4c0.1,0.4,0.1,0.7,0.2,0.9c0.5,2.7,4.2,5,6.9,6.7c0.7,0.5,1.4,0.8,1.8,1.2c0,0,0.1,0.1,0.1,0.3
				c0.1,1.2-1.4,3.7-2.9,5.5c-0.8-1.2-2.5-2.7-3.9-3.8c1.7,2.4,3,5.1,3.3,5.9l2.4,7c0.3,0.7,0,1.5-0.6,2c-0.1,0.1-17,9.8-24.3,7.3
				c-1.3-0.4-2.1-1.2-2.6-2.4c-3.1-7.6-5.4-14.9-7-21.9C50.6,320.6,59.4,317.6,68.8,315.8z"/>
		</g>
		<g>
			<path class="st5" d="M173.2,173c3.2,1,4.9,6.4,4.4,11c-0.4,4.1-2.4,7.9-5.6,10.4c-3.3,2.7-8.5,3.9-10.6,0.5
				c-0.9-1.8-1.2-3.8-0.9-5.8c0.3-3.2,1.4-6.2,3.2-8.8C165.5,177.5,169.3,171.7,173.2,173z"/>
			<g>
				<path class="st6" d="M173.2,179.3c-0.6-1-1.5-1.3-2.5-1.2c0.6,0.1,1.1,0.5,1.5,1.1c1,1.6,0.7,4.1,0,6.3
					c-0.8,2.4-2.6,4.4-4.8,5.4c0.1,0.1,0.1,0.2,0.2,0.4c2.6-0.9,4.8-2.9,5.6-5.7C173.9,183.4,174.2,180.9,173.2,179.3z"/>
				<path class="st6" d="M173.5,183.7c-0.1,0.4-2.2,3.9-2,3.5c0.9-2.2,0.8-6.6-2.2-6.5c-0.7,0-0.8-1.4-0.2-2.1
					c0.5-0.5,1.8-0.8,2.5-0.6c0.7,0.2,1.1,0.6,1.3,1c0.2,0.2-0.1,0.6,0,0.8C173.6,181.1,173.8,182.5,173.5,183.7z"/>
				<path class="st13" d="M168.3,183.5c1.2,0.4-0.2,1.7,0.7,2.6c0.2,0.2,0.7,0.3,1.3-0.8c0.6-1,0.8-1.9-0.2-2.7
					c-0.3-0.3-1.1-0.4-1.5-0.2C168.2,182.6,167.9,183.3,168.3,183.5z"/>
			</g>
			<g>
				<path class="st13" d="M164.9,193.8C164.9,193.8,164.9,193.8,164.9,193.8c0.1,0,0.2,0,0.3,0c0.2,0,0.4,0,0.6,0
					c0.4,0,0.8-0.1,1.2-0.1c0.8-0.1,1.5-0.4,2.3-0.7c0.7-0.3,1.5-0.7,2.1-1.2c0.6-0.5,1.2-1.1,1.7-1.7c-0.4,0.7-0.9,1.4-1.5,2
					c-0.6,0.6-1.3,1.1-2,1.5c-0.7,0.4-1.5,0.8-2.3,1.1c-0.4,0.1-0.8,0.3-1.3,0.4c-0.2,0-0.4,0.1-0.7,0.1c-0.1,0-0.2,0-0.4,0
					c-0.1,0-0.3,0-0.5-0.1L164.9,193.8z"/>
			</g>
			<g>
				<g id="Path_349_13_">
					<path class="st5" d="M68.1,173c-3.2,1-4.9,6.4-4.4,11c0.4,4.1,2.4,7.9,5.6,10.4c3.3,2.7,8.5,3.9,10.6,0.5
						c0.9-1.8,1.2-3.8,0.9-5.8c-0.3-3.2-1.4-6.2-3.2-8.8C75.8,177.5,72,171.7,68.1,173z"/>
					<path class="st6" d="M75.9,197.7c-2.3,0-4.9-1-7.1-2.7c-3.4-2.7-5.5-6.6-5.9-10.9c-0.5-4.7,1.3-10.6,5-11.8l0,0
						c4.4-1.4,8.4,4.7,10.3,7.6c1.8,2.8,3,5.9,3.3,9.2c0.3,2.1,0,4.2-0.9,6.2l0,0.1c-0.8,1.3-2,2.1-3.5,2.3
						C76.7,197.7,76.3,197.7,75.9,197.7z M68.4,173.7c-2.8,0.9-4.3,6-3.9,10.2c0.3,3.9,2.3,7.5,5.3,9.9c2.2,1.8,5,2.7,7,2.3
						c1.1-0.2,1.9-0.7,2.4-1.6c0.8-1.7,1-3.5,0.8-5.3c-0.3-3.1-1.4-6-3.1-8.5C75.2,178.1,71.7,172.6,68.4,173.7z"/>
				</g>
				<g>
					<path class="st6" d="M74.5,191.1c-2.5-0.9-4.6-2.9-5.4-5.6c-0.6-2.1-0.9-4.6,0-6.3c0.4-0.7,0.9-1,1.5-1.1
						c-1-0.1-1.9,0.2-2.5,1.2c-1,1.6-0.7,4.1,0,6.3c1,3,3.5,5.3,6.5,5.9C74.5,191.3,74.5,191.2,74.5,191.1z"/>
					<path class="st6" d="M67.8,183.7c0.1,0.4,2.2,3.9,2,3.5c-0.9-2.2-0.8-6.6,2.2-6.5c0.7,0,0.8-1.4,0.2-2.1
						c-0.5-0.5-1.8-0.8-2.5-0.6c-0.7,0.2-1.1,0.6-1.3,1c-0.2,0.2,0.1,0.6,0,0.8C67.7,181.1,67.5,182.5,67.8,183.7z"/>
					<path class="st13" d="M72.8,183.5c-1.1,0.4,0.2,1.7-0.7,2.6c-0.2,0.2-0.7,0.3-1.3-0.8c-0.6-0.9-0.8-1.9,0.2-2.7
						c0.3-0.3,1.1-0.4,1.4-0.2C72.9,182.6,73.2,183.3,72.8,183.5z"/>
				</g>
				<path class="st13" d="M77,195.2c-0.1,0-0.2,0-0.3,0.1c-0.1,0-0.1,0-0.2,0c-0.1,0-0.3,0-0.4,0c-0.2,0-0.5-0.1-0.7-0.1
					c-0.4-0.1-0.9-0.2-1.3-0.4c-0.8-0.3-1.6-0.6-2.3-1.1c-0.7-0.4-1.4-1-2-1.5c-0.6-0.6-1.1-1.3-1.5-2c0.5,0.7,1.1,1.2,1.7,1.7
					c0.7,0.5,1.4,0.9,2.1,1.2c0.7,0.3,1.5,0.5,2.3,0.7c0.4,0.1,0.8,0.1,1.2,0.1c0.2,0,0.4,0,0.6,0c0.1,0,0.2,0,0.2,0
					c0,0,0.1,0,0.1,0c0,0,0,0,0,0L77,195.2z"/>
			</g>
			<path class="st6" d="M165.4,197.7c-0.4,0-0.8,0-1.2-0.1c-1.5-0.3-2.7-1.1-3.5-2.3l0-0.1c-0.9-1.9-1.2-4.1-0.9-6.2
				c0.3-3.2,1.5-6.4,3.3-9.1c1.9-2.9,5.9-9,10.3-7.6l0,0c3.7,1.2,5.4,7.1,5,11.8c-0.4,4.3-2.5,8.3-5.9,10.9
				C170.3,196.7,167.7,197.7,165.4,197.7z M162.1,194.5c0.5,0.9,1.4,1.4,2.4,1.6c2,0.4,4.8-0.6,7-2.3c3.1-2.4,5-6,5.3-9.9
				c0.4-4.2-1.1-9.3-3.9-10.2c-3.3-1-6.9,4.4-8.6,7c-1.7,2.6-2.8,5.5-3.1,8.5C161,191,161.3,192.9,162.1,194.5z"/>
		</g>
		<path class="st5" d="M74.6,164.7L77,200l26.4,39.7l17,2.6l17-2.6l26.4-39.7l2.4-35.5c0,0-14-7.5-28.8-11.8
			c-10.2-2.9-23.3-2.2-33.8-0.5C88.1,154.7,74.6,164.7,74.6,164.7z"/>
		<g>
			<path class="st15" d="M85.2,159.2c0,0,1.4,14-5,21.3l-3.4,9.8l-1.4-25.2C75.4,165.1,81.6,161.1,85.2,159.2z"/>
			<path class="st6" d="M76.3,194.2l-1.7-29.5l0.4-0.2c0.1,0,6.2-4,9.8-5.9l1-0.5l0.1,1.1c0.1,0.6,1.3,14.3-5.1,21.8L76.3,194.2z
				 M76.2,165.5l1.2,21l2.2-6.3l0.1-0.1c5-5.8,5-16.1,4.9-19.6C81.5,162.1,77.5,164.7,76.2,165.5z"/>
		</g>
		<g>
			<path class="st15" d="M156,159.2c0,0-1,14,5.4,21.3l3.2,9.1l1.6-25.1C166.1,164.5,159.6,161.1,156,159.2z"/>
			<path class="st6" d="M165.1,193.3l-4.4-12.5c-6.4-7.5-5.5-21.2-5.4-21.8l0.1-1.2l1,0.6c3.6,2,10.1,5.3,10.2,5.4l0.4,0.2
				L165.1,193.3z M156.7,160.4c-0.1,3.5,0.2,13.8,5.2,19.6l0.1,0.1l2,5.7l1.3-20.9C164,164.3,159.8,162.1,156.7,160.4z"/>
		</g>
		<path class="st6" d="M120.7,243.1l-17.4-2.7l-26.7-40.2l0-0.2l-2.4-35.4c0,0,12.9-8.3,21.2-10.8c19-5.8,30-3.7,40.6-2
			c17.1,2.7,30.7,12.3,30.7,12.3l-1.8,36.1l-0.1,0.2l-26.6,40L120.7,243.1z M104.1,239l16.5,2.5l16.5-2.5l26.1-39.3l2.4-35.3
			c0,0-15.5-8.2-31.2-10.9c-14.2-2.5-23.8-2.2-37.1,1.2c-11.3,2.8-21.7,10.4-21.7,10.4l2.4,34.6L104.1,239z"/>
		<g>
			<path class="st13" d="M100.7,156.9c3.1-0.5,27.5-1.8,39.4-0.1c0,0-10.7-3.3-19.8-2.8c-9,0.5-19.1,2.7-19.1,2.7L100.7,156.9z"/>
			<path class="st112" d="M100.5,156.5c0.7-0.2,3-1.3,3.8-1.5l2.3-0.6l2.3-0.5l2.3-0.4c3.1-0.5,6.3-0.8,9.4-0.8
				c3.1,0,6.3,0.4,9.4,0.9l2.3,0.4c0.8,0.1,1.5,0.3,2.3,0.5l2.3,0.6c0.7,0.2,3,1.2,3.8,1.5l-1.7-0.4l-2.3-0.5l-2.3-0.4l-2.3-0.4
				l-2.3-0.3c-3.1-0.4-6.2-0.6-9.3-0.6c-3.1,0-6.2,0.1-9.3,0.5l-2.3,0.3l-2.3,0.4l-2.3,0.5l-2.2,0.6L100.5,156.5z"/>
			<path class="st6" d="M100.5,156.5c0.8-0.2,1.6-0.5,2.4-0.7l2.4-0.6l2.5-0.5l2.5-0.4c3.4-0.5,6.8-0.6,10.2-0.6
				c3.4,0,6.8,0.3,10.2,0.7l2.5,0.4c0.8,0.1,1.7,0.3,2.5,0.5l2.5,0.6c0.8,0.2,1.6,0.4,2.4,0.7l-0.1,0.4l-2.4-0.5l-2.5-0.4l-2.5-0.4
				l-2.5-0.3c-3.3-0.4-6.7-0.6-10-0.6c-3.4,0-6.7,0.1-10,0.5l-2.5,0.3l-2.5,0.4l-2.5,0.5l-2.4,0.6L100.5,156.5z"/>
		</g>
		<path class="st144" d="M68.9,166.4c-0.3,0.2-0.6-0.2-0.4-0.5c2.8-3.2,6.1-5.9,9.5-8.3c4.2-2.8,8.6-5.1,13.1-7l3.5-1.3
			c1.2-0.4,2.3-0.7,3.5-1c2.3-0.7,4.7-1.1,7.1-1.7c0.6-0.1,1.2-0.2,1.8-0.3l1.8-0.2c1.2-0.1,2.4-0.3,3.6-0.4l3.6-0.2l1.8-0.1
			c0.6,0,1.2-0.1,1.8,0c9.6,0,19.3,1.5,28.5,5c4.6,1.8,9,4,13.3,6.8c3.5,2.3,6.8,4.9,9.8,8c0.2,0.2-0.1,0.6-0.3,0.4
			c-3.8-2.8-7-4.7-10.6-6.6c-4.3-2.3-8.3-4.2-12.8-5.7c-1.1-0.4-2.2-0.9-3.3-1.3l-1.7-0.5l-1.7-0.4l-3.5-0.8l-3.5-0.5
			c-2.3-0.4-4.7-0.5-7-0.8c-1.2-0.1-2.3-0.1-3.5-0.1l-3.5-0.1c-2.3,0-4.7,0.2-7,0.3c-1.2,0.1-2.3,0.3-3.5,0.4
			c-1.2,0.2-2.3,0.2-3.5,0.4c-2.3,0.4-4.7,0.7-6.9,1.4c-1.1,0.3-2.3,0.5-3.4,0.9l-3.4,1c-4.5,1.5-8.6,4-12.8,6.4
			C75.5,161.7,72.4,163.6,68.9,166.4z"/>
		<path class="st6" d="M149.4,170.7c-0.9-0.5-2.1-0.9-3.2-1.1c-1.1-0.2-2.2-0.3-3.4-0.4c-2.3-0.1-4.6,0.2-6.8,0.7
			c-0.6,0.1-1.1,0.3-1.7,0.4l-0.8,0.2l-0.9,0.2c-0.3,0.1-0.6,0.2-0.9,0.2l-1,0.1c-0.6,0.1-1.3,0.1-2,0.1c-1.3,0-2.7-0.2-4-0.8
			c-1.3-0.6-2.6-1.6-2.8-3.3c0-0.4,0.2-0.7,0.6-0.7c0.2,0,0.3,0,0.4,0.1l0.3,0.2c0.1,0.1,0.3,0.3,0.5,0.4c0.2,0.1,0.4,0.3,0.6,0.4
			c0.4,0.3,0.8,0.4,1.3,0.6c0.9,0.3,2,0.3,3,0.2c0.5-0.1,1.1-0.1,1.6-0.2l0.8-0.1l0.8-0.2l1.8-0.4c0.6-0.1,1.2-0.3,1.8-0.3
			c2.5-0.4,5-0.5,7.5-0.1c1.2,0.2,2.5,0.5,3.7,1c1.2,0.5,2.3,1,3.3,2c0.2,0.2,0.2,0.5,0,0.7C149.9,170.8,149.7,170.8,149.4,170.7
			L149.4,170.7z"/>
		<path class="st6" d="M90,169.9c1-0.9,2.1-1.5,3.3-2c1.2-0.5,2.4-0.8,3.7-1c2.5-0.4,5-0.3,7.5,0.1c0.6,0.1,1.2,0.2,1.8,0.3l1.8,0.4
			l0.8,0.2l0.8,0.1c0.5,0.1,1.1,0.1,1.6,0.2c1.1,0.1,2.1,0.1,3-0.2c0.5-0.1,0.9-0.3,1.3-0.6c0.2-0.1,0.4-0.3,0.6-0.4
			c0.2-0.1,0.4-0.3,0.5-0.4l0.3-0.2c0.3-0.2,0.7-0.1,0.9,0.2c0.1,0.1,0.1,0.3,0.1,0.4c-0.2,1.7-1.5,2.7-2.8,3.3
			c-1.3,0.6-2.7,0.8-4,0.8c-0.7,0-1.3,0-2-0.1l-1-0.1c-0.3-0.1-0.6-0.1-0.9-0.2l-0.9-0.2l-0.8-0.2c-0.6-0.2-1.1-0.3-1.7-0.4
			c-2.2-0.5-4.5-0.8-6.8-0.7c-1.1,0-2.3,0.1-3.4,0.4c-1.1,0.2-2.2,0.6-3.2,1.1l-0.1,0c-0.2,0.1-0.5,0-0.7-0.2
			C89.8,170.3,89.9,170.1,90,169.9z"/>
		<path class="st145" d="M77.3,190.2c0,0,7,14.6,16.7,14.7c-2.2,12,6,28,6,28l-22-33.1L77.3,190.2z"/>
		<path class="st145" d="M164,190.2c0,0-7.6,14.4-17.3,14.5c3.8,12-5.4,28.3-5.4,28.3l22-33.1L164,190.2z"/>
		<g>
			<g>
				<g>
					<path class="st15" d="M124,215.5l-0.3,1.3h-8.8l-0.1-1.6l-1,1.6h-0.4c-0.1,0-1.9,0-15.3-0.6l-0.9,0l0.3-0.9
						c3.6-10.7,11.5-12,11.8-12l0,0l0,0c0,0,4.5-0.1,10.2-0.1c3.8,0,7.3,0.1,10.4,0.2c7.4,0.2,13,11.3,13.2,11.7l0.5,1l-14,0.6
						l-0.5-0.7l-0.1,0.8l-4.6,0.1L124,215.5z"/>
					<path class="st6" d="M119.6,203.8c3.2,0,6.9,0,10.4,0.2c7.1,0.2,12.7,11.3,12.7,11.3l-12.6,0.5l-1.4-1.9l-0.2,2.1l-3.5,0.1
						l-1.2-2.8l-0.7,2.8h-7.6l-0.2-3.1l-1.9,3.1c0,0-1.7,0-15.2-0.6c3.5-10.5,11.3-11.6,11.3-11.6S113.9,203.8,119.6,203.8
						 M119.6,202.5c-5.7,0-10.2,0.1-10.2,0.1l-0.1,0l-0.1,0c-0.4,0-8.6,1.3-12.4,12.5l-0.6,1.7l1.8,0.1c17.8,1.5,44.6-0.2,44.6-0.2
						l2.1-0.1l-1-1.9c-0.2-0.5-6-11.8-13.8-12.1C127,202.5,123.5,202.5,119.6,202.5L119.6,202.5z"/>
				</g>
				<path class="st21" d="M140.6,214.4c0,0-4.1-6.4-8.4-8.3c-4.5,1.5-9.3,1.8-12.6,1.9c-6.7,0.1-10.9-2.4-10.9-2.4s-6.2,2.6-8,8.2
					l-0.3,0.5l5.5,0.2l2.3-2.7l-0.9,2.8l5.7,0.3l2.5-3.7l0.4,3.7l6.5,0.1l1.1-2.7l1.4,2.5l2.8,0.1l0.7-2.1l1.4,2.1l5.3-0.2l-1.1-2.7
					l2.6,2.6L140.6,214.4z"/>
			</g>
			<g>
				<g>
					<g>
						<g>
							<path class="st5" d="M113.1,194.3c0,0-4.7,3.1-3.4,6.7s5.3,5.1,12,5c7-0.1,10.6-3.4,10.2-6.6c-0.3-3.2-3.8-5.5-3.8-5.5"/>
						</g>
						<path class="st22" d="M110.1,199.4c0,0,2.7,3.3,10,3.5s11.1-3.2,11.1-3.2s0.6,6.1-11.1,5.8
							C108.5,205.2,110.1,199.4,110.1,199.4z"/>
					</g>
					<path class="st6" d="M113.2,194.4c-1.3,1.1-2.5,2.5-2.9,4.1c-0.2,0.7-0.2,1.5,0.1,2.2c0.3,0.7,0.7,1.4,1.3,1.9
						c1.1,1,2.6,1.7,4.3,2c1.6,0.3,3.3,0.4,5.1,0.4c1.7,0,3.4-0.1,5-0.5c1.6-0.4,3.1-1.1,4.1-2.2c1.1-1.1,1.4-2.6,0.9-4.1
						c-0.5-1.5-1.6-2.9-2.9-4.1l0,0c-0.1-0.1-0.1-0.2,0-0.2c0.1-0.1,0.1-0.1,0.2,0c0.8,0.4,1.5,1,2.2,1.6c0.7,0.6,1.2,1.4,1.7,2.3
						c0.4,0.9,0.7,1.9,0.6,2.9c-0.1,1-0.6,2-1.2,2.8c-1.3,1.6-3.1,2.5-4.9,3c-1.8,0.5-3.7,0.7-5.5,0.7c-1.8,0-3.7-0.1-5.5-0.6
						c-1.8-0.4-3.7-1.2-5.1-2.8c-0.7-0.8-1.2-1.6-1.4-2.6c-0.3-1-0.2-2.1,0.2-3c0.4-0.9,1-1.7,1.7-2.3c0.7-0.6,1.4-1.2,2.2-1.6
						c0.1,0,0.2,0,0.2,0.1C113.3,194.2,113.3,194.3,113.2,194.4L113.2,194.4z"/>
				</g>
			</g>
		</g>
		<g>
			<g>
				<path class="st13" d="M140.4,182.3c-1.5,2.3-7.6,5.2-10.4,1C133.8,184.3,135.8,184.7,140.4,182.3z"/>
				<g>
					<ellipse class="st6" cx="133.9" cy="178.9" rx="3.1" ry="2.7"/>
					
						<ellipse transform="matrix(0.9799 -0.1996 0.1996 0.9799 -32.9591 30.0574)" class="st7" cx="132.6" cy="178.5" rx="0.6" ry="0.6"/>
				</g>
				<path class="st6" d="M128.4,179.4c0.8-1.3,2-2.3,3.4-2.9c0.7-0.3,1.6-0.4,2.4-0.3c0.8,0.1,1.6,0.3,2.3,0.6
					c1.4,0.7,2.3,1.9,3.4,2.6c1.1,0.6,2.6,0.8,4,0.7l0,0c0.1,0,0.2,0.1,0.2,0.2c0,0.1-0.1,0.2-0.2,0.2c-0.7,0.2-1.5,0.2-2.2,0.2
					c-0.7,0-1.5-0.2-2.2-0.5c-1.4-0.7-2.4-1.8-3.6-2.3c-0.6-0.3-1.2-0.4-1.8-0.5c-0.7,0-1.3,0-1.9,0.2c-1.2,0.4-2.4,1.2-3.4,2.1l0,0
					c-0.1,0.1-0.3,0.1-0.4,0C128.3,179.7,128.3,179.5,128.4,179.4z"/>
			</g>
			<g>
				<path class="st13" d="M98.8,182.3c1.5,2.3,7.6,5.2,10.4,1C105.4,184.3,103.4,184.7,98.8,182.3z"/>
				<g>
					<ellipse class="st6" cx="105.3" cy="178.9" rx="3.1" ry="2.7"/>
					
						<ellipse transform="matrix(0.1996 -0.9799 0.9799 0.1996 -92.0719 244.2745)" class="st7" cx="103.5" cy="178.5" rx="0.6" ry="0.6"/>
				</g>
				<path class="st6" d="M110.8,179.4c-0.8-1.3-2-2.3-3.4-2.9c-0.7-0.3-1.6-0.4-2.4-0.3c-0.8,0.1-1.6,0.3-2.3,0.6
					c-1.4,0.7-2.3,1.9-3.4,2.6c-1.1,0.6-2.6,0.8-4,0.7l0,0c-0.1,0-0.2,0.1-0.2,0.2c0,0.1,0.1,0.2,0.2,0.2c0.7,0.2,1.5,0.2,2.2,0.2
					c0.7,0,1.5-0.2,2.2-0.5c1.4-0.7,2.4-1.8,3.6-2.3c0.6-0.3,1.2-0.4,1.8-0.5c0.7,0,1.3,0,1.9,0.2c1.2,0.4,2.4,1.2,3.4,2.1l0,0
					c0.1,0.1,0.3,0.1,0.4,0C110.9,179.7,110.9,179.5,110.8,179.4z"/>
			</g>
		</g>
		<g>
			<path class="st13" d="M93,183.1c-1.5,0.1-3,0.3-4.3,0.8c-0.7,0.2-1.3,0.6-1.9,0.9c-0.6,0.4-1.1,0.9-1.7,1.4l0,0
				c-0.1,0.1-0.2,0.1-0.3,0c-0.1-0.1-0.1-0.1,0-0.2c0.3-0.7,0.8-1.4,1.4-2c0.6-0.6,1.3-1,2.1-1.3c0.8-0.3,1.6-0.4,2.4-0.4
				c0.8,0,1.6,0.1,2.4,0.4c0.1,0,0.1,0.1,0.1,0.2C93.1,183.1,93,183.1,93,183.1L93,183.1z"/>
			<path class="st13" d="M92.8,181.1c-1.5-0.4-2.9-0.6-4.4-0.6c-0.7,0-1.4,0.1-2.1,0.3c-0.7,0.2-1.4,0.5-2.1,0.8l0,0
				c-0.1,0-0.2,0-0.2-0.1c0-0.1,0-0.2,0-0.2c0.5-0.6,1.2-1.1,2-1.4c0.8-0.3,1.6-0.5,2.4-0.5c0.8,0,1.6,0.1,2.4,0.3
				c0.8,0.2,1.5,0.6,2.1,1.1c0.1,0.1,0.1,0.2,0,0.3C92.9,181.1,92.8,181.1,92.8,181.1L92.8,181.1z"/>
		</g>
		<g>
			<path class="st13" d="M145.7,183.1c1.5,0.1,3,0.3,4.3,0.8c0.7,0.2,1.3,0.6,1.9,0.9c0.6,0.4,1.1,0.9,1.7,1.4l0,0
				c0.1,0.1,0.2,0.1,0.3,0c0.1-0.1,0.1-0.1,0-0.2c-0.3-0.7-0.8-1.4-1.4-2c-0.6-0.6-1.3-1-2.1-1.3c-0.8-0.3-1.6-0.4-2.4-0.4
				c-0.8,0-1.6,0.1-2.4,0.4c-0.1,0-0.1,0.1-0.1,0.2C145.5,183.1,145.6,183.1,145.7,183.1L145.7,183.1z"/>
			<path class="st13" d="M145.9,181.1c1.5-0.4,2.9-0.6,4.4-0.6c0.7,0,1.4,0.1,2.1,0.3c0.7,0.2,1.4,0.5,2.1,0.8l0,0
				c0.1,0,0.2,0,0.2-0.1c0-0.1,0-0.2,0-0.2c-0.5-0.6-1.2-1.1-2-1.4c-0.8-0.3-1.6-0.5-2.4-0.5c-0.8,0-1.6,0.1-2.4,0.3
				c-0.8,0.2-1.5,0.6-2.1,1.1c-0.1,0.1-0.1,0.2,0,0.3C145.7,181.1,145.8,181.1,145.9,181.1L145.9,181.1z"/>
		</g>
		<g>
			<g>
				<g>
					<path class="st136" d="M88.1,263.8l17-0.9l0.5,12.7c0.1,2.6-1.2,5.1-3.5,6.4l-0.4,0.2c-2.3,1.4-5.2,1.6-7.7,0.5l-0.6-0.3
						c-2.5-1-4.2-3.4-4.4-6.1L88.1,263.8z"/>
					<path class="st6" d="M105.1,268.7l-0.6,0.2l0.1,1.6l0.9-0.3L105.1,268.7z"/>
					<path class="st6" d="M105.8,262.1l-18.6,1l1,13.4c0.2,3,2.1,5.6,4.8,6.7l0.6,0.3c1.1,0.5,2.4,0.7,3.6,0.7
						c1.7,0,3.3-0.4,4.8-1.3l0.4-0.2c2.5-1.5,4-4.2,3.9-7.1L105.8,262.1z M88.9,264.6l15.5-0.8l0.2,5.1l-3.9,1.2
						c-2.5,0.8-5.1,0.9-7.7,0.3l-3.7-0.9L88.9,264.6z M101.7,281.5l-0.4,0.2c-2.1,1.3-4.7,1.4-7,0.5l-0.6-0.3
						c-2.2-0.9-3.7-3-3.9-5.4l-0.4-5.4l3.3,0.8c1.2,0.3,2.4,0.4,3.7,0.4c1.6,0,3.2-0.2,4.8-0.7l3.5-1.1l0.2,5.3
						C104.9,278,103.7,280.2,101.7,281.5z"/>
				</g>
			</g>
			<g>
				<g>
					<path class="st136" d="M151.9,271l-0.4,5.4c-0.2,2.4-1.7,4.5-3.9,5.4l-0.6,0.3c-2.3,0.9-4.9,0.8-7-0.5l-0.4-0.2
						c-2-1.2-3.2-3.4-3.1-5.8l0.2-5.3l3.5,1.1c1.6,0.5,3.2,0.7,4.8,0.7c1.2,0,2.5-0.1,3.7-0.4L151.9,271z"/>
					<path class="st136" d="M152.4,264.6l-0.4,4.9l-1.9,0.4l-1.8,0.4c-2.5,0.6-5.2,0.5-7.7-0.3l-1.7-0.5l-2.1-0.7l0.2-5.1
						L152.4,264.6z"/>
					<path class="st6" d="M135.5,262.1l-0.5,13.5c-0.1,2.9,1.4,5.6,3.9,7.1l0.4,0.2c1.4,0.9,3.1,1.3,4.8,1.3c1.2,0,2.4-0.2,3.6-0.7
						l0.6-0.3c2.8-1.2,4.6-3.7,4.8-6.7l1-13.4L135.5,262.1z M151.5,276.5c-0.2,2.4-1.7,4.5-3.9,5.4l-0.6,0.3c-2.3,0.9-4.9,0.8-7-0.5
						l-0.4-0.2c-2-1.2-3.2-3.4-3.1-5.8l0.2-5.3l3.5,1.1c1.6,0.5,3.2,0.7,4.8,0.7c1.2,0,2.5-0.1,3.7-0.4l3.3-0.8L151.5,276.5z
						 M152.1,269.4l-1.9,0.4l-1.8,0.4c-2.5,0.6-5.2,0.5-7.7-0.3l-1.7-0.5l-2.1-0.7l0.2-5.1l15.5,0.8L152.1,269.4z"/>
				</g>
			</g>
		</g>
		<g>
			<path class="st6" d="M81.6,318.4c-0.3,0-0.6-0.2-0.7-0.4c-0.2-0.4,0-0.8,0.4-1c8.1-3.7,9.6-9.9,9.6-19.9c0-0.4,0.3-0.8,0.8-0.8
				s0.8,0.3,0.8,0.8c0,8.7-0.8,16.9-10.5,21.3C81.8,318.4,81.7,318.4,81.6,318.4z"/>
		</g>
		<g>
			<path class="st6" d="M159.4,318.6c0.3,0,0.6-0.2,0.7-0.4c0.2-0.4,0-0.8-0.4-1c-8.1-3.7-9.6-9.9-9.6-19.9c0-0.4-0.3-0.8-0.8-0.8
				s-0.8,0.3-0.8,0.8c0,8.7,0.8,16.9,10.5,21.3C159.2,318.6,159.3,318.6,159.4,318.6z"/>
		</g>
		<g>
			<path class="st6" d="M120.5,264c-0.2,0-0.3-0.1-0.5-0.2l-22.9-18.6c-0.2-0.1-0.3-0.4-0.3-0.6l0.2-6.4l-7.1-0.5
				c-0.2,0-0.5-0.2-0.6-0.4l-11.7-19.6c-0.2-0.4-0.1-0.8,0.3-1c0.4-0.2,0.8-0.1,1,0.3l11.5,19.3l7.4,0.5c0.4,0,0.7,0.4,0.7,0.8
				l-0.2,6.8l22.6,18.4c0.3,0.3,0.4,0.7,0.1,1.1C120.9,263.9,120.7,264,120.5,264z"/>
		</g>
		<g>
			<path class="st6" d="M120.7,264c-0.2,0-0.4-0.1-0.6-0.3c-0.3-0.3-0.2-0.8,0.1-1.1l22.6-18.4l-0.2-6.8c0-0.4,0.3-0.8,0.7-0.8
				l7.4-0.5l11.5-19.3c0.2-0.4,0.7-0.5,1-0.3c0.4,0.2,0.5,0.7,0.3,1l-11.7,19.6c-0.1,0.2-0.4,0.4-0.6,0.4l-7.1,0.5l0.2,6.4
				c0,0.2-0.1,0.5-0.3,0.6l-22.9,18.6C121,264,120.8,264,120.7,264z"/>
		</g>
		<path class="st145" d="M134.8,232.4c0,0-4.9,5.4-14.6,5.4s-14-5.4-14-5.4s7.4,2,13.7,2C127,234.4,134.8,232.4,134.8,232.4z"/>
	</g>
</g>
</svg>
