<?xml version="1.0" encoding="utf-8"?>
<!-- Generator: Adobe Illustrator 21.0.0, SVG Export Plug-In . SVG Version: 6.00 Build 0)  -->
<svg version="1.1" id="Layer_1" xmlns="http://www.w3.org/2000/svg" xmlns:xlink="http://www.w3.org/1999/xlink" x="0px" y="0px"
	 viewBox="0 0 145.3 64.2" style="enable-background:new 0 0 145.3 64.2;" xml:space="preserve">
<style type="text/css">
	.st0{fill:#D68C50;}
	.st1{fill:#FCBB6D;stroke:#754D25;stroke-width:2;stroke-miterlimit:10;}
	.st2{fill:#754D25;}
	.st3{fill:#DD914A;}
	.st4{fill:#E1CBBE;}
	.st5{fill:#FFFFFF;}
</style>
<g>
	<path class="st0" d="M138,64.2H7.3c-4,0-7.3-3.3-7.3-7.3v0c0-4,3.3-7.3,7.3-7.3H138c4,0,7.3,3.3,7.3,7.3v0
		C145.3,60.9,142,64.2,138,64.2z"/>
	<path class="st1" d="M138,8.9v40c0,4.4-3.5,7.9-7.9,7.9H15.3c-4.4,0-7.9-3.5-7.9-7.9v-40c0-4.4,3.6-7.9,7.9-7.9h114.8
		C134.5,1,138,4.6,138,8.9z"/>
	<g>
		<path class="st2" d="M40.3,41.6H39l-0.8-0.1l-0.8-0.3l-0.3-0.5v-0.5l0-0.6v-1.1l0-0.5l0-0.6l0-3.6l0-0.5l0.1-1.1l-0.1-0.7l0-0.5
			L37,30.4l0.1-0.6L37,29.3l0.1-1.2l0-3L37,24.3l0.1-0.5v-0.8l0-0.6l0-0.5l0-1.9L37,19.4v-0.7l0-0.4l0-0.6l0-0.6l0.3-0.7l0.5-0.2
			h0.6l0.6-0.1l1.9,0l0.5-0.1h0.7l0.6,0.1l0.5-0.1l0.6,0.1l1.2-0.1l0.5,0l1.3,0l0.5,0.1l0.6,0.3l0.4,0.4v0.5L48,18l-0.6,0.2l-0.7,0
			h-0.5l-0.5,0.1l-0.5-0.1l-2.4,0.2l-1.2-0.2h-0.6l-0.5,0.1l-0.6,0.2l-0.4,0.6v0.7l0,0.6l0.1,1.2l-0.1,0.6l0.1,0.7l-0.1,0.7l0,1.8
			l0.3,0.5l0.9,0.3l2.3,0l1.7,0.3l0.5,0.1l0.5,0.3l0.5,0.2l0.4,0.4l0.4,0.3l0.5,0.5l0.7,0.9l0.7,1.6l0.1,0.6l0.3,1l0.1,0.6v1.7
			l-0.1,0.7l0,0.5l-0.3,1.2l-0.2,0.5l-0.2,0.5l-0.2,0.5l-0.3,0.4l-0.4,0.5l-0.4,0.5l-1.4,1.1l-0.5,0.2l-1.2,0.4h-0.5l-0.5,0.2h-0.9
			l-0.8-0.1l-0.7,0.1L40.3,41.6z M41,39.6h1.9l0.6-0.2l0.5,0l0.6-0.3l0.9-0.6l0.6-0.9l0.1-0.6l0.3-0.5l0.1-0.6v-0.7l0.1-0.6
			l-0.1-0.8l0-0.9l0-0.6l-0.2-0.6l-0.1-0.5l-0.2-0.5l-0.3-0.5l-0.3-0.4l-0.4-0.4l-0.4-0.4l-0.5-0.2l-0.4-0.3l-0.7-0.2h-0.8l-0.5-0.1
			L41.3,28l-1.1,0.1l-0.5,0.2l-0.3,0.8l0,0.5l0,0.9v1.5l0,0.6l0.1,0.8l-0.1,0.7l0.1,0.6l-0.1,0.5v0.5l-0.1,0.8l0.1,0.7l0,1.5
			l0.3,0.6l0.5,0.3L41,39.6z"/>
		<path class="st2" d="M57.5,41.6l-0.6-0.2l-0.3-0.5l-0.1-2.3l0.1-1.2l0-0.6l0.1-0.8l-0.1-0.8l0.1-1.8l-0.1-2.5l-0.4-1.4l-0.2-0.5
			l-0.3-0.5l-0.3-0.7l-0.4-1.4l-0.2-0.6l-0.5-1.1L54.1,24l-0.3-0.5l-0.3-1.2l-0.2-0.5l-0.2-0.5l-0.5-1L52,18.6l-0.5-1l-0.2-0.5
			l0.1-0.5l0.5-0.3l0.7,0.1l0.7,0.1l0.5,0.6l0.4,1.1l0.3,0.4l0.1,0.9l1.6,3.9l0.4,1.4l0.6,1.5l0.1,0.5l0.3,0.5l0.2,0.1l0.3-1.1
			l0.3-0.4l0.8-2.1l0.3-1.3l0.3-0.6l0.3-1.1l0.5-1.2l0.1-0.5l0.3-0.6l0.3-1.1l0.2-0.5l0.5-0.5l0.7-0.4h0.7l0.5,0.4L64,17L63,19.8
			l-0.3,0.5l-0.1,0.5l-0.9,2.1l-0.5,1.6L61,25.1l-0.2,0.6l-0.1,0.5l-0.4,1l-0.4,1.2l-0.2,0.4L59.3,30l-0.2,0.8L59,35.2l0.1,1l0,0.6
			v0.5l-0.1,1.2l0.1,0.6v0.5L59,40.3v0.5l-0.3,0.6l-0.6,0.3L57.5,41.6z"/>
		<path class="st2" d="M72.5,41.6l-0.7-0.1L71.5,41l-0.1-1l0-0.7l-0.1-0.5l0.1-1.2l0-1.5l0.1-2l-0.1-0.5l0.1-0.5l0-0.6l0-0.6v-0.5
			l0-0.7L71.3,30v-1l0.1-0.7v-0.5l-0.1-0.6v-8L71,18.5l-0.5-0.3l-1.2,0l-0.5-0.1l-0.7,0.1L67,18.1l-0.6-0.3l-0.3-0.7l0.3-0.5
			l0.6-0.4l0.8,0l0.8-0.1l0.6,0.1l1.3-0.1l0.5,0.1l0.5,0l0.6,0l0.6-0.1l0.6,0.1l0.6-0.1l0.5,0.1l1.2,0l1.2-0.1l1.1,0.2l0.6,0.2
			l0.2,0.8L78.7,18l-0.8,0.3l-1.5-0.1l-0.5,0l-0.5-0.1l-0.7,0.1l-0.5,0.3l-0.3,0.6l0,0.5l0.1,0.6l-0.1,0.7l0.1,1.2l-0.1,0.4l0,1.3
			l-0.1,0.5l0.1,1.1L73.7,26l0,0.6l0.1,0.6v0.7l0,0.6l0.1,0.7l-0.1,0.5l0,0.8v2l0.1,0.6l-0.1,0.6l0,0.5l0,1.1l0.1,0.9l0,0.8l0,0.7
			l0,0.5l0,0.5v0.5l-0.1,0.5l0.1,0.7l0,0.5l-0.2,0.5L73,41.7L72.5,41.6z"/>
		<path class="st2" d="M87.2,41.6l-0.7-0.1L86.2,41L86,40l0-0.7L86,38.8l0.1-1.2l0-1.5l0.1-2L86,33.6l0.1-0.5l0-0.6l0-0.6v-0.5
			l0-0.7L86,30v-1l0.1-0.7v-0.5L86,27.2v-8l-0.3-0.6l-0.5-0.3l-1.2,0l-0.5-0.1l-0.7,0.1l-1.1-0.1l-0.6-0.3l-0.3-0.7l0.3-0.5l0.6-0.4
			l0.8,0l0.8-0.1l0.6,0.1l1.3-0.1l0.5,0.1l0.5,0l0.6,0l0.6-0.1l0.6,0.1l0.6-0.1l0.5,0.1l1.2,0l1.2-0.1l1.1,0.2l0.6,0.2l0.2,0.8
			L93.4,18l-0.8,0.3L91,18.2l-0.5,0l-0.5-0.1l-0.7,0.1l-0.5,0.3l-0.3,0.6l0,0.5l0.1,0.6l-0.1,0.7l0.1,1.2l-0.1,0.4l0,1.3l-0.1,0.5
			l0.1,1.1L88.4,26l0,0.6l0.1,0.6v0.7l0,0.6l0.1,0.7l-0.1,0.5l0,0.8v2l0.1,0.6l-0.1,0.6l0,0.5l0,1.1l0.1,0.9l0,0.8l0,0.7l0,0.5
			l0,0.5v0.5l-0.1,0.5l0.1,0.7l0,0.5l-0.2,0.5l-0.6,0.3L87.2,41.6z"/>
		<path class="st2" d="M101.8,41.6l-0.6-0.2l-0.3-0.5l-0.1-2.3l0.1-1.2l0-0.6l0.1-0.8l-0.1-0.8l0.1-1.8l-0.1-2.5l-0.4-1.4l-0.2-0.5
			l-0.3-0.5l-0.3-0.7l-0.4-1.4l-0.2-0.6l-0.5-1.1L98.4,24l-0.3-0.5l-0.3-1.2l-0.2-0.5l-0.2-0.5l-0.5-1l-0.5-1.7l-0.5-1l-0.2-0.5
			l0.1-0.5l0.5-0.3l0.7,0.1l0.7,0.1l0.5,0.6l0.4,1.1l0.3,0.4l0.1,0.9l1.6,3.9l0.4,1.4l0.6,1.5l0.1,0.5l0.3,0.5l0.2,0.1l0.3-1.1
			l0.3-0.4l0.8-2.1l0.3-1.3l0.3-0.6l0.3-1.1l0.5-1.2l0.1-0.5l0.3-0.6l0.3-1.1l0.2-0.5l0.5-0.5l0.7-0.4h0.7l0.5,0.4l0.1,0.5l-0.9,2.8
			l-0.3,0.5l-0.1,0.5l-0.9,2.1l-0.5,1.6l-0.3,0.5l-0.2,0.6l-0.1,0.5l-0.4,1l-0.4,1.2l-0.2,0.4l-0.4,1.2l-0.2,0.8l-0.1,4.3l0.1,1
			l0,0.6v0.5l-0.1,1.2l0.1,0.6v0.5l-0.1,0.7v0.5l-0.3,0.6l-0.6,0.3L101.8,41.6z"/>
	</g>
</g>
</svg>
