<?xml version="1.0" encoding="utf-8"?>
<!-- Generator: Adobe Illustrator 21.0.0, SVG Export Plug-In . SVG Version: 6.00 Build 0)  -->
<svg version="1.1" id="Layer_1" xmlns="http://www.w3.org/2000/svg" xmlns:xlink="http://www.w3.org/1999/xlink" x="0px" y="0px"
	 viewBox="0 0 92.7 38.1" style="enable-background:new 0 0 92.7 38.1;" xml:space="preserve">
<style type="text/css">
	.st0{fill-rule:evenodd;clip-rule:evenodd;fill:#AA3939;}
	.st1{fill:#FFFFFF;}
</style>
<g>
	<path class="st0" d="M46.7,21.2h5v-0.9c0,0-3.3-0.2-3.5-3.6v-1.4c0-0.8,0.6-3,2.3-3.1c-1.4-0.3-2.4-1.7-2.3-3.1V7.5
		c0.1-3.9,4.5-3.9,4.7-3.9h0.1c3.8,0,4.2,3,4.2,3.2h0.8l-0.3-5.7L57.7,0l-0.6,0c0,0-0.3,1-2.5,1c-5.5,0-11,0-16.5,0
		c-2.2,0-2.5-1-2.5-1h-0.6l-0.1,1.2l-0.3,5.7h0.8c0-0.2,0.4-3.2,4.2-3.2h0.1c0.2,0,4.7,0,4.7,3.9c0,1.2,0,1.6,0,1.6
		c0,1.4-0.9,2.9-2.3,3.1c1.7,0.2,2.3,2.3,2.3,3.1l0,1.4c-0.2,3.4-3.5,3.6-3.5,3.6v0.9H46.7z"/>
	<path class="st0" d="M60.5,12.2c-0.4-0.7-2.1-0.9-2.6-0.9c0.4-0.6,0.5-1.7,0.2-2.4c-0.3-0.8-0.8-0.9-0.8-0.1
		c-0.1,1.6-1.5,2.5-3.2,2.3c-1.2-0.1-1.9-1-2.1-1.9c-0.2-0.9,0.1-1.8,1.1-2c0.8-0.2,1.4,0.3,1.4,0.8c0,0.9-0.7,0.6-0.8,1.1
		c-0.1,0.4,0.3,0.8,0.6,0.8c1.6,0.1,2-1.4,1.8-2.4c-0.2-1-1-2.2-2.8-2.3c-1.7,0-3.4,1.1-3.4,3.5c0,2.4,1.9,3.3,1.9,3.3
		s-1.9,1-1.9,3.3c0,2.4,1.7,3.5,3.4,3.5c1.7,0,2.5-1.2,2.8-2.3c0.2-1-0.2-2.5-1.8-2.4c-0.3,0-0.7,0.4-0.6,0.8
		c0.1,0.6,0.9,0.2,0.8,1.1c0,0.6-0.6,1-1.4,0.8c-1-0.2-1.2-1.1-1.1-2c0.2-0.9,0.8-1.8,2.1-1.9c1.7-0.2,3.1,0.8,3.2,2.3
		c0.1,0.8,0.6,0.7,0.8-0.1c0.2-0.7,0.2-1.8-0.2-2.4C58.4,13.1,60.1,12.9,60.5,12.2"/>
	<path class="st0" d="M32.2,12.2c0.4-0.7,2.1-0.9,2.6-0.9c-0.4-0.6-0.5-1.7-0.2-2.4c0.3-0.8,0.8-0.9,0.8-0.1
		c0.1,1.6,1.5,2.5,3.2,2.3c1.3-0.1,1.9-1,2.1-1.9c0.2-0.9-0.1-1.8-1.1-2c-0.8-0.2-1.4,0.3-1.4,0.8C38.3,9,39,8.7,39.1,9.2
		c0.1,0.4-0.3,0.8-0.6,0.8c-1.6,0.1-2-1.4-1.8-2.4c0.2-1,1-2.2,2.8-2.3c1.7,0,3.4,1.1,3.4,3.5c0,2.4-1.9,3.3-1.9,3.3s1.9,1,1.9,3.3
		c0,2.4-1.7,3.5-3.4,3.5c-1.7,0-2.5-1.2-2.8-2.3c-0.2-1,0.2-2.5,1.8-2.4c0.3,0,0.7,0.4,0.6,0.8c-0.1,0.6-0.9,0.2-0.8,1.1
		c0,0.6,0.6,1,1.4,0.8c1-0.2,1.2-1.1,1.1-2c-0.2-0.9-0.8-1.8-2.1-1.9C37,13,35.6,14,35.5,15.5c-0.1,0.8-0.6,0.7-0.8-0.1
		c-0.2-0.7-0.2-1.8,0.2-2.4C34.4,13.1,32.7,12.9,32.2,12.2"/>
	<g>
		<path class="st1" d="M8.2,24.8c1.3,0,2.9,0,3.5-0.1v3.2c-0.6,0-2.2-0.1-3.5-0.1H7.7c0,0.7,0,1.6,0,2.4v4.1c0,1.3,0,2.8,0.1,3.4h-4
			c0-0.6,0.1-2.1,0.1-3.4v-4.1c0-0.8,0-1.7-0.1-2.4H3.4c-1.3,0-2.9,0.1-3.4,0.1v-3.2c0.6,0,2.1,0.1,3.4,0.1H8.2z"/>
	</g>
	<path class="st1" d="M19.8,24.5c4.1,0,7.1,3,7.1,6.8c0,3.8-3,6.8-7.1,6.8c-4.1,0-7.1-3-7.1-6.8C12.7,27.6,15.7,24.5,19.8,24.5
		 M19.8,35c1.9,0,3.4-1.6,3.4-3.7c0-2-1.4-3.6-3.4-3.6s-3.4,1.6-3.4,3.6C16.4,33.3,17.9,35,19.8,35z"/>
	<g>
		<path class="st1" d="M36.7,31.6l-4.3,3.9c-0.7,0.6-1.8,1.8-2.7,2.6h-0.9c0.1-1.1,0.1-2.3,0.1-3.1v-6.8c0-1.1-0.1-2.6-0.1-3.4h3.9
			c-0.1,0.8-0.1,2.3-0.1,3.4v2.6l4.6-4.1c0.7-0.6,1.3-1.2,2.2-2.1h1c0,1-0.1,2.6-0.1,3.8v6.8c0,1,0,2.2,0.1,2.8h-3.9
			c0-0.5,0.1-1.8,0.1-2.7V31.6z M35.2,22.3c0.7,0,1.1-0.4,1.1-0.9h2.8c0,1.7-1.4,2.9-4,2.9c-2.5,0-3.9-1.2-3.9-2.9h2.8
			C34.1,21.9,34.5,22.3,35.2,22.3z"/>
	</g>
	<g>
		<path class="st1" d="M47.7,24.8c1.8,0,2.4,0,4.2-0.1v2.9c-1.6-0.1-2.4-0.1-4.3-0.1h-0.7v2.5H49c2.6,0,4.2,1.6,4.2,3.8
			c0,2.4-1.6,4.1-4.4,4.1h-5.7c0.1-0.6,0.1-2.1,0.1-3.4v-6.2c0-1.1,0-2.2-0.1-3.4H47.7z M46.9,35.2H48c1,0,1.4-0.7,1.4-1.3
			c0-0.6-0.4-1.3-1.4-1.3h-1.1V35.2z"/>
	</g>
	<path class="st1" d="M61.8,24.5c4.1,0,7.1,3,7.1,6.8c0,3.8-3,6.8-7.1,6.8c-4.1,0-7.1-3-7.1-6.8C54.7,27.6,57.7,24.5,61.8,24.5
		 M61.8,35c1.9,0,3.4-1.6,3.4-3.7c0-2-1.4-3.6-3.4-3.6s-3.4,1.6-3.4,3.6C58.5,33.3,59.9,35,61.8,35z"/>
	<path class="st1" d="M77.9,34.9c1.1,0,2.2-0.3,3-1.1l0,4c-1.1,0.1-1.6,0.3-3.3,0.3c-4.2,0-6.9-3-6.9-6.8c0-3.7,2.8-6.8,6.9-6.8
		c1.7,0,2.2,0.3,3.2,0.3v4.1c-0.7-0.8-1.8-1.2-2.9-1.2c-2,0-3.5,1.6-3.5,3.5C74.3,33.3,75.8,34.9,77.9,34.9"/>
	<path class="st1" d="M89.8,34.9c1.1,0,2.2-0.3,3-1.1v4c-1.1,0.1-1.6,0.3-3.3,0.3c-4.2,0-7-3-7-6.8c0-3.7,2.8-6.8,7-6.8
		c1.7,0,2.2,0.3,3.2,0.3v4.1c-0.7-0.8-1.8-1.2-2.9-1.2c-2,0-3.5,1.6-3.5,3.5C86.2,33.3,87.7,34.9,89.8,34.9"/>
</g>
</svg>
