<?xml version="1.0" encoding="utf-8"?>
<!-- Generator: Adobe Illustrator 21.0.0, SVG Export Plug-In . SVG Version: 6.00 Build 0)  -->
<svg version="1.1" id="Layer_1" xmlns="http://www.w3.org/2000/svg" xmlns:xlink="http://www.w3.org/1999/xlink" x="0px" y="0px"
	 viewBox="0 0 88.7 19.2" style="enable-background:new 0 0 88.7 19.2;" xml:space="preserve">
<style type="text/css">
	.st0{fill:#AA3939;}
	.st1{fill-rule:evenodd;clip-rule:evenodd;fill:#AA3939;}
</style>
<g>
	<path class="st0" d="M0,17.9l0.1-0.4l0-0.9L0,16.2v-0.3l0.1-0.5l-0.1-0.5v-0.4l0-0.4l0.1-0.5L0,13.2l0.1-0.6L0,11.1l0.1-0.3l0-0.5
		l0.1-0.5L0,9l0.1-0.5l0-0.4V7.3l0.1-0.4L0,6.1l0-0.5L0,4.3l0.1-0.5V2.6l0-0.5V0.9l0.2-0.4l0.4-0.2l0.6-0.1L2,0.3l0.9,0l0.5-0.1
		l0.4,0.1l0.4-0.1l2.6,0.1l0.4-0.1l0.5,0.1l0.4-0.1l0.4,0l0.4,0.2l0.2,0.5v0.9L8.9,2.3L8.5,2.6L7.6,2.5L7.2,2.6L6.8,2.5H5.8L5.4,2.6
		L5,2.5l-0.9,0L3.7,2.5l-0.4,0L2.8,2.8L2.6,3.2l0.1,3.2l0.2,0.4L3.2,7l0.4,0h1.2l0.4,0.1l1.2,0.2l1.2,0.6l0.7,0.5l0.3,0.2l0.5,0.7
		l0.4,0.8l0.1,0.4l0.1,0.4l0.2,1.3l-0.1,0.7v1.5l-0.1,0.4l-0.2,0.5l-0.1,0.4L9.3,16l-0.1,0.4l-0.3,0.4l-0.5,0.7l-0.3,0.3l-0.3,0.2
		l-0.4,0.3L7,18.3l-0.4,0.2l-1.3,0.3l-0.4,0l-0.7,0L3.7,19H3.3l-0.4-0.1l-0.5,0L1.1,19l-0.4-0.1l-0.4-0.2l-0.2-0.5L0,17.9z M4,16.7
		h0.7l0.5-0.2l0.7-0.2l0.3-0.2l0.3-0.3l0.2-0.3L7,15.2l0.1-0.4l0.1-0.8l0.1-0.4l-0.1-0.6l0-0.7L7,10.9l-0.5-0.7L6.3,9.9L6,9.7
		L5.6,9.4L3.5,9.2l-0.3,0L2.8,9.5L2.6,9.9l0,0.5l-0.1,0.8l0,0.5l0,0.5l0.1,0.3l-0.1,1.8l0.1,0.5l-0.1,0.4V16l0.3,0.4l0.5,0.2L4,16.7
		z"/>
	<path class="st0" d="M22.5,7.6l-0.2-1.7l0-0.4l-0.2-0.9l-0.3-0.8l-0.2-0.9l-0.5-0.7l-0.4-0.7l-0.3-0.3l-0.7-0.5L19,0.4l-0.4-0.2
		l-0.4,0L17.8,0l-1.3,0.1l-0.8,0.2h-0.4l-0.4,0.3l-0.4,0.1l-0.3,0.3l-0.9,0.9L13,2.1l-0.7,1.7l-0.1,0.5l-0.1,0.4l-0.1,0.4L12,5.6
		v0.3l-0.1,0.4l0,0.9l0,0.4l-0.1,0.9l0.1,0.4l-0.1,1.4l0.1,0.4l0,0.9l0.4,3.1l0.4,1.3l0.3,0.7l0.2,0.4l0.8,1l0.4,0.2l0.3,0.3
		l0.4,0.1l0.3,0.2l0.9,0.2l0.4,0.1l0.6-0.1l0.7,0.1h0.4l1.1-0.4l0.4-0.3l0.4-0.2l0.3-0.3l0.8-1l0.2-0.5l0.1-0.4l0.2-0.3l0.1-0.4
		L22,15l0-0.4l0.1-0.4l0-0.5l0.1-0.4l0-0.4l0.1-0.4l0-0.9l0-0.4l0-0.5L22.5,7.6z M14.4,7.1V6.6l0.1-0.4V5.7l0.3-1.3L14.9,4l0.2-0.4
		l0.4-0.6l0.3-0.2l0.3-0.2l1-0.3l0.6,0l0.4,0.2l0.3,0.3L18.8,3l0.3,0.4l0.1,0.5l0.2,0.3l0.1,0.9l0.1,0.4l0.1,1l0.1,0.4l0,0.4l0,0.5
		l0,0.4v0.3l-0.3,0l-0.4-0.1l-0.5,0l-0.5,0l-3.5,0l-0.3,0l0-0.4l0-0.5L14.4,7.1z M19.7,13.1l-0.3,1.8L19,16l-0.3,0.3l-0.3,0.4
		l-0.7,0.2l-0.6,0.1l-0.6,0l-0.4-0.1l-0.3-0.2l-0.3-0.3L15,15.5L14.9,15l-0.2-0.8l-0.1-0.4l0-0.5l-0.1-0.4l0-0.9l-0.1-0.4l0-0.4
		l0-0.2l0.2,0l0.5,0.1l0.3,0l4.6,0L19.7,13.1z"/>
	<path class="st0" d="M23.8,18.3L23.6,18l-0.2-0.4v-0.5l0.3-0.3l0.3-0.1l0.5-0.4l0.3-0.4l0.1-0.3l0.2-0.3l0.1-0.4l0.1-0.3l0.3-1.3
		l0-0.6l0.1-0.4l0-1l0.1-0.5L26,9.9l0-0.4l0.3-3.2l-0.1-0.4l0.1-1V4.6l0-0.4V3.4l0.1-0.7l0-0.4l0.1-0.5l0-0.4V1l0.2-0.5l0.5-0.3h0.5
		l0.4,0l0.5,0.1l1.3-0.1l0.4,0.1h0.5l0.5-0.1l0.4,0L32,0.3l0.4-0.1l0.4,0.1h1.4l0.4-0.1L35,0.5l0.2,0.4l0.1,2.6l-0.1,0.5l0,2.6
		l-0.1,0.8l0.1,0.5v2.1l-0.1,0.4l0.1,6.1l0,0.3L35.2,17l0,0.5l0,0.4v0.4L35,18.7L34.6,19l-0.4,0L33.8,19l-0.4,0l-0.5-0.3l-0.2-0.5
		v-0.5l0.1-0.3l-0.1-0.6l0-3.5l0-0.5l0-0.5l0.1-0.4l0-0.4l-0.1-0.3v-0.5l0-0.4l0-0.8l0-0.4l0-0.5l0.1-0.4l-0.1-0.4V7l0.1-0.4
		l-0.1-0.4l0-0.4l0-0.9l0.1-0.4L32.6,4l0.1-0.8l-0.2-0.5l-0.4-0.2l-1.6-0.1l-0.4,0h-0.5l-0.3,0.2L29,3.1v0.3l-0.1,0.5l0,1.2
		l-0.1,0.4v0.8l-0.2,2.9l-0.1,0.5l-0.1,0.8l0,0.4l-0.1,0.9l-0.2,0.9v0.4l-0.1,0.5V14L28,14.4l-0.2,0.9L27,17.3l-0.3,0.4l-0.9,0.8
		l-0.3,0.3l-0.7,0.3L24.3,19l-0.3-0.3L23.8,18.3z"/>
	<path class="st0" d="M46.6,0.3l0.5,0l0.4,0.2l0.1,0.4l-0.7,2l-0.1,0.3l-0.2,0.4l-0.3,0.9L46,4.9l-0.1,0.4l-0.2,0.3L45.6,6l-0.2,0.4
		l-0.2,0.3l-0.1,0.5L45,7.6l-0.5,1.2l-0.1,0.4l-0.3,0.7L43.6,12v0.8l0,0.5v0.6l-0.1,0.6v0.4l0.1,0.5l-0.1,0.5v0.8l0,0.3l0.1,0.9
		l0,0.5l-0.3,0.5L43,19l-0.5,0l-0.3,0L41.8,19l-0.5-0.2l-0.2-0.4l0-1.3l0.1-0.5L41,16.2l0.1-0.7L41,15v-0.5l0.1-0.4v-0.9L41,12.7
		l0.1-0.4l0-0.4L41,11.4l-0.1-0.7L40.5,10l-0.3-0.8L40,8.3l-0.4-0.7l-1-2.9l-0.2-0.3L38.3,4l-0.2-0.3l-0.2-0.7l-0.2-0.4l-0.5-1.7
		l0-0.4l0.3-0.1l1.4-0.1l0.5,0.2l0.3,0.3l0.4,0.9l0.1,0.4l0.5,1.3L41,4.2l0.2,0.3L41.3,5l0.1,0.4L41.7,6l0.5,2l0.2,0l0.1-0.5
		l0.2-0.4l0.1-0.4L43,6l0.3-0.6L43.4,5l0.2-0.4l0.3-0.9L44,3.4L44.1,3l0.2-0.4l0.1-0.5l0.1-0.4l0.2-0.4l0.1-0.5l0.3-0.4l0.5-0.1
		L46.6,0.3z"/>
	<path class="st0" d="M49.4,17.9l0-0.3v-2.2l0-0.3l0-0.5l0-1.7l-0.1-0.4l0.1-0.5l0-0.8v-0.4l-0.1-0.4l0.1-1.3l-0.1-0.8l0.1-0.6
		l-0.1-0.9l0.1-0.3l0-0.7l0-0.4l0-1.9l0-0.4V2.5l-0.1-0.3V1.4l-0.1-0.4l0.1-0.4l0.5-0.2l0.4-0.1h0.4l0.5,0.1l0.5,0.2l0.3,0.3L52,3.3
		l-0.1,0.4L52,5.6l0,0.6l-0.1,0.4l0,0.5l0,1.3L52,8.8l0,0.5v0.4l0.1,0.4l-0.1,1.3l0.1,0.4l0,1.3l0,0.4l-0.1,1l0,0.5l0,0.9l0.2,0.6
		l0.6,0.3l1.5,0l0.4-0.1l0.3,0h0.4l0.5-0.2l0.2-0.5v-0.4L56,14.4l0.1-0.8L56,13.1v-1.4l0.1-1l0-0.6L56,9.8L56,9.3l0-0.4l0-0.4V7.7
		l0-0.5l0-0.6L56,6l0-1.9L56,3.7L56,3L56,2.5l0-1.4l0.2-0.7l0.4-0.2l0.7,0.1l0.6-0.1l0.4,0.2l0.3,0.5l0,0.4l0,0.4v0.8l0.1,0.5l0,0.3
		l0,0.4l-0.1,0.5v2.1l0.1,0.4l0,0.5l0.1,0.3l-0.1,1.3l0.1,0.4v1.7l-0.1,0.3l0.1,0.9v0.4l-0.1,0.5l0.1,1.3l-0.1,0.8v0.4l0.1,0.4
		l0.2,0.4l0.3,0.2l0.8,0l0.4,0.1l0.4,0l1.3,0.1l0.4-0.2l0.2-0.4l0.1-0.5l-0.1-0.4l0-2.1l0.1-0.4L62.6,11l0.1-0.5l-0.1-0.3V9.8
		L62.7,9V5.5l-0.1-0.4l0-0.4l-0.1-0.9l0.1-0.4V0.9l0.2-0.4l0.4-0.1l0.5-0.1l0.8,0L65,0.5l0.2,0.3l0,0.5l0.1,0.5l0,0.4l-0.1,0.5
		l0.1,1.3l0,0.5l0,2.5l0.1,0.4l-0.1,0.5l0.1,2.1l-0.1,0.5l0.1,0.7l-0.1,1.4l0.1,1.1l0,0.6l0,0.9l-0.1,0.9l0.1,0.5l0,0.3l0.1,0.5
		l-0.1,0.4l0,0.9l-0.3,0.5L64.6,19L63.6,19L63.1,19l-1.3,0l-0.6-0.1L60.7,19h-1L59,19l-0.4,0h-1.1L57.1,19l-0.6-0.1L54.7,19
		l-0.4-0.1L53.4,19L53,19l-0.5-0.1h-1.3L50.9,19l-0.8-0.1l-0.5-0.2l-0.2-0.5V17.9z"/>
	<path class="st0" d="M76.5,0.3l0.5,0l0.4,0.2l0.1,0.4l-0.7,2l-0.1,0.3l-0.2,0.4l-0.3,0.9L76,4.9l-0.1,0.4l-0.2,0.3L75.6,6l-0.2,0.4
		l-0.2,0.3l-0.1,0.5L75,7.6l-0.5,1.2l-0.1,0.4l-0.3,0.7L73.6,12v0.8l0,0.5v0.6l-0.1,0.6v0.4l0.1,0.5l-0.1,0.5v0.8l0,0.3l0.1,0.9
		l0,0.5l-0.3,0.5L72.9,19l-0.5,0l-0.3,0L71.7,19l-0.5-0.2l-0.2-0.4l0-1.3l0.1-0.5L71,16.2l0.1-0.7L71,15v-0.5l0.1-0.4v-0.9L71,12.7
		l0.1-0.4l0-0.4l-0.2-0.6l-0.1-0.7L70.5,10l-0.3-0.8L70,8.3l-0.4-0.7l-1-2.9l-0.2-0.3L68.3,4l-0.2-0.3l-0.2-0.7l-0.2-0.4l-0.5-1.7
		l0-0.4l0.3-0.1l1.4-0.1l0.5,0.2l0.3,0.3l0.4,0.9l0.1,0.4l0.5,1.3L71,4.2l0.2,0.3L71.3,5l0.1,0.4L71.7,6l0.5,2l0.2,0l0.1-0.5
		l0.2-0.4l0.1-0.4L73,6l0.3-0.6L73.3,5l0.2-0.4l0.3-0.9l0.1-0.3L74.1,3l0.2-0.4l0.1-0.5l0.1-0.4l0.2-0.4l0.1-0.5l0.3-0.4l0.5-0.1
		L76.5,0.3z"/>
	<path class="st0" d="M87.9,0.3l0.5,0l0.4,0.2l0.1,0.4l-0.7,2l-0.1,0.3l-0.2,0.4l-0.3,0.9l-0.1,0.4l-0.1,0.4L87,5.6L86.9,6l-0.2,0.4
		l-0.2,0.3l-0.1,0.5l-0.1,0.4l-0.5,1.2l-0.1,0.4l-0.3,0.7L84.9,12v0.8l0,0.5v0.6l-0.1,0.6v0.4l0.1,0.5l-0.1,0.5v0.8l0,0.3l0.1,0.9
		l0,0.5l-0.3,0.5L84.3,19l-0.5,0l-0.3,0L83.1,19l-0.5-0.2l-0.2-0.4l0-1.3l0.1-0.5l-0.1-0.4l0.1-0.7L82.3,15v-0.5l0.1-0.4v-0.9
		l-0.1-0.5l0.1-0.4l0-0.4l-0.2-0.6l-0.1-0.7L81.8,10l-0.3-0.8l-0.2-0.8l-0.4-0.7l-1-2.9l-0.2-0.3L79.6,4l-0.2-0.3l-0.2-0.7L79,2.5
		l-0.5-1.7l0-0.4l0.3-0.1l1.4-0.1l0.5,0.2l0.3,0.3l0.4,0.9l0.1,0.4L82,3.4l0.3,0.9l0.2,0.3L82.6,5l0.1,0.4L83,6l0.5,2l0.2,0l0.1-0.5
		L84,7.1l0.1-0.4L84.3,6l0.3-0.6L84.7,5l0.2-0.4l0.3-0.9l0.1-0.3L85.4,3l0.2-0.4l0.1-0.5l0.1-0.4L86,1.3l0.1-0.5l0.3-0.4L87,0.3
		L87.9,0.3z"/>
</g>
</svg>
